{"count": 28687, "next": "https://api.acmi.net.au/creators/?page=908", "previous": "https://api.acmi.net.au/creators/?page=906", "results": [{"id": 76512, "name": "Jackie Burroughs", "roles_in_work": [{"id": 2077568, "title": "A Winter Tan", "work_id": 79671, "role": "co-director", "role_id": 959, "is_primary": true}], "also_known_as": "", "date_of_birth": "1939-02-02", "date_of_death": "2010-09-22", "genders": [{"id": 5, "name": "Female", "slug": "female"}], "languages": [{"id": 1, "name": "English", "slug": "english"}], "places_of_operation": [{"id": 36, "name": "Canada", "slug": "canada"}], "biography": "Jacqueline \"Jackie\" Burroughs (2 February 1939 – 22 September 2010) was a British-born Canadian actress.", "biography_author": "Wikidata", "date_of_biography": "2023-08-01T15:18:40.475158+10:00", "external_links": [{"id": 2286, "uri": "https://en.wikipedia.org/wiki/Jackie_Burroughs"}], "uuid": "2f954f5e-5988-4dde-9e44-3ab2be8600a7", "source": {"name": "Vernon", "slug": "vernon"}, "source_identifier": "21111", "external_references": [{"id": 9817, "source": {"name": "Wikidata", "slug": "wikidata"}, "source_identifier": "Q137634"}, {"id": 9818, "source": {"name": "VIAF", "slug": "viaf"}, "source_identifier": "69131622"}, {"id": 9819, "source": {"name": "LOC Auth", "slug": "loc-auth"}, "source_identifier": "n90714963"}, {"id": 9820, "source": {"name": "WorldCat", "slug": "worldcat"}, "source_identifier": "lccn-n90714963"}], "date_modified": "2023-09-05T20:57:30.885191+10:00"}, {"id": 76511, "name": "Monika Treut", "roles_in_work": [{"id": 2648642, "title": "Seduction: the cruel woman", "work_id": 79670, "role": "co-director", "role_id": 959, "is_primary": true}, {"id": 1997206, "title": "Gendernauts", "work_id": 93174, "role": "producer/director", "role_id": 31, "is_primary": true}, {"id": 2289295, "title": "Virgin machine = Die Jungfrauen Maschine", "work_id": 91960, "role": "producer/director", "role_id": 31, "is_primary": true}], "also_known_as": "", "date_of_birth": "06 APR 1954", "date_of_death": "", "genders": [{"id": 5, "name": "Female", "slug": "female"}], "languages": [{"id": 5, "name": "German", "slug": "german"}], "places_of_operation": [{"id": 18, "name": "Germany", "slug": "germany"}], "biography": "Monika Treut (born April 6, 1954, in Mönchengladbach, North Rhine-Westphalia, Germany) is a German filmmaker. She made her feature film debut with Seduction: The Cruel Woman (co-directed by Elfi Mikesch), a film that explores sadomasochistic sex practices. She has made over 20 films, including the short documentaries Annie and My Father is Coming. Treut’s involvement extends across writing, directing, editing and acting. Source: Wikidata; 01/08/2023", "biography_author": null, "date_of_biography": "2025-03-05T13:47:57.321930+11:00", "external_links": [{"id": 2756, "uri": "https://en.wikipedia.org/wiki/Monika_Treut"}], "uuid": "0f0204c6-6bf3-43d8-9e57-aa154c34a786", "source": {"name": "Vernon", "slug": "vernon"}, "source_identifier": "25503", "external_references": [{"id": 11746, "source": {"name": "Wikidata", "slug": "wikidata"}, "source_identifier": "Q69810"}, {"id": 11747, "source": {"name": "VIAF", "slug": "viaf"}, "source_identifier": "25194448"}, {"id": 11748, "source": {"name": "LOC Auth", "slug": "loc-auth"}, "source_identifier": "n84211478"}, {"id": 11749, "source": {"name": "WorldCat", "slug": "worldcat"}, "source_identifier": "lccn-n84211478"}], "date_modified": "2025-03-05T13:47:57.322239+11:00"}, {"id": 76510, "name": "Elfi Mikesch", "roles_in_work": [{"id": 2648641, "title": "Seduction: the cruel woman", "work_id": 79670, "role": "co-director", "role_id": 959, "is_primary": true}], "also_known_as": "", "date_of_birth": "1940-05-31", "date_of_death": "", "genders": [{"id": 5, "name": "Female", "slug": "female"}], "languages": [], "places_of_operation": [{"id": 39, "name": "Austria", "slug": "austria"}], "biography": "", "biography_author": null, "date_of_biography": "2023-05-09T17:37:30.167740+10:00", "external_links": [], "uuid": "52189b83-997e-487e-9d82-5ead3247262f", "source": {"name": "Vernon", "slug": "vernon"}, "source_identifier": "18674", "external_references": [{"id": 8603, "source": {"name": "Wikidata", "slug": "wikidata"}, "source_identifier": "Q1328532"}, {"id": 8604, "source": {"name": "VIAF", "slug": "viaf"}, "source_identifier": "35359460"}, {"id": 8605, "source": {"name": "LOC Auth", "slug": "loc-auth"}, "source_identifier": "no99050611"}, {"id": 8606, "source": {"name": "WorldCat", "slug": "worldcat"}, "source_identifier": "lccn-no99050611"}], "date_modified": "2025-03-05T13:47:56.722781+11:00"}, {"id": 76509, "name": "Peter Stone", "roles_in_work": [{"id": 2648639, "title": "Charade", "work_id": 79665, "role": "screenwriter", "role_id": 601, "is_primary": false}], "also_known_as": "", "date_of_birth": "1930-02-27", "date_of_death": "2003-04-26", "genders": [{"id": 9, "name": "Male", "slug": "male"}], "languages": [{"id": 1, "name": "English", "slug": "english"}], "places_of_operation": [{"id": 1, "name": "United States of America", "slug": "united-states-of-america"}], "biography": "Peter Hess Stone (February 27, 1930 – April 26, 2003) was an American screenwriter and playwright. Stone is perhaps best remembered by the general public for the screenplays he wrote or co-wrote in the mid-1960s, Charade (1963), Father Goose (1964), and Mirage (1965).", "biography_author": "Wikidata", "date_of_biography": "2023-09-06T00:01:20.439457+10:00", "external_links": [{"id": 6101, "uri": "https://en.wikipedia.org/wiki/Peter_Stone_(writer)"}], "uuid": "8b13e06c-0e44-416e-8cb9-ed142647979a", "source": {"name": "Vernon", "slug": "vernon"}, "source_identifier": "38290", "external_references": [{"id": 50885, "source": {"name": "Wikidata", "slug": "wikidata"}, "source_identifier": "Q1718449"}, {"id": 55501, "source": {"name": "VIAF", "slug": "viaf"}, "source_identifier": "107548052"}, {"id": 55502, "source": {"name": "LOC Auth", "slug": "loc-auth"}, "source_identifier": "n80067627"}, {"id": 55503, "source": {"name": "WorldCat", "slug": "worldcat"}, "source_identifier": "lccn-n80067627"}], "date_modified": "2025-03-05T13:47:55.069157+11:00"}, {"id": 76508, "name": "Charles Lang", "roles_in_work": [{"id": 2648638, "title": "Charade", "work_id": 79665, "role": "director of photography", "role_id": 925, "is_primary": false}], "also_known_as": "", "date_of_birth": "1902-03-27", "date_of_death": "1998-04-03", "genders": [{"id": 9, "name": "Male", "slug": "male"}], "languages": [{"id": 1, "name": "English", "slug": "english"}], "places_of_operation": [{"id": 1, "name": "United States of America", "slug": "united-states-of-america"}], "biography": "Charles Bryant Lang Jr., A.S.C. (March 27, 1902, Bluff, Utah – April 3, 1998, Santa Monica, California) was an American cinematographer.\n\n", "biography_author": "Wikidata", "date_of_biography": "2023-09-05T18:27:02.099287+10:00", "external_links": [{"id": 5738, "uri": "https://en.wikipedia.org/wiki/Charles_Lang"}], "uuid": "376a3715-b307-4d8f-9c74-1a6ae95787c1", "source": {"name": "Vernon", "slug": "vernon"}, "source_identifier": "38289", "external_references": [{"id": 51976, "source": {"name": "Wikidata", "slug": "wikidata"}, "source_identifier": "Q486883"}, {"id": 54180, "source": {"name": "VIAF", "slug": "viaf"}, "source_identifier": "12505473"}, {"id": 54181, "source": {"name": "LOC Auth", "slug": "loc-auth"}, "source_identifier": "n77005742"}, {"id": 54182, "source": {"name": "WorldCat", "slug": "worldcat"}, "source_identifier": "lccn-n77005742"}], "date_modified": "2025-03-05T13:47:54.459693+11:00"}, {"id": 76507, "name": "Henry Mancini", "roles_in_work": [{"id": 2648637, "title": "Charade", "work_id": 79665, "role": "music", "role_id": 949, "is_primary": false}], "also_known_as": "Enrico Nicola Mancini", "date_of_birth": "1924-04-16", "date_of_death": "1994-06-14", "genders": [{"id": 9, "name": "Male", "slug": "male"}], "languages": [{"id": 1, "name": "English", "slug": "english"}], "places_of_operation": [{"id": 1, "name": "United States of America", "slug": "united-states-of-america"}], "biography": "Henry Mancini ( man-SEE-nee; born Enrico Nicola Mancini, Italian: [enˈriːko niˈkɔːla manˈtʃiːni]; April 16, 1924 – June 14, 1994) was an American composer, conductor, arranger, pianist and flautist. Often cited as one of the greatest composers in the history of film, he won four Academy Awards, a Golden Globe, and twenty Grammy Awards, plus a posthumous Grammy Lifetime Achievement Award in 1995.\nHis works include the theme and soundtrack for the Peter Gunn television series as well as the music for The Pink Panther film series (\"The Pink Panther Theme\") and \"Moon River\" from Breakfast at Tiffany's. The Music from Peter Gunn won the inaugural Grammy Award for Album of the Year. Mancini enjoyed a long collaboration in composing film scores for the film director Blake Edwards.  Mancini also scored a No. 1 hit single during the rock era on the Hot 100:  his arrangement and recording of the \"Love Theme from Romeo and Juliet\" spent two weeks at the top, starting with the week ending June 28, 1969.\n\n", "biography_author": "Wikidata", "date_of_biography": "2023-09-05T20:37:29.106870+10:00", "external_links": [{"id": 5867, "uri": "https://en.wikipedia.org/wiki/Henry_Mancini"}], "uuid": "20e8261b-d464-4ed3-a252-be00a821e345", "source": {"name": "Vernon", "slug": "vernon"}, "source_identifier": "38288", "external_references": [{"id": 39100, "source": {"name": "Wikidata", "slug": "wikidata"}, "source_identifier": "Q185928"}, {"id": 54657, "source": {"name": "VIAF", "slug": "viaf"}, "source_identifier": "56796890"}, {"id": 54658, "source": {"name": "LOC Auth", "slug": "loc-auth"}, "source_identifier": "n81067977"}, {"id": 54659, "source": {"name": "WorldCat", "slug": "worldcat"}, "source_identifier": "lccn-n81067977"}], "date_modified": "2025-03-05T13:47:53.872441+11:00"}, {"id": 76506, "name": "Chester Erskine", "roles_in_work": [{"id": 2128896, "title": "Call it murder = Midnight", "work_id": 87980, "role": "producer/director", "role_id": 31, "is_primary": true}, {"id": 2128876, "title": "Call It Murder", "work_id": 79657, "role": "producer/director", "role_id": 31, "is_primary": true}], "also_known_as": "", "date_of_birth": "1905-11-29", "date_of_death": "1986-04-07", "genders": [{"id": 9, "name": "Male", "slug": "male"}], "languages": [{"id": 1, "name": "English", "slug": "english"}], "places_of_operation": [{"id": 1, "name": "United States of America", "slug": "united-states-of-america"}], "biography": "Chester Erskine (November 29, 1905 – April 7, 1986) was an American director, producer, and writer.\n\n", "biography_author": "Wikidata", "date_of_biography": "2023-08-01T14:24:32.690546+10:00", "external_links": [{"id": 3750, "uri": "https://en.wikipedia.org/wiki/Chester_Erskine"}], "uuid": "5e81b90b-6f4f-4136-876d-97e0fae1b0d8", "source": {"name": "Vernon", "slug": "vernon"}, "source_identifier": "16781", "external_references": [{"id": 25509, "source": {"name": "Wikidata", "slug": "wikidata"}, "source_identifier": "Q2962857"}, {"id": 27786, "source": {"name": "VIAF", "slug": "viaf"}, "source_identifier": "49429749"}, {"id": 27787, "source": {"name": "LOC Auth", "slug": "loc-auth"}, "source_identifier": "no97008574"}, {"id": 27788, "source": {"name": "WorldCat", "slug": "worldcat"}, "source_identifier": "lccn-no97008574"}], "date_modified": "2023-09-05T18:30:52.568787+10:00"}, {"id": 76505, "name": "Wayne Groom", "roles_in_work": [{"id": 2614412, "title": "The Dreaming", "work_id": 83641, "role": "co-producer", "role_id": 915, "is_primary": true}, {"id": 2210630, "title": "Point of departure", "work_id": 79643, "role": "co-producer", "role_id": 915, "is_primary": true}], "also_known_as": "", "date_of_birth": "", "date_of_death": "", "genders": [{"id": 9, "name": "Male", "slug": "male"}], "languages": [], "places_of_operation": [], "biography": "", "biography_author": null, "date_of_biography": "2023-05-09T19:45:19.905657+10:00", "external_links": [], "uuid": "071a4012-9a33-4d31-9859-5b8152b31a49", "source": {"name": "Vernon", "slug": "vernon"}, "source_identifier": "30303", "external_references": [{"id": 35377, "source": {"name": "Wikidata", "slug": "wikidata"}, "source_identifier": "Q27044516"}], "date_modified": "2025-02-26T20:10:29.609282+11:00"}, {"id": 76504, "name": "David Knaus", "roles_in_work": [{"id": 2144240, "title": "Contradictions", "work_id": 79632, "role": "director", "role_id": 938, "is_primary": true}], "also_known_as": "", "date_of_birth": "", "date_of_death": "", "genders": [], "languages": [], "places_of_operation": [], "biography": "", "biography_author": null, "date_of_biography": "2023-05-09T13:43:21.310299+10:00", "external_links": [], "uuid": "8696a2ae-e86c-4eac-9003-269475945037", "source": {"name": "Vernon", "slug": "vernon"}, "source_identifier": "17669", "external_references": [{"id": 36783, "source": {"name": "Wikidata", "slug": "wikidata"}, "source_identifier": "Q121337070"}], "date_modified": "2023-09-05T18:59:22.616199+10:00"}, {"id": 76503, "name": "Knaus Films", "roles_in_work": [{"id": 2144232, "title": "Contradictions", "work_id": 79632, "role": "production company", "role_id": 941, "is_primary": true}], "also_known_as": "", "date_of_birth": "", "date_of_death": "", "genders": [], "languages": [], "places_of_operation": [], "biography": "", "biography_author": null, "date_of_biography": "2023-05-09T13:43:20.608887+10:00", "external_links": [], "uuid": "dc991d3a-6a8c-470f-bab0-7c9cb7974cb9", "source": {"name": "Vernon", "slug": "vernon"}, "source_identifier": "9803", "external_references": [{"id": 33380, "source": {"name": "Wikidata", "slug": "wikidata"}, "source_identifier": "Q121035424"}], "date_modified": "2023-09-05T22:11:18.006207+10:00"}]}