{"count": 28687, "next": "https://api.acmi.net.au/creators/?page=1844", "previous": "https://api.acmi.net.au/creators/?page=1842", "results": [{"id": 25541, "name": "Paul Nichola", "roles_in_work": [{"id": 2614262, "title": "Lift-off at the Wackadoo Cafe", "work_id": 83403, "role": "director", "role_id": 938, "is_primary": true}], "also_known_as": "", "date_of_birth": "", "date_of_death": "", "genders": [], "languages": [], "places_of_operation": [], "biography": "", "biography_author": null, "date_of_biography": "2023-05-09T15:51:33.684177+10:00", "external_links": [], "uuid": "fa5fe532-57f4-4d8b-85ec-1b08315a30af", "source": {"name": "Vernon", "slug": "vernon"}, "source_identifier": "26303", "external_references": [{"id": 39114, "source": {"name": "Wikidata", "slug": "wikidata"}, "source_identifier": "Q121086153"}], "date_modified": "2025-02-26T20:08:36.631976+11:00"}, {"id": 25540, "name": "Bob Swaim", "roles_in_work": [{"id": 1987298, "title": "La Balance (S)", "work_id": 83401, "role": "director", "role_id": 938, "is_primary": true}], "also_known_as": "", "date_of_birth": "1943-11-02", "date_of_death": null, "genders": [{"id": 9, "name": "Male", "slug": "male"}], "languages": [{"id": 1, "name": "English", "slug": "english"}], "places_of_operation": [{"id": 1, "name": "United States of America", "slug": "united-states-of-america"}], "biography": "Robert Frank \"Bob\" Swaim, Jr. (born November 2, 1943) is an American film director.", "biography_author": "Wikidata", "date_of_biography": "2023-08-01T14:14:26.780375+10:00", "external_links": [{"id": 3662, "uri": "https://en.wikipedia.org/wiki/Bob_Swaim"}], "uuid": "59a0a26b-7bfb-4316-9a67-8685cc5d2b86", "source": {"name": "Vernon", "slug": "vernon"}, "source_identifier": "16110", "external_references": [{"id": 25843, "source": {"name": "Wikidata", "slug": "wikidata"}, "source_identifier": "Q2003193"}, {"id": 27550, "source": {"name": "VIAF", "slug": "viaf"}, "source_identifier": "44486547"}, {"id": 27551, "source": {"name": "LOC Auth", "slug": "loc-auth"}, "source_identifier": "no00021819"}, {"id": 27552, "source": {"name": "WorldCat", "slug": "worldcat"}, "source_identifier": "lccn-no00021819"}], "date_modified": "2023-09-13T12:28:31.400488+10:00"}, {"id": 25538, "name": "Helena Harris", "roles_in_work": [{"id": 924612, "title": "Hi 5: star dreaming", "work_id": 93935, "role": "co-producer", "role_id": 915, "is_primary": true}, {"id": 2476201, "title": "Hi 5 snow party", "work_id": 91157, "role": "co-producer", "role_id": 915, "is_primary": true}, {"id": 2107798, "title": "Bananas in pyjamas: monster bananas", "work_id": 85088, "role": "producer", "role_id": 1089, "is_primary": true}, {"id": 2107794, "title": "Bananas in pyjamas birthday special", "work_id": 83400, "role": "producer", "role_id": 1089, "is_primary": true}, {"id": 2107796, "title": "Bananas in pyjamas: it's music time!", "work_id": 85543, "role": "producer", "role_id": 1089, "is_primary": true}], "also_known_as": "", "date_of_birth": "", "date_of_death": "", "genders": [], "languages": [], "places_of_operation": [], "biography": "", "biography_author": null, "date_of_biography": "2023-08-17T15:33:34.963702+10:00", "external_links": [], "uuid": "b768af6f-6ec0-4ac7-9b9a-84e69a59185f", "source": {"name": "Vernon", "slug": "vernon"}, "source_identifier": "20445", "external_references": [{"id": 51128, "source": {"name": "Wikidata", "slug": "wikidata"}, "source_identifier": "Q121357561"}], "date_modified": "2023-09-05T20:34:44.759497+10:00"}, {"id": 25537, "name": "Martin Chilcott", "roles_in_work": [{"id": 2109596, "title": "Becoming a family", "work_id": 83399, "role": "director", "role_id": 938, "is_primary": true}], "also_known_as": "", "date_of_birth": "", "date_of_death": "", "genders": [], "languages": [], "places_of_operation": [], "biography": "", "biography_author": null, "date_of_biography": "2023-05-09T12:44:06.991217+10:00", "external_links": [], "uuid": "c38dca1b-9c1f-43c0-a07d-0fda26db9882", "source": {"name": "Vernon", "slug": "vernon"}, "source_identifier": "24620", "external_references": [{"id": 37615, "source": {"name": "Wikidata", "slug": "wikidata"}, "source_identifier": "Q121079280"}], "date_modified": "2023-09-05T22:49:02.470308+10:00"}, {"id": 25536, "name": "Lifetime", "roles_in_work": [{"id": 2196323, "title": "DIY: the top 50 jobs", "work_id": 83470, "role": "production company", "role_id": 941, "is_primary": true}, {"id": 2109591, "title": "Becoming a family", "work_id": 83399, "role": "production company", "role_id": 941, "is_primary": true}, {"id": 2187793, "title": "Desmond Morris' babywatching", "work_id": 85473, "role": "production company", "role_id": 941, "is_primary": true}, {"id": 2308954, "title": "Squash the Khan's way", "work_id": 84329, "role": "production company", "role_id": 941, "is_primary": true}], "also_known_as": "", "date_of_birth": "", "date_of_death": "", "genders": [], "languages": [], "places_of_operation": [], "biography": "", "biography_author": null, "date_of_biography": "2023-05-09T18:49:17.948256+10:00", "external_links": [], "uuid": "b4ae0b64-0ce8-4176-b937-1dd46a5df79e", "source": {"name": "Vernon", "slug": "vernon"}, "source_identifier": "10049", "external_references": [{"id": 32801, "source": {"name": "Wikidata", "slug": "wikidata"}, "source_identifier": "Q121036021"}], "date_modified": "2023-09-05T22:24:38.024212+10:00"}, {"id": 25534, "name": "Turner Entertainment", "roles_in_work": [{"id": 2614257, "title": "Camille", "work_id": 83395, "role": "production company", "role_id": 941, "is_primary": true}, {"id": 1993388, "title": "Last stand at Saber River", "work_id": 89076, "role": "production company", "role_id": 941, "is_primary": true}, {"id": 1991417, "title": "Wonderful world of the Brothers Grimm", "work_id": 87148, "role": "production company", "role_id": 941, "is_primary": true}, {"id": 2342099, "title": "The Dawn patrol", "work_id": 83502, "role": "production company", "role_id": 941, "is_primary": true}, {"id": 2754708, "title": "Making of a legend: Gone with the wind", "work_id": 99319, "role": "production company", "role_id": 941, "is_primary": true}, {"id": 2155209, "title": "It happened at the world's fair", "work_id": 88447, "role": "production company", "role_id": 941, "is_primary": true}], "also_known_as": "", "date_of_birth": "", "date_of_death": "", "genders": [], "languages": [], "places_of_operation": [], "biography": "Turner Entertainment Company is an American multimedia company founded by Ted Turner on August 2, 1986. Purchased by Time Warner on October 10, 1996 as part of its acquisition of Turner Broadcasting System (TBS), the company was largely responsible for overseeing the TBS library for worldwide distribution. In recent years, this role has largely been limited to being the copyright holder, as it has become an in-name-only subsidiary of Warner Bros., which currently administers their library. Source: Wikidata; 01/08/2023", "biography_author": null, "date_of_biography": "2025-03-13T01:50:09.257865+11:00", "external_links": [{"id": 5302, "uri": "https://en.wikipedia.org/wiki/Turner_Entertainment"}], "uuid": "c6046ac8-368c-4900-87c6-0036948ce075", "source": {"name": "Vernon", "slug": "vernon"}, "source_identifier": "13752", "external_references": [{"id": 25220, "source": {"name": "Wikidata", "slug": "wikidata"}, "source_identifier": "Q371400"}, {"id": 31877, "source": {"name": "VIAF", "slug": "viaf"}, "source_identifier": "144439568"}, {"id": 31878, "source": {"name": "LOC Auth", "slug": "loc-auth"}, "source_identifier": "n88034562"}, {"id": 31879, "source": {"name": "WorldCat", "slug": "worldcat"}, "source_identifier": "lccn-n88034562"}], "date_modified": "2025-03-13T01:50:09.258073+11:00"}, {"id": 25532, "name": "J T V Productions", "roles_in_work": [{"id": 2614253, "title": "Cardio funk aerobics at the Dome with Marcus Irwin", "work_id": 83394, "role": "production company", "role_id": 941, "is_primary": true}], "also_known_as": "", "date_of_birth": "", "date_of_death": "", "genders": [], "languages": [], "places_of_operation": [], "biography": "", "biography_author": null, "date_of_biography": "2023-05-09T13:18:22.984592+10:00", "external_links": [], "uuid": "e5fa1826-6c92-463b-9726-15d42ebe87b5", "source": {"name": "Vernon", "slug": "vernon"}, "source_identifier": "9519", "external_references": [{"id": 35440, "source": {"name": "Wikidata", "slug": "wikidata"}, "source_identifier": "Q121299147"}], "date_modified": "2025-02-26T20:08:29.139503+11:00"}, {"id": 25531, "name": "Brian Gardner", "roles_in_work": [{"id": 2148527, "title": "Creating an aquarium", "work_id": 83389, "role": "producer", "role_id": 1089, "is_primary": true}], "also_known_as": "", "date_of_birth": "", "date_of_death": "", "genders": [], "languages": [], "places_of_operation": [], "biography": "", "biography_author": null, "date_of_biography": "2023-05-09T13:49:09.860806+10:00", "external_links": [], "uuid": "03f37722-2740-48f6-b150-ee9fde174bcb", "source": {"name": "Vernon", "slug": "vernon"}, "source_identifier": "16216", "external_references": [], "date_modified": "2023-06-14T16:33:30.576250+10:00"}, {"id": 25530, "name": "Renaissance Vision", "roles_in_work": [{"id": 2148520, "title": "Creating an aquarium", "work_id": 83389, "role": "production company", "role_id": 941, "is_primary": true}], "also_known_as": "", "date_of_birth": "", "date_of_death": "", "genders": [], "languages": [], "places_of_operation": [], "biography": "", "biography_author": null, "date_of_biography": "2023-05-09T13:49:09.560652+10:00", "external_links": [], "uuid": "aa794bcd-ef01-43fa-bfb9-26b717a85047", "source": {"name": "Vernon", "slug": "vernon"}, "source_identifier": "11957", "external_references": [], "date_modified": "2023-06-14T16:33:30.576250+10:00"}, {"id": 25528, "name": "Christian de Chalonge", "roles_in_work": [{"id": 3105026, "title": "L'argent des Autres = Other People's Money", "work_id": 116208, "role": "director", "role_id": 938, "is_primary": true}, {"id": 2199762, "title": "Dr Petiot", "work_id": 83385, "role": "director", "role_id": 938, "is_primary": true}], "also_known_as": "", "date_of_birth": "21 JAN 1937", "date_of_death": "", "genders": [{"id": 9, "name": "Male", "slug": "male"}], "languages": [{"id": 4, "name": "French", "slug": "french"}], "places_of_operation": [{"id": 17, "name": "France", "slug": "france"}], "biography": "Christian de Chalonge (born 21 January 1937) is a French film director and screenwriter. He directed the 1971 film The Wedding Ring, which starred Anna Karina. Source: Wikidata; 01/08/2023", "biography_author": null, "date_of_biography": "2025-05-22T22:55:38.047974+10:00", "external_links": [{"id": 3762, "uri": "https://en.wikipedia.org/wiki/Christian_de_Chalonge"}], "uuid": "5ccde298-b3e0-4683-9ecd-f6dbe2fc97f4", "source": {"name": "Vernon", "slug": "vernon"}, "source_identifier": "16898", "external_references": [{"id": 25904, "source": {"name": "Wikidata", "slug": "wikidata"}, "source_identifier": "Q1053096"}, {"id": 27825, "source": {"name": "VIAF", "slug": "viaf"}, "source_identifier": "22326797"}, {"id": 27826, "source": {"name": "LOC Auth", "slug": "loc-auth"}, "source_identifier": "nr97036562"}, {"id": 27827, "source": {"name": "WorldCat", "slug": "worldcat"}, "source_identifier": "lccn-nr97036562"}], "date_modified": "2025-05-22T22:55:38.048210+10:00"}]}