{"count": 28687, "next": "https://api.acmi.net.au/creators/?page=1804", "previous": "https://api.acmi.net.au/creators/?page=1802", "results": [{"id": 26315, "name": "Newvision Films", "roles_in_work": [{"id": 1990941, "title": "Love and other catastrophes", "work_id": 86576, "role": "production company", "role_id": 941, "is_primary": true}, {"id": 2250373, "title": "Riff raff [DVD]", "work_id": 94889, "role": "production company", "role_id": 941, "is_primary": true}], "also_known_as": "", "date_of_birth": "", "date_of_death": "", "genders": [], "languages": [], "places_of_operation": [], "biography": "", "biography_author": null, "date_of_biography": "2023-05-09T17:10:02.171706+10:00", "external_links": [], "uuid": "bf5f1225-b931-45db-9f6d-ec59b2205f52", "source": {"name": "Vernon", "slug": "vernon"}, "source_identifier": "10948", "external_references": [{"id": 35906, "source": {"name": "Wikidata", "slug": "wikidata"}, "source_identifier": "Q121299294"}], "date_modified": "2023-09-05T23:28:46.614412+10:00"}, {"id": 26313, "name": "Jennie Lew-Tugend", "roles_in_work": [{"id": 1987916, "title": "Free Willy", "work_id": 84195, "role": "co-producer", "role_id": 915, "is_primary": true}, {"id": 1991074, "title": "Free Willy 3: the rescue", "work_id": 86791, "role": "producer", "role_id": 1089, "is_primary": true}, {"id": 2496437, "title": "Free Willy 2: the adventure home", "work_id": 85871, "role": "producer", "role_id": 1089, "is_primary": true}], "also_known_as": "", "date_of_birth": null, "date_of_death": null, "genders": [], "languages": [], "places_of_operation": [], "biography": "", "biography_author": null, "date_of_biography": null, "external_links": [], "uuid": "00adb542-cd06-48bd-9920-98ac20ec6f87", "source": {"name": "Vernon", "slug": "vernon"}, "source_identifier": "21696", "external_references": [], "date_modified": "2023-09-06T09:08:55.548038+10:00"}, {"id": 26312, "name": "Studio Canal+", "roles_in_work": [{"id": 2169084, "title": "Damage (E)", "work_id": 85407, "role": "production company", "role_id": 941, "is_primary": true}, {"id": 2344571, "title": "The Double life of Veronique = La Double vie de Veronique", "work_id": 85412, "role": "production company", "role_id": 941, "is_primary": true}, {"id": 1988495, "title": "The Power of one", "work_id": 84625, "role": "production company", "role_id": 941, "is_primary": true}, {"id": 2476380, "title": "Very Annie Mary", "work_id": 93319, "role": "production company", "role_id": 941, "is_primary": true}, {"id": 804412, "title": "The Stranger = Agantuk", "work_id": 90051, "role": "production company", "role_id": 941, "is_primary": true}, {"id": 2108419, "title": "Basic instinct (Captioned) (E)", "work_id": 84218, "role": "production company", "role_id": 941, "is_primary": true}, {"id": 1995265, "title": "The Straight story", "work_id": 91314, "role": "production company", "role_id": 941, "is_primary": true}, {"id": 1995622, "title": "Alice and Martin = Alice et Martin", "work_id": 91875, "role": "production company", "role_id": 941, "is_primary": true}, {"id": 2305356, "title": "Sommersby", "work_id": 84201, "role": "production company", "role_id": 941, "is_primary": true}, {"id": 2108454, "title": "Basic instinct (E)", "work_id": 84954, "role": "production company", "role_id": 941, "is_primary": true}, {"id": 1987913, "title": "Free Willy", "work_id": 84195, "role": "production company", "role_id": 941, "is_primary": true}, {"id": 911694, "title": "Los Amantes del Circulo Polar = Lovers of the arctic circle", "work_id": 92391, "role": "production company", "role_id": 941, "is_primary": true}, {"id": 912484, "title": "Highheels = High heels = Tacones lejanos", "work_id": 92779, "role": "production company", "role_id": 941, "is_primary": true}, {"id": 2102433, "title": "At the height of summer = Vertical ray of the sun = Mua he chieu thang dung", "work_id": 93060, "role": "production company", "role_id": 941, "is_primary": true}, {"id": 2123154, "title": "Boys on the side", "work_id": 85439, "role": "production company", "role_id": 941, "is_primary": true}, {"id": 1998095, "title": "Mulholland Drive", "work_id": 93609, "role": "production company", "role_id": 941, "is_primary": true}, {"id": 1997012, "title": "In praise of love = Eloge de l'amour", "work_id": 93070, "role": "production company", "role_id": 941, "is_primary": true}, {"id": 2476247, "title": "Ghost dog: way of the samurai [DVD]", "work_id": 92788, "role": "production company", "role_id": 941, "is_primary": true}, {"id": 2125936, "title": "Bruiser", "work_id": 94235, "role": "production company", "role_id": 941, "is_primary": true}, {"id": 816615, "title": "Where the heart is = In place of the heart = A La place du coeur", "work_id": 93687, "role": "production company", "role_id": 941, "is_primary": true}, {"id": 2337414, "title": "The City of lost children [DVD]", "work_id": 94894, "role": "production company", "role_id": 941, "is_primary": true}, {"id": 2476072, "title": "Lumiere and company", "work_id": 92216, "role": "production company", "role_id": 941, "is_primary": true}], "also_known_as": "", "date_of_birth": "", "date_of_death": "", "genders": [], "languages": [], "places_of_operation": [], "biography": "", "biography_author": null, "date_of_biography": "2023-08-17T15:35:57.236931+10:00", "external_links": [], "uuid": "e1cd5020-a783-484d-8103-7766d4c64d10", "source": {"name": "Vernon", "slug": "vernon"}, "source_identifier": "4625", "external_references": [], "date_modified": "2023-08-17T15:35:57.237218+10:00"}, {"id": 26311, "name": "Terence Davies", "roles_in_work": [{"id": 2615975, "title": "The Terence Davies trilogy: children: Madonna and child: death and transfiguration", "work_id": 86500, "role": "director", "role_id": 938, "is_primary": true}, {"id": 1997691, "title": "The House of mirth [DVD]", "work_id": 93432, "role": "director", "role_id": 938, "is_primary": true}, {"id": 2195191, "title": "Distant voices, still lives", "work_id": 84194, "role": "director", "role_id": 938, "is_primary": true}, {"id": 1997879, "title": "The Neon bible [Widescreen]", "work_id": 93517, "role": "director", "role_id": 938, "is_primary": true}], "also_known_as": "", "date_of_birth": "10 NOV 1945", "date_of_death": "", "genders": [{"id": 9, "name": "Male", "slug": "male"}], "languages": [{"id": 1, "name": "English", "slug": "english"}], "places_of_operation": [{"id": 10, "name": "United Kingdom", "slug": "united-kingdom"}], "biography": "Terence Davies (born 10 November 1945) is an English screenwriter, film director, and novelist. He is best known as the writer and director of autobiographical films, including Distant Voices, Still Lives (1988), The Long Day Closes (1992) and the collage film, Of Time and the City (2008), as well as literature adaptations, such as The House of Mirth (2000). Source: Wikidata; 01/08/2023", "biography_author": null, "date_of_biography": "2025-02-26T20:32:19.429021+11:00", "external_links": [{"id": 5247, "uri": "https://en.wikipedia.org/wiki/Terence_Davies"}], "uuid": "9bd60293-3ab8-4bd5-9403-390d871b1163", "source": {"name": "Vernon", "slug": "vernon"}, "source_identifier": "29554", "external_references": [{"id": 25789, "source": {"name": "Wikidata", "slug": "wikidata"}, "source_identifier": "Q773523"}, {"id": 31738, "source": {"name": "VIAF", "slug": "viaf"}, "source_identifier": "113244965"}, {"id": 31739, "source": {"name": "LOC Auth", "slug": "loc-auth"}, "source_identifier": "no93001876"}, {"id": 31740, "source": {"name": "WorldCat", "slug": "worldcat"}, "source_identifier": "lccn-no93001876"}], "date_modified": "2025-02-26T20:32:19.429263+11:00"}, {"id": 26310, "name": "Special Broadcasting Services", "roles_in_work": [{"id": 2121777, "title": "Bob and Bobek. - Volume 2.", "work_id": 84193, "role": "production company", "role_id": 941, "is_primary": true}, {"id": 2614753, "title": "Bob and Bobek. - Volume 1.", "work_id": 84192, "role": "production company", "role_id": 941, "is_primary": true}, {"id": 2615557, "title": "Prostate disease", "work_id": 85654, "role": "production company", "role_id": 941, "is_primary": true}], "also_known_as": "", "date_of_birth": "", "date_of_death": "", "genders": [], "languages": [], "places_of_operation": [], "biography": "", "biography_author": null, "date_of_biography": "2023-05-09T16:38:00.213935+10:00", "external_links": [], "uuid": "03f0055b-2419-406b-963f-64037b5d3dbd", "source": {"name": "Vernon", "slug": "vernon"}, "source_identifier": "12832", "external_references": [{"id": 42985, "source": {"name": "Wikidata", "slug": "wikidata"}, "source_identifier": "Q121271205"}], "date_modified": "2025-02-26T20:25:20.256768+11:00"}, {"id": 26309, "name": "Frank Arnold", "roles_in_work": [{"id": 2076575, "title": "A Waltz through the hills", "work_id": 84190, "role": "director", "role_id": 938, "is_primary": true}], "also_known_as": "", "date_of_birth": null, "date_of_death": "", "genders": [{"id": 9, "name": "Male", "slug": "male"}], "languages": [], "places_of_operation": [{"id": 3, "name": "Australia", "slug": "australia"}], "biography": "Frank Arnold (born 1938) is an Australian director of television series.", "biography_author": "Wikidata", "date_of_biography": "2023-08-01T14:51:08.088866+10:00", "external_links": [{"id": 3985, "uri": "https://en.wikipedia.org/wiki/Frank_Arnold_(director)"}], "uuid": "88d0f2fe-0fd8-45e3-ad9f-9c6e8e9c245a", "source": {"name": "Vernon", "slug": "vernon"}, "source_identifier": "19087", "external_references": [{"id": 26919, "source": {"name": "Wikidata", "slug": "wikidata"}, "source_identifier": "Q111926376"}], "date_modified": "2023-09-05T19:48:38.820160+10:00"}, {"id": 26305, "name": "Odyssey", "roles_in_work": [{"id": 2614922, "title": "Aunt Julia and the scriptwriter", "work_id": 84548, "role": "production company", "role_id": 941, "is_primary": true}, {"id": 2750857, "title": "Transportation: a basic need", "work_id": 97542, "role": "production company", "role_id": 941, "is_primary": true}, {"id": 2095615, "title": "And the band played on", "work_id": 85315, "role": "production company", "role_id": 941, "is_primary": true}, {"id": 1987904, "title": "This boy's life", "work_id": 84187, "role": "production company", "role_id": 941, "is_primary": true}], "also_known_as": "", "date_of_birth": "", "date_of_death": "", "genders": [], "languages": [], "places_of_operation": [], "biography": "", "biography_author": null, "date_of_biography": "2023-05-09T12:34:15.832549+10:00", "external_links": [], "uuid": "d1083afd-2a4e-457f-864e-f66cf5d26b7d", "source": {"name": "Vernon", "slug": "vernon"}, "source_identifier": "11081", "external_references": [{"id": 33307, "source": {"name": "Wikidata", "slug": "wikidata"}, "source_identifier": "Q121299217"}], "date_modified": "2025-03-13T00:31:35.124438+11:00"}, {"id": 26304, "name": "Marcus Cole", "roles_in_work": [{"id": 1987900, "title": "Tracks of glory", "work_id": 84186, "role": "director", "role_id": 938, "is_primary": true}, {"id": 2352003, "title": "The Great Bookie Robbery", "work_id": 95117, "role": "co-director", "role_id": 959, "is_primary": true}], "also_known_as": "", "date_of_birth": "", "date_of_death": "", "genders": [{"id": 9, "name": "Male", "slug": "male"}], "languages": [], "places_of_operation": [], "biography": "", "biography_author": null, "date_of_biography": "2023-05-09T19:57:47.337967+10:00", "external_links": [], "uuid": "4a634dd7-960b-483d-a399-8a24b9c627b5", "source": {"name": "Vernon", "slug": "vernon"}, "source_identifier": "24321", "external_references": [{"id": 40659, "source": {"name": "Wikidata", "slug": "wikidata"}, "source_identifier": "Q29565780"}], "date_modified": "2023-09-05T22:41:22.125464+10:00"}, {"id": 26301, "name": "Arnold Stiefel Co", "roles_in_work": [{"id": 2311209, "title": "Stop making sense", "work_id": 84182, "role": "production company", "role_id": 941, "is_primary": true}], "also_known_as": "", "date_of_birth": "", "date_of_death": "", "genders": [], "languages": [], "places_of_operation": [], "biography": "", "biography_author": null, "date_of_biography": "2023-05-09T18:57:10.996623+10:00", "external_links": [], "uuid": "a0cb6402-7ec3-4e69-b524-e85cb138578d", "source": {"name": "Vernon", "slug": "vernon"}, "source_identifier": "15487", "external_references": [], "date_modified": "2023-06-14T16:33:30.576250+10:00"}, {"id": 26300, "name": "Talking Heads Films", "roles_in_work": [{"id": 2311206, "title": "Stop making sense", "work_id": 84182, "role": "production company", "role_id": 941, "is_primary": true}], "also_known_as": "", "date_of_birth": "", "date_of_death": "", "genders": [], "languages": [], "places_of_operation": [], "biography": "", "biography_author": null, "date_of_biography": "2023-05-09T18:57:10.737407+10:00", "external_links": [], "uuid": "84c06822-c639-48a7-a7fa-8d66df561d4c", "source": {"name": "Vernon", "slug": "vernon"}, "source_identifier": "13148", "external_references": [], "date_modified": "2023-06-14T16:33:30.576250+10:00"}]}