{"count": 28682, "next": "https://api.acmi.net.au/creators/?page=162", "previous": "https://api.acmi.net.au/creators/?page=160", "results": [{"id": 83993, "name": "Shelley Matulick", "roles_in_work": [{"id": 2298853, "title": "Show Me the Magic: The Adventures of Don McAlpine [Q&A]", "work_id": 117445, "role": "co-producer", "role_id": 915, "is_primary": true}, {"id": 2307610, "title": "Spectacle Director Showcase: Oh Yeah Wow", "work_id": 117443, "role": "co-producer", "role_id": 915, "is_primary": true}, {"id": 2307535, "title": "Spectacle Director Showcase: Natasha Pincus", "work_id": 117444, "role": "co-producer", "role_id": 915, "is_primary": true}, {"id": 2307448, "title": "Spectacle Director Showcase: Leo Baker", "work_id": 117448, "role": "co-producer", "role_id": 915, "is_primary": true}, {"id": 2094159, "title": "An Interview with Peter Clemence", "work_id": 117687, "role": "editor", "role_id": 918, "is_primary": true}, {"id": 2307473, "title": "Spectacle Director Showcase: Leo Baker", "work_id": 117448, "role": "interviewer", "role_id": 457, "is_primary": false}, {"id": 2307536, "title": "Spectacle: Interview with Curators Jonathan Wells and Meg Grey Wells", "work_id": 117430, "role": "interviewer", "role_id": 457, "is_primary": false}, {"id": 2307713, "title": "Spectacle Director Showcase: Paul Goldman", "work_id": 117428, "role": "interviewer", "role_id": 457, "is_primary": false}, {"id": 2307634, "title": "Spectacle Director Showcase: Oh Yeah Wow", "work_id": 117443, "role": "interviewer", "role_id": 457, "is_primary": false}, {"id": 2307561, "title": "Spectacle Director Showcase: Natasha Pincus", "work_id": 117444, "role": "interviewer", "role_id": 457, "is_primary": false}, {"id": 2659712, "title": "Folk, Rhythm and Life", "work_id": 117328, "role": "producer", "role_id": 1089, "is_primary": true}, {"id": 2659699, "title": "The Eldorado Museum", "work_id": 117327, "role": "producer", "role_id": 1089, "is_primary": true}, {"id": 2659686, "title": "Artists of Eldorado", "work_id": 117325, "role": "producer", "role_id": 1089, "is_primary": true}, {"id": 2659673, "title": "The Greta Swamp", "work_id": 117331, "role": "producer", "role_id": 1089, "is_primary": true}, {"id": 2659661, "title": "Greta Craft Group", "work_id": 117330, "role": "producer", "role_id": 1089, "is_primary": true}, {"id": 2659649, "title": "The Greta Bunyip Newsletter", "work_id": 117329, "role": "producer", "role_id": 1089, "is_primary": true}, {"id": 2659637, "title": "Cook's Family Farm", "work_id": 117326, "role": "producer", "role_id": 1089, "is_primary": true}, {"id": 2659625, "title": "The Whitlands Plateau", "work_id": 117333, "role": "producer", "role_id": 1089, "is_primary": true}, {"id": 2364169, "title": "Spectacle Talks: Gotye and his Collaborators", "work_id": 117446, "role": "producer", "role_id": 1089, "is_primary": true}, {"id": 2178702, "title": "David Bowie is becoming a Medium", "work_id": 117651, "role": "producer", "role_id": 1089, "is_primary": true}, {"id": 2094147, "title": "An Interview with Peter Clemence", "work_id": 117687, "role": "producer", "role_id": 1089, "is_primary": true}, {"id": 2047560, "title": "Unpacking Filmscapes - The Coloured Sky: New Women II", "work_id": 117471, "role": "producer", "role_id": 1089, "is_primary": true}, {"id": 2047650, "title": "Time Again: narrative, history and identity in the work of David Bowie", "work_id": 117653, "role": "producer", "role_id": 1089, "is_primary": true}, {"id": 2047644, "title": "Haircuts and Music: Robert Forster in conversation with Michael Dwyer", "work_id": 117652, "role": "producer", "role_id": 1089, "is_primary": true}, {"id": 2353885, "title": "ACMI in the regions: Stories from Wangaratta", "work_id": 117324, "role": "producer", "role_id": 1089, "is_primary": true}, {"id": 2353832, "title": "The Pizzini Family", "work_id": 117332, "role": "producer", "role_id": 1089, "is_primary": true}, {"id": 2201540, "title": "DreamWorks Animation Masterclass: Jason Schleifer", "work_id": 117457, "role": "producer", "role_id": 1089, "is_primary": true}, {"id": 2201575, "title": "DreamWorks: in conversation with Bill Damaschke", "work_id": 117452, "role": "producer", "role_id": 1089, "is_primary": true}, {"id": 2201948, "title": "DreamWorks Animation Masterclass: Kendal Cronkhite", "work_id": 117458, "role": "producer", "role_id": 1089, "is_primary": true}, {"id": 2201584, "title": "DreamWorks: in conversation with Jeffrey Katzenberg", "work_id": 117453, "role": "producer", "role_id": 1089, "is_primary": true}, {"id": 2096226, "title": "Angelica Mesiti: The Calling interview", "work_id": 117451, "role": "producer", "role_id": 1089, "is_primary": true}, {"id": 2201997, "title": "DreamWorks: Inside the Studio", "work_id": 117454, "role": "producer", "role_id": 1089, "is_primary": true}, {"id": 2091678, "title": "An Interview with Gillian Armstrong", "work_id": 117688, "role": "producer", "role_id": 1089, "is_primary": true}, {"id": 2130169, "title": "Carlton New Wave: Question and Answer Session", "work_id": 117429, "role": "producer", "role_id": 1089, "is_primary": true}, {"id": 2201535, "title": "DreamWorks Animation Masterclass: Doug Cooper", "work_id": 117455, "role": "producer", "role_id": 1089, "is_primary": true}, {"id": 2201947, "title": "DreamWorks Animation Masterclass: Christophe Lautrette", "work_id": 117456, "role": "producer", "role_id": 1089, "is_primary": true}, {"id": 2307496, "title": "Spectacle Talks: Hello Flux Panel Discussion", "work_id": 117431, "role": "producer", "role_id": 1089, "is_primary": true}, {"id": 2307690, "title": "Spectacle Director Showcase: Paul Goldman", "work_id": 117428, "role": "producer", "role_id": 1089, "is_primary": true}, {"id": 2307510, "title": "Spectacle: Interview with Curators Jonathan Wells and Meg Grey Wells", "work_id": 117430, "role": "producer", "role_id": 1089, "is_primary": true}], "also_known_as": "", "date_of_birth": "", "date_of_death": "", "genders": [{"id": 5, "name": "Female", "slug": "female"}], "languages": [], "places_of_operation": [], "biography": "", "biography_author": null, "date_of_biography": "2023-06-21T03:35:13.815244+10:00", "external_links": [], "uuid": "0f21ef96-740d-40df-8600-e88ba051e8b5", "source": {"name": "Vernon", "slug": "vernon"}, "source_identifier": "36590", "external_references": [{"id": 36694, "source": {"name": "Wikidata", "slug": "wikidata"}, "source_identifier": "Q121337423"}], "date_modified": "2025-03-05T19:41:48.140503+11:00"}, {"id": 83992, "name": "Rural City of Wangaratta", "roles_in_work": [{"id": 2659645, "title": "The Greta Bunyip Newsletter", "work_id": 117329, "role": "partner", "role_id": 575, "is_primary": false}, {"id": 2659621, "title": "The Whitlands Plateau", "work_id": 117333, "role": "partner", "role_id": 575, "is_primary": false}, {"id": 2659633, "title": "Cook's Family Farm", "work_id": 117326, "role": "partner", "role_id": 575, "is_primary": false}, {"id": 2659657, "title": "Greta Craft Group", "work_id": 117330, "role": "partner", "role_id": 575, "is_primary": false}, {"id": 2659669, "title": "The Greta Swamp", "work_id": 117331, "role": "partner", "role_id": 575, "is_primary": false}, {"id": 2659681, "title": "Artists of Eldorado", "work_id": 117325, "role": "partner", "role_id": 575, "is_primary": false}, {"id": 2659694, "title": "The Eldorado Museum", "work_id": 117327, "role": "partner", "role_id": 575, "is_primary": false}, {"id": 2659707, "title": "Folk, Rhythm and Life", "work_id": 117328, "role": "partner", "role_id": 575, "is_primary": false}, {"id": 2353820, "title": "The Pizzini Family", "work_id": 117332, "role": "partner", "role_id": 575, "is_primary": false}], "also_known_as": "", "date_of_birth": "1994", "date_of_death": "", "genders": [], "languages": [], "places_of_operation": [], "biography": "", "biography_author": null, "date_of_biography": "2023-05-09T20:01:16.228433+10:00", "external_links": [], "uuid": "5dca9395-974a-41aa-9a28-c2c1f31159c9", "source": {"name": "Vernon", "slug": "vernon"}, "source_identifier": "36691", "external_references": [], "date_modified": "2025-03-05T19:41:45.052053+11:00"}, {"id": 83991, "name": "Laurence Gunther", "roles_in_work": [{"id": 2718425, "title": "The Game", "work_id": 117323, "role": "creator", "role_id": 968, "is_primary": true}], "also_known_as": "", "date_of_birth": "", "date_of_death": "", "genders": [{"id": 9, "name": "Male", "slug": "male"}], "languages": [], "places_of_operation": [], "biography": "", "biography_author": null, "date_of_biography": "2023-05-09T19:54:51.596414+10:00", "external_links": [], "uuid": "78aadedc-76cd-4e83-9b6d-632e95499763", "source": {"name": "Vernon", "slug": "vernon"}, "source_identifier": "36584", "external_references": [], "date_modified": "2025-03-12T06:32:26.743578+11:00"}, {"id": 83990, "name": "Aden Porter", "roles_in_work": [{"id": 2718421, "title": "The Game", "work_id": 117323, "role": "creator", "role_id": 968, "is_primary": true}], "also_known_as": "", "date_of_birth": "", "date_of_death": "", "genders": [{"id": 9, "name": "Male", "slug": "male"}], "languages": [], "places_of_operation": [], "biography": "", "biography_author": null, "date_of_biography": "2023-05-09T19:54:51.371696+10:00", "external_links": [], "uuid": "2d1be76a-84ff-472f-a9da-3f3fd2e8675f", "source": {"name": "Vernon", "slug": "vernon"}, "source_identifier": "36583", "external_references": [], "date_modified": "2025-03-12T06:32:26.147876+11:00"}, {"id": 83989, "name": "Joshua Ash-Miller", "roles_in_work": [{"id": 2718420, "title": "The Game", "work_id": 117323, "role": "creator", "role_id": 968, "is_primary": true}], "also_known_as": "", "date_of_birth": "", "date_of_death": "", "genders": [{"id": 9, "name": "Male", "slug": "male"}], "languages": [], "places_of_operation": [], "biography": "", "biography_author": null, "date_of_biography": "2023-05-09T19:54:51.145986+10:00", "external_links": [], "uuid": "fd2ed9d7-30bc-4cfc-9179-756d9885b6a0", "source": {"name": "Vernon", "slug": "vernon"}, "source_identifier": "36582", "external_references": [], "date_modified": "2025-03-12T06:32:24.284480+11:00"}, {"id": 83988, "name": "Schonn-Pierre Hirst", "roles_in_work": [{"id": 2718419, "title": "The Game", "work_id": 117323, "role": "creator", "role_id": 968, "is_primary": true}], "also_known_as": "", "date_of_birth": "", "date_of_death": "", "genders": [], "languages": [], "places_of_operation": [], "biography": "", "biography_author": null, "date_of_biography": "2023-05-09T19:54:50.883994+10:00", "external_links": [], "uuid": "c10050d9-e43d-4b51-b0c2-223165ba4e38", "source": {"name": "Vernon", "slug": "vernon"}, "source_identifier": "36581", "external_references": [], "date_modified": "2025-03-12T06:32:22.400177+11:00"}, {"id": 83987, "name": "St John's Grammar School", "roles_in_work": [{"id": 2718416, "title": "The Game", "work_id": 117323, "role": "school", "role_id": 619, "is_primary": false}], "also_known_as": "", "date_of_birth": "1958", "date_of_death": "", "genders": [], "languages": [], "places_of_operation": [], "biography": "", "biography_author": null, "date_of_biography": "2023-05-09T19:54:50.637648+10:00", "external_links": [], "uuid": "af572ff0-105e-4476-b716-454292d11ec3", "source": {"name": "Vernon", "slug": "vernon"}, "source_identifier": "36580", "external_references": [], "date_modified": "2025-03-12T06:32:21.811358+11:00"}, {"id": 83986, "name": "Araine Moir", "roles_in_work": [{"id": 2718470, "title": "Wish", "work_id": 117322, "role": "creator", "role_id": 968, "is_primary": true}], "also_known_as": "", "date_of_birth": "", "date_of_death": "", "genders": [{"id": 5, "name": "Female", "slug": "female"}], "languages": [], "places_of_operation": [], "biography": "", "biography_author": null, "date_of_biography": "2023-05-09T19:54:45.955331+10:00", "external_links": [], "uuid": "18f71de8-f07d-48b9-b51e-e352823838a9", "source": {"name": "Vernon", "slug": "vernon"}, "source_identifier": "36579", "external_references": [], "date_modified": "2025-03-12T06:33:12.087957+11:00"}, {"id": 83985, "name": "Emily Abernethy", "roles_in_work": [{"id": 2718468, "title": "Wish", "work_id": 117322, "role": "creator", "role_id": 968, "is_primary": true}], "also_known_as": "", "date_of_birth": "", "date_of_death": "", "genders": [{"id": 5, "name": "Female", "slug": "female"}], "languages": [], "places_of_operation": [], "biography": "", "biography_author": null, "date_of_biography": "2023-05-09T19:54:45.730805+10:00", "external_links": [], "uuid": "4041456c-a5ef-4cec-9559-742ea5aa8663", "source": {"name": "Vernon", "slug": "vernon"}, "source_identifier": "36578", "external_references": [], "date_modified": "2025-03-12T06:33:11.497144+11:00"}, {"id": 83984, "name": "Elizabeth Kuiper", "roles_in_work": [{"id": 2718465, "title": "Wish", "work_id": 117322, "role": "creator", "role_id": 968, "is_primary": true}], "also_known_as": "", "date_of_birth": "", "date_of_death": "", "genders": [{"id": 5, "name": "Female", "slug": "female"}], "languages": [], "places_of_operation": [], "biography": "", "biography_author": null, "date_of_biography": "2023-05-09T19:54:44.832763+10:00", "external_links": [], "uuid": "55ab8ff1-8ea8-440a-865b-620f63690ba3", "source": {"name": "Vernon", "slug": "vernon"}, "source_identifier": "36577", "external_references": [], "date_modified": "2025-03-12T06:33:09.668637+11:00"}]}