{"count": 28687, "next": "https://api.acmi.net.au/creators/?page=1855", "previous": "https://api.acmi.net.au/creators/?page=1853", "results": [{"id": 25352, "name": "Jumping Jack Animation", "roles_in_work": [{"id": 2282349, "title": "The Tale of the Flopsy bunnies and Mrs. Tittlemouse", "work_id": 85115, "role": "production company", "role_id": 941, "is_primary": true}, {"id": 2614158, "title": "The Tale of Tom Kitten and Jemima Puddle-duck", "work_id": 83194, "role": "production company", "role_id": 941, "is_primary": true}], "also_known_as": "", "date_of_birth": "", "date_of_death": "", "genders": [], "languages": [], "places_of_operation": [], "biography": "", "biography_author": null, "date_of_biography": "2023-05-09T18:02:32.949749+10:00", "external_links": [], "uuid": "d48b3a8a-00ff-4884-a000-fc444ea37aac", "source": {"name": "Vernon", "slug": "vernon"}, "source_identifier": "9665", "external_references": [], "date_modified": "2025-02-26T20:07:21.701474+11:00"}, {"id": 25351, "name": "Naked Lunch Productions", "roles_in_work": [{"id": 2614150, "title": "The Naked lunch", "work_id": 83192, "role": "production company", "role_id": 941, "is_primary": true}], "also_known_as": "", "date_of_birth": null, "date_of_death": null, "genders": [], "languages": [], "places_of_operation": [], "biography": "", "biography_author": null, "date_of_biography": null, "external_links": [], "uuid": "fc8f07c2-f86d-4591-a52e-3d93b1a04820", "source": {"name": "Vernon", "slug": "vernon"}, "source_identifier": "10754", "external_references": [], "date_modified": "2025-02-26T20:07:17.056672+11:00"}, {"id": 25347, "name": "Truck Branss", "roles_in_work": [{"id": 781585, "title": "Swan Lake", "work_id": 83189, "role": "director", "role_id": 938, "is_primary": true}], "also_known_as": "", "date_of_birth": "1926-01-21", "date_of_death": "2005-02-23", "genders": [{"id": 9, "name": "Male", "slug": "male"}], "languages": [{"id": 5, "name": "German", "slug": "german"}], "places_of_operation": [{"id": 18, "name": "Germany", "slug": "germany"}], "biography": "", "biography_author": null, "date_of_biography": null, "external_links": [], "uuid": "a53d310a-08ba-416b-b85f-b58787e65b8a", "source": {"name": "Vernon", "slug": "vernon"}, "source_identifier": "29994", "external_references": [{"id": 13690, "source": {"name": "Wikidata", "slug": "wikidata"}, "source_identifier": "Q1393264"}, {"id": 13691, "source": {"name": "VIAF", "slug": "viaf"}, "source_identifier": "54353091"}, {"id": 13692, "source": {"name": "LOC Auth", "slug": "loc-auth"}, "source_identifier": "no2005072166"}, {"id": 13693, "source": {"name": "WorldCat", "slug": "worldcat"}, "source_identifier": "lccn-no2005072166"}], "date_modified": "2023-09-13T12:33:06.427099+10:00"}, {"id": 25344, "name": "Prism Art and Design", "roles_in_work": [{"id": 2241192, "title": "Fireman Sam. Treasure hunt", "work_id": 83913, "role": "production company", "role_id": 941, "is_primary": true}, {"id": 2241127, "title": "Fireman Sam. Snow business", "work_id": 83185, "role": "production company", "role_id": 941, "is_primary": true}], "also_known_as": "", "date_of_birth": "", "date_of_death": "", "genders": [], "languages": [], "places_of_operation": [], "biography": "", "biography_author": null, "date_of_biography": "2023-05-09T16:53:59.406844+10:00", "external_links": [], "uuid": "55d97527-2fb4-4910-bd30-4a4ef9e3554d", "source": {"name": "Vernon", "slug": "vernon"}, "source_identifier": "11651", "external_references": [], "date_modified": "2023-06-14T16:33:30.576250+10:00"}, {"id": 25343, "name": "Sianel 4 Cymru (S4C) (Channel 4 Wales)", "roles_in_work": [{"id": 3082678, "title": "Legend and reality [Widescreen]", "work_id": 93033, "role": "production company", "role_id": 941, "is_primary": true}, {"id": 3082650, "title": "Sacred groves [Widescreen]", "work_id": 93031, "role": "production company", "role_id": 941, "is_primary": true}, {"id": 3082636, "title": "Heroes in defeat [Widescreen]", "work_id": 93030, "role": "production company", "role_id": 941, "is_primary": true}, {"id": 3082622, "title": "In the beginning [Widescreen]", "work_id": 92838, "role": "production company", "role_id": 941, "is_primary": true}, {"id": 1995562, "title": "Solomon and Gaenor", "work_id": 91779, "role": "production company", "role_id": 941, "is_primary": true}, {"id": 2241124, "title": "Fireman Sam. Snow business", "work_id": 83185, "role": "production company", "role_id": 941, "is_primary": true}, {"id": 2177343, "title": "Operavox", "work_id": 92403, "role": "production company", "role_id": 941, "is_primary": true}, {"id": 3082691, "title": "A Dead song? [Widescreen]", "work_id": 93034, "role": "production company", "role_id": 941, "is_primary": true}, {"id": 3082664, "title": "From Camelot to Christ [Widescreen]", "work_id": 93032, "role": "production company", "role_id": 941, "is_primary": true}], "also_known_as": "", "date_of_birth": "", "date_of_death": "", "genders": [], "languages": [], "places_of_operation": [], "biography": "", "biography_author": null, "date_of_biography": "2023-05-09T19:33:10.672583+10:00", "external_links": [], "uuid": "dcad1cd4-558e-4e85-9a4f-3671b6261429", "source": {"name": "Vernon", "slug": "vernon"}, "source_identifier": "12219", "external_references": [{"id": 38258, "source": {"name": "Wikidata", "slug": "wikidata"}, "source_identifier": "Q121143646"}], "date_modified": "2025-03-17T10:30:16.399684+11:00"}, {"id": 25342, "name": "Bumper Films", "roles_in_work": [{"id": 2241120, "title": "Fireman Sam. Snow business", "work_id": 83185, "role": "production company", "role_id": 941, "is_primary": true}], "also_known_as": "", "date_of_birth": "", "date_of_death": "", "genders": [], "languages": [], "places_of_operation": [], "biography": "", "biography_author": null, "date_of_biography": "2023-05-09T16:53:52.500516+10:00", "external_links": [], "uuid": "0b6ff517-df2a-46f0-85ac-9f8c15f96156", "source": {"name": "Vernon", "slug": "vernon"}, "source_identifier": "6112", "external_references": [], "date_modified": "2023-06-14T16:33:30.576250+10:00"}, {"id": 25341, "name": "Richard Rich", "roles_in_work": [{"id": 2337070, "title": "The Choice", "work_id": 98703, "role": "director", "role_id": 938, "is_primary": true}, {"id": 1848402, "title": "The Swan princess", "work_id": 93983, "role": "director", "role_id": 938, "is_primary": true}, {"id": 2349222, "title": "The Fox and the hound", "work_id": 91947, "role": "director", "role_id": 938, "is_primary": true}, {"id": 2291778, "title": "The Trumpet of the swan", "work_id": 92532, "role": "co-director", "role_id": 959, "is_primary": true}, {"id": 2337057, "title": "The Choice", "work_id": 98703, "role": "co-producer", "role_id": 915, "is_primary": true}, {"id": 1848400, "title": "The Swan princess", "work_id": 93983, "role": "co-producer", "role_id": 915, "is_primary": true}, {"id": 2615870, "title": "He is risen", "work_id": 86302, "role": "producer/director", "role_id": 31, "is_primary": true}, {"id": 2358163, "title": "Animated stories from the New Testament", "work_id": 115306, "role": "producer/director", "role_id": 31, "is_primary": true}, {"id": 2358182, "title": "The King is born", "work_id": 83184, "role": "producer/director", "role_id": 31, "is_primary": true}], "also_known_as": "", "date_of_birth": "21 JUL 1951", "date_of_death": "", "genders": [{"id": 9, "name": "Male", "slug": "male"}], "languages": [{"id": 1, "name": "English", "slug": "english"}], "places_of_operation": [{"id": 1, "name": "United States of America", "slug": "united-states-of-america"}], "biography": "Richard James Rich is an American director, producer, and screenwriter. Rich is founder and owner of Crest Animation Productions.\n\nRich started his career in the mailroom of the Walt Disney Studios in 1972 and would give piano lessons during lunch breaks. He was chosen by John Lounsbery to be an assistant director for Winnie the Pooh and Tigger Too based on his musical expertise. He made his directorial debut on The Fox and the Hound.\n\nAfter leaving Disney in 1986, Rich established Rich Animation Studios, later renamed RichCrest. He directed The Swan Princess in 1994 and its ten sequels.\n\nBesides feature films, Rich has produced direct-to-video series such as Animated Stories from the New Testament, Animated Stories from the Bible, Animated Stories from the Book of Mormon,  Animated Hero Classics, and K10C: Kids' Ten Commandments.\n\nHis more recent credits include acting as producer on the computer-animated comedy drama film Alpha and Omega and as the director/producer of its sequels. Source: Wikidata; 01/08/2023", "biography_author": null, "date_of_biography": "2025-02-26T20:30:58.163235+11:00", "external_links": [{"id": 4988, "uri": "https://en.wikipedia.org/wiki/Richard_Rich_(filmmaker)"}], "uuid": "5d84011d-a14b-4f79-9188-0ac25095ffff", "source": {"name": "Vernon", "slug": "vernon"}, "source_identifier": "27491", "external_references": [{"id": 26353, "source": {"name": "Wikidata", "slug": "wikidata"}, "source_identifier": "Q1153718"}, {"id": 31082, "source": {"name": "VIAF", "slug": "viaf"}, "source_identifier": "17430599"}, {"id": 31083, "source": {"name": "LOC Auth", "slug": "loc-auth"}, "source_identifier": "n81069610"}, {"id": 31084, "source": {"name": "WorldCat", "slug": "worldcat"}, "source_identifier": "lccn-n81069610"}], "date_modified": "2025-02-26T20:30:58.163494+11:00"}, {"id": 25340, "name": "Animated Bible Stories", "roles_in_work": [{"id": 2358159, "title": "Animated stories from the New Testament", "work_id": 115306, "role": "production company", "role_id": 941, "is_primary": true}, {"id": 2358178, "title": "The King is born", "work_id": 83184, "role": "production company", "role_id": 941, "is_primary": true}], "also_known_as": "", "date_of_birth": "", "date_of_death": "", "genders": [], "languages": [], "places_of_operation": [], "biography": "", "biography_author": null, "date_of_biography": "2023-05-09T20:07:14.089229+10:00", "external_links": [], "uuid": "7501e96f-9a83-4cd2-b179-278a5c2d0642", "source": {"name": "Vernon", "slug": "vernon"}, "source_identifier": "5262", "external_references": [{"id": 42089, "source": {"name": "Wikidata", "slug": "wikidata"}, "source_identifier": "Q121078916"}], "date_modified": "2023-09-05T17:38:39.227689+10:00"}, {"id": 25339, "name": "Ray Cioni", "roles_in_work": [{"id": 2332212, "title": "Our dwelling place", "work_id": 115307, "role": "director", "role_id": 938, "is_primary": true}, {"id": 2614144, "title": "The Birth of Jesus", "work_id": 83183, "role": "director", "role_id": 938, "is_primary": true}], "also_known_as": "", "date_of_birth": "", "date_of_death": "", "genders": [], "languages": [], "places_of_operation": [], "biography": "", "biography_author": null, "date_of_biography": "2023-05-09T19:27:21.363250+10:00", "external_links": [], "uuid": "b00126d4-858a-4651-960c-67fcf6f5ee1c", "source": {"name": "Vernon", "slug": "vernon"}, "source_identifier": "27144", "external_references": [{"id": 40036, "source": {"name": "Wikidata", "slug": "wikidata"}, "source_identifier": "Q121270887"}], "date_modified": "2025-02-26T20:07:13.421842+11:00"}, {"id": 25337, "name": "Cioni Artworks", "roles_in_work": [{"id": 2614141, "title": "The Birth of Jesus", "work_id": 83183, "role": "production company", "role_id": 941, "is_primary": true}, {"id": 2332205, "title": "Our dwelling place", "work_id": 115307, "role": "production company", "role_id": 941, "is_primary": true}], "also_known_as": "", "date_of_birth": "", "date_of_death": "", "genders": [], "languages": [], "places_of_operation": [], "biography": "", "biography_author": null, "date_of_biography": "2023-05-09T19:27:19.413750+10:00", "external_links": [], "uuid": "94f6e735-c9aa-4ffb-ab35-e74ce00df68f", "source": {"name": "Vernon", "slug": "vernon"}, "source_identifier": "6781", "external_references": [{"id": 39317, "source": {"name": "Wikidata", "slug": "wikidata"}, "source_identifier": "Q121298738"}], "date_modified": "2025-02-26T20:07:11.633166+11:00"}]}