{"count": 28687, "next": "https://api.acmi.net.au/creators/?page=1814", "previous": "https://api.acmi.net.au/creators/?page=1812", "results": [{"id": 26089, "name": "Koreyoshi Kurahara", "roles_in_work": [{"id": 2097816, "title": "Antarctica", "work_id": 83968, "role": "director", "role_id": 938, "is_primary": true}], "also_known_as": "", "date_of_birth": "1927-05-31", "date_of_death": "2002-12-28", "genders": [{"id": 9, "name": "Male", "slug": "male"}], "languages": [{"id": 2, "name": "Japanese", "slug": "japanese"}], "places_of_operation": [{"id": 8, "name": "Japan", "slug": "japan"}], "biography": "Koreyoshi Kurahara (蔵原惟繕, Kurahara Koreyoshi) (31 May 1927 – 28 December 2002) was a Japanese screenwriter and director. He is perhaps best known for directing Antarctica (1983), which won several awards and was entered into the 34th Berlin International Film Festival. He also co-directed Hiroshima (1995) with Roger Spottiswoode, which was nominated for the Primetime Emmy Award for Outstanding Miniseries.", "biography_author": "Wikidata", "date_of_biography": "2022-05-19T12:12:15.017916+10:00", "external_links": [{"id": 2537, "uri": "https://en.wikipedia.org/wiki/Koreyoshi_Kurahara"}], "uuid": "7720d8ca-e3e1-4a3a-b8ba-bb70486af923", "source": {"name": "Vernon", "slug": "vernon"}, "source_identifier": "23396", "external_references": [{"id": 10844, "source": {"name": "Wikidata", "slug": "wikidata"}, "source_identifier": "Q1469991"}, {"id": 10845, "source": {"name": "VIAF", "slug": "viaf"}, "source_identifier": "48962385"}, {"id": 10846, "source": {"name": "LOC Auth", "slug": "loc-auth"}, "source_identifier": "no2005059399"}, {"id": 10847, "source": {"name": "WorldCat", "slug": "worldcat"}, "source_identifier": "lccn-no2005059399"}], "date_modified": "2023-09-13T12:30:52.836083+10:00"}, {"id": 26087, "name": "Kurahoa Productions", "roles_in_work": [{"id": 2097809, "title": "Antarctica", "work_id": 83968, "role": "production company", "role_id": 941, "is_primary": true}], "also_known_as": "", "date_of_birth": "", "date_of_death": "", "genders": [], "languages": [], "places_of_operation": [], "biography": "", "biography_author": null, "date_of_biography": "2023-05-09T12:26:26.368769+10:00", "external_links": [], "uuid": "97592cee-40dd-4eb6-aa80-de22a4d2cd50", "source": {"name": "Vernon", "slug": "vernon"}, "source_identifier": "9854", "external_references": [], "date_modified": "2023-06-14T16:33:30.576250+10:00"}, {"id": 26086, "name": "Fuji Telecasting", "roles_in_work": [{"id": 2097800, "title": "Antarctica", "work_id": 83968, "role": "production company", "role_id": 941, "is_primary": true}], "also_known_as": "", "date_of_birth": "", "date_of_death": "", "genders": [], "languages": [], "places_of_operation": [], "biography": "", "biography_author": null, "date_of_biography": "2023-05-09T12:26:25.902036+10:00", "external_links": [], "uuid": "72116601-6538-49ab-bf55-a57e3823eb6f", "source": {"name": "Vernon", "slug": "vernon"}, "source_identifier": "8594", "external_references": [{"id": 37190, "source": {"name": "Wikidata", "slug": "wikidata"}, "source_identifier": "Q121091153"}], "date_modified": "2023-09-05T19:54:38.954437+10:00"}, {"id": 26085, "name": "Terence Young", "roles_in_work": [{"id": 3105800, "title": "From Russia with love", "work_id": 88114, "role": "director", "role_id": 938, "is_primary": true}, {"id": 817402, "title": "Thunderball (Special edition)", "work_id": 93882, "role": "director", "role_id": 938, "is_primary": true}, {"id": 2795024, "title": "Dr. No (Captioned)", "work_id": 83966, "role": "director", "role_id": 938, "is_primary": true}, {"id": 2795030, "title": "Dr. No", "work_id": 113521, "role": "director", "role_id": 938, "is_primary": true}], "also_known_as": "Stewart Terence Herbert Young", "date_of_birth": "1915-06-20", "date_of_death": "1994-09-07", "genders": [{"id": 9, "name": "Male", "slug": "male"}], "languages": [{"id": 1, "name": "English", "slug": "english"}], "places_of_operation": [{"id": 10, "name": "United Kingdom", "slug": "united-kingdom"}], "biography": "Stewart Terence Herbert Young (20 June 1915 – 7 September 1994) was an Irish film director and screenwriter who worked in the United Kingdom, Europe, and Hollywood. He is best known for directing three James Bond films, including the first two films in the series, Dr. No (1962) and From Russia with Love (1963), as well as Thunderball (1965). His other films include the Audrey Hepburn thrillers Wait Until Dark (1967) and Bloodline (1979), the historical drama Mayerling (1968), the infamous Korean War epic Inchon (1981), and the Charles Bronson films Cold Sweat (1970), Red Sun (1971), and The Valachi Papers (1972).\n\n", "biography_author": "Wikidata", "date_of_biography": "2022-05-19T13:13:01.613955+10:00", "external_links": [{"id": 3186, "uri": "https://en.wikipedia.org/wiki/Terence_Young_(director)"}], "uuid": "66d6998a-76dc-4d84-b008-9e6b5f075ec5", "source": {"name": "Vernon", "slug": "vernon"}, "source_identifier": "29568", "external_references": [{"id": 13502, "source": {"name": "Wikidata", "slug": "wikidata"}, "source_identifier": "Q314882"}, {"id": 13503, "source": {"name": "VIAF", "slug": "viaf"}, "source_identifier": "116671298"}, {"id": 13504, "source": {"name": "LOC Auth", "slug": "loc-auth"}, "source_identifier": "n86041314"}, {"id": 13505, "source": {"name": "WorldCat", "slug": "worldcat"}, "source_identifier": "lccn-n86041314"}], "date_modified": "2025-05-29T22:35:20.714746+10:00"}, {"id": 26078, "name": "Christopher Tuckfield", "roles_in_work": [{"id": 2248510, "title": "Renzo piano: piece by piece", "work_id": 88270, "role": "director", "role_id": 938, "is_primary": true}, {"id": 2357349, "title": "The Journey", "work_id": 83950, "role": "director", "role_id": 938, "is_primary": true}, {"id": 2357345, "title": "The Journey", "work_id": 83950, "role": "co-producer", "role_id": 915, "is_primary": true}], "also_known_as": "", "date_of_birth": "", "date_of_death": "", "genders": [], "languages": [], "places_of_operation": [], "biography": "", "biography_author": null, "date_of_biography": "2023-05-09T20:05:57.590915+10:00", "external_links": [], "uuid": "25c48e23-35f2-42d7-a58c-e51100cc05a8", "source": {"name": "Vernon", "slug": "vernon"}, "source_identifier": "17009", "external_references": [{"id": 38575, "source": {"name": "Wikidata", "slug": "wikidata"}, "source_identifier": "Q121035571"}], "date_modified": "2023-09-05T18:36:49.476465+10:00"}, {"id": 26068, "name": "SEDIF", "roles_in_work": [{"id": 1989328, "title": "Too beautiful for you = Trop belle pour toi", "work_id": 85142, "role": "production company", "role_id": 941, "is_primary": true}, {"id": 2086073, "title": "All the mornings of the world = Tous les matins du monde", "work_id": 85008, "role": "production company", "role_id": 941, "is_primary": true}, {"id": 1987767, "title": "The Last Metro = Le Derniere Metro", "work_id": 83944, "role": "production company", "role_id": 941, "is_primary": true}, {"id": 1995745, "title": "Jules and Jim = Jules et Jim [DVD]", "work_id": 92265, "role": "production company", "role_id": 941, "is_primary": true}, {"id": 3104660, "title": "Jules et Jim = Jules and Jim (Cinemascope Print)", "work_id": 116021, "role": "production company", "role_id": 941, "is_primary": true}, {"id": 2068603, "title": "A Heart in winter = Un Coeur en hiver", "work_id": 85324, "role": "production company", "role_id": 941, "is_primary": true}], "also_known_as": "", "date_of_birth": "", "date_of_death": "", "genders": [], "languages": [], "places_of_operation": [], "biography": "", "biography_author": null, "date_of_biography": "2023-05-09T11:56:59.174425+10:00", "external_links": [], "uuid": "67e7181a-f191-4a74-b207-765db10b7292", "source": {"name": "Vernon", "slug": "vernon"}, "source_identifier": "4617", "external_references": [{"id": 40133, "source": {"name": "Wikidata", "slug": "wikidata"}, "source_identifier": "Q121035724"}], "date_modified": "2025-05-22T22:45:56.351338+10:00"}, {"id": 26066, "name": "Coppola Company", "roles_in_work": [{"id": 2351346, "title": "The Godfather. Part II (Special edition)", "work_id": 94090, "role": "production company", "role_id": 941, "is_primary": true}, {"id": 2351380, "title": "The Godfather. Part II [DVD]", "work_id": 93045, "role": "production company", "role_id": 941, "is_primary": true}, {"id": 71642, "title": "The Godfather: Part II", "work_id": 24659, "role": "production company", "role_id": 941, "is_primary": false}], "also_known_as": "", "date_of_birth": "", "date_of_death": "", "genders": [], "languages": [], "places_of_operation": [], "biography": "", "biography_author": null, "date_of_biography": "2023-05-09T19:56:39.171126+10:00", "external_links": [], "uuid": "2865c240-bf06-4ecb-bd44-682be9653bf7", "source": {"name": "Vernon", "slug": "vernon"}, "source_identifier": "7050", "external_references": [{"id": 33591, "source": {"name": "Wikidata", "slug": "wikidata"}, "source_identifier": "Q121126436"}], "date_modified": "2023-09-05T18:45:20.687063+10:00"}, {"id": 26065, "name": "Albert Ruddy", "roles_in_work": [{"id": 2351274, "title": "The Godfather", "work_id": 83938, "role": "producer", "role_id": 1089, "is_primary": true}, {"id": 1815560, "title": "Mean machine = The Longest yard", "work_id": 93269, "role": "producer", "role_id": 1089, "is_primary": true}, {"id": 2351312, "title": "The Godfather [DVD]", "work_id": 93044, "role": "producer", "role_id": 1089, "is_primary": true}], "also_known_as": "", "date_of_birth": "", "date_of_death": "", "genders": [], "languages": [], "places_of_operation": [], "biography": "", "biography_author": null, "date_of_biography": "2023-05-09T19:56:33.332837+10:00", "external_links": [], "uuid": "6d8b97bf-ec5f-4b5e-abf8-8208d49d2ad3", "source": {"name": "Vernon", "slug": "vernon"}, "source_identifier": "14845", "external_references": [], "date_modified": "2023-06-14T16:33:30.576250+10:00"}, {"id": 26064, "name": "Michael Propper", "roles_in_work": [{"id": 1811837, "title": "The Mahabharata; Episode 2: Exile in the forest.", "work_id": 83936, "role": "producer", "role_id": 1089, "is_primary": true}, {"id": 2614585, "title": "The Mahabharata; Episode 3: The War.", "work_id": 83937, "role": "producer", "role_id": 1089, "is_primary": true}, {"id": 1811836, "title": "The Mahabharata. Episode 1: A Game of dice", "work_id": 83935, "role": "producer", "role_id": 1089, "is_primary": true}], "also_known_as": "", "date_of_birth": null, "date_of_death": null, "genders": [], "languages": [], "places_of_operation": [], "biography": "", "biography_author": null, "date_of_biography": null, "external_links": [], "uuid": "cbaea712-01e3-45e9-87e4-85d9e9086e4f", "source": {"name": "Vernon", "slug": "vernon"}, "source_identifier": "25196", "external_references": [], "date_modified": "2025-02-26T20:12:42.117636+11:00"}, {"id": 26063, "name": "RM Associates", "roles_in_work": [{"id": 783898, "title": "The Mahabharata; Episode 2: Exile in the forest.", "work_id": 83936, "role": "production company", "role_id": 941, "is_primary": true}, {"id": 3083972, "title": "Christian Boltanski", "work_id": 92606, "role": "production company", "role_id": 941, "is_primary": true}, {"id": 3083469, "title": "Marcel Duchamp: a game of chess", "work_id": 92572, "role": "production company", "role_id": 941, "is_primary": true}, {"id": 2614584, "title": "The Mahabharata; Episode 3: The War.", "work_id": 83937, "role": "production company", "role_id": 941, "is_primary": true}, {"id": 2215491, "title": "El nino", "work_id": 93484, "role": "production company", "role_id": 941, "is_primary": true}, {"id": 783894, "title": "The Mahabharata. Episode 1: A Game of dice", "work_id": 83935, "role": "production company", "role_id": 941, "is_primary": true}, {"id": 3083945, "title": "Andy Warhol", "work_id": 92604, "role": "production company", "role_id": 941, "is_primary": true}], "also_known_as": "", "date_of_birth": "", "date_of_death": "", "genders": [], "languages": [], "places_of_operation": [], "biography": "", "biography_author": null, "date_of_biography": "2023-05-09T17:15:39.252645+10:00", "external_links": [], "uuid": "05bce3be-a6fe-4165-a91e-d2d37b92ac40", "source": {"name": "Vernon", "slug": "vernon"}, "source_identifier": "12050", "external_references": [{"id": 34893, "source": {"name": "Wikidata", "slug": "wikidata"}, "source_identifier": "Q121034340"}], "date_modified": "2025-03-17T10:35:10.956104+11:00"}]}