{"count": 28687, "next": "https://api.acmi.net.au/creators/?page=2812", "previous": "https://api.acmi.net.au/creators/?page=2810", "results": [{"id": 8818, "name": "Peter Godden", "roles_in_work": [{"id": 2675402, "title": "The Hiding place", "work_id": 114104, "role": "creator", "role_id": 968, "is_primary": true}], "also_known_as": "", "date_of_birth": "", "date_of_death": "", "genders": [], "languages": [], "places_of_operation": [], "biography": "", "biography_author": null, "date_of_biography": "2023-08-11T12:51:55.628210+10:00", "external_links": [], "uuid": "a1793149-0fca-4eb1-8b2f-993629e1b54c", "source": {"name": "Vernon", "slug": "vernon"}, "source_identifier": "111894", "external_references": [], "date_modified": "2025-03-06T22:41:39.713351+11:00"}, {"id": 8817, "name": "Lloyd Sharp", "roles_in_work": [{"id": 2675399, "title": "Basilisk", "work_id": 108709, "role": "animator", "role_id": 497, "is_primary": false}, {"id": 2675396, "title": "Basilisk", "work_id": 108709, "role": "concept", "role_id": 595, "is_primary": false}, {"id": 2675395, "title": "Basilisk", "work_id": 108709, "role": "creator", "role_id": 968, "is_primary": true}, {"id": 2675397, "title": "Basilisk", "work_id": 108709, "role": "image", "role_id": 596, "is_primary": false}, {"id": 2675400, "title": "Basilisk", "work_id": 108709, "role": "scripting", "role_id": 597, "is_primary": false}, {"id": 2675398, "title": "Basilisk", "work_id": 108709, "role": "text", "role_id": 468, "is_primary": false}], "also_known_as": "", "date_of_birth": "", "date_of_death": "", "genders": [], "languages": [], "places_of_operation": [], "biography": "Lloyd Sharp is a new media/technology artist who has been involved in developing computer generated interactive art. His art activities involve visualisation of the body and exploring the performative dimensions of bodily representations. Recurring themes include catharsis and the role of biology in the fluid construction of identity. (http://www.chickenfish.cc)", "biography_author": null, "date_of_biography": "2025-03-06T22:41:38.359152+11:00", "external_links": [], "uuid": "d3ed23d3-5869-494c-90a0-abd8fe791d83", "source": {"name": "Vernon", "slug": "vernon"}, "source_identifier": "111719", "external_references": [], "date_modified": "2025-03-06T22:41:38.359394+11:00"}, {"id": 8816, "name": "Panos Couros", "roles_in_work": [{"id": 2675393, "title": "Basilisk", "work_id": 108709, "role": "creator", "role_id": 968, "is_primary": true}, {"id": 2675394, "title": "Basilisk", "work_id": 108709, "role": "sound", "role_id": 952, "is_primary": false}], "also_known_as": "", "date_of_birth": "", "date_of_death": "", "genders": [], "languages": [], "places_of_operation": [], "biography": "Panos Couros is a sound designer whose more recent works include sound installations such as Sudden, at the Institute of Modern Art in Brisbane, theatre and dance scores for Thwack and Helmet, by choreographer Garry Stewart, #14 a multimedia event in Brisbane, and Inhabitation #2 a dance work by Tess de Quincey. He has composed CDROM sound designs for Pr?ternatural by Michele Barker and Dream Kitchen by Leon Cmielewski. He is currently the general manager for dLux media arts.", "biography_author": null, "date_of_biography": "2025-03-06T22:41:34.693943+11:00", "external_links": [], "uuid": "96a69327-542e-4cb3-81d5-8300407c2e58", "source": {"name": "Vernon", "slug": "vernon"}, "source_identifier": "111718", "external_references": [], "date_modified": "2025-03-06T22:41:34.694150+11:00"}, {"id": 8815, "name": "Wayne Stamp", "roles_in_work": [{"id": 2675391, "title": "Basilisk", "work_id": 108709, "role": "animator", "role_id": 497, "is_primary": false}, {"id": 2675388, "title": "Basilisk", "work_id": 108709, "role": "concept", "role_id": 595, "is_primary": false}, {"id": 2675387, "title": "Basilisk", "work_id": 108709, "role": "creator", "role_id": 968, "is_primary": true}, {"id": 2675389, "title": "Basilisk", "work_id": 108709, "role": "image", "role_id": 596, "is_primary": false}, {"id": 2675392, "title": "Basilisk", "work_id": 108709, "role": "scripting", "role_id": 597, "is_primary": false}, {"id": 2675390, "title": "Basilisk", "work_id": 108709, "role": "text", "role_id": 468, "is_primary": false}], "also_known_as": "", "date_of_birth": "", "date_of_death": "", "genders": [], "languages": [], "places_of_operation": [], "biography": "Wayne Stamp has a mixed practice - installation, new media, theory - that ranges from a threepart installation with Panos Couros, a noise of worms, Sound in Space, Museum of Contemporary Art, Sydney, 1995 to a web work entitled Mangrove and the Mudflat, MAAP 98 (Multimedia Art Asia Pacific). Recently, he has completed a doctoral dissertation on art and subjectivity, a theoretical fiction derived from the philosophies of Deleuze and Guattari.", "biography_author": null, "date_of_biography": "2025-03-06T22:41:33.287866+11:00", "external_links": [], "uuid": "ccf5eec9-0a34-442a-be97-5c1cd9ca1f47", "source": {"name": "Vernon", "slug": "vernon"}, "source_identifier": "111715", "external_references": [], "date_modified": "2025-03-06T22:41:33.288086+11:00"}, {"id": 8811, "name": "Kate Gillick", "roles_in_work": [{"id": 2248717, "title": "Remembering country", "work_id": 89418, "role": "director", "role_id": 938, "is_primary": true}, {"id": 2639943, "title": "Agnes, Maude and Pearly too", "work_id": 110533, "role": "writer", "role_id": 939, "is_primary": true}], "also_known_as": "", "date_of_birth": "", "date_of_death": "", "genders": [], "languages": [], "places_of_operation": [], "biography": "", "biography_author": null, "date_of_biography": "2023-05-09T20:09:16.392173+10:00", "external_links": [], "uuid": "de174985-caed-496a-995e-8c4e87df48eb", "source": {"name": "Vernon", "slug": "vernon"}, "source_identifier": "1690", "external_references": [{"id": 39108, "source": {"name": "Wikidata", "slug": "wikidata"}, "source_identifier": "Q121270959"}], "date_modified": "2025-03-05T11:25:05.083734+11:00"}, {"id": 8810, "name": "Angela Costi", "roles_in_work": [{"id": 2675449, "title": "reLOCATED - The Venny kids", "work_id": 114153, "role": "creator", "role_id": 968, "is_primary": true}, {"id": 2675386, "title": "reLOCATED - Mr and Mrs Kemp", "work_id": 114152, "role": "creator", "role_id": 968, "is_primary": true}], "also_known_as": "", "date_of_birth": null, "date_of_death": null, "genders": [], "languages": [], "places_of_operation": [], "biography": "", "biography_author": null, "date_of_biography": null, "external_links": [], "uuid": "7c3a14cb-90df-4126-ba06-5bd49f6b126b", "source": {"name": "Vernon", "slug": "vernon"}, "source_identifier": "111721", "external_references": [], "date_modified": "2025-03-06T22:42:23.910763+11:00"}, {"id": 8809, "name": "Angela Bailey", "roles_in_work": [{"id": 2675450, "title": "reLOCATED - The Venny kids", "work_id": 114153, "role": "creator", "role_id": 968, "is_primary": true}, {"id": 2675385, "title": "reLOCATED - Mr and Mrs Kemp", "work_id": 114152, "role": "creator", "role_id": 968, "is_primary": true}, {"id": 2637891, "title": "Brimbank beat", "work_id": 109997, "role": "artist", "role_id": 505, "is_primary": true}, {"id": 2675451, "title": "reLOCATED - The Venny kids", "work_id": 114153, "role": "curator", "role_id": 501, "is_primary": false}], "also_known_as": "", "date_of_birth": "", "date_of_death": "", "genders": [], "languages": [], "places_of_operation": [], "biography": "", "biography_author": null, "date_of_biography": "2023-05-09T13:09:59.577355+10:00", "external_links": [], "uuid": "22fb3a9c-f1ed-4012-b820-63576e6329eb", "source": {"name": "Vernon", "slug": "vernon"}, "source_identifier": "111720", "external_references": [], "date_modified": "2025-03-06T22:42:25.110968+11:00"}, {"id": 8808, "name": "Michael Carmody", "roles_in_work": [{"id": 2676870, "title": "Red line", "work_id": 114151, "role": "creator", "role_id": 968, "is_primary": true}, {"id": 2640398, "title": "Stadium", "work_id": 110409, "role": "creator", "role_id": 968, "is_primary": true}, {"id": 2675384, "title": "Carpark", "work_id": 114140, "role": "creator", "role_id": 968, "is_primary": true}, {"id": 2675456, "title": "Westbourne Grove", "work_id": 114157, "role": "creator", "role_id": 968, "is_primary": true}, {"id": 2675462, "title": "Lygon Street", "work_id": 114136, "role": "creator", "role_id": 968, "is_primary": true}, {"id": 2637585, "title": "Geelong", "work_id": 114145, "role": "film maker", "role_id": 459, "is_primary": false}, {"id": 2711486, "title": "MAP Promotional Trailer: final edit version", "work_id": 109203, "role": "interviewee", "role_id": 496, "is_primary": false}], "also_known_as": "", "date_of_birth": "", "date_of_death": "", "genders": [], "languages": [], "places_of_operation": [], "biography": "", "biography_author": null, "date_of_biography": "2023-05-09T15:09:15.589897+10:00", "external_links": [], "uuid": "e426b3f6-e0f4-4ecf-bd7f-246f3312b05b", "source": {"name": "Vernon", "slug": "vernon"}, "source_identifier": "111852", "external_references": [], "date_modified": "2025-03-11T23:52:50.492330+11:00"}, {"id": 8807, "name": "Ros Bandt", "roles_in_work": [{"id": 2675383, "title": "Stack", "work_id": 114154, "role": "creator", "role_id": 968, "is_primary": true}], "also_known_as": "", "date_of_birth": "", "date_of_death": "", "genders": [], "languages": [], "places_of_operation": [], "biography": "", "biography_author": null, "date_of_biography": "2023-08-14T10:49:59.265312+10:00", "external_links": [], "uuid": "be2a904a-bb0e-462c-8acb-393062317ed9", "source": {"name": "Vernon", "slug": "vernon"}, "source_identifier": "111868", "external_references": [], "date_modified": "2025-03-06T22:41:23.616403+11:00"}, {"id": 8806, "name": "Joan Robinson", "roles_in_work": [{"id": 2640396, "title": "Baz and Barb's NZ holiday", "work_id": 110408, "role": "creator", "role_id": 968, "is_primary": true}, {"id": 2675382, "title": "70 years at Brunswick Baths", "work_id": 114138, "role": "creator", "role_id": 968, "is_primary": true}, {"id": 2640400, "title": "Stadium", "work_id": 110409, "role": "creator", "role_id": 968, "is_primary": true}, {"id": 2675381, "title": "Froggie's gone", "work_id": 114133, "role": "creator", "role_id": 968, "is_primary": true}, {"id": 2711485, "title": "MAP Promotional Trailer: final edit version", "work_id": 109203, "role": "interviewee", "role_id": 496, "is_primary": false}], "also_known_as": "", "date_of_birth": "", "date_of_death": "", "genders": [], "languages": [], "places_of_operation": [], "biography": "", "biography_author": null, "date_of_biography": "2023-05-09T15:09:15.248770+10:00", "external_links": [], "uuid": "2e65f474-1e45-44b2-9145-fc01297df7c6", "source": {"name": "Vernon", "slug": "vernon"}, "source_identifier": "111711", "external_references": [], "date_modified": "2025-03-11T23:52:49.900646+11:00"}]}