{"count": 28681, "next": "https://api.acmi.net.au/creators/?page=2516", "previous": "https://api.acmi.net.au/creators/?page=2514", "results": [{"id": 13713, "name": "George Seager", "roles_in_work": [{"id": 2679643, "title": "Chemistry of soapless detergents", "work_id": 66000, "role": "producer", "role_id": 1089, "is_primary": true}, {"id": 1811950, "title": "The Structure of protein", "work_id": 73318, "role": "producer", "role_id": 1089, "is_primary": true}], "also_known_as": "", "date_of_birth": "", "date_of_death": "", "genders": [], "languages": [], "places_of_operation": [], "biography": "", "biography_author": null, "date_of_biography": "2023-08-11T15:21:28.462782+10:00", "external_links": [], "uuid": "8f79fd09-2b7e-4174-b676-4a516580b6b5", "source": {"name": "Vernon", "slug": "vernon"}, "source_identifier": "19670", "external_references": [], "date_modified": "2025-03-07T00:17:17.056267+11:00"}, {"id": 13712, "name": "De La Chevre Films", "roles_in_work": [{"id": 2679641, "title": "Chemistry of soapless detergents", "work_id": 66000, "role": "production company", "role_id": 941, "is_primary": true}, {"id": 2713901, "title": "Fluorescers", "work_id": 67646, "role": "production company", "role_id": 941, "is_primary": true}], "also_known_as": "", "date_of_birth": "", "date_of_death": "", "genders": [], "languages": [], "places_of_operation": [], "biography": "", "biography_author": null, "date_of_biography": "2023-08-11T16:40:16.540351+10:00", "external_links": [], "uuid": "19c9a9e4-675c-4542-b895-aa81d0d689df", "source": {"name": "Vernon", "slug": "vernon"}, "source_identifier": "7359", "external_references": [], "date_modified": "2025-03-12T00:56:24.222390+11:00"}, {"id": 13711, "name": "Phil Wrestler", "roles_in_work": [{"id": 2679639, "title": "Chemistry for sixth forms: catalysis", "work_id": 65998, "role": "director", "role_id": 938, "is_primary": true}, {"id": 2680376, "title": "The Contact", "work_id": 66358, "role": "director", "role_id": 938, "is_primary": true}], "also_known_as": "", "date_of_birth": "", "date_of_death": "", "genders": [], "languages": [], "places_of_operation": [], "biography": "", "biography_author": null, "date_of_biography": "2023-08-11T15:21:12.667718+10:00", "external_links": [], "uuid": "0671fe54-4a2d-4a51-8321-f27dd2eb5bd9", "source": {"name": "Vernon", "slug": "vernon"}, "source_identifier": "26800", "external_references": [], "date_modified": "2025-03-07T00:35:02.123234+11:00"}, {"id": 13710, "name": "Associated Television", "roles_in_work": [{"id": 2750390, "title": "Watch out", "work_id": 97301, "role": "production company", "role_id": 941, "is_primary": true}, {"id": 2714268, "title": "Les Devoirs a la maison", "work_id": 67826, "role": "production company", "role_id": 941, "is_primary": true}, {"id": 2714271, "title": "French from France: to swim like a fish = Nager comme un poisson", "work_id": 67827, "role": "production company", "role_id": 941, "is_primary": true}, {"id": 924592, "title": "Thunderbirds. Volume 2", "work_id": 93931, "role": "production company", "role_id": 941, "is_primary": true}, {"id": 1561644, "title": "Rembrandt. Part II: life and art", "work_id": 72132, "role": "production company", "role_id": 941, "is_primary": true}, {"id": 1561639, "title": "Rembrandt. Part I: success story", "work_id": 72133, "role": "production company", "role_id": 941, "is_primary": true}, {"id": 2679637, "title": "Chemistry for sixth forms: catalysis", "work_id": 65998, "role": "production company", "role_id": 941, "is_primary": true}, {"id": 2413873, "title": "Passing", "work_id": 76137, "role": "production company", "role_id": 941, "is_primary": true}, {"id": 749838, "title": "Operation sprats", "work_id": 71193, "role": "production company", "role_id": 941, "is_primary": true}, {"id": 749721, "title": "One of the family", "work_id": 71143, "role": "production company", "role_id": 941, "is_primary": true}, {"id": 784522, "title": "The Merchant of Venice", "work_id": 84116, "role": "production company", "role_id": 941, "is_primary": true}, {"id": 857251, "title": "Prison officer. Part 1", "work_id": 71850, "role": "production company", "role_id": 941, "is_primary": true}, {"id": 751295, "title": "Private life of a silkworm", "work_id": 71853, "role": "production company", "role_id": 941, "is_primary": true}, {"id": 2644950, "title": "Ghana today", "work_id": 68044, "role": "production company", "role_id": 941, "is_primary": true}, {"id": 2645151, "title": "ICI la France: L'heritage de Napoleon", "work_id": 68741, "role": "production company", "role_id": 941, "is_primary": true}, {"id": 2402933, "title": "Born to be small", "work_id": 98173, "role": "production company", "role_id": 941, "is_primary": true}, {"id": 2645991, "title": "Picasso (TEFC)", "work_id": 71547, "role": "production company", "role_id": 941, "is_primary": true}, {"id": 2646160, "title": "Rhodesia and Nyasaland today", "work_id": 72204, "role": "production company", "role_id": 941, "is_primary": true}, {"id": 2715641, "title": "Hong Kong today", "work_id": 68541, "role": "production company", "role_id": 941, "is_primary": true}, {"id": 2716026, "title": "ICI la France: Les Lyceens chez eux", "work_id": 68740, "role": "production company", "role_id": 941, "is_primary": true}, {"id": 2413875, "title": "Kicking", "work_id": 72634, "role": "production company", "role_id": 941, "is_primary": true}, {"id": 2713813, "title": "Five revolutionary painters: Brueghel", "work_id": 67599, "role": "production company", "role_id": 941, "is_primary": true}, {"id": 2713815, "title": "Five revolutionary painters: Caravaggio", "work_id": 67600, "role": "production company", "role_id": 941, "is_primary": true}, {"id": 1561646, "title": "Rembrandt. Part III: beyond art", "work_id": 72131, "role": "production company", "role_id": 941, "is_primary": true}, {"id": 924584, "title": "Thunderbirds. Volume 1", "work_id": 93930, "role": "production company", "role_id": 941, "is_primary": true}, {"id": 917863, "title": "Giselle", "work_id": 95362, "role": "production company", "role_id": 941, "is_primary": true}, {"id": 857253, "title": "Prison officer. Part 2", "work_id": 71851, "role": "production company", "role_id": 941, "is_primary": true}, {"id": 2713817, "title": "Five revolutionary painters: Goya (TEFC)", "work_id": 67601, "role": "production company", "role_id": 941, "is_primary": true}, {"id": 2713819, "title": "Five revolutionary painters: Rembrandt", "work_id": 67602, "role": "production company", "role_id": 941, "is_primary": true}, {"id": 2713821, "title": "Five revolutionary painters: Van Gogh", "work_id": 67603, "role": "production company", "role_id": 941, "is_primary": true}, {"id": 924599, "title": "Thunderbirds. Volume 3", "work_id": 93932, "role": "production company", "role_id": 941, "is_primary": true}, {"id": 853487, "title": "Inside the world of your dreams", "work_id": 68971, "role": "production company", "role_id": 941, "is_primary": true}, {"id": 2714107, "title": "Formosa today", "work_id": 67747, "role": "production company", "role_id": 941, "is_primary": true}, {"id": 1561642, "title": "Rembrandt", "work_id": 115643, "role": "production company", "role_id": 941, "is_primary": true}], "also_known_as": "", "date_of_birth": "", "date_of_death": "", "genders": [], "languages": [], "places_of_operation": [], "biography": "", "biography_author": null, "date_of_biography": "2023-08-11T19:24:30.224101+10:00", "external_links": [], "uuid": "37fecf50-1c15-49ec-9204-fdf6b94358af", "source": {"name": "Vernon", "slug": "vernon"}, "source_identifier": "5470", "external_references": [], "date_modified": "2025-03-13T00:21:24.888135+11:00"}, {"id": 13709, "name": "Davidson Films", "roles_in_work": [{"id": 859881, "title": "Transuranium elements", "work_id": 73994, "role": "production company", "role_id": 941, "is_primary": true}, {"id": 2757558, "title": "Chemical families", "work_id": 65995, "role": "production company", "role_id": 941, "is_primary": true}, {"id": 2757601, "title": "Gases and how they combine", "work_id": 67957, "role": "production company", "role_id": 941, "is_primary": true}, {"id": 2757615, "title": "The Hydrogen atom as viewed by quantum mechanics", "work_id": 68694, "role": "production company", "role_id": 941, "is_primary": true}, {"id": 2712680, "title": "Ego development: the core of a healthy personality(TEFC)", "work_id": 67042, "role": "production company", "role_id": 941, "is_primary": true}, {"id": 2750093, "title": "If you're a horse", "work_id": 97137, "role": "production company", "role_id": 941, "is_primary": true}, {"id": 2750108, "title": "Prime time", "work_id": 97149, "role": "production company", "role_id": 941, "is_primary": true}, {"id": 2679768, "title": "Child's play and the real world (TEFC)", "work_id": 66061, "role": "production company", "role_id": 941, "is_primary": true}, {"id": 2766906, "title": "In the classroom (TEFC)", "work_id": 73079, "role": "production company", "role_id": 941, "is_primary": true}, {"id": 2766909, "title": "Remedial programming (TEFC)", "work_id": 73080, "role": "production company", "role_id": 941, "is_primary": true}, {"id": 2766911, "title": "Evaluation (TEFC)", "work_id": 85854, "role": "production company", "role_id": 941, "is_primary": true}, {"id": 2644520, "title": "Deterioration of water", "work_id": 66741, "role": "production company", "role_id": 941, "is_primary": true}, {"id": 2766914, "title": "Remedial programming", "work_id": 97298, "role": "production company", "role_id": 941, "is_primary": true}, {"id": 2645701, "title": "Morality: the process of moral development (TEFC)", "work_id": 70571, "role": "production company", "role_id": 941, "is_primary": true}, {"id": 2750651, "title": "The Case of the missing chickows: adding positive and negati", "work_id": 97434, "role": "production company", "role_id": 941, "is_primary": true}, {"id": 2751380, "title": "Exploitation of errors", "work_id": 97782, "role": "production company", "role_id": 941, "is_primary": true}, {"id": 2751382, "title": "Probability (Rajah)", "work_id": 97783, "role": "production company", "role_id": 941, "is_primary": true}, {"id": 2751935, "title": "Land use and misuse", "work_id": 98060, "role": "production company", "role_id": 941, "is_primary": true}, {"id": 2751937, "title": "Pollution of upper and lower atmosphere", "work_id": 98061, "role": "production company", "role_id": 941, "is_primary": true}, {"id": 2748926, "title": "Between rational numbers", "work_id": 96548, "role": "production company", "role_id": 941, "is_primary": true}, {"id": 2748927, "title": "Comparing rational numbers", "work_id": 96549, "role": "production company", "role_id": 941, "is_primary": true}, {"id": 2748929, "title": "Using equivalent fractions to compute sums", "work_id": 96550, "role": "production company", "role_id": 941, "is_primary": true}, {"id": 2749003, "title": "Growth of intelligence in the pre-school years", "work_id": 96593, "role": "production company", "role_id": 941, "is_primary": true}, {"id": 2749195, "title": "1,001 noughts", "work_id": 96684, "role": "production company", "role_id": 941, "is_primary": true}, {"id": 2749198, "title": "Double trouble", "work_id": 96686, "role": "production company", "role_id": 941, "is_primary": true}, {"id": 2749200, "title": "Array back when", "work_id": 96687, "role": "production company", "role_id": 941, "is_primary": true}, {"id": 2749335, "title": "The tree of truth", "work_id": 96748, "role": "production company", "role_id": 941, "is_primary": true}, {"id": 2749431, "title": "Elementary mathematics for teachers and students: games", "work_id": 96803, "role": "production company", "role_id": 941, "is_primary": true}, {"id": 2749683, "title": "Filbert and the melon cheater: subtraction with borrowing", "work_id": 96922, "role": "production company", "role_id": 941, "is_primary": true}, {"id": 2777835, "title": "Classification (TEFC)", "work_id": 71544, "role": "production company", "role_id": 941, "is_primary": true}, {"id": 2777837, "title": "Conservation", "work_id": 81830, "role": "production company", "role_id": 941, "is_primary": true}, {"id": 2777842, "title": "Classification", "work_id": 81848, "role": "production company", "role_id": 941, "is_primary": true}, {"id": 2777843, "title": "Formal thought", "work_id": 96592, "role": "production company", "role_id": 941, "is_primary": true}, {"id": 2777847, "title": "Piaget's Developmental Theory", "work_id": 115213, "role": "production company", "role_id": 941, "is_primary": true}, {"id": 2792451, "title": "Lintola: addition with carrying", "work_id": 96930, "role": "production company", "role_id": 941, "is_primary": true}, {"id": 3088551, "title": "Muchmore's marvellous machine", "work_id": 97677, "role": "production company", "role_id": 941, "is_primary": true}, {"id": 827189, "title": "The Magic square", "work_id": 96685, "role": "production company", "role_id": 941, "is_primary": true}, {"id": 749258, "title": "Noise pollution", "work_id": 70947, "role": "production company", "role_id": 941, "is_primary": true}, {"id": 2757547, "title": "Chemical bonding", "work_id": 95909, "role": "production company", "role_id": 941, "is_primary": true}, {"id": 855170, "title": "Measuring the Univese", "work_id": 70235, "role": "production company", "role_id": 941, "is_primary": true}, {"id": 872487, "title": "Child's play and the real world", "work_id": 87668, "role": "production company", "role_id": 941, "is_primary": true}, {"id": 826881, "title": "Addition with mixed numerals", "work_id": 96547, "role": "production company", "role_id": 941, "is_primary": true}, {"id": 887290, "title": "Exploring mathematics. Lost in the mish-mosh: area measure", "work_id": 97436, "role": "production company", "role_id": 941, "is_primary": true}, {"id": 887288, "title": "Metric: heroes and heroines of the metric system", "work_id": 97435, "role": "production company", "role_id": 941, "is_primary": true}, {"id": 745263, "title": "Ionization energy", "work_id": 69092, "role": "production company", "role_id": 941, "is_primary": true}, {"id": 855181, "title": "Mechanism of an organic reaction", "work_id": 70246, "role": "production company", "role_id": 941, "is_primary": true}], "also_known_as": "", "date_of_birth": "", "date_of_death": "", "genders": [], "languages": [], "places_of_operation": [], "biography": "", "biography_author": null, "date_of_biography": "2023-08-11T18:25:27.930754+10:00", "external_links": [], "uuid": "748373ce-53de-448f-b9d3-49a0f0a60c0c", "source": {"name": "Vernon", "slug": "vernon"}, "source_identifier": "7346", "external_references": [], "date_modified": "2025-03-17T10:55:32.743144+11:00"}, {"id": 13707, "name": "Beryl Denman Lacey", "roles_in_work": [{"id": 749892, "title": "Organisation of the body", "work_id": 71212, "role": "director", "role_id": 938, "is_primary": true}, {"id": 804279, "title": "Digestion: Muscular and mechanical movement", "work_id": 89997, "role": "director", "role_id": 938, "is_primary": true}, {"id": 2715817, "title": "The Human skeleton. Part 3. Muscles, movements and pressure", "work_id": 68636, "role": "director", "role_id": 938, "is_primary": true}, {"id": 2715897, "title": "The Human skeleton. Part 2. Muscles, movement and posture", "work_id": 68677, "role": "director", "role_id": 938, "is_primary": true}, {"id": 2715900, "title": "The Human skeleton. Part 1. Structure and joints", "work_id": 68678, "role": "director", "role_id": 938, "is_primary": true}, {"id": 745026, "title": "Internal respiration", "work_id": 68994, "role": "director", "role_id": 938, "is_primary": true}, {"id": 877476, "title": "Digestion. Pt. 2: chemical changes", "work_id": 90692, "role": "director", "role_id": 938, "is_primary": true}, {"id": 2679879, "title": "Circulation of the blood", "work_id": 66117, "role": "director", "role_id": 938, "is_primary": true}, {"id": 2712833, "title": "Elimination", "work_id": 67115, "role": "director", "role_id": 938, "is_primary": true}, {"id": 2759037, "title": "Chemical changes", "work_id": 65992, "role": "director", "role_id": 938, "is_primary": true}], "also_known_as": "", "date_of_birth": null, "date_of_death": null, "genders": [], "languages": [], "places_of_operation": [], "biography": "", "biography_author": null, "date_of_biography": null, "external_links": [], "uuid": "c7035bb8-24b2-4161-b3ca-2faa47ccc870", "source": {"name": "Vernon", "slug": "vernon"}, "source_identifier": "15893", "external_references": [], "date_modified": "2025-03-13T14:51:21.651890+11:00"}, {"id": 13706, "name": "Cheddar Caves", "roles_in_work": [{"id": 2679629, "title": "Cheddar Gorge and its caves", "work_id": 65990, "role": "production company", "role_id": 941, "is_primary": true}], "also_known_as": "", "date_of_birth": "", "date_of_death": "", "genders": [], "languages": [], "places_of_operation": [], "biography": "", "biography_author": null, "date_of_biography": "2023-08-11T15:21:01.414585+10:00", "external_links": [], "uuid": "ac5adb30-0b2f-41b1-85de-7ac941afbd08", "source": {"name": "Vernon", "slug": "vernon"}, "source_identifier": "6537", "external_references": [], "date_modified": "2025-03-07T00:17:06.959727+11:00"}, {"id": 13704, "name": "Franciscan Communications Center", "roles_in_work": [{"id": 2679625, "title": "Check-in time", "work_id": 65989, "role": "production company", "role_id": 941, "is_primary": true}, {"id": 858040, "title": "Saturday afternoon", "work_id": 72486, "role": "production company", "role_id": 941, "is_primary": true}, {"id": 860003, "title": "Turned round to see", "work_id": 74093, "role": "production company", "role_id": 941, "is_primary": true}], "also_known_as": "", "date_of_birth": "", "date_of_death": "", "genders": [], "languages": [], "places_of_operation": [], "biography": "", "biography_author": null, "date_of_biography": "2023-05-09T13:28:55.773054+10:00", "external_links": [], "uuid": "3b48db09-ae06-4b5f-b396-a6912ec56835", "source": {"name": "Vernon", "slug": "vernon"}, "source_identifier": "8511", "external_references": [], "date_modified": "2025-03-07T00:17:04.349389+11:00"}, {"id": 13702, "name": "United Nations. Office of Public Information", "roles_in_work": [{"id": 1902939, "title": "The International Court of Justice", "work_id": 68995, "role": "production company", "role_id": 941, "is_primary": true}, {"id": 897303, "title": "Power among men", "work_id": 77333, "role": "production company", "role_id": 941, "is_primary": true}, {"id": 2768681, "title": "The World Meteorological Organization", "work_id": 74930, "role": "production company", "role_id": 941, "is_primary": true}, {"id": 2768674, "title": "The Trusteeship Council and system", "work_id": 74054, "role": "production company", "role_id": 941, "is_primary": true}, {"id": 2768661, "title": "The International Telecommunication Union", "work_id": 68998, "role": "production company", "role_id": 941, "is_primary": true}, {"id": 2768656, "title": "The Economic and Social Council", "work_id": 67015, "role": "production company", "role_id": 941, "is_primary": true}, {"id": 2644348, "title": "The Charter", "work_id": 65979, "role": "production company", "role_id": 941, "is_primary": true}, {"id": 861005, "title": "Workshop for peace. - Rev. ed.", "work_id": 74920, "role": "production company", "role_id": 941, "is_primary": true}, {"id": 2680508, "title": "Coronation day", "work_id": 66422, "role": "production company", "role_id": 941, "is_primary": true}, {"id": 2680317, "title": "Congo: the way ahead", "work_id": 66328, "role": "production company", "role_id": 941, "is_primary": true}, {"id": 857866, "title": "The Roots of tomorrow", "work_id": 72347, "role": "production company", "role_id": 941, "is_primary": true}, {"id": 752967, "title": "The Security Council", "work_id": 72618, "role": "production company", "role_id": 941, "is_primary": true}], "also_known_as": "", "date_of_birth": "", "date_of_death": "", "genders": [], "languages": [], "places_of_operation": [], "biography": "", "biography_author": null, "date_of_biography": "2023-05-09T13:42:08.756542+10:00", "external_links": [], "uuid": "dafbb052-e546-4b80-b72c-4e2b6a53130e", "source": {"name": "Vernon", "slug": "vernon"}, "source_identifier": "11094", "external_references": [], "date_modified": "2025-03-14T18:10:43.698613+11:00"}, {"id": 13699, "name": "Films De Saint-Germain-Des-Pres", "roles_in_work": [{"id": 2644345, "title": "Charmes de l'existence (TEFC)", "work_id": 65978, "role": "production company", "role_id": 941, "is_primary": true}], "also_known_as": "", "date_of_birth": "", "date_of_death": "", "genders": [], "languages": [], "places_of_operation": [], "biography": "", "biography_author": null, "date_of_biography": "2023-05-09T13:29:56.015803+10:00", "external_links": [], "uuid": "d83fc690-2bb5-456a-9d1b-58b57a8acc84", "source": {"name": "Vernon", "slug": "vernon"}, "source_identifier": "8324", "external_references": [{"id": 40138, "source": {"name": "Wikidata", "slug": "wikidata"}, "source_identifier": "Q121270683"}], "date_modified": "2025-03-05T12:16:22.903666+11:00"}]}