{"count": 28687, "next": "https://api.acmi.net.au/creators/?page=1926", "previous": "https://api.acmi.net.au/creators/?page=1924", "results": [{"id": 24020, "name": "Musée du Louvre", "roles_in_work": [{"id": 2776587, "title": "The Captive look: \"The Turkish bath\", Jean-Auguste Dominique Ingres (1780-1867)", "work_id": 84143, "role": "production company", "role_id": 941, "is_primary": true}, {"id": 2776581, "title": "The Theatres of the sun: Seaport at Sunset (1639), Claude Lorrain 1602-1682", "work_id": 83995, "role": "production company", "role_id": 941, "is_primary": true}, {"id": 2776510, "title": "The Mirror of paradoxes: self-portraits, Rembrandt Van Rijn", "work_id": 81743, "role": "production company", "role_id": 941, "is_primary": true}, {"id": 2776575, "title": "Panels of the altarpiece: Stefano di Giovanni known as \"Sassetta\", Siena around 1392-1450. The Polyptych of San Francesco at Sansepolcro (1437-1444)", "work_id": 83446, "role": "production company", "role_id": 941, "is_primary": true}, {"id": 2776569, "title": "A Painting on trial: the feast in the House of Levi 1573, by Paolo Caliari called Veronese (Verona 1528-Venice 1588)", "work_id": 83378, "role": "production company", "role_id": 941, "is_primary": true}, {"id": 2776560, "title": "Euphronius painted: Krater of Heracles and Antaeus ...", "work_id": 83349, "role": "production company", "role_id": 941, "is_primary": true}, {"id": 2776554, "title": "The Hidden side of cards: the cheat with the ace of diamonds (about 1635) by Georges De La Tour (Vic sur Seille 1593 - Luneville 1652)", "work_id": 83311, "role": "production company", "role_id": 941, "is_primary": true}, {"id": 2776548, "title": "The Smile and the interweave: Madonna, child and Saint Anne (circa 1500-1515) Leonardo da Vinci, Vinci 1452-Amboise 1519", "work_id": 83226, "role": "production company", "role_id": 941, "is_primary": true}, {"id": 2776599, "title": "Palettes", "work_id": 115208, "role": "production company", "role_id": 941, "is_primary": true}], "also_known_as": "", "date_of_birth": "", "date_of_death": "", "genders": [], "languages": [], "places_of_operation": [], "biography": "The Louvre (English:  LOOV(-rə)), or the Louvre Museum (French: Musée du Louvre [myze dy luvʁ] ), is a national art museum in Paris, France. A central landmark of the city, it is located on the Right Bank of the Seine in the city's 1st arrondissement (district or ward) and home to some of the most canonical works of Western art, including the Mona Lisa and the Venus de Milo. The museum is housed in the Louvre Palace, originally built in the late 12th to 13th century under Philip II. Remnants of the Medieval Louvre fortress are visible in the basement of the museum. Due to urban expansion, the fortress eventually lost its defensive function, and in 1546 Francis I converted it into the primary residence of the French Kings.The building was extended many times to form the present Louvre Palace. In 1682, Louis XIV chose the Palace of Versailles for his household, leaving the Louvre primarily as a place to display the royal collection, including, from 1692, a collection of ancient Greek and Roman sculpture. In 1692, the building was occupied by the Académie des Inscriptions et Belles-Lettres and the Académie Royale de Peinture et de Sculpture, which in 1699 held the first of a series of salons. The Académie remained at the Louvre for 100 years. During the French Revolution, the National Assembly decreed that the Louvre should be used as a museum to display the nation's masterpieces.\nThe museum opened on 10 August 1793 with an exhibition of 537 paintings, the majority of the works being royal and confiscated church property. Because of structural problems with the building, the museum was closed from 1796 until 1801. The collection was increased under Napoleon and the museum was renamed Musée Napoléon, but after Napoleon's abdication, many works seized by his armies were returned to their original owners. The collection was further increased during the reigns of Louis XVIII and Charles X, and during the Second French Empire the museum gained 20,000 pieces. Holdings have grown steadily through donations and bequests since the Third Republic. The collection is divided among eight curatorial departments: Egyptian Antiquities; Near Eastern Antiquities; Greek, Etruscan, and Roman Antiquities; Islamic Art; Sculpture; Decorative Arts; Paintings; Prints and Drawings.\nThe Musée du Louvre contains more than 380,000 objects and displays 35,000 works of art in eight curatorial departments with more than 60,600 square metres (652,000 sq ft) dedicated to the permanent collection. The Louvre exhibits sculptures, objets d'art, paintings, drawings, and archaeological finds. At any given point in time, approximately 38,000 objects from prehistory to the 21st century are being exhibited over an area of 72,735 square metres (782,910 sq ft). With over 7.8 million visitors in 2022, the Louvre is the world's most-visited museum.", "biography_author": "Wikidata", "date_of_biography": "2023-09-05T23:23:14.838156+10:00", "external_links": [{"id": 6054, "uri": "https://en.wikipedia.org/wiki/Louvre"}], "uuid": "1c5d309d-4cb7-4231-a11e-57c124df907c", "source": {"name": "Vernon", "slug": "vernon"}, "source_identifier": "4648", "external_references": [{"id": 37832, "source": {"name": "Wikidata", "slug": "wikidata"}, "source_identifier": "Q19675"}, {"id": 55325, "source": {"name": "VIAF", "slug": "viaf"}, "source_identifier": "257711507"}, {"id": 55326, "source": {"name": "LOC Auth", "slug": "loc-auth"}, "source_identifier": "n80020283"}, {"id": 55327, "source": {"name": "WorldCat", "slug": "worldcat"}, "source_identifier": "lccn-n80020283"}], "date_modified": "2025-03-14T18:49:38.763037+11:00"}, {"id": 24019, "name": "Delta Image", "roles_in_work": [{"id": 2776582, "title": "The Theatres of the sun: Seaport at Sunset (1639), Claude Lorrain 1602-1682", "work_id": 83995, "role": "production company", "role_id": 941, "is_primary": true}, {"id": 2776509, "title": "The Mirror of paradoxes: self-portraits, Rembrandt Van Rijn", "work_id": 81743, "role": "production company", "role_id": 941, "is_primary": true}, {"id": 2776515, "title": "Pictures beneath the cobblestones: July 28th, 1830 Liberty leading the people(1830)", "work_id": 81759, "role": "production company", "role_id": 941, "is_primary": true}, {"id": 2776521, "title": "The Texture of light: The Astronomer (1668) Johannes Vermeer", "work_id": 81801, "role": "production company", "role_id": 941, "is_primary": true}, {"id": 2776527, "title": "Miracle in the loggia: Madonna with Chancellor Rolin", "work_id": 81802, "role": "production company", "role_id": 941, "is_primary": true}, {"id": 2776533, "title": "The Color of the Moment: Japanese Bridges, Claude Monet", "work_id": 81803, "role": "production company", "role_id": 941, "is_primary": true}, {"id": 2776539, "title": "Utopia,orange,green,purple:A Sunday on La Grande Jatte,1884", "work_id": 82059, "role": "production company", "role_id": 941, "is_primary": true}, {"id": 2776544, "title": "A fin de siecle legend: decoration of the booth of La Goulue, 1895, Henri de Toulouse-Lautrec (Albi 1864-Malrome 1901)", "work_id": 82734, "role": "production company", "role_id": 941, "is_primary": true}, {"id": 2776598, "title": "Palettes", "work_id": 115208, "role": "production company", "role_id": 941, "is_primary": true}, {"id": 2776551, "title": "The Smile and the interweave: Madonna, child and Saint Anne (circa 1500-1515) Leonardo da Vinci, Vinci 1452-Amboise 1519", "work_id": 83226, "role": "production company", "role_id": 941, "is_primary": true}, {"id": 2776557, "title": "The Hidden side of cards: the cheat with the ace of diamonds (about 1635) by Georges De La Tour (Vic sur Seille 1593 - Luneville 1652)", "work_id": 83311, "role": "production company", "role_id": 941, "is_primary": true}, {"id": 2776563, "title": "Euphronius painted: Krater of Heracles and Antaeus ...", "work_id": 83349, "role": "production company", "role_id": 941, "is_primary": true}, {"id": 2776570, "title": "A Painting on trial: the feast in the House of Levi 1573, by Paolo Caliari called Veronese (Verona 1528-Venice 1588)", "work_id": 83378, "role": "production company", "role_id": 941, "is_primary": true}, {"id": 2776576, "title": "Panels of the altarpiece: Stefano di Giovanni known as \"Sassetta\", Siena around 1392-1450. The Polyptych of San Francesco at Sansepolcro (1437-1444)", "work_id": 83446, "role": "production company", "role_id": 941, "is_primary": true}, {"id": 2776588, "title": "The Captive look: \"The Turkish bath\", Jean-Auguste Dominique Ingres (1780-1867)", "work_id": 84143, "role": "production company", "role_id": 941, "is_primary": true}, {"id": 2776593, "title": "The Crucifixion by Pablo Picasso, 1930", "work_id": 85630, "role": "production company", "role_id": 941, "is_primary": true}], "also_known_as": "", "date_of_birth": "", "date_of_death": "", "genders": [], "languages": [], "places_of_operation": [], "biography": "", "biography_author": null, "date_of_biography": "2023-05-09T17:46:14.146247+10:00", "external_links": [], "uuid": "26b1390d-d7c9-4549-9d12-bf452880cbfb", "source": {"name": "Vernon", "slug": "vernon"}, "source_identifier": "7392", "external_references": [{"id": 43303, "source": {"name": "Wikidata", "slug": "wikidata"}, "source_identifier": "Q121223403"}], "date_modified": "2025-03-14T18:49:38.178227+11:00"}, {"id": 24018, "name": "Anne Basser", "roles_in_work": [{"id": 2774790, "title": "G'day: new accents in australian tourism", "work_id": 81742, "role": "producer", "role_id": 1089, "is_primary": true}], "also_known_as": "", "date_of_birth": "", "date_of_death": "", "genders": [], "languages": [], "places_of_operation": [], "biography": "", "biography_author": null, "date_of_biography": "2023-07-19T03:40:18.591521+10:00", "external_links": [], "uuid": "560c7520-cf7e-43fb-997d-16c702a324b5", "source": {"name": "Vernon", "slug": "vernon"}, "source_identifier": "15318", "external_references": [{"id": 35249, "source": {"name": "Wikidata", "slug": "wikidata"}, "source_identifier": "Q121159728"}], "date_modified": "2025-03-14T18:40:21.509685+11:00"}, {"id": 24017, "name": "Cherie Nowlan", "roles_in_work": [{"id": 2324877, "title": "Thank god he met Lizzie", "work_id": 88618, "role": "director", "role_id": 938, "is_primary": true}, {"id": 1426815, "title": "God's girls: stories from an australian convent", "work_id": 81739, "role": "director", "role_id": 938, "is_primary": true}], "also_known_as": "", "date_of_birth": null, "date_of_death": "", "genders": [{"id": 5, "name": "Female", "slug": "female"}], "languages": [], "places_of_operation": [{"id": 3, "name": "Australia", "slug": "australia"}], "biography": "Cherie Nowlan (born Singleton, New South Wales, Australia) is an Australian film and television director, best known for the 2007 film Clubland (a.k.a. Introducing the Dwights) and the 1997 film Thank God He Met Lizzie, starring Cate Blanchett and Frances O'Connor, her feature film directorial debut.", "biography_author": "Wikidata", "date_of_biography": "2023-08-01T14:24:29.028305+10:00", "external_links": [{"id": 3749, "uri": "https://en.wikipedia.org/wiki/Cherie_Nowlan"}], "uuid": "89ba33fc-c51f-41a3-a507-98c2dae0ff6c", "source": {"name": "Vernon", "slug": "vernon"}, "source_identifier": "16771", "external_references": [{"id": 26552, "source": {"name": "Wikidata", "slug": "wikidata"}, "source_identifier": "Q5091950"}, {"id": 27784, "source": {"name": "VIAF", "slug": "viaf"}, "source_identifier": "286260905"}, {"id": 27785, "source": {"name": "WorldCat", "slug": "worldcat"}, "source_identifier": "lccn-no2014003707"}], "date_modified": "2023-09-06T10:37:12.027874+10:00"}, {"id": 24016, "name": "Sally Ingleton", "roles_in_work": [{"id": 2753210, "title": "Better life than them", "work_id": 98654, "role": "director", "role_id": 938, "is_primary": true}, {"id": 2753084, "title": "Punching keys", "work_id": 98597, "role": "director", "role_id": 938, "is_primary": true}, {"id": 2774618, "title": "What do you really do for a job? = [May Day]", "work_id": 83480, "role": "director", "role_id": 938, "is_primary": true}, {"id": 1932439, "title": "The Nature of paradise", "work_id": 94339, "role": "co-producer", "role_id": 915, "is_primary": true}, {"id": 2774498, "title": "Buddha wish me luck", "work_id": 81738, "role": "co-producer", "role_id": 915, "is_primary": true}, {"id": 2774617, "title": "What do you really do for a job? = [May Day]", "work_id": 83480, "role": "co-producer", "role_id": 915, "is_primary": true}, {"id": 2774500, "title": "Buddha wish me luck", "work_id": 81738, "role": "director", "role_id": 938, "is_primary": true}, {"id": 2774542, "title": "For better, for worse", "work_id": 81799, "role": "producer/director", "role_id": 31, "is_primary": true}, {"id": 793293, "title": "Mao's new suit", "work_id": 86489, "role": "producer/director", "role_id": 31, "is_primary": true}], "also_known_as": "", "date_of_birth": "", "date_of_death": "", "genders": [], "languages": [], "places_of_operation": [], "biography": "", "biography_author": null, "date_of_biography": "2023-05-09T19:29:47.456854+10:00", "external_links": [], "uuid": "1b1e8337-a6be-46f6-a469-718ee9bb3f9e", "source": {"name": "Vernon", "slug": "vernon"}, "source_identifier": "28448", "external_references": [{"id": 36731, "source": {"name": "Wikidata", "slug": "wikidata"}, "source_identifier": "Q121143855"}], "date_modified": "2025-03-14T18:38:34.064978+11:00"}, {"id": 24015, "name": "Hal E. Chester", "roles_in_work": [{"id": 2788575, "title": "School for scoundrels", "work_id": 81736, "role": "producer", "role_id": 1089, "is_primary": true}], "also_known_as": "", "date_of_birth": "06 MAR 1921", "date_of_death": "25 MAR 2012", "genders": [{"id": 9, "name": "Male", "slug": "male"}], "languages": [{"id": 1, "name": "English", "slug": "english"}], "places_of_operation": [{"id": 1, "name": "United States of America", "slug": "united-states-of-america"}], "biography": "Hal E. Chester (born Harold Ribotsky; March 6, 1921 – March 25, 2012), was an American film producer, writer, director, and former juvenile actor. Source: Wikidata; 01/08/2023", "biography_author": null, "date_of_biography": "2025-03-14T19:44:57.401596+11:00", "external_links": [{"id": 4123, "uri": "https://en.wikipedia.org/wiki/Hal_E._Chester"}], "uuid": "2ee5ec9e-6ae1-4e6a-b03b-dd09c7b7b6d8", "source": {"name": "Vernon", "slug": "vernon"}, "source_identifier": "20197", "external_references": [{"id": 25773, "source": {"name": "Wikidata", "slug": "wikidata"}, "source_identifier": "Q5640746"}, {"id": 28816, "source": {"name": "VIAF", "slug": "viaf"}, "source_identifier": "171026695"}, {"id": 28817, "source": {"name": "LOC Auth", "slug": "loc-auth"}, "source_identifier": "nr96025561"}, {"id": 28818, "source": {"name": "WorldCat", "slug": "worldcat"}, "source_identifier": "lccn-nr96025561"}], "date_modified": "2025-03-14T19:44:57.401828+11:00"}, {"id": 24014, "name": "Guardsman Film Productions", "roles_in_work": [{"id": 2788573, "title": "School for scoundrels", "work_id": 81736, "role": "production company", "role_id": 941, "is_primary": true}], "also_known_as": "", "date_of_birth": "", "date_of_death": "", "genders": [], "languages": [], "places_of_operation": [], "biography": "", "biography_author": null, "date_of_biography": "2023-05-09T20:07:50.738235+10:00", "external_links": [], "uuid": "3efa2edb-d40c-4385-ae53-c2bc917493fd", "source": {"name": "Vernon", "slug": "vernon"}, "source_identifier": "8931", "external_references": [{"id": 42278, "source": {"name": "Wikidata", "slug": "wikidata"}, "source_identifier": "Q121078739"}], "date_modified": "2025-03-14T19:44:56.815538+11:00"}, {"id": 24013, "name": "ABP", "roles_in_work": [{"id": 2788571, "title": "School for scoundrels", "work_id": 81736, "role": "production company", "role_id": 941, "is_primary": true}], "also_known_as": "", "date_of_birth": "", "date_of_death": "", "genders": [], "languages": [], "places_of_operation": [], "biography": "Associated British Picture Corporation (ABPC), originally British International Pictures (BIP), was a British film production, distribution and exhibition company active from 1927 until 1970 when it was absorbed into EMI. ABPC also owned approximately 500 cinemas in Britain by 1943, and in the 1950s and 60s owned a station on the ITV television network. The studio was partly owned by Warner Bros. from about 1940 until 1969; the American company also owned a stake in ABPC's distribution arm, Warner-Pathé, from 1958. It formed one half of a vertically integrated film industry duopoly in Britain with the Rank Organisation.", "biography_author": "Wikidata", "date_of_biography": "2023-09-05T17:15:08.204732+10:00", "external_links": [{"id": 3598, "uri": "https://en.wikipedia.org/wiki/Associated_British_Picture_Corporation"}], "uuid": "16b5c864-4db4-4474-ab3a-dc3ce15e7409", "source": {"name": "Vernon", "slug": "vernon"}, "source_identifier": "4993", "external_references": [{"id": 37452, "source": {"name": "Wikidata", "slug": "wikidata"}, "source_identifier": "Q200976"}, {"id": 53875, "source": {"name": "VIAF", "slug": "viaf"}, "source_identifier": "133053336"}, {"id": 53876, "source": {"name": "LOC Auth", "slug": "loc-auth"}, "source_identifier": "n93052284"}, {"id": 53877, "source": {"name": "WorldCat", "slug": "worldcat"}, "source_identifier": "lccn-n93052284"}], "date_modified": "2025-03-14T19:44:56.223644+11:00"}, {"id": 24012, "name": "Sidney Hayers", "roles_in_work": [{"id": 2756119, "title": "Five run away together. Five have a wonderful time", "work_id": 83362, "role": "co-director", "role_id": 959, "is_primary": true}, {"id": 2616174, "title": "A Night to remember (Captioned)", "work_id": 86829, "role": "editor", "role_id": 918, "is_primary": true}, {"id": 2072516, "title": "A Night to remember [DVD]", "work_id": 90686, "role": "editor", "role_id": 918, "is_primary": true}, {"id": 2756114, "title": "Five run away together. Five have a wonderful time", "work_id": 83362, "role": "producer", "role_id": 1089, "is_primary": true}, {"id": 2756135, "title": "Five go down to the sea", "work_id": 83364, "role": "producer", "role_id": 1089, "is_primary": true}, {"id": 2756141, "title": "Five go to Demon's Rock", "work_id": 83365, "role": "producer", "role_id": 1089, "is_primary": true}, {"id": 2756151, "title": "Five are together again. Parts 1 & 2", "work_id": 83368, "role": "producer", "role_id": 1089, "is_primary": true}, {"id": 2756157, "title": "Famous Five", "work_id": 114607, "role": "producer", "role_id": 1089, "is_primary": true}, {"id": 2243113, "title": "Five on Finniston Farm. Five get into a fix", "work_id": 83363, "role": "producer", "role_id": 1089, "is_primary": true}, {"id": 2243331, "title": "Five get into trouble. Parts 1 & 2", "work_id": 83366, "role": "producer/director", "role_id": 31, "is_primary": true}, {"id": 2756147, "title": "Five fall into adventure", "work_id": 83367, "role": "producer/director", "role_id": 31, "is_primary": true}], "also_known_as": "", "date_of_birth": "24 AUG 1921", "date_of_death": "08 FEB 2000", "genders": [{"id": 9, "name": "Male", "slug": "male"}], "languages": [{"id": 1, "name": "English", "slug": "english"}], "places_of_operation": [{"id": 10, "name": "United Kingdom", "slug": "united-kingdom"}], "biography": "Sidney Hayers (24 August 1921 – 8 February 2000) was a British film and television director, writer and producer.Born in Edinburgh, Scotland, Hayers began his career as a film editor. Among the films he directed are Circus of Horrors (1960), the occult thriller Night of the Eagle (1962), a musical Three Hats for Lisa (1965), and the adventure films The Southern Star (1969) and The Trap (1966).In British TV, his credits included The Persuaders! and The New Avengers; he later directed several American TV shows, including episodes of Magnum, P.I., The A-Team, Knight Rider, T. J. Hooker, Baywatch and The Famous Five.Hayers died of cancer in 2000 in Altea, Spain. His wife was the actress Erika Remberg. He had two children, Susan and Robert from his first marriage, to Patricia. Source: Wikidata; 01/08/2023", "biography_author": null, "date_of_biography": "2025-03-13T14:38:45.813423+11:00", "external_links": [{"id": 5163, "uri": "https://en.wikipedia.org/wiki/Sidney_Hayers"}], "uuid": "e5e0a2e0-04a4-4c4f-93e1-dc9e88a0ce7a", "source": {"name": "Vernon", "slug": "vernon"}, "source_identifier": "4112", "external_references": [{"id": 26159, "source": {"name": "Wikidata", "slug": "wikidata"}, "source_identifier": "Q522256"}, {"id": 31530, "source": {"name": "VIAF", "slug": "viaf"}, "source_identifier": "64191900"}, {"id": 31531, "source": {"name": "LOC Auth", "slug": "loc-auth"}, "source_identifier": "n92058120"}, {"id": 31532, "source": {"name": "WorldCat", "slug": "worldcat"}, "source_identifier": "lccn-n92058120"}], "date_modified": "2025-03-13T14:38:45.813732+11:00"}, {"id": 24009, "name": "Sveriges television", "roles_in_work": [{"id": 900912, "title": "The Miracle of life (Captioned)", "work_id": 81730, "role": "production company", "role_id": 941, "is_primary": true}, {"id": 2751252, "title": "Children of the long-beaked bird", "work_id": 97724, "role": "production company", "role_id": 941, "is_primary": true}, {"id": 902562, "title": "The Miracle of life", "work_id": 83336, "role": "production company", "role_id": 941, "is_primary": true}], "also_known_as": "", "date_of_birth": "", "date_of_death": "", "genders": [], "languages": [], "places_of_operation": [], "biography": "", "biography_author": null, "date_of_biography": "2023-05-09T13:30:15.570637+10:00", "external_links": [], "uuid": "4b81a6e3-bb89-43a2-bd6e-bd81edbfe719", "source": {"name": "Vernon", "slug": "vernon"}, "source_identifier": "4471", "external_references": [{"id": 33304, "source": {"name": "Wikidata", "slug": "wikidata"}, "source_identifier": "Q215363"}], "date_modified": "2025-03-13T00:40:19.312708+11:00"}]}