{"count": 28687, "next": "https://api.acmi.net.au/creators/?page=1947", "previous": "https://api.acmi.net.au/creators/?page=1945", "results": [{"id": 23610, "name": "Video Vision", "roles_in_work": [{"id": 2353839, "title": "The Hemp revolution", "work_id": 87167, "role": "production company", "role_id": 941, "is_primary": true}, {"id": 775103, "title": "Job search: the interview", "work_id": 81346, "role": "production company", "role_id": 941, "is_primary": true}, {"id": 2649337, "title": "Job search: the pre-interview", "work_id": 81345, "role": "production company", "role_id": 941, "is_primary": true}, {"id": 2752669, "title": "Open doors ... opportunities in trade training for women", "work_id": 98406, "role": "production company", "role_id": 941, "is_primary": true}], "also_known_as": "", "date_of_birth": "", "date_of_death": "", "genders": [], "languages": [], "places_of_operation": [], "biography": "", "biography_author": null, "date_of_biography": "2023-05-09T20:00:52.857484+10:00", "external_links": [], "uuid": "5593c708-78c8-4bcd-8428-a3e499f74877", "source": {"name": "Vernon", "slug": "vernon"}, "source_identifier": "14118", "external_references": [{"id": 43035, "source": {"name": "Wikidata", "slug": "wikidata"}, "source_identifier": "Q121091260"}], "date_modified": "2025-03-13T01:10:17.474505+11:00"}, {"id": 23608, "name": "Claude Berri", "roles_in_work": [{"id": 3104390, "title": "Le Vieil Homme et L' Enfant = the Old Man and the Boy", "work_id": 115891, "role": "director", "role_id": 938, "is_primary": true}, {"id": 1993624, "title": "Lucie Aubrac [Widescreen]", "work_id": 89347, "role": "director", "role_id": 938, "is_primary": true}, {"id": 1985628, "title": "Manon des Sources", "work_id": 81364, "role": "director", "role_id": 938, "is_primary": true}, {"id": 2475809, "title": "Jean de Florette", "work_id": 81344, "role": "director", "role_id": 938, "is_primary": true}, {"id": 1993663, "title": "Manon des Sources [Widescreen]", "work_id": 89380, "role": "director", "role_id": 938, "is_primary": true}, {"id": 2475807, "title": "Jean de Florette", "work_id": 81344, "role": "co-producer", "role_id": 915, "is_primary": true}, {"id": 1993661, "title": "Manon des Sources [Widescreen]", "work_id": 89380, "role": "co-producer", "role_id": 915, "is_primary": true}, {"id": 1985626, "title": "Manon des Sources", "work_id": 81364, "role": "co-producer", "role_id": 915, "is_primary": true}, {"id": 2233978, "title": "Queen Margot = La Reine Margot", "work_id": 85677, "role": "producer", "role_id": 1089, "is_primary": true}, {"id": 2330020, "title": "The Bear", "work_id": 81650, "role": "producer", "role_id": 1089, "is_primary": true}, {"id": 3104992, "title": "L'enfance Nue = Nude Childhood", "work_id": 116193, "role": "producer", "role_id": 1089, "is_primary": true}, {"id": 1989200, "title": "Germinal", "work_id": 85068, "role": "producer/director", "role_id": 31, "is_primary": true}], "also_known_as": "Claude Berel Langmann", "date_of_birth": "1934-07-01", "date_of_death": "2009-01-12", "genders": [{"id": 9, "name": "Male", "slug": "male"}], "languages": [{"id": 4, "name": "French", "slug": "french"}], "places_of_operation": [{"id": 17, "name": "France", "slug": "france"}], "biography": "Claude Berri (French: [bɛʁi]; 1 July 1934 – 12 January 2009) was a French film director, writer, producer, actor  and distributor.", "biography_author": "Wikidata", "date_of_biography": "2022-05-19T11:06:45.594735+10:00", "external_links": [{"id": 1833, "uri": "https://en.wikipedia.org/wiki/Claude_Berri"}], "uuid": "de819a14-2c1c-423d-b870-5fab1a6e3c49", "source": {"name": "Vernon", "slug": "vernon"}, "source_identifier": "17062", "external_references": [{"id": 7966, "source": {"name": "Wikidata", "slug": "wikidata"}, "source_identifier": "Q298905"}, {"id": 7967, "source": {"name": "VIAF", "slug": "viaf"}, "source_identifier": "110604952"}, {"id": 7968, "source": {"name": "LOC Auth", "slug": "loc-auth"}, "source_identifier": "no92010920"}, {"id": 7969, "source": {"name": "WorldCat", "slug": "worldcat"}, "source_identifier": "viaf-110604952"}], "date_modified": "2025-05-22T22:55:12.550916+10:00"}, {"id": 23607, "name": "Renn Productions", "roles_in_work": [{"id": 1985625, "title": "Manon des Sources", "work_id": 81364, "role": "production company", "role_id": 941, "is_primary": true}, {"id": 1993467, "title": "All about my mother = Todo sobre mi madre [Widescreen]", "work_id": 89156, "role": "production company", "role_id": 941, "is_primary": true}, {"id": 1989199, "title": "Germinal", "work_id": 85068, "role": "production company", "role_id": 941, "is_primary": true}, {"id": 1993622, "title": "Lucie Aubrac [Widescreen]", "work_id": 89347, "role": "production company", "role_id": 941, "is_primary": true}, {"id": 1993660, "title": "Manon des Sources [Widescreen]", "work_id": 89380, "role": "production company", "role_id": 941, "is_primary": true}, {"id": 2475806, "title": "Jean de Florette", "work_id": 81344, "role": "production company", "role_id": 941, "is_primary": true}, {"id": 2474800, "title": "French twist = Gazon maudit [Widescreen]", "work_id": 93516, "role": "production company", "role_id": 941, "is_primary": true}, {"id": 2330012, "title": "The Bear", "work_id": 81650, "role": "production company", "role_id": 941, "is_primary": true}, {"id": 2233959, "title": "Queen Margot = La Reine Margot", "work_id": 85677, "role": "production company", "role_id": 941, "is_primary": true}], "also_known_as": "", "date_of_birth": "", "date_of_death": "", "genders": [], "languages": [], "places_of_operation": [], "biography": "", "biography_author": null, "date_of_biography": "2023-08-17T15:12:58.431093+10:00", "external_links": [], "uuid": "f816e5e8-5511-434d-b7e2-8a3ba38274f7", "source": {"name": "Vernon", "slug": "vernon"}, "source_identifier": "11961", "external_references": [{"id": 41652, "source": {"name": "Wikidata", "slug": "wikidata"}, "source_identifier": "Q3425474"}, {"id": 55613, "source": {"name": "VIAF", "slug": "viaf"}, "source_identifier": "312727924"}, {"id": 55614, "source": {"name": "WorldCat", "slug": "worldcat"}, "source_identifier": "lccn-nr98011325"}], "date_modified": "2023-09-06T00:26:00.153227+10:00"}, {"id": 23606, "name": "Theodore Thomas", "roles_in_work": [{"id": 2750900, "title": "At the foot of Mt Fuji", "work_id": 97566, "role": "director", "role_id": 938, "is_primary": true}, {"id": 2765810, "title": "The Blue planet", "work_id": 82475, "role": "producer", "role_id": 1089, "is_primary": true}, {"id": 2765822, "title": "Gifts from the earth", "work_id": 82476, "role": "producer", "role_id": 1089, "is_primary": true}, {"id": 2352779, "title": "The Grizzlies", "work_id": 81342, "role": "producer/director", "role_id": 31, "is_primary": true}], "also_known_as": "", "date_of_birth": "", "date_of_death": "", "genders": [], "languages": [], "places_of_operation": [], "biography": "", "biography_author": null, "date_of_biography": "2023-05-09T19:59:08.598714+10:00", "external_links": [], "uuid": "c78e24f3-8c59-4c95-9669-469d7a4e47d3", "source": {"name": "Vernon", "slug": "vernon"}, "source_identifier": "29650", "external_references": [{"id": 32590, "source": {"name": "Wikidata", "slug": "wikidata"}, "source_identifier": "Q121034182"}], "date_modified": "2025-03-14T17:54:51.641946+11:00"}, {"id": 23605, "name": "Irwin Rosten", "roles_in_work": [{"id": 873583, "title": "The Grizzly bear: a case study in field research", "work_id": 88298, "role": "director", "role_id": 938, "is_primary": true}, {"id": 918380, "title": "Hollywood: the dream factory", "work_id": 96343, "role": "co-producer", "role_id": 915, "is_primary": true}, {"id": 3088518, "title": "A Nation transformed 1945-1965", "work_id": 96736, "role": "co-producers/directors", "role_id": 628, "is_primary": true}, {"id": 3088510, "title": "Japan: a century of imperialism", "work_id": 96778, "role": "co-producers/directors", "role_id": 628, "is_primary": true}, {"id": 3088526, "title": "Japan: the collective giant", "work_id": 96518, "role": "co-producers/directors", "role_id": 628, "is_primary": true}, {"id": 2356354, "title": "The Incredible human machine", "work_id": 81341, "role": "producer/director", "role_id": 31, "is_primary": true}, {"id": 2750780, "title": "Gold!", "work_id": 97498, "role": "producer/director", "role_id": 31, "is_primary": true}], "also_known_as": "", "date_of_birth": "1924-09-10", "date_of_death": "2010-05-23", "genders": [{"id": 9, "name": "Male", "slug": "male"}], "languages": [], "places_of_operation": [{"id": 1, "name": "United States of America", "slug": "united-states-of-america"}], "biography": "Irwin Rosten (September 10, 1924 – May 23, 2010) was an American documentary filmmaker who also produced several hour-long documentaries for television. He is best known for his 1975 film The Incredible Machine. He was twice nominated for an Academy Award and won an Emmy Award for the documentary Mysteries of the Mind.\nRosten was born on September 10, 1924, in Brooklyn. He began his career as a documentary filmmaker during the 1950s with the DuMont Television Network, where he was manager of news and public affairs. He moved to Los Angeles in 1954, where he produced the 1958 documentary Thou Shalt Not Kill for station KNXT about capital punishment. He was hired by KTLA in 1956, where his documentaries included the 1963 Splt Image about internal television programming produced by patients at Camarillo State Mental Hospital.  At KTLA, Rosten produced a higholy-regarded half-hour series of commentaries by Bill Stout on topics in the news.  The series was titled \"Line of Sight.\"\nDuring the 1960s, he made independent documentaries for the Wolper Organization and at Metro-Goldwyn-Mayer. He produced a number of one-hour nature and wildlife television specials for National Geographic, the last of which he produced in 1991.Rosten co-wrote the film narration (alongside James Dugan) for Conshelf Adventure (1966), the first film in the documentary TV series The Undersea World of Jacques Cousteau, featuring Jacques Cousteau, Philippe Cousteau, André Laban, Jacques Rollet, Christian Bonnici, Raymond Coll and Yves Omer. In addition to his collaboration with the Cousteau Team, Rosten produced such films as The Wolf Men, his 1969 film about the hunting of timberwolves, and The Incredible Machine (1975), both of which received nominations for the Academy Award for Best Documentary Feature. His 1974 film Birds Do It, Bees Do It was screened at the 1974 Cannes Film Festival. He earned Emmy Awards, a Peabody Award and Writers Guild of America Awards. The Incredible Machine, which included some of the first pictures taken inside the human body and presented on film, ranked as the most-watched program in Public Broadcasting Service until 1982.Rosten died at age 85 in his Hollywood home on May 23, 2010, due to vascular disease. He was survived by his wife, Marilyn Ryan, as well as by a son, Peter", "biography_author": "Wikidata", "date_of_biography": "2023-09-05T20:51:24.111027+10:00", "external_links": [{"id": 5883, "uri": "https://en.wikipedia.org/wiki/Irwin_Rosten"}], "uuid": "80b28551-de40-4097-bcc5-2b48d0978c7d", "source": {"name": "Vernon", "slug": "vernon"}, "source_identifier": "20893", "external_references": [{"id": 37810, "source": {"name": "Wikidata", "slug": "wikidata"}, "source_identifier": "Q6075114"}, {"id": 54720, "source": {"name": "VIAF", "slug": "viaf"}, "source_identifier": "67712055"}, {"id": 54721, "source": {"name": "LOC Auth", "slug": "loc-auth"}, "source_identifier": "n77005926"}, {"id": 54722, "source": {"name": "WorldCat", "slug": "worldcat"}, "source_identifier": "lccn-n77005926"}], "date_modified": "2025-03-17T10:55:22.149007+11:00"}, {"id": 23604, "name": "Raoul Walsh", "roles_in_work": [{"id": 1990307, "title": "White heat", "work_id": 85904, "role": "director", "role_id": 938, "is_primary": true}, {"id": 2270920, "title": "The Thief of Baghdad", "work_id": 81338, "role": "director", "role_id": 938, "is_primary": true}, {"id": 1995034, "title": "Jump for glory", "work_id": 91010, "role": "director", "role_id": 938, "is_primary": true}, {"id": 2331394, "title": "The Big trail (Captioned)", "work_id": 84219, "role": "director", "role_id": 938, "is_primary": true}, {"id": 2118341, "title": "Blackbeard the pirate", "work_id": 89569, "role": "director", "role_id": 938, "is_primary": true}, {"id": 1992907, "title": "The Strawberry blonde", "work_id": 88460, "role": "director", "role_id": 938, "is_primary": true}, {"id": 1992937, "title": "Objective Burma", "work_id": 88468, "role": "director", "role_id": 938, "is_primary": true}, {"id": 1988747, "title": "The Roaring Twenties", "work_id": 84786, "role": "director", "role_id": 938, "is_primary": true}, {"id": 1989189, "title": "High Sierra", "work_id": 85065, "role": "director", "role_id": 938, "is_primary": true}, {"id": 2130022, "title": "Captain Horatio Hornblower", "work_id": 85320, "role": "director", "role_id": 938, "is_primary": true}], "also_known_as": "", "date_of_birth": "1887-03-11", "date_of_death": "1980-12-31", "genders": [{"id": 9, "name": "Male", "slug": "male"}], "languages": [{"id": 1, "name": "English", "slug": "english"}], "places_of_operation": [{"id": 1, "name": "United States of America", "slug": "united-states-of-america"}], "biography": "Raoul Walsh (born Albert Edward Walsh; March 11, 1887 – December 31, 1980) was an American film director, actor, founding member of the Academy of Motion Picture Arts and Sciences (AMPAS), and the brother of silent screen actor George Walsh. He was known for portraying John Wilkes Booth in the silent classic The Birth of a Nation (1915) and for directing such films as the widescreen epic The Big Trail (1930) starring John Wayne in his first leading role, The Roaring Twenties starring James Cagney and Humphrey Bogart, High Sierra (1941) starring Ida Lupino and Humphrey Bogart, and White Heat (1949) starring James Cagney and Edmond O'Brien. He directed his last film in 1964.", "biography_author": "Wikidata", "date_of_biography": "2022-05-19T12:47:29.292967+10:00", "external_links": [{"id": 2911, "uri": "https://en.wikipedia.org/wiki/Raoul_Walsh"}], "uuid": "93c65143-c990-4810-961d-202ddd429ce8", "source": {"name": "Vernon", "slug": "vernon"}, "source_identifier": "27128", "external_references": [{"id": 12380, "source": {"name": "Wikidata", "slug": "wikidata"}, "source_identifier": "Q72756"}, {"id": 12381, "source": {"name": "VIAF", "slug": "viaf"}, "source_identifier": "7398455"}, {"id": 12382, "source": {"name": "LOC Auth", "slug": "loc-auth"}, "source_identifier": "n83204462"}, {"id": 12383, "source": {"name": "WorldCat", "slug": "worldcat"}, "source_identifier": "lccn-n83204462"}], "date_modified": "2023-09-13T12:32:07.359898+10:00"}, {"id": 23603, "name": "Landseer Film and Television Productions", "roles_in_work": [{"id": 2259096, "title": "Rusalka", "work_id": 95294, "role": "production company", "role_id": 941, "is_primary": true}, {"id": 2649334, "title": "La Stupenda: a portrait of Dame Joan Sutherland", "work_id": 81335, "role": "production company", "role_id": 941, "is_primary": true}], "also_known_as": "", "date_of_birth": "", "date_of_death": "", "genders": [], "languages": [], "places_of_operation": [], "biography": "", "biography_author": null, "date_of_biography": "2023-08-09T03:58:40.164347+10:00", "external_links": [], "uuid": "0dc0549f-8115-41f8-a953-c129c3262df6", "source": {"name": "Vernon", "slug": "vernon"}, "source_identifier": "9899", "external_references": [{"id": 42661, "source": {"name": "Wikidata", "slug": "wikidata"}, "source_identifier": "Q121035412"}], "date_modified": "2025-03-05T14:00:29.430970+11:00"}, {"id": 23602, "name": "Norris Brock", "roles_in_work": [{"id": 2215447, "title": "Egypt: Quest for Eternity", "work_id": 81333, "role": "director", "role_id": 938, "is_primary": true}], "also_known_as": "", "date_of_birth": "", "date_of_death": "", "genders": [], "languages": [], "places_of_operation": [], "biography": "", "biography_author": null, "date_of_biography": "2023-05-09T15:53:48.672081+10:00", "external_links": [], "uuid": "38f05ffd-faa6-4e59-ae4f-75c47b336293", "source": {"name": "Vernon", "slug": "vernon"}, "source_identifier": "25921", "external_references": [], "date_modified": "2023-06-14T16:33:30.576250+10:00"}, {"id": 23601, "name": "Cosmopolitan", "roles_in_work": [{"id": 2270935, "title": "The Thin man", "work_id": 81332, "role": "production company", "role_id": 941, "is_primary": true}, {"id": 2129889, "title": "Captain Blood", "work_id": 84184, "role": "production company", "role_id": 941, "is_primary": true}], "also_known_as": "", "date_of_birth": "", "date_of_death": "", "genders": [], "languages": [], "places_of_operation": [], "biography": "", "biography_author": null, "date_of_biography": "2023-05-09T17:45:10.782282+10:00", "external_links": [], "uuid": "fbcdd3bf-09cb-4454-8c7c-4e7d9e3238ac", "source": {"name": "Vernon", "slug": "vernon"}, "source_identifier": "7099", "external_references": [], "date_modified": "2023-06-14T16:33:30.576250+10:00"}, {"id": 23600, "name": "Andrea Florence", "roles_in_work": [{"id": 2088416, "title": "Amazon: The Flooded Forest", "work_id": 81331, "role": "producer", "role_id": 1089, "is_primary": true}], "also_known_as": "", "date_of_birth": "", "date_of_death": "", "genders": [], "languages": [], "places_of_operation": [], "biography": "", "biography_author": null, "date_of_biography": "2023-05-09T12:00:36.152890+10:00", "external_links": [], "uuid": "5af1b664-7c16-4a08-87fd-c1ee36cd5f3d", "source": {"name": "Vernon", "slug": "vernon"}, "source_identifier": "15123", "external_references": [], "date_modified": "2023-06-14T16:33:30.576250+10:00"}]}