{"count": 28682, "next": "https://api.acmi.net.au/creators/?page=2113", "previous": "https://api.acmi.net.au/creators/?page=2111", "results": [{"id": 20299, "name": "Jack White", "roles_in_work": [{"id": 831711, "title": "The Volunteer Youth Program", "work_id": 98647, "role": "director", "role_id": 938, "is_primary": true}, {"id": 2225071, "title": "Fab noir", "work_id": 77289, "role": "co-producer", "role_id": 915, "is_primary": true}, {"id": 1817102, "title": "Cold comfort", "work_id": 86726, "role": "producer", "role_id": 1089, "is_primary": true}, {"id": 1427468, "title": "Cold comfort", "work_id": 86726, "role": "producer/director", "role_id": 31, "is_primary": true}, {"id": 2648297, "title": "Cold comfort: Australia's nuclear responsibilities", "work_id": 78795, "role": "producer/director", "role_id": 31, "is_primary": true}], "also_known_as": "", "date_of_birth": "", "date_of_death": "", "genders": [], "languages": [], "places_of_operation": [], "biography": "", "biography_author": null, "date_of_biography": "2023-05-09T16:25:04.320415+10:00", "external_links": [], "uuid": "c4f3e9a7-5360-4045-ae52-db59ccf56c4e", "source": {"name": "Vernon", "slug": "vernon"}, "source_identifier": "21103", "external_references": [{"id": 33904, "source": {"name": "Wikidata", "slug": "wikidata"}, "source_identifier": "Q121126668"}], "date_modified": "2025-03-05T13:42:02.758338+11:00"}, {"id": 20296, "name": "Patrick Montgomery", "roles_in_work": [{"id": 2648567, "title": "The Compleat Beatles", "work_id": 79472, "role": "director", "role_id": 938, "is_primary": true}, {"id": 2408455, "title": "George Melies cinema magician", "work_id": 77535, "role": "co-director", "role_id": 959, "is_primary": true}, {"id": 863537, "title": "The Man you loved to hate", "work_id": 77287, "role": "producer/director", "role_id": 31, "is_primary": true}], "also_known_as": "", "date_of_birth": "", "date_of_death": "", "genders": [], "languages": [], "places_of_operation": [], "biography": "", "biography_author": null, "date_of_biography": "2023-08-11T17:00:09.830838+10:00", "external_links": [], "uuid": "4b44f35f-e29e-4264-8e80-19c07b7c097a", "source": {"name": "Vernon", "slug": "vernon"}, "source_identifier": "26144", "external_references": [], "date_modified": "2025-03-05T13:47:12.312160+11:00"}, {"id": 20294, "name": "Vic Atkinson", "roles_in_work": [{"id": 2469450, "title": "Tukiki and his search for a Merry Christmas", "work_id": 77285, "role": "director", "role_id": 938, "is_primary": true}], "also_known_as": "", "date_of_birth": "", "date_of_death": "", "genders": [], "languages": [], "places_of_operation": [], "biography": "", "biography_author": null, "date_of_biography": "2023-08-14T12:01:21.941371+10:00", "external_links": [], "uuid": "bcbaedfb-34ec-4239-a7d0-700fe10bf6bf", "source": {"name": "Vernon", "slug": "vernon"}, "source_identifier": "30083", "external_references": [{"id": 40149, "source": {"name": "Wikidata", "slug": "wikidata"}, "source_identifier": "Q117862750"}], "date_modified": "2023-09-06T02:04:07.671471+10:00"}, {"id": 20291, "name": "Pooled Film Services", "roles_in_work": [{"id": 2469447, "title": "Tukiki and his search for a Merry Christmas", "work_id": 77285, "role": "production company", "role_id": 941, "is_primary": true}], "also_known_as": "", "date_of_birth": "", "date_of_death": "", "genders": [], "languages": [], "places_of_operation": [], "biography": "", "biography_author": null, "date_of_biography": "2023-08-14T12:01:19.961726+10:00", "external_links": [], "uuid": "1ea5efe6-0d9e-4aee-b84b-70d3d5a50c31", "source": {"name": "Vernon", "slug": "vernon"}, "source_identifier": "11574", "external_references": [], "date_modified": "2023-08-14T12:01:19.961943+10:00"}, {"id": 20288, "name": "Jeffrey A. Burns", "roles_in_work": [{"id": 2647775, "title": "It's a great life", "work_id": 77282, "role": "director", "role_id": 938, "is_primary": true}, {"id": 2396594, "title": "[Scouts] on the move", "work_id": 116593, "role": "director", "role_id": 938, "is_primary": true}], "also_known_as": "", "date_of_birth": "", "date_of_death": "", "genders": [], "languages": [], "places_of_operation": [], "biography": "", "biography_author": null, "date_of_biography": "2023-08-11T12:39:16.643050+10:00", "external_links": [], "uuid": "e38cb3cd-de7f-4dae-a637-861b4a30f9ab", "source": {"name": "Vernon", "slug": "vernon"}, "source_identifier": "21661", "external_references": [], "date_modified": "2025-03-05T13:32:03.727274+11:00"}, {"id": 20287, "name": "Scout Association of Australia. Victoria Branch", "roles_in_work": [{"id": 2647774, "title": "It's a great life", "work_id": 77282, "role": "production company", "role_id": 941, "is_primary": true}, {"id": 2396593, "title": "[Scouts] on the move", "work_id": 116593, "role": "production company", "role_id": 941, "is_primary": true}], "also_known_as": "", "date_of_birth": "", "date_of_death": "", "genders": [], "languages": [], "places_of_operation": [], "biography": "", "biography_author": null, "date_of_biography": "2023-08-11T12:39:16.019129+10:00", "external_links": [], "uuid": "c5098df6-8529-457c-bfa5-a3f0689185ee", "source": {"name": "Vernon", "slug": "vernon"}, "source_identifier": "13447", "external_references": [], "date_modified": "2025-03-05T13:32:03.151558+11:00"}, {"id": 20286, "name": "Rodney Jay Post Productions", "roles_in_work": [{"id": 2647773, "title": "It's a great life", "work_id": 77282, "role": "production company", "role_id": 941, "is_primary": true}], "also_known_as": "", "date_of_birth": null, "date_of_death": null, "genders": [], "languages": [], "places_of_operation": [], "biography": "", "biography_author": null, "date_of_biography": null, "external_links": [], "uuid": "42d25525-a8a4-4ce8-8e20-efde2695a2be", "source": {"name": "Vernon", "slug": "vernon"}, "source_identifier": "12096", "external_references": [], "date_modified": "2025-03-05T13:32:02.495280+11:00"}, {"id": 20284, "name": "Vistascope Productions", "roles_in_work": [{"id": 2467998, "title": "The Right person for the job", "work_id": 77276, "role": "production company", "role_id": 941, "is_primary": true}], "also_known_as": "", "date_of_birth": "", "date_of_death": "", "genders": [], "languages": [], "places_of_operation": [], "biography": "", "biography_author": null, "date_of_biography": "2023-08-14T11:31:38.768318+10:00", "external_links": [], "uuid": "c67de0de-8321-4ada-8287-8957bee83e9d", "source": {"name": "Vernon", "slug": "vernon"}, "source_identifier": "14174", "external_references": [], "date_modified": "2023-08-14T11:31:38.768550+10:00"}, {"id": 20282, "name": "Tasmania Film Corporation", "roles_in_work": [{"id": 2409621, "title": "Hockey the basic skills", "work_id": 77275, "role": "production company", "role_id": 941, "is_primary": true}], "also_known_as": "", "date_of_birth": "", "date_of_death": "", "genders": [], "languages": [], "places_of_operation": [], "biography": "", "biography_author": null, "date_of_biography": "2023-08-11T17:26:03.162025+10:00", "external_links": [], "uuid": "4d874e01-5823-40fa-87cf-ed23bc012514", "source": {"name": "Vernon", "slug": "vernon"}, "source_identifier": "13174", "external_references": [], "date_modified": "2023-08-11T17:26:03.162269+10:00"}, {"id": 20281, "name": "Brenda Crowe", "roles_in_work": [{"id": 2469029, "title": "Through the eyes of a child", "work_id": 90915, "role": "producer", "role_id": 1089, "is_primary": true}, {"id": 1819818, "title": "Through the eyes of a child (TEFC)", "work_id": 77274, "role": "producer", "role_id": 1089, "is_primary": true}], "also_known_as": "", "date_of_birth": "", "date_of_death": "", "genders": [], "languages": [], "places_of_operation": [], "biography": "", "biography_author": null, "date_of_biography": "2023-08-14T11:51:57.667666+10:00", "external_links": [], "uuid": "f475454d-9c08-4fe8-b721-1e36fcabbe17", "source": {"name": "Vernon", "slug": "vernon"}, "source_identifier": "16172", "external_references": [], "date_modified": "2023-08-14T11:51:57.667910+10:00"}]}