{"count": 28687, "next": "https://api.acmi.net.au/creators/?page=1819", "previous": "https://api.acmi.net.au/creators/?page=1817", "results": [{"id": 25980, "name": "Fish International", "roles_in_work": [{"id": 2242023, "title": "Fish and chips cooking library. - Volume 1.", "work_id": 83856, "role": "production company", "role_id": 941, "is_primary": true}], "also_known_as": "", "date_of_birth": "", "date_of_death": "", "genders": [], "languages": [], "places_of_operation": [], "biography": "", "biography_author": null, "date_of_biography": "2023-05-09T16:55:31.838340+10:00", "external_links": [], "uuid": "96bb73df-e236-4f0f-b4d6-ba7774bf00c7", "source": {"name": "Vernon", "slug": "vernon"}, "source_identifier": "8371", "external_references": [{"id": 41467, "source": {"name": "Wikidata", "slug": "wikidata"}, "source_identifier": "Q121222570"}], "date_modified": "2023-09-05T19:44:15.869846+10:00"}, {"id": 25979, "name": "Stewart Faichney", "roles_in_work": [{"id": 2614529, "title": "Visions of Victoria", "work_id": 83855, "role": "director", "role_id": 938, "is_primary": true}, {"id": 2614530, "title": "Visions of Victoria", "work_id": 83855, "role": "narrator", "role_id": 499, "is_primary": false}], "also_known_as": "", "date_of_birth": "", "date_of_death": "", "genders": [], "languages": [], "places_of_operation": [], "biography": "", "biography_author": null, "date_of_biography": "2023-05-09T18:20:07.226713+10:00", "external_links": [], "uuid": "3021f332-3974-4a90-bd43-ca77d2d5c809", "source": {"name": "Vernon", "slug": "vernon"}, "source_identifier": "29221", "external_references": [{"id": 41833, "source": {"name": "Wikidata", "slug": "wikidata"}, "source_identifier": "Q121034457"}], "date_modified": "2025-02-26T20:12:05.021617+11:00"}, {"id": 25978, "name": "Janne Martin Video Productions", "roles_in_work": [{"id": 2614528, "title": "Visions of Victoria", "work_id": 83855, "role": "production company", "role_id": 941, "is_primary": true}], "also_known_as": "", "date_of_birth": "", "date_of_death": "", "genders": [], "languages": [], "places_of_operation": [], "biography": "", "biography_author": null, "date_of_biography": "2023-05-09T18:20:06.754710+10:00", "external_links": [], "uuid": "41931511-003b-4438-9d2e-cc37f624035e", "source": {"name": "Vernon", "slug": "vernon"}, "source_identifier": "9551", "external_references": [{"id": 38633, "source": {"name": "Wikidata", "slug": "wikidata"}, "source_identifier": "Q121057807"}], "date_modified": "2025-02-26T20:12:03.846167+11:00"}, {"id": 25974, "name": "Stuart Crowner", "roles_in_work": [{"id": 2789057, "title": "Formal gardens", "work_id": 83850, "role": "producer", "role_id": 1089, "is_primary": true}, {"id": 2789049, "title": "Rose and rose gardens", "work_id": 84185, "role": "producer", "role_id": 1089, "is_primary": true}, {"id": 2789048, "title": "Gardens of the world", "work_id": 115378, "role": "producer", "role_id": 1089, "is_primary": true}, {"id": 2789053, "title": "Tulips and spring bulbs", "work_id": 83849, "role": "producer", "role_id": 1089, "is_primary": true}, {"id": 2789061, "title": "Flower gardens", "work_id": 83851, "role": "producer", "role_id": 1089, "is_primary": true}, {"id": 2789065, "title": "Country gardens", "work_id": 83852, "role": "producer", "role_id": 1089, "is_primary": true}, {"id": 2789069, "title": "Public gardens and trees", "work_id": 83853, "role": "producer", "role_id": 1089, "is_primary": true}], "also_known_as": "", "date_of_birth": "", "date_of_death": "", "genders": [], "languages": [], "places_of_operation": [], "biography": "", "biography_author": null, "date_of_biography": "2023-05-09T17:38:49.162658+10:00", "external_links": [], "uuid": "5275db80-359d-450a-a182-2ae13693d1a9", "source": {"name": "Vernon", "slug": "vernon"}, "source_identifier": "29252", "external_references": [{"id": 33626, "source": {"name": "Wikidata", "slug": "wikidata"}, "source_identifier": "Q121337114"}], "date_modified": "2025-03-14T19:49:01.130739+11:00"}, {"id": 25973, "name": "Lex Van Os", "roles_in_work": [{"id": 2331615, "title": "Dogs", "work_id": 83847, "role": "producer", "role_id": 1089, "is_primary": true}], "also_known_as": "", "date_of_birth": "", "date_of_death": "", "genders": [], "languages": [], "places_of_operation": [], "biography": "", "biography_author": null, "date_of_biography": "2023-05-09T19:26:27.735371+10:00", "external_links": [], "uuid": "7ba51909-80cc-4a07-a081-80c97f2bc570", "source": {"name": "Vernon", "slug": "vernon"}, "source_identifier": "23822", "external_references": [], "date_modified": "2023-06-14T16:33:30.576250+10:00"}, {"id": 25972, "name": "FM-TV Entertainment", "roles_in_work": [{"id": 2331575, "title": "Cats", "work_id": 83846, "role": "production company", "role_id": 941, "is_primary": true}, {"id": 2331603, "title": "Talk to the animals", "work_id": 115407, "role": "production company", "role_id": 941, "is_primary": true}, {"id": 2331595, "title": "Horses", "work_id": 83848, "role": "production company", "role_id": 941, "is_primary": true}, {"id": 2331612, "title": "Dogs", "work_id": 83847, "role": "production company", "role_id": 941, "is_primary": true}], "also_known_as": "", "date_of_birth": "", "date_of_death": "", "genders": [], "languages": [], "places_of_operation": [], "biography": "", "biography_author": null, "date_of_biography": "2023-05-09T19:26:27.507135+10:00", "external_links": [], "uuid": "8551e706-1494-4a62-8f0a-c5a24cfe4128", "source": {"name": "Vernon", "slug": "vernon"}, "source_identifier": "8412", "external_references": [], "date_modified": "2023-06-14T16:33:30.576250+10:00"}, {"id": 25971, "name": "FM-TV Australia", "roles_in_work": [{"id": 2331565, "title": "The Birds", "work_id": 83845, "role": "production company", "role_id": 941, "is_primary": true}], "also_known_as": "", "date_of_birth": "", "date_of_death": "", "genders": [], "languages": [], "places_of_operation": [], "biography": "", "biography_author": null, "date_of_biography": "2023-05-09T19:26:23.549583+10:00", "external_links": [], "uuid": "e926057b-ec87-43a1-8af1-f9e07ee7db58", "source": {"name": "Vernon", "slug": "vernon"}, "source_identifier": "8410", "external_references": [{"id": 38582, "source": {"name": "Wikidata", "slug": "wikidata"}, "source_identifier": "Q121035912"}], "date_modified": "2023-09-05T19:44:56.268013+10:00"}, {"id": 25970, "name": "Bruce Franchini", "roles_in_work": [{"id": 2789062, "title": "Flower gardens", "work_id": 83851, "role": "director", "role_id": 938, "is_primary": true}, {"id": 2789054, "title": "Tulips and spring bulbs", "work_id": 83849, "role": "director", "role_id": 938, "is_primary": true}, {"id": 2789058, "title": "Formal gardens", "work_id": 83850, "role": "director", "role_id": 938, "is_primary": true}, {"id": 2789072, "title": "Gardens of the world", "work_id": 115378, "role": "director", "role_id": 938, "is_primary": true}, {"id": 2789050, "title": "Rose and rose gardens", "work_id": 84185, "role": "director", "role_id": 938, "is_primary": true}, {"id": 2788320, "title": "Festive salads", "work_id": 85476, "role": "director", "role_id": 938, "is_primary": true}, {"id": 2789066, "title": "Country gardens", "work_id": 83852, "role": "director", "role_id": 938, "is_primary": true}, {"id": 2788312, "title": "Healthful entertaining", "work_id": 85475, "role": "director", "role_id": 938, "is_primary": true}, {"id": 2789070, "title": "Public gardens and trees", "work_id": 83853, "role": "director", "role_id": 938, "is_primary": true}, {"id": 2788326, "title": "Cooking at the Academy", "work_id": 115356, "role": "producer", "role_id": 1089, "is_primary": true}, {"id": 2788191, "title": "Braising and stewing", "work_id": 83833, "role": "producer", "role_id": 1089, "is_primary": true}, {"id": 2788282, "title": "Stocks and sauces", "work_id": 83844, "role": "producer", "role_id": 1089, "is_primary": true}, {"id": 2788202, "title": "Desserts", "work_id": 83835, "role": "producer", "role_id": 1089, "is_primary": true}, {"id": 2788209, "title": "Frying", "work_id": 83836, "role": "producer", "role_id": 1089, "is_primary": true}, {"id": 2788215, "title": "Grilling", "work_id": 83837, "role": "producer", "role_id": 1089, "is_primary": true}, {"id": 2788220, "title": "Ice cream and frozen desserts", "work_id": 83838, "role": "producer", "role_id": 1089, "is_primary": true}, {"id": 2788226, "title": "Lighter cuisine", "work_id": 83839, "role": "producer", "role_id": 1089, "is_primary": true}, {"id": 2788231, "title": "Pasta", "work_id": 83840, "role": "producer", "role_id": 1089, "is_primary": true}, {"id": 2788237, "title": "Poaching and steaming", "work_id": 83841, "role": "producer", "role_id": 1089, "is_primary": true}, {"id": 2788249, "title": "Sauteing", "work_id": 83842, "role": "producer", "role_id": 1089, "is_primary": true}, {"id": 2788275, "title": "Soups", "work_id": 83843, "role": "producer", "role_id": 1089, "is_primary": true}, {"id": 2788197, "title": "Charcuterie,sausages and pate", "work_id": 83834, "role": "producer", "role_id": 1089, "is_primary": true}, {"id": 2788298, "title": "Candy & chocolate", "work_id": 84734, "role": "producer", "role_id": 1089, "is_primary": true}], "also_known_as": "", "date_of_birth": "", "date_of_death": "", "genders": [], "languages": [], "places_of_operation": [], "biography": "", "biography_author": null, "date_of_biography": "2023-05-09T18:57:46.279343+10:00", "external_links": [], "uuid": "180b24b3-5bed-4ff9-8efd-f881e3339a8e", "source": {"name": "Vernon", "slug": "vernon"}, "source_identifier": "16302", "external_references": [{"id": 43185, "source": {"name": "Wikidata", "slug": "wikidata"}, "source_identifier": "Q121315697"}], "date_modified": "2025-03-14T19:49:01.724915+11:00"}, {"id": 25964, "name": "Jeremy Bradshaw", "roles_in_work": [{"id": 2770937, "title": "Wolf: the spanish outlaw", "work_id": 83830, "role": "producer", "role_id": 1089, "is_primary": true}], "also_known_as": "", "date_of_birth": "", "date_of_death": "", "genders": [], "languages": [], "places_of_operation": [], "biography": "", "biography_author": null, "date_of_biography": "2023-05-09T19:56:01.048926+10:00", "external_links": [], "uuid": "b6ead100-7467-4153-97f1-db9d464ffda6", "source": {"name": "Vernon", "slug": "vernon"}, "source_identifier": "21736", "external_references": [{"id": 40648, "source": {"name": "Wikidata", "slug": "wikidata"}, "source_identifier": "Q121035156"}], "date_modified": "2025-03-14T18:20:51.924778+11:00"}, {"id": 25963, "name": "Joe Zappulla", "roles_in_work": [{"id": 2354624, "title": "The Home buyers' bible", "work_id": 83829, "role": "director", "role_id": 938, "is_primary": true}], "also_known_as": "", "date_of_birth": "", "date_of_death": "", "genders": [], "languages": [], "places_of_operation": [], "biography": "", "biography_author": null, "date_of_biography": "2023-05-09T20:01:52.629625+10:00", "external_links": [], "uuid": "1b38c776-52fd-4501-b3c9-c472d26a1f4f", "source": {"name": "Vernon", "slug": "vernon"}, "source_identifier": "22063", "external_references": [{"id": 32991, "source": {"name": "Wikidata", "slug": "wikidata"}, "source_identifier": "Q121126724"}], "date_modified": "2023-09-05T21:30:38.568557+10:00"}]}