{"count": 28687, "next": "https://api.acmi.net.au/creators/?page=340", "previous": "https://api.acmi.net.au/creators/?page=338", "results": [{"id": 82217, "name": "Kiev Film Studio", "roles_in_work": [{"id": 2297098, "title": "Shchors", "work_id": 115695, "role": "production company", "role_id": 941, "is_primary": true}], "also_known_as": "", "date_of_birth": "", "date_of_death": "", "genders": [], "languages": [], "places_of_operation": [], "biography": "", "biography_author": null, "date_of_biography": "2023-05-09T18:29:34.286902+10:00", "external_links": [], "uuid": "ce5b75ba-2f47-408d-875e-ceec48130418", "source": {"name": "Vernon", "slug": "vernon"}, "source_identifier": "30883", "external_references": [{"id": 41371, "source": {"name": "Wikidata", "slug": "wikidata"}, "source_identifier": "Q121223036"}], "date_modified": "2023-09-05T22:08:34.500323+10:00"}, {"id": 82216, "name": "Gaumont International", "roles_in_work": [{"id": 2650446, "title": "Le Telephone rose = The Pink telephone", "work_id": 115693, "role": "production company", "role_id": 941, "is_primary": true}], "also_known_as": "", "date_of_birth": null, "date_of_death": null, "genders": [], "languages": [], "places_of_operation": [], "biography": "", "biography_author": null, "date_of_biography": null, "external_links": [], "uuid": "ac281157-e9ab-40b9-8c7e-4569405b65a8", "source": {"name": "Vernon", "slug": "vernon"}, "source_identifier": "30882", "external_references": [{"id": 32651, "source": {"name": "Wikidata", "slug": "wikidata"}, "source_identifier": "Q121143809"}], "date_modified": "2025-03-05T14:20:10.337053+11:00"}, {"id": 82215, "name": "R.D. Bansal Productions", "roles_in_work": [{"id": 2650440, "title": "Charulata = The Lonely wife", "work_id": 115690, "role": "production company", "role_id": 941, "is_primary": true}], "also_known_as": "", "date_of_birth": "", "date_of_death": "", "genders": [], "languages": [], "places_of_operation": [], "biography": "", "biography_author": null, "date_of_biography": "2023-05-09T13:29:58.523413+10:00", "external_links": [], "uuid": "418f8bab-7421-4890-aab6-e576557ca3c4", "source": {"name": "Vernon", "slug": "vernon"}, "source_identifier": "30881", "external_references": [{"id": 37369, "source": {"name": "Wikidata", "slug": "wikidata"}, "source_identifier": "Q121144270"}], "date_modified": "2025-03-05T14:20:07.220967+11:00"}, {"id": 82214, "name": "Jose Pinto", "roles_in_work": [{"id": 2650438, "title": "Pixote", "work_id": 115689, "role": "producer", "role_id": 1089, "is_primary": true}], "also_known_as": "", "date_of_birth": "", "date_of_death": "", "genders": [], "languages": [], "places_of_operation": [], "biography": "", "biography_author": null, "date_of_biography": "2023-05-09T15:37:29.490399+10:00", "external_links": [], "uuid": "f5677198-036c-4854-8c20-773a5c753a3a", "source": {"name": "Vernon", "slug": "vernon"}, "source_identifier": "30971", "external_references": [{"id": 35865, "source": {"name": "Wikidata", "slug": "wikidata"}, "source_identifier": "Q121035802"}], "date_modified": "2025-03-05T14:20:05.793699+11:00"}, {"id": 82213, "name": "Paulo Francini", "roles_in_work": [{"id": 2650437, "title": "Pixote", "work_id": 115689, "role": "producer", "role_id": 1089, "is_primary": true}], "also_known_as": "", "date_of_birth": "", "date_of_death": "", "genders": [], "languages": [], "places_of_operation": [], "biography": "", "biography_author": null, "date_of_biography": "2023-05-09T15:37:29.250510+10:00", "external_links": [], "uuid": "520ca5c2-c49c-4e54-8103-160127477c1b", "source": {"name": "Vernon", "slug": "vernon"}, "source_identifier": "30970", "external_references": [{"id": 34938, "source": {"name": "Wikidata", "slug": "wikidata"}, "source_identifier": "Q121223053"}], "date_modified": "2025-03-05T14:20:05.224253+11:00"}, {"id": 82212, "name": "Embrafilme", "roles_in_work": [{"id": 2650436, "title": "Pixote", "work_id": 115689, "role": "production company", "role_id": 941, "is_primary": true}], "also_known_as": "", "date_of_birth": "", "date_of_death": "", "genders": [], "languages": [], "places_of_operation": [], "biography": "Embrafilme (in full: Empresa Brasileira de Filmes S.A.) was a Brazilian State-owned company created on September 12, 1969 for production, funding and distribution of Brazilian movies. The company was dissolved on March 16, 1990 by the National Privatization Program, launched by the government of President Fernando Collor.Currently, the regulatory and financing functions of the Brazilian audiovisual sector are maintained by Ancine, a federal agency created in 2001. The distribution area is now the responsibility of the private sector. Source: Wikidata; 01/08/2023", "biography_author": null, "date_of_biography": "2025-03-05T14:20:04.650208+11:00", "external_links": [{"id": 3941, "uri": "https://en.wikipedia.org/wiki/Embrafilme"}], "uuid": "aed38039-2595-4013-9125-5f50d3407a8d", "source": {"name": "Vernon", "slug": "vernon"}, "source_identifier": "30880", "external_references": [{"id": 26967, "source": {"name": "Wikidata", "slug": "wikidata"}, "source_identifier": "Q16056309"}, {"id": 28327, "source": {"name": "VIAF", "slug": "viaf"}, "source_identifier": "172352134"}, {"id": 28328, "source": {"name": "WorldCat", "slug": "worldcat"}, "source_identifier": "viaf-172352134"}], "date_modified": "2025-03-05T14:20:04.650444+11:00"}, {"id": 82211, "name": "Paulo Francini Productions", "roles_in_work": [{"id": 2650435, "title": "Pixote", "work_id": 115689, "role": "production company", "role_id": 941, "is_primary": true}], "also_known_as": "", "date_of_birth": "", "date_of_death": "", "genders": [], "languages": [], "places_of_operation": [], "biography": "", "biography_author": null, "date_of_biography": "2023-05-09T15:37:28.791318+10:00", "external_links": [], "uuid": "f3792988-c6a2-4015-8041-b11538feeb87", "source": {"name": "Vernon", "slug": "vernon"}, "source_identifier": "30879", "external_references": [{"id": 42094, "source": {"name": "Wikidata", "slug": "wikidata"}, "source_identifier": "Q121298829"}], "date_modified": "2025-03-05T14:20:04.073120+11:00"}, {"id": 82210, "name": "Jose Pinto Productions", "roles_in_work": [{"id": 2650434, "title": "Pixote", "work_id": 115689, "role": "production company", "role_id": 941, "is_primary": true}], "also_known_as": "", "date_of_birth": "", "date_of_death": "", "genders": [], "languages": [], "places_of_operation": [], "biography": "", "biography_author": null, "date_of_biography": "2023-05-09T15:37:28.555017+10:00", "external_links": [], "uuid": "6018ec6a-6e17-4eaa-acd6-8c1fdbace177", "source": {"name": "Vernon", "slug": "vernon"}, "source_identifier": "30878", "external_references": [{"id": 42538, "source": {"name": "Wikidata", "slug": "wikidata"}, "source_identifier": "Q121143868"}], "date_modified": "2025-03-05T14:20:03.501110+11:00"}, {"id": 82209, "name": "Societe des Films Sonores Tobis", "roles_in_work": [{"id": 2650432, "title": "La Kermesse Heroique = Carnival in Flanders", "work_id": 115688, "role": "production company", "role_id": 941, "is_primary": true}], "also_known_as": "", "date_of_birth": null, "date_of_death": null, "genders": [], "languages": [], "places_of_operation": [], "biography": "", "biography_author": null, "date_of_biography": null, "external_links": [], "uuid": "ea8b7315-0ff6-41ac-aeee-173f3a9af143", "source": {"name": "Vernon", "slug": "vernon"}, "source_identifier": "30876", "external_references": [{"id": 33096, "source": {"name": "Wikidata", "slug": "wikidata"}, "source_identifier": "Q121126003"}], "date_modified": "2025-03-05T14:20:01.875918+11:00"}, {"id": 82208, "name": "Cinevog Films", "roles_in_work": [{"id": 2650415, "title": "La Rupture = The Breakup", "work_id": 115680, "role": "production company", "role_id": 941, "is_primary": true}], "also_known_as": "", "date_of_birth": null, "date_of_death": null, "genders": [], "languages": [], "places_of_operation": [], "biography": "", "biography_author": null, "date_of_biography": null, "external_links": [], "uuid": "4abf6f41-e1c6-4646-a500-1c25a2fc3d3f", "source": {"name": "Vernon", "slug": "vernon"}, "source_identifier": "30875", "external_references": [{"id": 38056, "source": {"name": "Wikidata", "slug": "wikidata"}, "source_identifier": "Q121079221"}], "date_modified": "2025-03-05T14:16:04.416446+11:00"}]}