{"count": 28687, "next": "https://api.acmi.net.au/creators/?page=1975", "previous": "https://api.acmi.net.au/creators/?page=1973", "results": [{"id": 23078, "name": "Bioskop Film", "roles_in_work": [{"id": 1991809, "title": "Lost honour of Katharina Blum = Die verlorene Ehre der Katharina Blum", "work_id": 87495, "role": "production company", "role_id": 941, "is_primary": true}, {"id": 804971, "title": "The Promise = Das Versprechen [Widescreen]", "work_id": 90283, "role": "production company", "role_id": 941, "is_primary": true}, {"id": 782940, "title": "The Michael Nyman songbook", "work_id": 83649, "role": "production company", "role_id": 941, "is_primary": true}, {"id": 773594, "title": "Labour of love = Heller wahn", "work_id": 80918, "role": "production company", "role_id": 941, "is_primary": true}, {"id": 2319692, "title": "Swann in Love = Un Amour de Swann", "work_id": 81391, "role": "production company", "role_id": 941, "is_primary": true}, {"id": 802538, "title": "Voyager = Homo Faber", "work_id": 89391, "role": "production company", "role_id": 941, "is_primary": true}], "also_known_as": "", "date_of_birth": "", "date_of_death": "", "genders": [], "languages": [], "places_of_operation": [], "biography": "", "biography_author": null, "date_of_biography": "2023-05-09T19:10:11.464551+10:00", "external_links": [], "uuid": "df1a9251-cf2e-4c15-b927-35961fdaa627", "source": {"name": "Vernon", "slug": "vernon"}, "source_identifier": "4242", "external_references": [{"id": 41220, "source": {"name": "Wikidata", "slug": "wikidata"}, "source_identifier": "Q65589420"}], "date_modified": "2023-09-05T18:06:12.098891+10:00"}, {"id": 23077, "name": "Istvan Szabo", "roles_in_work": [{"id": 1995753, "title": "Mephisto [DVD]", "work_id": 92267, "role": "director", "role_id": 938, "is_primary": true}, {"id": 1986726, "title": "Hanussen", "work_id": 83021, "role": "director", "role_id": 938, "is_primary": true}, {"id": 2317548, "title": "Sunshine [DVD]", "work_id": 93051, "role": "director", "role_id": 938, "is_primary": true}, {"id": 1997298, "title": "Meeting Venus", "work_id": 93237, "role": "director", "role_id": 938, "is_primary": true}, {"id": 882593, "title": "25 Firemens Street = Tuzolto Utca 25 [NTSC]", "work_id": 93265, "role": "director", "role_id": 938, "is_primary": true}, {"id": 1995759, "title": "Colonel Redl = Oberst Redl [DVD]", "work_id": 92268, "role": "director", "role_id": 938, "is_primary": true}], "also_known_as": "", "date_of_birth": "", "date_of_death": "", "genders": [], "languages": [], "places_of_operation": [], "biography": "", "biography_author": null, "date_of_biography": "2023-05-09T19:07:13.492368+10:00", "external_links": [], "uuid": "3a316f92-6523-4ca5-b75d-6f6690724eb8", "source": {"name": "Vernon", "slug": "vernon"}, "source_identifier": "20916", "external_references": [], "date_modified": "2023-06-14T16:33:30.576250+10:00"}, {"id": 23074, "name": "Clear Horizon Films", "roles_in_work": [{"id": 2649130, "title": "Scouts: the rise of the world scouting movement", "work_id": 80917, "role": "production company", "role_id": 941, "is_primary": true}], "also_known_as": "", "date_of_birth": "", "date_of_death": "", "genders": [], "languages": [], "places_of_operation": [], "biography": "", "biography_author": null, "date_of_biography": "2023-05-09T17:33:41.847594+10:00", "external_links": [], "uuid": "120aab8b-138c-4222-9321-000f7b6c9f24", "source": {"name": "Vernon", "slug": "vernon"}, "source_identifier": "6815", "external_references": [{"id": 35623, "source": {"name": "Wikidata", "slug": "wikidata"}, "source_identifier": "Q121271427"}], "date_modified": "2025-03-05T13:56:35.152270+11:00"}, {"id": 23072, "name": "Richard Lerner", "roles_in_work": [{"id": 2290252, "title": "What Happened to Kerouac?", "work_id": 80916, "role": "co-director", "role_id": 959, "is_primary": true}, {"id": 2475994, "title": "Instinct", "work_id": 95471, "role": "co-producer", "role_id": 915, "is_primary": true}, {"id": 2290250, "title": "What Happened to Kerouac?", "work_id": 80916, "role": "producer", "role_id": 1089, "is_primary": true}], "also_known_as": "", "date_of_birth": "", "date_of_death": "", "genders": [{"id": 9, "name": "Male", "slug": "male"}], "languages": [], "places_of_operation": [{"id": 1, "name": "United States of America", "slug": "united-states-of-america"}], "biography": "", "biography_author": null, "date_of_biography": "2023-08-17T15:30:51.785801+10:00", "external_links": [], "uuid": "43e8132f-0390-4d30-b6a4-a1d01bc9ae29", "source": {"name": "Vernon", "slug": "vernon"}, "source_identifier": "27444", "external_references": [{"id": 41236, "source": {"name": "Wikidata", "slug": "wikidata"}, "source_identifier": "Q64847396"}], "date_modified": "2023-09-06T00:30:40.457797+10:00"}, {"id": 23071, "name": "Peter Brook", "roles_in_work": [{"id": 1984947, "title": "Lord of the Flies", "work_id": 80915, "role": "director", "role_id": 938, "is_primary": true}, {"id": 2330586, "title": "The Beggar's opera", "work_id": 94464, "role": "director", "role_id": 938, "is_primary": true}, {"id": 2754010, "title": "King Lear", "work_id": 99020, "role": "director", "role_id": 938, "is_primary": true}, {"id": 2614586, "title": "The Mahabharata; Episode 3: The War.", "work_id": 83937, "role": "director", "role_id": 938, "is_primary": true}, {"id": 783900, "title": "The Mahabharata; Episode 2: Exile in the forest.", "work_id": 83936, "role": "director", "role_id": 938, "is_primary": true}, {"id": 783896, "title": "The Mahabharata. Episode 1: A Game of dice", "work_id": 83935, "role": "director", "role_id": 938, "is_primary": true}], "also_known_as": "Peter Stephen Paul Brook", "date_of_birth": "21 MAR 1925", "date_of_death": "02 JUL 2022", "genders": [{"id": 9, "name": "Male", "slug": "male"}], "languages": [{"id": 1, "name": "English", "slug": "english"}, {"id": 4, "name": "French", "slug": "french"}], "places_of_operation": [{"id": 10, "name": "United Kingdom", "slug": "united-kingdom"}], "biography": "Peter Stephen Paul Brook  (21 March 1925 – 2 July 2022) was an English theatre and film director. He worked first in England, from 1945 at the Birmingham Repertory Theatre, from 1947 at the Royal Opera House, and from 1962 for the Royal Shakespeare Company (RSC). With them, he directed the first English-language production in 1964 of Marat/Sade by Peter Weiss, which was transferred to Broadway in 1965 and won the Tony Award for Best Play, and Brook was named Best Director. He also directed films such as an iconic version of Lord of the Flies in 1963.\n\nHe was based in France from the early 1970s, where he founded an international theatre company, playing in developing countries, in an approach of great simplicity. He was often referred to as \"our greatest living theatre director\". He won multiple Emmy Awards, a Laurence Olivier Award, the Japanese Praemium Imperiale, the Prix Italia and the Europe Theatre Prize. In 2021, he was awarded India's Padma Shri. Source: Wikidata; 01/08/2023", "biography_author": null, "date_of_biography": "2025-03-13T01:36:20.356533+11:00", "external_links": [{"id": 4868, "uri": "https://en.wikipedia.org/wiki/Peter_Brook"}], "uuid": "26dd7e06-e134-4e7a-b1fa-98c62e3cdda5", "source": {"name": "Vernon", "slug": "vernon"}, "source_identifier": "26479", "external_references": [{"id": 25623, "source": {"name": "Wikidata", "slug": "wikidata"}, "source_identifier": "Q49760"}, {"id": 30755, "source": {"name": "VIAF", "slug": "viaf"}, "source_identifier": "54145090"}, {"id": 30756, "source": {"name": "LOC Auth", "slug": "loc-auth"}, "source_identifier": "n2005072496"}, {"id": 30757, "source": {"name": "WorldCat", "slug": "worldcat"}, "source_identifier": "lccn-n2005072496"}], "date_modified": "2025-03-13T01:36:20.356834+11:00"}, {"id": 23070, "name": "Lewis M. Allen", "roles_in_work": [{"id": 1984946, "title": "Lord of the Flies", "work_id": 80915, "role": "producer", "role_id": 1089, "is_primary": true}, {"id": 2225216, "title": "Fahrenheit 451", "work_id": 84561, "role": "producer", "role_id": 1089, "is_primary": true}], "also_known_as": "Lewis Maitfield Allen", "date_of_birth": "1922-06-27", "date_of_death": "2003-12-08", "genders": [{"id": 9, "name": "Male", "slug": "male"}], "languages": [{"id": 1, "name": "English", "slug": "english"}], "places_of_operation": [{"id": 1, "name": "United States of America", "slug": "united-states-of-america"}], "biography": "Lewis Maitland Allen (June 27, 1922 Berryville, Virginia – December 8, 2003 New York City) was an American film producer and Tony Award winning Broadway producer.  He was married to screenwriter Jay Presson Allen. Allen was nominated for seven Tony Awards and won three, for Annie (1977), I'm Not Rappaport (1986) and Master Class (1996).On Broadway, he was renowned for producing Annie and Master Class and in film was known for producing film versions of The Connection (1961), and Fahrenheit 451 (1966), plus both English language versions of Lord of the Flies released in 1963 and 1990.", "biography_author": "Wikidata", "date_of_biography": "2022-05-19T12:15:58.701946+10:00", "external_links": [{"id": 2578, "uri": "https://en.wikipedia.org/wiki/Lewis_M._Allen"}], "uuid": "0917812f-6e7b-438b-a1fb-7d65c7592878", "source": {"name": "Vernon", "slug": "vernon"}, "source_identifier": "23815", "external_references": [{"id": 11012, "source": {"name": "Wikidata", "slug": "wikidata"}, "source_identifier": "Q3828487"}, {"id": 11013, "source": {"name": "VIAF", "slug": "viaf"}, "source_identifier": "87045094"}, {"id": 11014, "source": {"name": "LOC Auth", "slug": "loc-auth"}, "source_identifier": "nr98043120"}, {"id": 11015, "source": {"name": "WorldCat", "slug": "worldcat"}, "source_identifier": "lccn-n50022972"}], "date_modified": "2023-09-13T12:30:59.933344+10:00"}, {"id": 23067, "name": "Richard Brooks", "roles_in_work": [{"id": 773581, "title": "Cat on a hot tin roof", "work_id": 80913, "role": "director", "role_id": 938, "is_primary": true}, {"id": 1991898, "title": "The Last time I saw Paris", "work_id": 87614, "role": "director", "role_id": 938, "is_primary": true}, {"id": 1999682, "title": "The Last time I saw Paris", "work_id": 94653, "role": "director", "role_id": 938, "is_primary": true}, {"id": 1989268, "title": "Looking for Mr. Goodbar (E)", "work_id": 85083, "role": "director", "role_id": 938, "is_primary": true}, {"id": 2334482, "title": "The Brothers Karamazov", "work_id": 82979, "role": "director", "role_id": 938, "is_primary": true}, {"id": 2344990, "title": "The Drover's wife: a short story by Henry Lawson", "work_id": 96005, "role": "performer", "role_id": 576, "is_primary": false}, {"id": 1987173, "title": "In cold blood", "work_id": 83228, "role": "producer/director", "role_id": 31, "is_primary": true}], "also_known_as": "Reuben Sax", "date_of_birth": "1912-05-18", "date_of_death": "1992-03-11", "genders": [{"id": 9, "name": "Male", "slug": "male"}], "languages": [{"id": 1, "name": "English", "slug": "english"}], "places_of_operation": [{"id": 1, "name": "United States of America", "slug": "united-states-of-america"}], "biography": "Richard Brooks (May 18, 1912 – March 11, 1992) was an American screenwriter, film director, novelist and film producer. Nominated for eight Oscars in his career, he was best known for Blackboard Jungle (1955), Cat on a Hot Tin Roof (1958), Elmer Gantry (1960; for which he won the Academy Award for Best Adapted Screenplay), In Cold Blood (1967) and Looking for Mr. Goodbar (1977).", "biography_author": "Wikidata", "date_of_biography": "2022-05-19T12:49:23.445304+10:00", "external_links": [{"id": 2931, "uri": "https://en.wikipedia.org/wiki/Richard_Brooks"}], "uuid": "2e768cd4-a784-4ef3-840e-9c410fe1004a", "source": {"name": "Vernon", "slug": "vernon"}, "source_identifier": "27338", "external_references": [{"id": 12463, "source": {"name": "Wikidata", "slug": "wikidata"}, "source_identifier": "Q434342"}, {"id": 12464, "source": {"name": "VIAF", "slug": "viaf"}, "source_identifier": "61564437"}, {"id": 12465, "source": {"name": "LOC Auth", "slug": "loc-auth"}, "source_identifier": "n87814575"}, {"id": 12466, "source": {"name": "WorldCat", "slug": "worldcat"}, "source_identifier": "lccn-n87814575"}], "date_modified": "2023-09-13T12:32:11.867087+10:00"}, {"id": 23066, "name": "Avon", "roles_in_work": [{"id": 2334468, "title": "The Brothers Karamazov", "work_id": 82979, "role": "production company", "role_id": 941, "is_primary": true}, {"id": 773579, "title": "Cat on a hot tin roof", "work_id": 80913, "role": "production company", "role_id": 941, "is_primary": true}], "also_known_as": "", "date_of_birth": "", "date_of_death": "", "genders": [], "languages": [], "places_of_operation": [], "biography": "", "biography_author": null, "date_of_biography": "2023-05-09T19:30:02.270628+10:00", "external_links": [], "uuid": "f84a84e1-fb9c-47e2-bf13-2d042e744770", "source": {"name": "Vernon", "slug": "vernon"}, "source_identifier": "5640", "external_references": [{"id": 38794, "source": {"name": "Wikidata", "slug": "wikidata"}, "source_identifier": "Q121222517"}], "date_modified": "2023-09-05T17:51:55.826319+10:00"}, {"id": 23064, "name": "Luchino Visconti", "roles_in_work": [{"id": 1994301, "title": "Senso = Wanton Countess", "work_id": 90083, "role": "director", "role_id": 938, "is_primary": true}, {"id": 1984940, "title": "Ossessione", "work_id": 80912, "role": "director", "role_id": 938, "is_primary": true}, {"id": 924191, "title": "The Leopard = Il Gattopardo", "work_id": 93462, "role": "director", "role_id": 938, "is_primary": true}, {"id": 1984937, "title": "Rocco and his brothers", "work_id": 80910, "role": "director", "role_id": 938, "is_primary": true}, {"id": 2356203, "title": "The Innocent = The Intruder = L'Innocente", "work_id": 82355, "role": "director", "role_id": 938, "is_primary": true}, {"id": 1990360, "title": "The Earth trembles = La terra trema", "work_id": 86006, "role": "director", "role_id": 938, "is_primary": true}, {"id": 2181923, "title": "Death in Venice", "work_id": 83066, "role": "producer/director", "role_id": 31, "is_primary": true}], "also_known_as": "", "date_of_birth": "1906-11-02", "date_of_death": "1976-03-17", "genders": [{"id": 9, "name": "Male", "slug": "male"}], "languages": [{"id": 6, "name": "Italian", "slug": "italian"}], "places_of_operation": [{"id": 19, "name": "Italy", "slug": "italy"}], "biography": "Luchino Visconti di Modrone, Count of Lonate Pozzolo (Italian: [luˈkiːno visˈkonti di moˈdroːne]; 2 November 1906 – 17 March 1976) was an Italian filmmaker, stage director, and screenwriter. A major figure of Italian art and culture in the mid-20th century, Visconti was one of the fathers of cinematic neorealism, but later moved towards luxurious, sweeping epics dealing with themes of beauty, decadence, death and European history, especially the decay of the nobility and the bourgeoisie. He was the recipient of many accolades, including the Palme d'Or and the Golden Lion, and many of his works are regarded as highly-influential to future generations of filmmakers.Born to a noble Milanese family, Visconti explored artistic proclivities from an early age, working as an assistant director to Jean Renoir. His 1943 directorial debut, Ossessione, was condemned by the Fascist regime for its unvarnished depictions of working-class characters resorting to criminality, but is today renowned as a pioneering work of Italian cinema. His best-known films include Senso (1954) and The Leopard (1963), both historical melodramas based on Italian literary classics, the gritty drama Rocco and His Brothers (1960), and his \"German Trilogy\" – The Damned (1969), Death in Venice (1971) and Ludwig (1972). He was also an accomplished stage director of plays and opera, both in Italy and abroad.", "biography_author": "Wikidata", "date_of_biography": "2022-05-19T12:18:43.342575+10:00", "external_links": [{"id": 2603, "uri": "https://en.wikipedia.org/wiki/Luchino_Visconti"}], "uuid": "8a7b36e6-4e81-4f83-aa3d-6a758f7cd9a6", "source": {"name": "Vernon", "slug": "vernon"}, "source_identifier": "24068", "external_references": [{"id": 11125, "source": {"name": "Wikidata", "slug": "wikidata"}, "source_identifier": "Q13888"}, {"id": 11126, "source": {"name": "VIAF", "slug": "viaf"}, "source_identifier": "49237034"}, {"id": 11127, "source": {"name": "LOC Auth", "slug": "loc-auth"}, "source_identifier": "n79039716"}, {"id": 11128, "source": {"name": "WorldCat", "slug": "worldcat"}, "source_identifier": "lccn-n79039716"}], "date_modified": "2023-09-13T12:31:04.575301+10:00"}, {"id": 23063, "name": "Goffredo Lombardo", "roles_in_work": [{"id": 1984936, "title": "Rocco and his brothers", "work_id": 80910, "role": "producer", "role_id": 1089, "is_primary": true}, {"id": 1806600, "title": "The Leopard = Il Gattopardo", "work_id": 93462, "role": "producer", "role_id": 1089, "is_primary": true}], "also_known_as": "", "date_of_birth": "1920-05-15", "date_of_death": "2005-02-02", "genders": [{"id": 9, "name": "Male", "slug": "male"}], "languages": [{"id": 6, "name": "Italian", "slug": "italian"}], "places_of_operation": [{"id": 300, "name": "Kingdom of Italy", "slug": "kingdom-of-italy"}], "biography": "Goffredo Lombardo (15 May 1920 – 2 February 2005) was an Italian film producer. He was the son of the producer Gustavo Lombardo and took over control of the company Titanus after his father's death in 1951.", "biography_author": "Wikidata", "date_of_biography": "2022-05-19T11:38:39.769134+10:00", "external_links": [{"id": 2154, "uri": "https://en.wikipedia.org/wiki/Goffredo_Lombardo"}], "uuid": "94e1dd7a-b43f-4832-99bd-5af61acfa092", "source": {"name": "Vernon", "slug": "vernon"}, "source_identifier": "19915", "external_references": [{"id": 9274, "source": {"name": "Wikidata", "slug": "wikidata"}, "source_identifier": "Q326340"}, {"id": 9275, "source": {"name": "VIAF", "slug": "viaf"}, "source_identifier": "271149106170368491338"}, {"id": 9276, "source": {"name": "LOC Auth", "slug": "loc-auth"}, "source_identifier": "n85201982"}, {"id": 9277, "source": {"name": "WorldCat", "slug": "worldcat"}, "source_identifier": "lccn-n85201982"}], "date_modified": "2023-09-13T12:29:42.810675+10:00"}]}