{"count": 28687, "next": "https://api.acmi.net.au/creators/?page=692", "previous": "https://api.acmi.net.au/creators/?page=690", "results": [{"id": 78673, "name": "Mitchell Brower", "roles_in_work": [{"id": 2171358, "title": "McCabe & Mrs Miller [DVD]", "work_id": 93420, "role": "co-producer", "role_id": 915, "is_primary": true}, {"id": 2350976, "title": "The Getaway", "work_id": 87834, "role": "co-producer", "role_id": 915, "is_primary": true}], "also_known_as": "", "date_of_birth": "", "date_of_death": "", "genders": [], "languages": [], "places_of_operation": [], "biography": "", "biography_author": null, "date_of_biography": "2023-05-09T19:56:01.659841+10:00", "external_links": [], "uuid": "00be53d3-6c14-4fb4-8597-33b5637bd69e", "source": {"name": "Vernon", "slug": "vernon"}, "source_identifier": "25468", "external_references": [{"id": 36512, "source": {"name": "Wikidata", "slug": "wikidata"}, "source_identifier": "Q121036649"}], "date_modified": "2023-09-05T23:18:42.010177+10:00"}, {"id": 78672, "name": "Whit Stillman", "roles_in_work": [{"id": 1993969, "title": "The Last days of disco [Widescreen]", "work_id": 89636, "role": "producer/director", "role_id": 31, "is_primary": true}, {"id": 2107980, "title": "Barcelona [Widescreen]", "work_id": 87833, "role": "producer/director", "role_id": 31, "is_primary": true}], "also_known_as": "", "date_of_birth": "1952-01-25", "date_of_death": "", "genders": [{"id": 9, "name": "Male", "slug": "male"}], "languages": [{"id": 1, "name": "English", "slug": "english"}], "places_of_operation": [{"id": 1, "name": "United States of America", "slug": "united-states-of-america"}], "biography": "John Whitney Stillman (born January 25, 1952) is an American writer-director and actor known for his 1990 film Metropolitan, which earned him a nomination for the Academy Award for Best Original Screenplay. He is also known for his other films, Barcelona (1994), The Last Days of Disco (1998), Damsels in Distress (2011), as well as his most recent film, Love & Friendship, released in 2016.", "biography_author": "Wikidata", "date_of_biography": "2023-08-01T17:25:42.317715+10:00", "external_links": [{"id": 5337, "uri": "https://en.wikipedia.org/wiki/Whit_Stillman"}], "uuid": "f278a6c9-2771-4dfe-9240-7f52a32265d8", "source": {"name": "Vernon", "slug": "vernon"}, "source_identifier": "30334", "external_references": [{"id": 26392, "source": {"name": "Wikidata", "slug": "wikidata"}, "source_identifier": "Q972884"}, {"id": 31967, "source": {"name": "VIAF", "slug": "viaf"}, "source_identifier": "69847452"}, {"id": 31968, "source": {"name": "LOC Auth", "slug": "loc-auth"}, "source_identifier": "n92050079"}, {"id": 31969, "source": {"name": "WorldCat", "slug": "worldcat"}, "source_identifier": "lccn-n92050079"}], "date_modified": "2023-09-06T02:13:26.497422+10:00"}, {"id": 78671, "name": "Mel Smith", "roles_in_work": [{"id": 2109102, "title": "Bean", "work_id": 87831, "role": "director", "role_id": 938, "is_primary": true}], "also_known_as": "Melvin Kenneth Smith", "date_of_birth": "1952-12-03", "date_of_death": "2013-07-19", "genders": [{"id": 9, "name": "Male", "slug": "male"}], "languages": [{"id": 1, "name": "English", "slug": "english"}], "places_of_operation": [{"id": 10, "name": "United Kingdom", "slug": "united-kingdom"}], "biography": "Melvyn Kenneth Smith (3 December 1952 – 19 July 2013) was an English comedian and actor and filmmaker. He worked on the sketch comedy shows Not the Nine O'Clock News and Alas Smith and Jones with his comedy partner, Griff Rhys Jones. Smith and Jones founded Talkback, which grew to be one of the United Kingdom's largest producers of television comedy and light entertainment programming.", "biography_author": "Wikidata", "date_of_biography": "2023-08-01T16:11:38.561726+10:00", "external_links": [{"id": 2690, "uri": "https://en.wikipedia.org/wiki/Mel_Smith"}], "uuid": "684b9070-d8b1-4b34-8b91-f1d409b2cd9a", "source": {"name": "Vernon", "slug": "vernon"}, "source_identifier": "24917", "external_references": [{"id": 11480, "source": {"name": "Wikidata", "slug": "wikidata"}, "source_identifier": "Q939117"}, {"id": 11481, "source": {"name": "VIAF", "slug": "viaf"}, "source_identifier": "85148867"}, {"id": 11482, "source": {"name": "LOC Auth", "slug": "loc-auth"}, "source_identifier": "n95011838"}, {"id": 11483, "source": {"name": "WorldCat", "slug": "worldcat"}, "source_identifier": "lccn-n95011838"}], "date_modified": "2023-09-05T22:59:44.281547+10:00"}, {"id": 78670, "name": "Tim Evans", "roles_in_work": [{"id": 2109097, "title": "Bean", "work_id": 87831, "role": "co-producer", "role_id": 915, "is_primary": true}], "also_known_as": "", "date_of_birth": "1958-12-20", "date_of_death": "", "genders": [{"id": 9, "name": "Male", "slug": "male"}], "languages": [{"id": 1, "name": "English", "slug": "english"}], "places_of_operation": [{"id": 9, "name": "New Zealand", "slug": "new-zealand"}], "biography": "Timothy John Bevan,  (born 20 December 1957) is a New Zealand-British film producer, the co-chairman (with Eric Fellner) of the production company Working Title Films.\nBevan and Fellner are the most successful British producers of their era, having produced several critically and commercially successful films including Four Weddings and a Funeral (1994), Elizabeth (1998), Notting Hill (1999), Billy Elliot (2000), Bridget Jones's Diary (2001), Atonement (2007),  Frost/Nixon (2008), Tinker Tailor Soldier Spy (2011), The Theory of Everything (2014), and Darkest Hour (2017). They are also notable for their long-time collaboration with American filmmakers the Coen brothers, having produced Barton Fink (1991), Fargo (1996),  The Hudsucker Proxy (1994), The Big Lebowski (1998), and O Brother, Where Art Thou? among others. As of 2017, films by Working Title Films have won 12 Academy Awards and 39 British Academy Film Awards.Bevan was appointed a Commander of the Order of the British Empire (CBE) in the 2005 Birthday Honours for services to the British film industry.", "biography_author": "Wikidata", "date_of_biography": "2023-08-01T17:17:58.507120+10:00", "external_links": [{"id": 3203, "uri": "https://en.wikipedia.org/wiki/Tim_Bevan"}], "uuid": "e2fa3027-9819-4f7a-ab61-c8555163d83f", "source": {"name": "Vernon", "slug": "vernon"}, "source_identifier": "29735", "external_references": [{"id": 13567, "source": {"name": "Wikidata", "slug": "wikidata"}, "source_identifier": "Q1473065"}, {"id": 13568, "source": {"name": "VIAF", "slug": "viaf"}, "source_identifier": "43916592"}, {"id": 13569, "source": {"name": "LOC Auth", "slug": "loc-auth"}, "source_identifier": "no98069221"}, {"id": 13570, "source": {"name": "WorldCat", "slug": "worldcat"}, "source_identifier": "lccn-no98069221"}], "date_modified": "2023-09-06T01:50:17.846158+10:00"}, {"id": 78669, "name": "Peter Bennett-Jones", "roles_in_work": [{"id": 2109093, "title": "Bean", "work_id": 87831, "role": "co-producer", "role_id": 915, "is_primary": true}, {"id": 1847213, "title": "Unseen Bean", "work_id": 84961, "role": "co-producer", "role_id": 915, "is_primary": true}], "also_known_as": "", "date_of_birth": "1955-03-11", "date_of_death": "", "genders": [{"id": 9, "name": "Male", "slug": "male"}], "languages": [], "places_of_operation": [{"id": 10, "name": "United Kingdom", "slug": "united-kingdom"}], "biography": "Peter Bennett-Jones CBE is a British film and television producer and agent. He is perhaps best known as the former owner of TV production company Tiger Aspect where he was the executive producer of a number of British shows including Mr. Bean and Vicar of Dibley. He has also represented comedians such as Rowan Atkinson, Lenny Henry, Barry Humphries, Armando Iannucci and Eddie Izzard through his company PBJ Management. He is Chairman of Burning Bright Productions.Bennett-Jones was educated at Heronwater School, nr Abergele, N Wales then at Winchester College, then read law at Magdalene College, Cambridge, where he was a member of the Cambridge Footlights and President of the university amateur dramatic club. After graduation, he toured America with Shakespeare productions and set up a theatre group Pola Jones with Andre Ptaszynski. He moved into film and TV, forming Talkback Productions and then setting up his own company, Tiger Television.He was awarded the BAFTA Special Award and the RTS Lifetime Achievement Award in 2011 for his contribution to television, as well as his work as long-term chairman of Comic Relief and Sport Relief. He has served as Chair of Save the Children UK (2015–19) and as  a Board member of the Royal National Theatre (2010–18), chairing its production Board; RADA; Rugby School, the Millennium Promise UK ;the Oxford Playhouse and is a Trustee of the Liverpool Playhouse and Everyman. His brother Owen Bennett-Jones is a journalist who worked for the BBC World Service.Bennett-Jones was appointed Commander of the Order of the British Empire (CBE) in the 2014 New Year Honours for services to the entertainment industry and to charity, particularly through Comic Relief. He was appointed a deputy lieutenant of Oxfordshire in 2020.", "biography_author": "Wikidata", "date_of_biography": "2023-08-01T16:32:41.375942+10:00", "external_links": [{"id": 2844, "uri": "https://en.wikipedia.org/wiki/Peter_Bennett-Jones"}], "uuid": "5a5f10cb-1b77-47b2-888f-b6f84b1848e4", "source": {"name": "Vernon", "slug": "vernon"}, "source_identifier": "26468", "external_references": [{"id": 12103, "source": {"name": "Wikidata", "slug": "wikidata"}, "source_identifier": "Q7172770"}], "date_modified": "2023-09-05T23:54:02.838043+10:00"}, {"id": 78668, "name": "Victor Nunez", "roles_in_work": [{"id": 2293817, "title": "Ulee's gold", "work_id": 87830, "role": "producer/director", "role_id": 31, "is_primary": true}], "also_known_as": "", "date_of_birth": "1945-01-01", "date_of_death": "", "genders": [{"id": 9, "name": "Male", "slug": "male"}], "languages": [{"id": 1, "name": "English", "slug": "english"}], "places_of_operation": [{"id": 1, "name": "United States of America", "slug": "united-states-of-america"}], "biography": "Victor Nunez (born 1945) is a film director, professor at the Florida State University College of Motion Picture, Television and Recording Arts, and a founding member of the Independent Feature Project. He is best known for directing Ulee's Gold, a critically acclaimed movie starring Peter Fonda and Patricia Richardson. Nunez was inducted into the Florida Artists Hall of Fame in 2008 and Academy of Motion Picture Arts and Sciences in 2016.", "biography_author": "Wikidata", "date_of_biography": "2023-08-01T17:23:04.035864+10:00", "external_links": [{"id": 3255, "uri": "https://en.wikipedia.org/wiki/Victor_Nu%C3%B1ez"}], "uuid": "1f0c7163-6c11-4289-a7f1-24fece1cabca", "source": {"name": "Vernon", "slug": "vernon"}, "source_identifier": "30109", "external_references": [{"id": 13775, "source": {"name": "Wikidata", "slug": "wikidata"}, "source_identifier": "Q3557482"}, {"id": 13776, "source": {"name": "VIAF", "slug": "viaf"}, "source_identifier": "18563540"}, {"id": 13777, "source": {"name": "LOC Auth", "slug": "loc-auth"}, "source_identifier": "n82052580"}, {"id": 13778, "source": {"name": "WorldCat", "slug": "worldcat"}, "source_identifier": "lccn-n82052580"}], "date_modified": "2023-09-06T02:04:52.599085+10:00"}, {"id": 78667, "name": "David Lane", "roles_in_work": [{"id": 2476486, "title": "Thunderbirds are go", "work_id": 87829, "role": "director", "role_id": 938, "is_primary": true}, {"id": 924595, "title": "Thunderbirds. Volume 2", "work_id": 93931, "role": "co-director", "role_id": 959, "is_primary": true}, {"id": 924589, "title": "Thunderbirds. Volume 1", "work_id": 93930, "role": "co-director", "role_id": 959, "is_primary": true}, {"id": 1847514, "title": "Thunderbirds in outer space", "work_id": 86804, "role": "co-director", "role_id": 959, "is_primary": true}, {"id": 924601, "title": "Thunderbirds. Volume 3", "work_id": 93932, "role": "co-director", "role_id": 959, "is_primary": true}], "also_known_as": "", "date_of_birth": "1941-01-01", "date_of_death": "", "genders": [{"id": 9, "name": "Male", "slug": "male"}], "languages": [{"id": 1, "name": "English", "slug": "english"}], "places_of_operation": [{"id": 10, "name": "United Kingdom", "slug": "united-kingdom"}], "biography": "David Lane is a British television and film director, best known for his association with series produced by Gerry Anderson's AP Films.\nLane directed several episodes of Thunderbirds (1965–66), including \"Attack of the Alligators!\", as well as the two films Thunderbirds Are Go (1966) and Thunderbird 6 (1968). He also worked on Anderson's other series up to UFO (1970–71) and Gerry Anderson's New Captain Scarlet (2005), and would go on to collaborate with Anderson stalwart Derek Meddings on several other projects including Superman (1978).\nIn 2006, he co-founded a new production company, Pineapple Squared Entertainment, with former Thomas the Tank Engine & Friends director David Mitton and Michele Fabian Jones. Lane worked on the CGI adventure series Adventures on Orsum Island until Mitton's death in 2008, at which time production was discontinued.\nLane and Fabian Jones, a long-term business partner, founded the company Lane Fabian Jones, of which Lane was a director.", "biography_author": "Wikidata", "date_of_biography": "2023-09-05T18:59:37.162388+10:00", "external_links": [{"id": 1895, "uri": "https://en.wikipedia.org/wiki/David_Lane_(director)"}], "uuid": "878a9e46-a36d-40b0-829e-c42a282f44e8", "source": {"name": "Vernon", "slug": "vernon"}, "source_identifier": "17677", "external_references": [{"id": 8227, "source": {"name": "Wikidata", "slug": "wikidata"}, "source_identifier": "Q5236328"}, {"id": 8228, "source": {"name": "VIAF", "slug": "viaf"}, "source_identifier": "233001932"}, {"id": 8229, "source": {"name": "LOC Auth", "slug": "loc-auth"}, "source_identifier": "n79023289"}, {"id": 8230, "source": {"name": "WorldCat", "slug": "worldcat"}, "source_identifier": "lccn-n79023289"}, {"id": 54283, "source": {"name": "VIAF", "slug": "viaf"}, "source_identifier": "12500391"}, {"id": 54284, "source": {"name": "LOC Auth", "slug": "loc-auth"}, "source_identifier": "no2015076651"}], "date_modified": "2023-09-05T18:59:37.172448+10:00"}, {"id": 78666, "name": "Sylvia Anderson", "roles_in_work": [{"id": 2476485, "title": "Thunderbirds are go", "work_id": 87829, "role": "producer", "role_id": 1089, "is_primary": true}], "also_known_as": "Sylvia Thamm", "date_of_birth": "1927-03-25", "date_of_death": "2016-03-15", "genders": [{"id": 5, "name": "Female", "slug": "female"}], "languages": [{"id": 1, "name": "English", "slug": "english"}], "places_of_operation": [{"id": 10, "name": "United Kingdom", "slug": "united-kingdom"}], "biography": "Sylvia Beatrice Anderson (née Thomas; 25 March 1927 – 15 March 2016) was an English television and film producer, writer, voice actress and costume designer, best known for her collaborations with Gerry Anderson, her husband between 1960 and 1981. In addition to serving as co-creator and co-writer on their TV series during the 1960s and early 1970s, Anderson's primary contribution was character development and costume design. She regularly directed the fortnightly voice recording sessions, and provided the voices of many female and child characters.  She also helped develop the shows and characters, in particular creating the iconic characters of Lady Penelope and Parker in Thunderbirds.", "biography_author": "Wikidata", "date_of_biography": "2023-09-06T01:39:30.006364+10:00", "external_links": [{"id": 3168, "uri": "https://en.wikipedia.org/wiki/Sylvia_Anderson"}], "uuid": "d56742a4-6bcf-4966-bff9-271f4fc920d2", "source": {"name": "Vernon", "slug": "vernon"}, "source_identifier": "29429", "external_references": [{"id": 13433, "source": {"name": "Wikidata", "slug": "wikidata"}, "source_identifier": "Q2673235"}, {"id": 13434, "source": {"name": "VIAF", "slug": "viaf"}, "source_identifier": "10042744"}, {"id": 13435, "source": {"name": "LOC Auth", "slug": "loc-auth"}, "source_identifier": "no2008188471"}, {"id": 13436, "source": {"name": "WorldCat", "slug": "worldcat"}, "source_identifier": "lccn-no2008188471"}], "date_modified": "2023-09-06T01:39:30.014997+10:00"}, {"id": 78665, "name": "James Littleton", "roles_in_work": [{"id": 907273, "title": "Tree power", "work_id": 87827, "role": "director", "role_id": 938, "is_primary": true}, {"id": 2133742, "title": "Celtic spirits", "work_id": 90624, "role": "director", "role_id": 938, "is_primary": true}, {"id": 908078, "title": "On guard for thee. Part 1. The Most dangerous spy", "work_id": 88479, "role": "co-producer", "role_id": 915, "is_primary": true}, {"id": 907270, "title": "Tree power", "work_id": 87827, "role": "co-producer", "role_id": 915, "is_primary": true}], "also_known_as": "", "date_of_birth": "", "date_of_death": "", "genders": [], "languages": [], "places_of_operation": [], "biography": "", "biography_author": null, "date_of_biography": "2023-05-09T13:25:02.767717+10:00", "external_links": [], "uuid": "7c8e01c9-0d4a-4890-ba5a-62516d0127b4", "source": {"name": "Vernon", "slug": "vernon"}, "source_identifier": "21271", "external_references": [{"id": 34774, "source": {"name": "Wikidata", "slug": "wikidata"}, "source_identifier": "Q121034583"}], "date_modified": "2023-09-05T21:04:05.454515+10:00"}, {"id": 78664, "name": "Colin Brown", "roles_in_work": [{"id": 2077341, "title": "A Visit from Captain Cook", "work_id": 87825, "role": "director", "role_id": 938, "is_primary": true}], "also_known_as": "", "date_of_birth": "", "date_of_death": "", "genders": [], "languages": [], "places_of_operation": [], "biography": "", "biography_author": null, "date_of_biography": "2023-05-09T11:42:49.301548+10:00", "external_links": [], "uuid": "56eb944e-b03f-48b5-be3d-0176bf8531e7", "source": {"name": "Vernon", "slug": "vernon"}, "source_identifier": "17162", "external_references": [{"id": 51900, "source": {"name": "Wikidata", "slug": "wikidata"}, "source_identifier": "Q121357740"}], "date_modified": "2023-09-05T18:43:27.365359+10:00"}]}