{"count": 28687, "next": "https://api.acmi.net.au/creators/?page=2863", "previous": "https://api.acmi.net.au/creators/?page=2861", "results": [{"id": 6472, "name": "Igor Vamos", "roles_in_work": [{"id": 2636103, "title": "Evidence", "work_id": 109438, "role": "creator", "role_id": 968, "is_primary": true}, {"id": 2619031, "title": "BLO nightly news", "work_id": 108188, "role": "creator", "role_id": 968, "is_primary": true}, {"id": 2628594, "title": "Suggested photo spots", "work_id": 107969, "role": "creator", "role_id": 968, "is_primary": true}], "also_known_as": "", "date_of_birth": "", "date_of_death": "", "genders": [], "languages": [], "places_of_operation": [], "biography": "", "biography_author": null, "date_of_biography": "2023-08-11T14:54:27.750543+10:00", "external_links": [], "uuid": "88944a12-e9a8-4cef-a55f-6f33f784df8c", "source": {"name": "Vernon", "slug": "vernon"}, "source_identifier": "110673", "external_references": [], "date_modified": "2025-03-05T10:32:39.957041+11:00"}, {"id": 6471, "name": "Melinda Stone", "roles_in_work": [{"id": 2628593, "title": "Suggested photo spots", "work_id": 107969, "role": "creator", "role_id": 968, "is_primary": true}, {"id": 2619034, "title": "BLO nightly news", "work_id": 108188, "role": "director", "role_id": 938, "is_primary": true}], "also_known_as": "", "date_of_birth": "", "date_of_death": "", "genders": [], "languages": [], "places_of_operation": [], "biography": "", "biography_author": null, "date_of_biography": "2023-08-11T14:54:28.400608+10:00", "external_links": [], "uuid": "e4e11728-5456-4b6a-8f93-ff636b8eaec6", "source": {"name": "Vernon", "slug": "vernon"}, "source_identifier": "110061", "external_references": [], "date_modified": "2025-02-27T22:40:40.887392+11:00"}, {"id": 6465, "name": "NIDA", "roles_in_work": [{"id": 2628592, "title": "Stage struck", "work_id": 107968, "role": "production company", "role_id": 941, "is_primary": true}, {"id": 2466126, "title": "Stage struck (PC & MAC)", "work_id": 88269, "role": "production company", "role_id": 941, "is_primary": true}, {"id": 894846, "title": "Lagged: the story of a convict", "work_id": 69474, "role": "production company", "role_id": 941, "is_primary": true}], "also_known_as": "", "date_of_birth": "", "date_of_death": "", "genders": [], "languages": [], "places_of_operation": [], "biography": "", "biography_author": null, "date_of_biography": "2023-08-14T10:50:03.998752+10:00", "external_links": [], "uuid": "f61ed4e0-7069-4267-befe-a0fc679e775c", "source": {"name": "Vernon", "slug": "vernon"}, "source_identifier": "110511", "external_references": [], "date_modified": "2025-02-27T22:40:40.050390+11:00"}, {"id": 6455, "name": "X-PRZ", "roles_in_work": [{"id": 2628578, "title": "Guns and poses (remix)", "work_id": 107965, "role": "creator", "role_id": 968, "is_primary": true}], "also_known_as": "", "date_of_birth": null, "date_of_death": null, "genders": [], "languages": [], "places_of_operation": [], "biography": "X-PRZ is a biracial 'art band' of four artists -- , Doug Anderson, Kenseth Armstead, and Mark Pierson -- working in installation, photography, painting, sculpture, and video. Founded in 1991, the group is dedicated to the production of engaging, hydridized, and humorous cultural actions.\n\nStates Cokes: 'We tend to manipulate cultural readings, desires and effects rather than attempt to address the social in documentary or realist styles....The work relies on vernacular material (found images, texts) which are contextualized to provoke questioning, instabilities.... We see our work as a willful misreading and perverse misapplication of the histories of various cultural practices, from critical theory to pop music.'\n\nX-PRZ has exhibited works internationally, including at the Whitney Museum of American Art, New York; 7th Berlin Videofest, Germany; Alternative Museum, New York; National Civil Rights Museum, Memphis; Institute of Contemporary Art, Boston; Museum of Contemporary Photography, Chicago; 14th World Wide Video Festival, The Hague, The Netherlands; and Armand Hammer Museum at UCLA, Los Angeles.\n\nworks:\n\nNo Sell Out... or i wnt 2 b th ultimate commodity/ machine, 1995, 5:37 min, color, sound\n\nGuns and Poses (Remix), 1995-97, 12 min, color, sound", "biography_author": null, "date_of_biography": "2025-02-27T22:40:28.237158+11:00", "external_links": [], "uuid": "1afb07c1-5eae-4f3a-973f-9c1434b8eba9", "source": {"name": "Vernon", "slug": "vernon"}, "source_identifier": "110501", "external_references": [], "date_modified": "2025-02-27T22:40:28.237439+11:00"}, {"id": 6454, "name": "Film and Video Collectif and Zweites Deutsches Fernsehen (ZDF)", "roles_in_work": [{"id": 2628577, "title": "Video 50", "work_id": 107964, "role": "production company", "role_id": 941, "is_primary": true}], "also_known_as": "", "date_of_birth": "", "date_of_death": "", "genders": [], "languages": [], "places_of_operation": [], "biography": "", "biography_author": null, "date_of_biography": "2023-05-09T17:44:51.857053+10:00", "external_links": [], "uuid": "6caaedaf-1e91-42c4-a47b-1f299da8d3a8", "source": {"name": "Vernon", "slug": "vernon"}, "source_identifier": "110500", "external_references": [{"id": 38122, "source": {"name": "Wikidata", "slug": "wikidata"}, "source_identifier": "Q121299415"}], "date_modified": "2025-02-27T22:40:25.924197+11:00"}, {"id": 6453, "name": "Robert Boner", "roles_in_work": [{"id": 2628576, "title": "Video 50", "work_id": 107964, "role": "producer", "role_id": 1089, "is_primary": true}], "also_known_as": "", "date_of_birth": "", "date_of_death": "", "genders": [], "languages": [], "places_of_operation": [], "biography": "", "biography_author": null, "date_of_biography": "2023-05-09T17:44:51.618413+10:00", "external_links": [], "uuid": "436765ac-ad76-4ef1-9a4e-fe662f4992c3", "source": {"name": "Vernon", "slug": "vernon"}, "source_identifier": "110294", "external_references": [{"id": 32905, "source": {"name": "Wikidata", "slug": "wikidata"}, "source_identifier": "Q121299339"}], "date_modified": "2025-02-27T22:40:25.326883+11:00"}, {"id": 6452, "name": "Caroline Arrighi", "roles_in_work": [{"id": 2628575, "title": "Video 50", "work_id": 107964, "role": "producer", "role_id": 1089, "is_primary": true}], "also_known_as": "", "date_of_birth": "", "date_of_death": "", "genders": [], "languages": [], "places_of_operation": [], "biography": "", "biography_author": null, "date_of_biography": "2023-05-09T17:44:51.370445+10:00", "external_links": [], "uuid": "c5afbb3b-c9f1-4a68-b563-e18f16f4d624", "source": {"name": "Vernon", "slug": "vernon"}, "source_identifier": "110293", "external_references": [{"id": 37213, "source": {"name": "Wikidata", "slug": "wikidata"}, "source_identifier": "Q121035008"}], "date_modified": "2025-02-27T22:40:24.728141+11:00"}, {"id": 6446, "name": "Artists' Television Workshop at WXXI/TV, Rochester", "roles_in_work": [{"id": 2628562, "title": "Sodium vapor (including Constellation and Oracle)", "work_id": 107962, "role": "associate producer", "role_id": 930, "is_primary": false}, {"id": 2628570, "title": "The Passing", "work_id": 107963, "role": "producer", "role_id": 1089, "is_primary": true}, {"id": 2628557, "title": "The Reflecting pool: collected work 1977-80", "work_id": 107961, "role": "producer", "role_id": 1089, "is_primary": true}], "also_known_as": "", "date_of_birth": "", "date_of_death": "", "genders": [], "languages": [], "places_of_operation": [], "biography": "", "biography_author": null, "date_of_biography": "2023-05-09T18:41:54.605930+10:00", "external_links": [], "uuid": "74cab055-0799-47ae-8fcd-90f44b1655aa", "source": {"name": "Vernon", "slug": "vernon"}, "source_identifier": "110499", "external_references": [{"id": 50542, "source": {"name": "Wikidata", "slug": "wikidata"}, "source_identifier": "Q121357530"}], "date_modified": "2025-02-27T22:40:20.183793+11:00"}, {"id": 6442, "name": "Carvin Eison", "roles_in_work": [{"id": 2628550, "title": "The Reflecting pool: collected work 1977-80", "work_id": 107961, "role": "producer", "role_id": 1089, "is_primary": true}], "also_known_as": "", "date_of_birth": null, "date_of_death": null, "genders": [], "languages": [], "places_of_operation": [], "biography": "", "biography_author": null, "date_of_biography": null, "external_links": [], "uuid": "8df5b0f0-4104-4cdd-ad92-81acb61017d1", "source": {"name": "Vernon", "slug": "vernon"}, "source_identifier": "110312", "external_references": [], "date_modified": "2025-02-27T22:40:06.471911+11:00"}, {"id": 6438, "name": "Bill Viola", "roles_in_work": [{"id": 2628545, "title": "The Reflecting pool: collected work 1977-80", "work_id": 107961, "role": "creator", "role_id": 968, "is_primary": true}, {"id": 2628563, "title": "The Passing", "work_id": 107963, "role": "creator", "role_id": 968, "is_primary": true}, {"id": 2628558, "title": "Sodium vapor (including Constellation and Oracle)", "work_id": 107962, "role": "creator", "role_id": 968, "is_primary": true}, {"id": 2657436, "title": "Fire Woman and Tristan's Ascension: Bill Viola installation and interviews", "work_id": 117058, "role": "interviewee", "role_id": 496, "is_primary": false}, {"id": 2656086, "title": "In conversation with Bill Viola: Melbourne International Arts Festival 2010", "work_id": 116998, "role": "interviewee", "role_id": 496, "is_primary": false}], "also_known_as": "", "date_of_birth": "1951-01-25", "date_of_death": "", "genders": [{"id": 9, "name": "Male", "slug": "male"}], "languages": [{"id": 1, "name": "English", "slug": "english"}], "places_of_operation": [{"id": 1, "name": "United States of America", "slug": "united-states-of-america"}], "biography": "Born in 1951, Bill Viola is a major figure in video art. His installations and videotapes, which have received international recognition, are distinguished by a confluence of allegorical resonance and virtuosic control of technology. Viola explores video's temporal and optical systems to metaphorically examine modes of perception and cognition, and ultimately chart a symbolic quest for self. Employing a rigorous structuralism, a ritualized investigation of visual and acoustic phenomena, illusion and reality, he achieves a poetic articulation of visionary transcendence. \"Visual poems, allegories in the language of subjective perception,\" is how Viola terms his videotapes, which include such major works as Chott el-Djerid (1979); Hatsu Yume (First Dream) (1981); and I Do Not Know What It Is I Am Like (1986).\n\nLight and time are the essential materials with which Viola conducts his metaphysical, at times spiritual search to know and define the self. Rendered plastic, they are used to define a symbolic language of the unconscious and consciousness, microcosm and macrocosm, inner and outer landscapes. Unfolding without spoken language, infused with emblematic transformations and archetypal images, his works suggest subconscious dreams or pre-lingual memories. Viola's extraordinary use of video technology to \"sculpt\" with time is one of his few \"special effects.\" Time-lapse, slow motion, reversals, duration and other temporal interventions acquire metaphorical significance, evoking cycles of day and night, birth, life, death and renewal.\n\nThis unique exploration of technological systems to articulate transcendent perceptions reflects a convergence of eclectic influences: musical principles; the philosophies and rituals of non-Western cultures; Judeo-Christian mysticism; modernism and Romanticism; the natural and animal worlds; structuralist film; and the television and media world of his self-described \"seven-channel childhood.\"\n\nViola's presence is always manifested in images or reflections of himself. In early, performance-based exercises, including Migration (1976) and The Space Between the Teeth (1976), Viola began a systematic mapping of specific optical devices -- macro lens, the zoom -- to explore modes of seeing and perceiving reflections of the self. With The Reflecting Pool (1977-80), which describes \"the stages of a personal journey through images of transition,\" Viola employs increasingly sophisticated manipulations of time and light as metaphysical constructs. Astonishing alterations and transformations of reality and representation disrupt the viewer's expectations of visual and temporal causality.\n\nOne of the culminating expressions of Viola's artistic project, I Do Not Know What It Is I Am Like (1986) unfolds as an epic quest for transcendence and self-knowledge through a symbolic rendering of animal and spiritual consciousness. This highly allegorical work includes a vision that is emblematic of Viola's artistic project: a self-image reflected in an owl's eye.\n\nViola is best known for his significant body of work in multi-media installation, in which he extends his symbolic language of images and sound into dramatic, theatrical articulations.\n\nViola was born in 1951. He received a B.F.A. from the College of Visual and Performing Arts, Syracuse University, in 1973. While there, he was an instrumental participant in the Synapse Video Center, one of the first alternative media centers in New York State. In 1973, he and several musicians formed the Composers Inside Electronics Group; in 1975, he became technical director of Art/Tapes/22, an artists' production studio in Florence, Italy. From 1976 until 1980, Viola was artist-in- residence at the Television Laboratory at WNET/Thirteen, New York; he was artist-in-residence at the Sony Corporation, Atsugi, Japan, in 1980.\n\nViola has received numerous awards, including a United States/Japan Exchange Fellowship in 1980; a Rockefeller Foundation Fellowship in 1982; a Guggenheim Foundation Fellowship in 1985; the Polaroid Video Art Award in 1985; National Endowment for the Arts awards in 1978, 1983, 1986, and 1989; and the American Film Institute's Maya Deren Award for Independent Film and Video in 1987. In 1989, he was the recipient of a John D. and Catherine T. MacArthur Foundation Award.\n\nViola's videotapes and installations have been shown widely throughout the world, in major group exhibitions at festivals and institutions including Kolnischer Kunstverein, Cologne; Documenta VI, Kassel, Germany; Stedelijk Museum, Amsterdam; Whitney Museum of American Art, New York; The Institute of Contemporary Art, Boston; Carnegie Museum of Art, Pittsburgh; and the Venice Biennale. He has also had one-person shows at The Museum of Modern Art, New York; ARC/Musee d'Art Moderne de la Ville de Paris; Moderna Museet, Stockholm; and the Contemporary Art Museum, Houston, among other institutions. Bill Viola was chosen to represent the United States at the 46th Venice Biennale, which is the oldest and most reknowned international contemporary arts festival. Five video and sound installations were created specifically by Viola for the Bienniale's United States Pavillion. He was the subject of a major retrospective at the Whitney Museum of Amerian Art in 1998.\n\nViola lives in Long Beach, California.\n\nReferences:\nInformation, 1973, 30 min, color, sound\nRed Tape -- Collected Works, 1975, 30 min, color, sound\nPlaying Soul Music to My Freckles, 2:46 min.\nA Non-Dairy Creamer, 5:19 min.\nThe Semi-Circular Canals, 8:51 min.\nA Million Other Things (2), 4:35 min.\nReturn, 7:15 min.\nFour Songs, 1976, 33 min, color, sound\nJunkyard Levitation, 3:11 min.\nSongs of Innocence, 9:34 min.\nThe Space Between the Teeth, 9:10 min.\nTruth Through Mass Individuation, 10:13 min.\nHe Weeps for You, 1976, installation: video, sound,\nMigration, 1976, 7 min, color, sound\nMemories of Ancestral Power (The Moro Movement in the Solomon Islands), 1977, 35:19 min, color, sound\nMemory Surfaces and Mental Prayers, 1977, 29 min, color, sound\nThe Wheel of Becoming, 7:40 min.\nThe Morning After the Night of Power, 10:44 min.\nSweet Light, 9:08 min.\nPalm Trees on the Moon, 1977, 26:06 min, color, sound\nThe Reflecting Pool - Collected Work, 1977-79, 62 min, color, sound\nThe Reflecting Pool, 1977-79, 7 min.\nMoonblood, 1977-79, 12:48 min.\nSilent Life, 1979, 13:14 min.\nAncient of Days, 1979-81, 12:21 min.\nVegetable Memory, 1978-80, 15:13 min.\nChott el-Djerid (A Portrait in Light and Heat), 1979, 28 min, color, sound\nSodium Vapor (including Constellation and Oracle), 1979, released 1986, 14:41 min, color, sound\nHatsu Yume (First Dream), 1981, 56 min, colour, sound\nAnthem, 1983, 11:30 min, color, sound\nReasons for Knocking at an Empty House, 1982, installation: video, sound, 19:11 min\nRoom for St. John of the Cross, 1983, installation: video, sound,\nReverse Television -- Portraits of Viewers (Compilation Tape), 1984, 15 min, color, sound\nI Do Not Know What It Is I Am Like, 1986, 89 min, colour, sound\nThe Passage, 1987, installation: video, sound\nThe Sleep of Reason, 1988, installation: video, sound\nAngel's Gate, 1989, 4:50 min, color, sound\nThe Passing, 1991, 54:13 min, b&w, sound\nThe Stopping Mind, 1991, installation: video, sound\nSlowly Turning Narrative, 1992, installation: video, sound\nThe Sleepers, 1992, installation: video, sound\nThe Greeting, 1992, installation: video, sound\nHeaven and Earth, 1992, installation: video, sound\nNantes Triptych, 1992, Video and mixed media\nTiny Deaths, 1993, installation: video, sound\nDeserts, 1994, 26 min, color, sound\nThe Veiling, 1995, installation: video, sound\nThe Crossing, 1996, installation: video, sound", "biography_author": null, "date_of_biography": "2025-03-05T17:27:27.984013+11:00", "external_links": [{"id": 5710, "uri": "https://en.wikipedia.org/wiki/Bill_Viola"}], "uuid": "b79676ad-efeb-43d0-98b7-8e78ecf7da1a", "source": {"name": "Vernon", "slug": "vernon"}, "source_identifier": "110058", "external_references": [{"id": 26358, "source": {"name": "Wikidata", "slug": "wikidata"}, "source_identifier": "Q437616"}, {"id": 54083, "source": {"name": "VIAF", "slug": "viaf"}, "source_identifier": "54262276"}, {"id": 54084, "source": {"name": "LOC Auth", "slug": "loc-auth"}, "source_identifier": "n85006497"}, {"id": 54085, "source": {"name": "WorldCat", "slug": "worldcat"}, "source_identifier": "lccn-n85006497"}], "date_modified": "2025-03-05T17:27:27.984258+11:00"}]}