{"count": 28687, "next": "https://api.acmi.net.au/creators/?page=938", "previous": "https://api.acmi.net.au/creators/?page=936", "results": [{"id": 76212, "name": "Marcus Viscidi", "roles_in_work": [{"id": 1993601, "title": "Living in oblivion", "work_id": 89311, "role": "co-producer", "role_id": 915, "is_primary": true}, {"id": 1803935, "title": "Hellfire", "work_id": 78163, "role": "producer", "role_id": 1089, "is_primary": true}], "also_known_as": "", "date_of_birth": null, "date_of_death": null, "genders": [], "languages": [], "places_of_operation": [], "biography": "", "biography_author": null, "date_of_biography": null, "external_links": [], "uuid": "0460c7d5-b129-4dbb-95d0-c7ed52d1e987", "source": {"name": "Vernon", "slug": "vernon"}, "source_identifier": null, "external_references": [{"id": 33232, "source": {"name": "Wikidata", "slug": "wikidata"}, "source_identifier": "Q121091228"}], "date_modified": "2023-09-05T22:41:26.578808+10:00"}, {"id": 76211, "name": "Women's Film Unit", "roles_in_work": [{"id": 2324363, "title": "Tenosinovitis", "work_id": 78161, "role": "producer", "role_id": 1089, "is_primary": true}, {"id": 2392938, "title": "Lily", "work_id": 99223, "role": "production company", "role_id": 941, "is_primary": true}, {"id": 3105612, "title": "After hours", "work_id": 80661, "role": "production company", "role_id": 941, "is_primary": true}], "also_known_as": "", "date_of_birth": "", "date_of_death": "", "genders": [], "languages": [], "places_of_operation": [], "biography": "", "biography_author": null, "date_of_biography": "2023-08-09T04:10:50.191012+10:00", "external_links": [], "uuid": "cd3282c6-7e62-48cc-8c29-ebda3c38b767", "source": {"name": "Vernon", "slug": "vernon"}, "source_identifier": "14425", "external_references": [{"id": 33267, "source": {"name": "Wikidata", "slug": "wikidata"}, "source_identifier": "Q121091247"}], "date_modified": "2025-05-23T22:35:06.601969+10:00"}, {"id": 76210, "name": "Jack Egan", "roles_in_work": [{"id": 2334267, "title": "The Bradman era", "work_id": 77958, "role": "executive producer", "role_id": 916, "is_primary": false}, {"id": 2148777, "title": "Cricket in Australia", "work_id": 79432, "role": "producer/director", "role_id": 31, "is_primary": true}, {"id": 2648064, "title": "Tennis: the greats", "work_id": 78159, "role": "producer/director", "role_id": 31, "is_primary": true}, {"id": 784957, "title": "The Story of cricket in Australia (Captioned)", "work_id": 84226, "role": "producer/director", "role_id": 31, "is_primary": true}, {"id": 2123352, "title": "Bradman", "work_id": 81166, "role": "producer/director", "role_id": 31, "is_primary": true}, {"id": 2123386, "title": "Bradman (Captioned)", "work_id": 81790, "role": "producer/director", "role_id": 31, "is_primary": true}, {"id": 2148830, "title": "Cricket in Australia (Captioned)", "work_id": 79698, "role": "producer/director", "role_id": 31, "is_primary": true}, {"id": 2123345, "title": "Bradman", "work_id": 81166, "role": "production company", "role_id": 941, "is_primary": true}, {"id": 2123381, "title": "Bradman (Captioned)", "work_id": 81790, "role": "production company", "role_id": 941, "is_primary": true}, {"id": 2334273, "title": "The Bradman era", "work_id": 77958, "role": "writer", "role_id": 939, "is_primary": true}], "also_known_as": "", "date_of_birth": "1941", "date_of_death": "", "genders": [], "languages": [], "places_of_operation": [], "biography": "", "biography_author": null, "date_of_biography": "2023-05-09T19:29:48.896757+10:00", "external_links": [], "uuid": "5c94c4a2-05c4-46e1-8a18-98284359eda6", "source": {"name": "Vernon", "slug": "vernon"}, "source_identifier": "21038", "external_references": [{"id": 36187, "source": {"name": "Wikidata", "slug": "wikidata"}, "source_identifier": "Q121160018"}], "date_modified": "2025-03-05T13:37:34.166048+11:00"}, {"id": 76209, "name": "Terence Donovan", "roles_in_work": [{"id": 2350540, "title": "The Getting of Wisdom [DVD]", "work_id": 95622, "role": "cast", "role_id": 33, "is_primary": false}, {"id": 2350507, "title": "The Getting of Wisdom", "work_id": 85661, "role": "cast", "role_id": 33, "is_primary": false}, {"id": 2560248, "title": "The Man from Snowy River", "work_id": 80009, "role": "cast", "role_id": 33, "is_primary": false}, {"id": 2043140, "title": "The Spag [released version]", "work_id": 78154, "role": "cast", "role_id": 33, "is_primary": false}, {"id": 2213005, "title": "Early days", "work_id": 94522, "role": "producer", "role_id": 1089, "is_primary": true}], "also_known_as": "", "date_of_birth": "1942-10-28", "date_of_death": "", "genders": [{"id": 9, "name": "Male", "slug": "male"}], "languages": [], "places_of_operation": [{"id": 3, "name": "Australia", "slug": "australia"}], "biography": "Terence Donovan (born 28 October 1942), also billed as Terence J. Donovan and Terry Donovan, is an English-Australian actor of stage and television, and the father of fellow actor and singer Jason Donovan (from his marriage to actress and journalist Sue McIntosh). \nDonovan is best known to audiences for his roles in soap opera including Neighbours as patriarch Doug Willis and in Home and Away as Al Simpson. He has appeared in Australian TV drama series since the 1960s, including police drama series Division 4 and Cop Shop, as well as minor parts in numerous serials including The Prisoner, Sons and Daughters, A Country Practice and E Street.", "biography_author": "Wikidata", "date_of_biography": "2023-09-06T01:44:43.008006+10:00", "external_links": [{"id": 6213, "uri": "https://en.wikipedia.org/wiki/Terence_Donovan_(actor)"}], "uuid": "0cf3a5c9-e58d-4d2a-bcea-c18099343235", "source": {"name": "Vernon", "slug": "vernon"}, "source_identifier": "29555", "external_references": [{"id": 51099, "source": {"name": "Wikidata", "slug": "wikidata"}, "source_identifier": "Q7701890"}, {"id": 55939, "source": {"name": "VIAF", "slug": "viaf"}, "source_identifier": "256104789"}, {"id": 55940, "source": {"name": "LOC Auth", "slug": "loc-auth"}, "source_identifier": "no2012106095"}, {"id": 55941, "source": {"name": "WorldCat", "slug": "worldcat"}, "source_identifier": "lccn-no2012106095"}], "date_modified": "2024-10-23T03:35:34.040656+11:00"}, {"id": 76208, "name": "Chris Tsalikis", "roles_in_work": [{"id": 2043139, "title": "The Spag [released version]", "work_id": 78154, "role": "cast", "role_id": 33, "is_primary": false}], "also_known_as": "", "date_of_birth": null, "date_of_death": null, "genders": [], "languages": [], "places_of_operation": [], "biography": "", "biography_author": null, "date_of_biography": null, "external_links": [], "uuid": "9c648341-9733-4fe4-8fad-2fb92e20de6c", "source": {"name": "Vernon", "slug": "vernon"}, "source_identifier": null, "external_references": [{"id": 34620, "source": {"name": "Wikidata", "slug": "wikidata"}, "source_identifier": "Q121337131"}], "date_modified": "2023-09-05T18:33:24.367098+10:00"}, {"id": 76207, "name": "Mateo Gravina", "roles_in_work": [{"id": 2043138, "title": "The Spag [released version]", "work_id": 78154, "role": "cast", "role_id": 33, "is_primary": false}], "also_known_as": "", "date_of_birth": null, "date_of_death": null, "genders": [], "languages": [], "places_of_operation": [], "biography": "", "biography_author": null, "date_of_biography": null, "external_links": [], "uuid": "8053f31d-2270-4225-91b7-ca065c06acfe", "source": {"name": "Vernon", "slug": "vernon"}, "source_identifier": null, "external_references": [{"id": 52168, "source": {"name": "Wikidata", "slug": "wikidata"}, "source_identifier": "Q121357743"}], "date_modified": "2023-09-05T22:53:44.861308+10:00"}, {"id": 76206, "name": "Robert Clarke", "roles_in_work": [{"id": 2043137, "title": "The Spag [released version]", "work_id": 78154, "role": "script", "role_id": 962, "is_primary": false}], "also_known_as": "", "date_of_birth": null, "date_of_death": null, "genders": [], "languages": [], "places_of_operation": [], "biography": "", "biography_author": null, "date_of_biography": null, "external_links": [], "uuid": "51798969-7e11-4199-8b7d-d2f94894f39c", "source": {"name": "Vernon", "slug": "vernon"}, "source_identifier": null, "external_references": [], "date_modified": "2023-06-14T16:33:30.576250+10:00"}, {"id": 76205, "name": "Hugh Keays-Byrne", "roles_in_work": [{"id": 1984055, "title": "Mad Max", "work_id": 79359, "role": "cast", "role_id": 33, "is_primary": false}, {"id": 2315493, "title": "Strikebound", "work_id": 78150, "role": "cast", "role_id": 33, "is_primary": false}, {"id": 2127759, "title": "Burke and Wills", "work_id": 81113, "role": "cast", "role_id": 33, "is_primary": false}, {"id": 2304242, "title": "Snapshot = Day after Halloween = Day before Halloween  [DVD]", "work_id": 95107, "role": "cast", "role_id": 33, "is_primary": false}, {"id": 1985683, "title": "Mad Max (Captioned)", "work_id": 81392, "role": "cast", "role_id": 33, "is_primary": false}, {"id": 2303726, "title": "Snapshot = Day after Halloween = Day before Halloween [DVD]", "work_id": 93971, "role": "cast", "role_id": 33, "is_primary": false}], "also_known_as": "", "date_of_birth": "1947-05-18", "date_of_death": "2020-12-02", "genders": [{"id": 9, "name": "Male", "slug": "male"}], "languages": [{"id": 1, "name": "English", "slug": "english"}], "places_of_operation": [{"id": 10, "name": "United Kingdom", "slug": "united-kingdom"}], "biography": "Hugh Keays-Byrne (18 May 1947 – 2 December 2020) was a British-Australian actor. Between 1968 and 1972 he was a member of the Royal Shakespeare Company. He played the antagonist in two films from the Mad Max franchise: Toecutter in Mad Max (1979), and Immortan Joe in Mad Max: Fury Road (2015).He also played Toad in the 1974 biker film Stone, and Grunchlk on the science fiction series Farscape.\n\n", "biography_author": "Wikidata", "date_of_biography": "2023-08-01T15:13:30.264570+10:00", "external_links": [{"id": 4176, "uri": "https://en.wikipedia.org/wiki/Hugh_Keays-Byrne"}], "uuid": "153294bf-4d1d-4c2f-bd84-be7d07118d5b", "source": {"name": "Vernon", "slug": "vernon"}, "source_identifier": "38134", "external_references": [{"id": 25248, "source": {"name": "Wikidata", "slug": "wikidata"}, "source_identifier": "Q2065707"}, {"id": 28968, "source": {"name": "VIAF", "slug": "viaf"}, "source_identifier": "76525398"}, {"id": 28969, "source": {"name": "LOC Auth", "slug": "loc-auth"}, "source_identifier": "no2008081670"}, {"id": 28970, "source": {"name": "WorldCat", "slug": "worldcat"}, "source_identifier": "lccn-no2008081670"}], "date_modified": "2023-09-05T20:43:42.246502+10:00"}, {"id": 76204, "name": "Carol Burns", "roles_in_work": [{"id": 2212739, "title": "Dusty (Captioned)", "work_id": 80084, "role": "cast", "role_id": 33, "is_primary": false}, {"id": 2212315, "title": "Dusty", "work_id": 80071, "role": "cast", "role_id": 33, "is_primary": false}, {"id": 2315490, "title": "Strikebound", "work_id": 78150, "role": "cast", "role_id": 33, "is_primary": false}], "also_known_as": "", "date_of_birth": "1947-01-01", "date_of_death": "2015-12-21", "genders": [{"id": 5, "name": "Female", "slug": "female"}], "languages": [], "places_of_operation": [{"id": 3, "name": "Australia", "slug": "australia"}], "biography": "Carol Ann Burns (29 October 1947 – 22 December 2015) was an Australian actress, theatre director and patron of the arts, with a career spanning 50 years. She worked extensively in theatre and television serials, as well as telemovies and mini-series in Australia and the United Kingdom. In Australia she was a founding member of the Queensland Theatre Company.\nBurns was an original cast member, as Franky Doyle, in the serial Prisoner  during the first season in 1979 and although she only appeared in the first 20 episodes, she became a major breakout and much loved character, and gained cult status as a fan favourite.", "biography_author": "Wikidata", "date_of_biography": "2023-08-01T14:20:21.922993+10:00", "external_links": [{"id": 3717, "uri": "https://en.wikipedia.org/wiki/Carol_Burns"}], "uuid": "92cbccc5-5f51-4804-8442-ddc28b517a19", "source": {"name": "Vernon", "slug": "vernon"}, "source_identifier": "34651", "external_references": [{"id": 25278, "source": {"name": "Wikidata", "slug": "wikidata"}, "source_identifier": "Q5044278"}], "date_modified": "2023-09-05T18:20:12.723021+10:00"}, {"id": 76203, "name": "Miranda Bain", "roles_in_work": [{"id": 2315475, "title": "Strikebound", "work_id": 78150, "role": "co-producer", "role_id": 915, "is_primary": true}], "also_known_as": "", "date_of_birth": "", "date_of_death": "", "genders": [], "languages": [], "places_of_operation": [], "biography": "", "biography_author": null, "date_of_biography": "2023-05-09T19:03:30.716376+10:00", "external_links": [], "uuid": "64d1bc13-1821-4cb0-a514-7119fd4b05b0", "source": {"name": "Vernon", "slug": "vernon"}, "source_identifier": "25454", "external_references": [{"id": 41748, "source": {"name": "Wikidata", "slug": "wikidata"}, "source_identifier": "Q121126108"}], "date_modified": "2023-09-05T23:17:31.385167+10:00"}]}