{"count": 28687, "next": "https://api.acmi.net.au/creators/?page=405", "previous": "https://api.acmi.net.au/creators/?page=403", "results": [{"id": 81543, "name": "P.J. Brook", "roles_in_work": [{"id": 2750570, "title": "Production of commercial gramophonic discs", "work_id": 97397, "role": "producer", "role_id": 1089, "is_primary": true}], "also_known_as": "", "date_of_birth": "", "date_of_death": "", "genders": [], "languages": [], "places_of_operation": [], "biography": "", "biography_author": null, "date_of_biography": "2023-05-09T16:35:05.274217+10:00", "external_links": [], "uuid": "121e691e-ddc3-43f6-a80f-071b90f7d973", "source": {"name": "Vernon", "slug": "vernon"}, "source_identifier": "26013", "external_references": [{"id": 34397, "source": {"name": "Wikidata", "slug": "wikidata"}, "source_identifier": "Q121271392"}], "date_modified": "2025-03-13T00:25:51.960775+11:00"}, {"id": 81542, "name": "Jim Foster", "roles_in_work": [{"id": 2750567, "title": "It's new, it's neat, it's obsolete", "work_id": 97395, "role": "co-director", "role_id": 959, "is_primary": true}], "also_known_as": "", "date_of_birth": null, "date_of_death": null, "genders": [], "languages": [], "places_of_operation": [], "biography": "", "biography_author": null, "date_of_biography": null, "external_links": [], "uuid": "41381dff-83e2-413e-9981-12ca9975c3b5", "source": {"name": "Vernon", "slug": "vernon"}, "source_identifier": "21877", "external_references": [{"id": 42254, "source": {"name": "Wikidata", "slug": "wikidata"}, "source_identifier": "Q121036829"}], "date_modified": "2025-03-13T00:25:50.205396+11:00"}, {"id": 81541, "name": "Frank Buxton", "roles_in_work": [{"id": 2750560, "title": "Chocolate", "work_id": 97393, "role": "producer/director", "role_id": 31, "is_primary": true}], "also_known_as": "", "date_of_birth": "1930-02-13", "date_of_death": "2018-01-02", "genders": [{"id": 9, "name": "Male", "slug": "male"}], "languages": [{"id": 1, "name": "English", "slug": "english"}], "places_of_operation": [{"id": 1, "name": "United States of America", "slug": "united-states-of-america"}], "biography": "Frank Buxton (February 13, 1930 – January 2, 2018) was an American actor, television writer, author, and television director. Buxton grew up in Larchmont, New York. He was a graduate of Northwestern University (B.S.) and Syracuse University (M.S.), and served in the U.S. Army in Korea.", "biography_author": "Wikidata", "date_of_biography": "2023-09-05T19:49:00.096065+10:00", "external_links": [{"id": 5817, "uri": "https://en.wikipedia.org/wiki/Frank_Buxton"}], "uuid": "5a29f3e6-12c7-43f8-87b1-2e2a6ae9a127", "source": {"name": "Vernon", "slug": "vernon"}, "source_identifier": "19097", "external_references": [{"id": 50996, "source": {"name": "Wikidata", "slug": "wikidata"}, "source_identifier": "Q3751773"}, {"id": 54452, "source": {"name": "VIAF", "slug": "viaf"}, "source_identifier": "23868016"}, {"id": 54453, "source": {"name": "LOC Auth", "slug": "loc-auth"}, "source_identifier": "n96080296"}, {"id": 54454, "source": {"name": "WorldCat", "slug": "worldcat"}, "source_identifier": "lccn-n96080296"}], "date_modified": "2025-03-13T00:25:45.416593+11:00"}, {"id": 81540, "name": "John Conning", "roles_in_work": [{"id": 2750533, "title": "Why we need reading, or the piemaker of Ignoramia", "work_id": 97380, "role": "co-director", "role_id": 959, "is_primary": true}], "also_known_as": "", "date_of_birth": null, "date_of_death": null, "genders": [], "languages": [], "places_of_operation": [], "biography": "", "biography_author": null, "date_of_biography": null, "external_links": [], "uuid": "6e41e8f2-7066-4a8e-91b4-d175d278b7a2", "source": {"name": "Vernon", "slug": "vernon"}, "source_identifier": "22183", "external_references": [{"id": 36329, "source": {"name": "Wikidata", "slug": "wikidata"}, "source_identifier": "Q121160068"}], "date_modified": "2025-03-13T00:25:24.537996+11:00"}, {"id": 81539, "name": "Maureen Selwood", "roles_in_work": [{"id": 2750530, "title": "Why we conserve energy: the witch of the Great Black Pool", "work_id": 97379, "role": "producer/director", "role_id": 31, "is_primary": true}], "also_known_as": "", "date_of_birth": null, "date_of_death": null, "genders": [], "languages": [], "places_of_operation": [], "biography": "", "biography_author": null, "date_of_biography": null, "external_links": [], "uuid": "0a1456f2-f7e1-4385-8b26-8eba3290f169", "source": {"name": "Vernon", "slug": "vernon"}, "source_identifier": "24821", "external_references": [{"id": 51017, "source": {"name": "Wikidata", "slug": "wikidata"}, "source_identifier": "Q121361172"}], "date_modified": "2025-03-13T00:25:22.394112+11:00"}, {"id": 81538, "name": "Anthony Thomas", "roles_in_work": [{"id": 2750526, "title": "Arab identity: who are the Arabs? (Episode 1)", "work_id": 97376, "role": "producer/director", "role_id": 31, "is_primary": true}], "also_known_as": "", "date_of_birth": "", "date_of_death": "", "genders": [], "languages": [], "places_of_operation": [], "biography": "", "biography_author": null, "date_of_biography": "2023-05-09T12:28:58.941267+10:00", "external_links": [], "uuid": "92d26ca2-be6f-4bd8-87cc-14d35c646c81", "source": {"name": "Vernon", "slug": "vernon"}, "source_identifier": "15416", "external_references": [{"id": 51556, "source": {"name": "Wikidata", "slug": "wikidata"}, "source_identifier": "Q121360718"}], "date_modified": "2025-03-13T00:25:19.557163+11:00"}, {"id": 81537, "name": "Christopher Koch", "roles_in_work": [{"id": 918755, "title": "Nuclear power: pro and con", "work_id": 97354, "role": "co-producer", "role_id": 915, "is_primary": true}], "also_known_as": "", "date_of_birth": null, "date_of_death": null, "genders": [], "languages": [], "places_of_operation": [], "biography": "", "biography_author": null, "date_of_biography": null, "external_links": [], "uuid": "582d0590-7a47-4cef-8eb8-25f26a901aad", "source": {"name": "Vernon", "slug": "vernon"}, "source_identifier": null, "external_references": [{"id": 33957, "source": {"name": "Wikidata", "slug": "wikidata"}, "source_identifier": "Q121299230"}], "date_modified": "2023-09-05T18:36:15.060148+10:00"}, {"id": 81536, "name": "Tony Batten", "roles_in_work": [{"id": 918757, "title": "Nuclear power: pro and con", "work_id": 97354, "role": "co-director", "role_id": 959, "is_primary": true}, {"id": 918754, "title": "Nuclear power: pro and con", "work_id": 97354, "role": "co-producer", "role_id": 915, "is_primary": true}], "also_known_as": "", "date_of_birth": null, "date_of_death": null, "genders": [], "languages": [], "places_of_operation": [], "biography": "", "biography_author": null, "date_of_biography": null, "external_links": [], "uuid": "1334aa56-e63d-4f0f-9178-b6f185fef9aa", "source": {"name": "Vernon", "slug": "vernon"}, "source_identifier": null, "external_references": [{"id": 37538, "source": {"name": "Wikidata", "slug": "wikidata"}, "source_identifier": "Q121036286"}], "date_modified": "2023-09-06T01:55:10.662534+10:00"}, {"id": 81535, "name": "Ann S. Hayward", "roles_in_work": [{"id": 918752, "title": "Nuclear power: pro and con", "work_id": 97354, "role": "co-producer", "role_id": 915, "is_primary": true}], "also_known_as": "", "date_of_birth": null, "date_of_death": null, "genders": [], "languages": [], "places_of_operation": [], "biography": "", "biography_author": null, "date_of_biography": null, "external_links": [], "uuid": "56842803-afe2-4f82-9c62-d10a8dcee5ca", "source": {"name": "Vernon", "slug": "vernon"}, "source_identifier": null, "external_references": [{"id": 34033, "source": {"name": "Wikidata", "slug": "wikidata"}, "source_identifier": "Q121144081"}], "date_modified": "2023-09-05T17:38:52.258288+10:00"}, {"id": 81534, "name": "Amanda C Pope", "roles_in_work": [{"id": 2752209, "title": "Stages: Houseman directs Lear for The Acting Company", "work_id": 98194, "role": "producer/director", "role_id": 31, "is_primary": true}, {"id": 2750478, "title": "The Incredible San Francisco artists' soapbox derby", "work_id": 97347, "role": "producer/director", "role_id": 31, "is_primary": true}], "also_known_as": "", "date_of_birth": "", "date_of_death": "", "genders": [], "languages": [], "places_of_operation": [], "biography": "", "biography_author": null, "date_of_biography": "2023-05-09T20:04:33.809161+10:00", "external_links": [], "uuid": "61f26701-ef86-4e6d-a6e6-4c8610356269", "source": {"name": "Vernon", "slug": "vernon"}, "source_identifier": "15047", "external_references": [{"id": 50867, "source": {"name": "Wikidata", "slug": "wikidata"}, "source_identifier": "Q121360759"}], "date_modified": "2025-03-13T01:00:49.633446+11:00"}]}