{"count": 28687, "next": "https://api.acmi.net.au/creators/?page=2744", "previous": "https://api.acmi.net.au/creators/?page=2742", "results": [{"id": 10827, "name": "Jesse Galofaro", "roles_in_work": [{"id": 2637708, "title": "Str8 outta Melbourne", "work_id": 109956, "role": "creator", "role_id": 968, "is_primary": true}], "also_known_as": "", "date_of_birth": "", "date_of_death": "", "genders": [], "languages": [], "places_of_operation": [], "biography": "", "biography_author": null, "date_of_biography": "2023-08-14T10:52:41.069442+10:00", "external_links": [], "uuid": "b4dfa0c6-b895-4a1d-bac0-dd81b8a9c50f", "source": {"name": "Vernon", "slug": "vernon"}, "source_identifier": "2581", "external_references": [], "date_modified": "2025-03-05T10:55:23.278554+11:00"}, {"id": 10826, "name": "Chris McCauley", "roles_in_work": [{"id": 2633051, "title": "Antithesis", "work_id": 114097, "role": "creator", "role_id": 968, "is_primary": true}], "also_known_as": "", "date_of_birth": "", "date_of_death": "", "genders": [], "languages": [], "places_of_operation": [], "biography": "", "biography_author": null, "date_of_biography": "2023-08-11T12:51:50.005630+10:00", "external_links": [], "uuid": "95950dae-c394-4761-8d4d-25663e4657ee", "source": {"name": "Vernon", "slug": "vernon"}, "source_identifier": "2557", "external_references": [], "date_modified": "2025-02-28T22:40:40.768704+11:00"}, {"id": 10825, "name": "Troy Hallam", "roles_in_work": [{"id": 2633066, "title": "Pub crawl", "work_id": 114111, "role": "creator", "role_id": 968, "is_primary": true}], "also_known_as": "", "date_of_birth": "", "date_of_death": "", "genders": [], "languages": [], "places_of_operation": [], "biography": "", "biography_author": null, "date_of_biography": "2023-08-11T12:51:54.796965+10:00", "external_links": [], "uuid": "af6e63da-de77-4d21-b532-4d45831e168b", "source": {"name": "Vernon", "slug": "vernon"}, "source_identifier": "2556", "external_references": [], "date_modified": "2025-02-28T22:40:53.867266+11:00"}, {"id": 10824, "name": "Kevin Futter", "roles_in_work": [{"id": 2633068, "title": "Slava Grigoryan", "work_id": 114112, "role": "creator", "role_id": 968, "is_primary": true}], "also_known_as": "", "date_of_birth": "", "date_of_death": "", "genders": [], "languages": [], "places_of_operation": [], "biography": "", "biography_author": null, "date_of_biography": "2023-08-11T12:51:51.582078+10:00", "external_links": [], "uuid": "e9cb4891-7840-4a0a-97a4-ec1546d4ee4a", "source": {"name": "Vernon", "slug": "vernon"}, "source_identifier": "2555", "external_references": [], "date_modified": "2025-02-28T22:40:55.336524+11:00"}, {"id": 10823, "name": "Steve Edwards", "roles_in_work": [{"id": 2633055, "title": "A Bad day", "work_id": 114101, "role": "creator", "role_id": 968, "is_primary": true}], "also_known_as": "", "date_of_birth": "", "date_of_death": "", "genders": [], "languages": [], "places_of_operation": [], "biography": "", "biography_author": null, "date_of_biography": "2023-08-11T12:51:50.787897+10:00", "external_links": [], "uuid": "621b2874-0eb6-4ba1-95d7-507c94ad677e", "source": {"name": "Vernon", "slug": "vernon"}, "source_identifier": "2554", "external_references": [], "date_modified": "2025-02-28T22:40:44.797015+11:00"}, {"id": 10822, "name": "Rowan Williams", "roles_in_work": [{"id": 2638879, "title": "Pronoun10", "work_id": 110757, "role": "creator", "role_id": 968, "is_primary": true}], "also_known_as": "", "date_of_birth": null, "date_of_death": null, "genders": [], "languages": [], "places_of_operation": [], "biography": "", "biography_author": null, "date_of_biography": null, "external_links": [], "uuid": "a04aee35-4b60-482e-b8b1-b712c1094dc7", "source": {"name": "Vernon", "slug": "vernon"}, "source_identifier": "2553", "external_references": [], "date_modified": "2025-03-05T11:11:31.227308+11:00"}, {"id": 10821, "name": "Mickey Miter", "roles_in_work": [{"id": 2633056, "title": "Enlightenment", "work_id": 114102, "role": "creator", "role_id": 968, "is_primary": true}], "also_known_as": "", "date_of_birth": "", "date_of_death": "", "genders": [], "languages": [], "places_of_operation": [], "biography": "", "biography_author": null, "date_of_biography": "2023-08-11T12:51:58.827722+10:00", "external_links": [], "uuid": "2e1c7943-51a9-432d-a204-811aced626a6", "source": {"name": "Vernon", "slug": "vernon"}, "source_identifier": "2552", "external_references": [], "date_modified": "2025-02-28T22:40:45.522749+11:00"}, {"id": 10820, "name": "Mathew McLennan", "roles_in_work": [{"id": 2633060, "title": "In the space", "work_id": 114105, "role": "creator", "role_id": 968, "is_primary": true}], "also_known_as": "", "date_of_birth": "", "date_of_death": "", "genders": [], "languages": [], "places_of_operation": [], "biography": "", "biography_author": null, "date_of_biography": "2023-08-11T12:51:46.761981+10:00", "external_links": [], "uuid": "caef512e-0a73-4a61-995b-9f05e066127f", "source": {"name": "Vernon", "slug": "vernon"}, "source_identifier": "2551", "external_references": [], "date_modified": "2025-02-28T22:40:49.481959+11:00"}, {"id": 10819, "name": "Luke Low", "roles_in_work": [{"id": 2633054, "title": "A Bad day", "work_id": 114100, "role": "creator", "role_id": 968, "is_primary": true}], "also_known_as": "", "date_of_birth": "", "date_of_death": "", "genders": [], "languages": [], "places_of_operation": [], "biography": "", "biography_author": null, "date_of_biography": "2023-08-11T12:51:52.359244+10:00", "external_links": [], "uuid": "fd874327-5a63-4e03-b373-05c1cbab0dfe", "source": {"name": "Vernon", "slug": "vernon"}, "source_identifier": "2550", "external_references": [], "date_modified": "2025-02-28T22:40:42.947802+11:00"}, {"id": 10818, "name": "Charmain Maher", "roles_in_work": [{"id": 2633070, "title": "Within these walls", "work_id": 114114, "role": "creator", "role_id": 968, "is_primary": true}], "also_known_as": "", "date_of_birth": "", "date_of_death": "", "genders": [], "languages": [], "places_of_operation": [], "biography": "", "biography_author": null, "date_of_biography": "2023-08-11T12:51:45.150696+10:00", "external_links": [], "uuid": "0cfe0c71-2396-4102-bd54-b09edf040cdd", "source": {"name": "Vernon", "slug": "vernon"}, "source_identifier": "2549", "external_references": [], "date_modified": "2025-02-28T22:40:56.848631+11:00"}]}