{"count": 28687, "next": "https://api.acmi.net.au/creators/?page=2032", "previous": "https://api.acmi.net.au/creators/?page=2030", "results": [{"id": 21927, "name": "Buz Alexander", "roles_in_work": [{"id": 2468314, "title": "The Visitor", "work_id": 79413, "role": "producer", "role_id": 1089, "is_primary": true}], "also_known_as": "", "date_of_birth": "", "date_of_death": "", "genders": [], "languages": [], "places_of_operation": [], "biography": "", "biography_author": null, "date_of_biography": "2023-08-14T11:39:00.583915+10:00", "external_links": [], "uuid": "3f989b32-09fe-44c2-8907-2f9e4217dd46", "source": {"name": "Vernon", "slug": "vernon"}, "source_identifier": "16392", "external_references": [], "date_modified": "2023-08-14T11:39:00.584150+10:00"}, {"id": 21924, "name": "Michael Powell", "roles_in_work": [{"id": 879469, "title": "The Boy who turned yellow", "work_id": 91810, "role": "director", "role_id": 938, "is_primary": true}, {"id": 1984933, "title": "The Edge of the World", "work_id": 80908, "role": "director", "role_id": 938, "is_primary": true}, {"id": 2246552, "title": "Red ensign", "work_id": 82484, "role": "director", "role_id": 938, "is_primary": true}, {"id": 2649376, "title": "The Life and Death of Colonel Blimp", "work_id": 81423, "role": "co-producers/directors", "role_id": 628, "is_primary": true}, {"id": 1998578, "title": "The Red shoes [DVD]", "work_id": 93939, "role": "co-producers/directors", "role_id": 628, "is_primary": true}, {"id": 1986298, "title": "I know where I'm going", "work_id": 82366, "role": "co-producers/directors", "role_id": 628, "is_primary": true}, {"id": 2065554, "title": "A Canterbury tale", "work_id": 82497, "role": "co-producers/directors", "role_id": 628, "is_primary": true}, {"id": 2071057, "title": "A Matter of life and death", "work_id": 86823, "role": "co-producers/directors", "role_id": 628, "is_primary": true}, {"id": 2117906, "title": "Black Narcissus", "work_id": 81070, "role": "co-producers/directors", "role_id": 628, "is_primary": true}, {"id": 2292872, "title": "They're a weird mob", "work_id": 79412, "role": "producer/director", "role_id": 31, "is_primary": true}, {"id": 1985791, "title": "49th Parallel", "work_id": 81448, "role": "producer/director", "role_id": 31, "is_primary": true}, {"id": 805207, "title": "Peeping Tom", "work_id": 32379, "role": "producer/director", "role_id": 31, "is_primary": true}], "also_known_as": "Michael Latham Powell", "date_of_birth": "1905-09-30", "date_of_death": "1990-02-19", "genders": [{"id": 9, "name": "Male", "slug": "male"}], "languages": [{"id": 1, "name": "English", "slug": "english"}], "places_of_operation": [{"id": 10, "name": "United Kingdom", "slug": "united-kingdom"}], "biography": "Michael Latham Powell (30 September 1905 – 19 February 1990) was an English filmmaker, celebrated for his partnership with Emeric Pressburger. Through their production company The Archers, they together wrote, produced and directed a series of classic British films, notably The Life and Death of Colonel Blimp (1943), A Canterbury Tale (1944), I Know Where I'm Going! (1945), A Matter of Life and Death (1946, also called Stairway to Heaven), Black Narcissus (1947), The Red Shoes (1948), and The Tales of Hoffmann (1951). His later controversial 1960 film Peeping Tom, while today considered a classic, and a contender as the first \"slasher\", was so vilified on first release that his career was seriously damaged.Many filmmakers such as Martin Scorsese, Francis Ford Coppola and George A. Romero have cited Powell as an influence. In 1981, he received the BAFTA Academy Fellowship Award along with his partner Pressburger, the highest honour the British Film Academy can give a filmmaker. He has been played on screen by Alastair Thomson Mills in the award-winning short film Òran na h-Eala (2022) which explores Moira Shearer's life changing decision to appear in The Red Shoes.", "biography_author": "Wikidata", "date_of_biography": "2022-05-19T12:29:59+10:00", "external_links": [{"id": 2725, "uri": "https://en.wikipedia.org/wiki/Michael_Powell"}], "uuid": "37658c98-6984-44b4-b0fa-e1438e9ae20f", "source": {"name": "Vernon", "slug": "vernon"}, "source_identifier": "25194", "external_references": [{"id": 11611, "source": {"name": "Wikidata", "slug": "wikidata"}, "source_identifier": "Q55234"}, {"id": 11612, "source": {"name": "VIAF", "slug": "viaf"}, "source_identifier": "54291311"}, {"id": 11613, "source": {"name": "LOC Auth", "slug": "loc-auth"}, "source_identifier": "n50021816"}, {"id": 11614, "source": {"name": "WorldCat", "slug": "worldcat"}, "source_identifier": "lccn-n50021816"}], "date_modified": "2025-03-05T14:00:58.441982+11:00"}, {"id": 21923, "name": "Williamson-Powell Productions", "roles_in_work": [{"id": 2292867, "title": "They're a weird mob", "work_id": 79412, "role": "production company", "role_id": 941, "is_primary": true}], "also_known_as": "", "date_of_birth": "", "date_of_death": "", "genders": [], "languages": [], "places_of_operation": [], "biography": "", "biography_author": null, "date_of_biography": "2023-05-09T18:22:36.926591+10:00", "external_links": [], "uuid": "efc5fdba-98d7-41b9-a53f-e6d8d0fd2fbe", "source": {"name": "Vernon", "slug": "vernon"}, "source_identifier": "14378", "external_references": [{"id": 33256, "source": {"name": "Wikidata", "slug": "wikidata"}, "source_identifier": "Q121271351"}], "date_modified": "2023-09-06T02:18:34.207423+10:00"}, {"id": 21918, "name": "Time-Life Television", "roles_in_work": [{"id": 2755585, "title": "Hamlet (BBC)", "work_id": 79424, "role": "production company", "role_id": 941, "is_primary": true}, {"id": 2755576, "title": "The Tempest", "work_id": 79422, "role": "production company", "role_id": 941, "is_primary": true}, {"id": 2755544, "title": "Romeo and Juliet", "work_id": 79399, "role": "production company", "role_id": 941, "is_primary": true}, {"id": 2649197, "title": "A Tale of Two Cities", "work_id": 81073, "role": "production company", "role_id": 941, "is_primary": true}], "also_known_as": "", "date_of_birth": "", "date_of_death": "", "genders": [], "languages": [], "places_of_operation": [], "biography": "", "biography_author": null, "date_of_biography": "2023-05-09T17:59:25.039548+10:00", "external_links": [], "uuid": "2dd66380-a848-4e10-a85a-e0202c83bbb2", "source": {"name": "Vernon", "slug": "vernon"}, "source_identifier": "13528", "external_references": [{"id": 42292, "source": {"name": "Wikidata", "slug": "wikidata"}, "source_identifier": "Q121337710"}], "date_modified": "2025-03-13T14:34:13.892991+11:00"}, {"id": 21915, "name": "John Hallowell", "roles_in_work": [{"id": 2755536, "title": "Magic of Football", "work_id": 79397, "role": "producer", "role_id": 1089, "is_primary": true}, {"id": 1807616, "title": "Training to win", "work_id": 79396, "role": "producer", "role_id": 1089, "is_primary": true}, {"id": 769903, "title": "Little skills mean a lot", "work_id": 79509, "role": "producer/director", "role_id": 31, "is_primary": true}, {"id": 2754388, "title": "Get well stories", "work_id": 99182, "role": "producer/director", "role_id": 31, "is_primary": true}], "also_known_as": "", "date_of_birth": "", "date_of_death": "", "genders": [], "languages": [], "places_of_operation": [], "biography": "", "biography_author": null, "date_of_biography": "2023-08-11T17:00:45.245694+10:00", "external_links": [], "uuid": "00e2d654-63b4-47a8-8a85-4054a3a501dc", "source": {"name": "Vernon", "slug": "vernon"}, "source_identifier": "22301", "external_references": [], "date_modified": "2025-03-13T01:43:04.737019+11:00"}, {"id": 21913, "name": "Australian Sports Commission", "roles_in_work": [{"id": 2753466, "title": "An Introduction to Aussie sports", "work_id": 98777, "role": "production company", "role_id": 941, "is_primary": true}, {"id": 2755534, "title": "Aussie Footy", "work_id": 79395, "role": "production company", "role_id": 941, "is_primary": true}], "also_known_as": "", "date_of_birth": null, "date_of_death": null, "genders": [], "languages": [], "places_of_operation": [], "biography": "", "biography_author": null, "date_of_biography": null, "external_links": [], "uuid": "d93be940-cdff-449b-befc-803c163dd866", "source": {"name": "Vernon", "slug": "vernon"}, "source_identifier": "5608", "external_references": [], "date_modified": "2025-03-13T14:33:47.417158+11:00"}, {"id": 21912, "name": "University of Western Australia", "roles_in_work": [{"id": 2082712, "title": "Aerobics Down Under-Advanced", "work_id": 79401, "role": "co-producer", "role_id": 915, "is_primary": true}, {"id": 2083998, "title": "Aerobics Down Under-Intermediate", "work_id": 79400, "role": "co-producer", "role_id": 915, "is_primary": true}, {"id": 2132496, "title": "Catch the Wind", "work_id": 79446, "role": "co-producer", "role_id": 915, "is_primary": true}, {"id": 2082728, "title": "Aerobics Down Under-Beginners", "work_id": 79402, "role": "co-producer", "role_id": 915, "is_primary": true}, {"id": 2648515, "title": "Badminton for Beginners", "work_id": 79394, "role": "producer", "role_id": 1089, "is_primary": true}], "also_known_as": "", "date_of_birth": "", "date_of_death": "", "genders": [], "languages": [], "places_of_operation": [], "biography": "The University of Western Australia (UWA) is a public research university in the Australian state of Western Australia. The university's main campus is in Perth, the state capital. UWA was established in 1911 by an act of the Parliament of Western Australia.UWA is the oldest university in the state of Western Australia (WA) and is the sixth-oldest university in Australia. Because of its age and reputation, UWA is classed as one of the \"sandstone universities\", an informal designation given to the oldest university in each state. \nUWA is a member of the prestigious Group of Eight, which consists of the eight most research intensive and best ranked Australian universities. UWA is also a member of the international Matariki Network of Universities. \nUWA is ranked in the world's top 100 universities, according to several highly respected publications. Another defining characteristic of UWA is that it has retained its Convocation as an integral part of its governance structure. All graduates of UWA are automatically life-long members of the university through Convocation which grants them the right to attend the Annual General Meetings, to elect two members of the UWA Senate and to review any changes to University legislation. \nGraduates of UWA include Prime Minister of Australia (Bob Hawke), five Justices of the High Court of Australia (including Chief Justice, Robert French, now Chancellor), Governor of the Reserve Bank (H. C. Coombs), various federal cabinet ministers, and seven of Western Australia's eight most recent premiers. In 2018 alumnus mathematician Akshay Venkatesh was a recipient of the Fields Medal. As of 2021, the university had produced 106 Rhodes Scholars. Two members of the UWA faculty, Barry Marshall and Robin Warren won Nobel Prizes as a result of research at the university.", "biography_author": "Wikidata", "date_of_biography": "2023-09-06T02:01:41.559715+10:00", "external_links": [{"id": 6237, "uri": "https://en.wikipedia.org/wiki/University_of_Western_Australia"}], "uuid": "1b1eec88-b265-4854-be99-8603221a196f", "source": {"name": "Vernon", "slug": "vernon"}, "source_identifier": "4431", "external_references": [{"id": 51144, "source": {"name": "Wikidata", "slug": "wikidata"}, "source_identifier": "Q1517021"}, {"id": 56016, "source": {"name": "VIAF", "slug": "viaf"}, "source_identifier": "146292670"}, {"id": 56017, "source": {"name": "LOC Auth", "slug": "loc-auth"}, "source_identifier": "n79089340"}, {"id": 56018, "source": {"name": "WorldCat", "slug": "worldcat"}, "source_identifier": "lccn-n79089340"}], "date_modified": "2025-03-05T13:46:38.897546+11:00"}, {"id": 21910, "name": "Dick Zimmerman", "roles_in_work": [{"id": 2172020, "title": "Jan Stephenson's How to Golf", "work_id": 79391, "role": "director", "role_id": 938, "is_primary": true}], "also_known_as": "", "date_of_birth": "", "date_of_death": "", "genders": [], "languages": [], "places_of_operation": [], "biography": "", "biography_author": null, "date_of_biography": "2023-05-09T14:37:32.130596+10:00", "external_links": [], "uuid": "f8068da1-fdab-4cef-beb5-df9177608a19", "source": {"name": "Vernon", "slug": "vernon"}, "source_identifier": "18131", "external_references": [], "date_modified": "2023-06-14T16:33:30.576250+10:00"}, {"id": 21905, "name": "Dept Immigration and Ethnic Affairs", "roles_in_work": [{"id": 2379710, "title": "Immigration: the waves that shaped Australia", "work_id": 79382, "role": "production company", "role_id": 941, "is_primary": true}], "also_known_as": "", "date_of_birth": "", "date_of_death": "", "genders": [], "languages": [], "places_of_operation": [], "biography": "", "biography_author": null, "date_of_biography": "2023-07-19T03:36:35.539112+10:00", "external_links": [], "uuid": "970ae7b0-ed1c-4b85-aebc-a40862bd9cf5", "source": {"name": "Vernon", "slug": "vernon"}, "source_identifier": "7481", "external_references": [{"id": 39559, "source": {"name": "Wikidata", "slug": "wikidata"}, "source_identifier": "Q121299122"}], "date_modified": "2023-09-05T19:09:26.095630+10:00"}, {"id": 21903, "name": "Victorian Health Foundation", "roles_in_work": [{"id": 2401702, "title": "Autism : The Early Signs", "work_id": 79371, "role": "producer", "role_id": 1089, "is_primary": true}], "also_known_as": "", "date_of_birth": "", "date_of_death": "", "genders": [], "languages": [], "places_of_operation": [], "biography": "", "biography_author": null, "date_of_biography": "2023-08-11T14:30:15.683542+10:00", "external_links": [], "uuid": "cdd238da-dd6e-4aa2-8455-d71d82d64c4d", "source": {"name": "Vernon", "slug": "vernon"}, "source_identifier": "14077", "external_references": [], "date_modified": "2023-08-11T14:30:15.683804+10:00"}]}