{"count": 28687, "next": "https://api.acmi.net.au/creators/?page=1444", "previous": "https://api.acmi.net.au/creators/?page=1442", "results": [{"id": 35672, "name": "Cyril Collard", "roles_in_work": [{"id": 1998371, "title": "Savage nights = Les Nuits fauves", "work_id": 93751, "role": "director", "role_id": 938, "is_primary": true}], "also_known_as": "", "date_of_birth": "1957-12-19", "date_of_death": "1993-03-05", "genders": [{"id": 9, "name": "Male", "slug": "male"}], "languages": [{"id": 4, "name": "French", "slug": "french"}], "places_of_operation": [{"id": 17, "name": "France", "slug": "france"}], "biography": "Cyril Collard (French: [kɔlaʁ]; 19 December 1957, Paris − 5 March 1993, Paris) was a French author, filmmaker, composer, musician and actor. He is known for his unapologetic portrayals of bisexuality and HIV in art, particularly his autobiographical novel and film Les Nuits Fauves (Savage Nights). Openly bisexual, Collard was also one of the first French artists to speak openly about his HIV-positive status.", "biography_author": "Wikidata", "date_of_biography": "2022-05-19T11:09:14.167743+10:00", "external_links": [{"id": 1855, "uri": "https://en.wikipedia.org/wiki/Cyril_Collard"}], "uuid": "a20c3882-5b38-4c2c-8a13-e39048181fc2", "source": {"name": "Vernon", "slug": "vernon"}, "source_identifier": "17282", "external_references": [{"id": 8061, "source": {"name": "Wikidata", "slug": "wikidata"}, "source_identifier": "Q504708"}, {"id": 8062, "source": {"name": "VIAF", "slug": "viaf"}, "source_identifier": "84032870"}, {"id": 8063, "source": {"name": "LOC Auth", "slug": "loc-auth"}, "source_identifier": "nr93020016"}, {"id": 8064, "source": {"name": "WorldCat", "slug": "worldcat"}, "source_identifier": "lccn-nr93020016"}], "date_modified": "2023-09-13T12:28:52.645196+10:00"}, {"id": 35669, "name": "Cabin Productions", "roles_in_work": [{"id": 2316990, "title": "Sumo do, Sumo don't = Shiko funjatta", "work_id": 93747, "role": "production company", "role_id": 941, "is_primary": true}], "also_known_as": "", "date_of_birth": "", "date_of_death": "", "genders": [], "languages": [], "places_of_operation": [], "biography": "", "biography_author": null, "date_of_biography": "2023-05-09T19:06:12.927896+10:00", "external_links": [], "uuid": "8ca92efd-6392-4d64-b6f3-f5e24351fcda", "source": {"name": "Vernon", "slug": "vernon"}, "source_identifier": "6177", "external_references": [{"id": 50537, "source": {"name": "Wikidata", "slug": "wikidata"}, "source_identifier": "Q121357881"}], "date_modified": "2023-09-05T18:17:04.758157+10:00"}, {"id": 35665, "name": "Animation Film Cologne", "roles_in_work": [{"id": 2238191, "title": "Felix the cat: the movie", "work_id": 93746, "role": "production company", "role_id": 941, "is_primary": true}], "also_known_as": "", "date_of_birth": "", "date_of_death": "", "genders": [], "languages": [], "places_of_operation": [], "biography": "", "biography_author": null, "date_of_biography": "2023-05-09T16:49:04.044616+10:00", "external_links": [], "uuid": "a8e4be05-992f-4829-af17-b9b72c5df067", "source": {"name": "Vernon", "slug": "vernon"}, "source_identifier": "5267", "external_references": [{"id": 50765, "source": {"name": "Wikidata", "slug": "wikidata"}, "source_identifier": "Q121357880"}], "date_modified": "2023-09-05T17:38:41.678488+10:00"}, {"id": 35664, "name": "Felix the Cat Creations", "roles_in_work": [{"id": 2238187, "title": "Felix the cat: the movie", "work_id": 93746, "role": "production company", "role_id": 941, "is_primary": true}], "also_known_as": "", "date_of_birth": "", "date_of_death": "", "genders": [], "languages": [], "places_of_operation": [], "biography": "", "biography_author": null, "date_of_biography": "2023-05-09T16:49:03.804135+10:00", "external_links": [], "uuid": "86985d40-6430-4b80-93b8-f2d636fa1623", "source": {"name": "Vernon", "slug": "vernon"}, "source_identifier": "8139", "external_references": [{"id": 36205, "source": {"name": "Wikidata", "slug": "wikidata"}, "source_identifier": "Q121079026"}], "date_modified": "2023-09-05T19:41:19.590211+10:00"}, {"id": 35662, "name": "Dark Horse Pictures", "roles_in_work": [{"id": 2315903, "title": "Struck by lightning", "work_id": 93745, "role": "production company", "role_id": 941, "is_primary": true}], "also_known_as": "", "date_of_birth": "", "date_of_death": "", "genders": [], "languages": [], "places_of_operation": [], "biography": "", "biography_author": null, "date_of_biography": "2023-05-09T19:04:12.841798+10:00", "external_links": [], "uuid": "9843c505-e2af-432f-8494-f002d3284c18", "source": {"name": "Vernon", "slug": "vernon"}, "source_identifier": "7325", "external_references": [{"id": 33746, "source": {"name": "Wikidata", "slug": "wikidata"}, "source_identifier": "Q121091143"}], "date_modified": "2023-09-05T18:53:22.845684+10:00"}, {"id": 35661, "name": "George Daugherty", "roles_in_work": [{"id": 2201980, "title": "Peter and the wolf", "work_id": 93744, "role": "director", "role_id": 938, "is_primary": true}, {"id": 2201978, "title": "Peter and the wolf", "work_id": 93744, "role": "co-producer", "role_id": 915, "is_primary": true}], "also_known_as": "", "date_of_birth": "", "date_of_death": "", "genders": [], "languages": [], "places_of_operation": [], "biography": "", "biography_author": null, "date_of_biography": "2023-05-09T15:27:53.233127+10:00", "external_links": [], "uuid": "3c51a394-b96d-4a84-a287-12c3081d787f", "source": {"name": "Vernon", "slug": "vernon"}, "source_identifier": "19582", "external_references": [], "date_modified": "2023-06-14T16:33:30.576250+10:00"}, {"id": 35659, "name": "IF/X Production", "roles_in_work": [{"id": 2201972, "title": "Peter and the wolf", "work_id": 93744, "role": "production company", "role_id": 941, "is_primary": true}], "also_known_as": "", "date_of_birth": "", "date_of_death": "", "genders": [], "languages": [], "places_of_operation": [], "biography": "", "biography_author": null, "date_of_biography": "2023-05-09T15:27:51.941094+10:00", "external_links": [], "uuid": "51353b62-ee31-462b-bab7-ab859109e582", "source": {"name": "Vernon", "slug": "vernon"}, "source_identifier": "4503", "external_references": [], "date_modified": "2023-06-14T16:33:30.576250+10:00"}, {"id": 35654, "name": "Aliceleo", "roles_in_work": [{"id": 2074321, "title": "A Self made hero = Un Heros tres discret", "work_id": 93743, "role": "production company", "role_id": 941, "is_primary": true}], "also_known_as": "", "date_of_birth": "", "date_of_death": "", "genders": [], "languages": [], "places_of_operation": [], "biography": "", "biography_author": null, "date_of_biography": "2023-05-09T11:38:35.991945+10:00", "external_links": [], "uuid": "8067173a-f344-474e-9b32-25e68aef587e", "source": {"name": "Vernon", "slug": "vernon"}, "source_identifier": "5120", "external_references": [{"id": 40198, "source": {"name": "Wikidata", "slug": "wikidata"}, "source_identifier": "Q121035367"}], "date_modified": "2023-09-05T17:28:39.931792+10:00"}, {"id": 35652, "name": "Robert McKimson", "roles_in_work": [{"id": 2245472, "title": "Foghorn Leghorn: classic Looney Tunes cartoons", "work_id": 93739, "role": "director", "role_id": 938, "is_primary": true}], "also_known_as": "", "date_of_birth": "", "date_of_death": "", "genders": [], "languages": [], "places_of_operation": [], "biography": "", "biography_author": null, "date_of_biography": "2023-05-09T17:02:00.444141+10:00", "external_links": [], "uuid": "eefcf4d3-0cb2-45c9-b9c4-662af4b150d7", "source": {"name": "Vernon", "slug": "vernon"}, "source_identifier": "27832", "external_references": [], "date_modified": "2023-06-14T16:33:30.576250+10:00"}, {"id": 35650, "name": "Gene Fowler Jr", "roles_in_work": [{"id": 1998341, "title": "I was a teenage werewolf", "work_id": 93734, "role": "director", "role_id": 938, "is_primary": true}], "also_known_as": "", "date_of_birth": "1917-05-27", "date_of_death": "1998-05-11", "genders": [{"id": 9, "name": "Male", "slug": "male"}], "languages": [{"id": 1, "name": "English", "slug": "english"}], "places_of_operation": [{"id": 1, "name": "United States of America", "slug": "united-states-of-america"}], "biography": "Gene Fowler Jr. (27 May 1917 – 11 May 1998), the eldest son of journalist and author Gene Fowler, was a prominent Hollywood film editor. His work included films of Fritz Lang and Samuel Fuller and movies like Stanley Kramer's It's a Mad, Mad, Mad, Mad World (1963), John Cassavetes' A Child Is Waiting (1963) and Hang 'Em High (1968).\nHe was also the director of feature films as well as numerous television programs. While the majority of his directorial work is regarded as minor efforts (Leonard Maltin lists only three of his seven features in his compendium), two of his films, I Was a Teenage Werewolf (1957) and I Married a Monster from Outer Space (1958), have gained some critical attention in retrospect.Gene Fowler Jr. was married to film editor Marjorie Fowler from 1944 until his death. He died in Woodland Hills, California of natural causes.\nHis brother Will Fowler (1922–2004) was a Hollywood screenwriter.", "biography_author": "Wikidata", "date_of_biography": "2022-05-19T11:33:43.191585+10:00", "external_links": [{"id": 2097, "uri": "https://en.wikipedia.org/wiki/Gene_Fowler_Jr."}], "uuid": "1871b6d2-d18a-44f0-b4ef-137271b4882b", "source": {"name": "Vernon", "slug": "vernon"}, "source_identifier": "19466", "external_references": [{"id": 9048, "source": {"name": "Wikidata", "slug": "wikidata"}, "source_identifier": "Q4994308"}, {"id": 9049, "source": {"name": "VIAF", "slug": "viaf"}, "source_identifier": "71079209"}, {"id": 9050, "source": {"name": "LOC Auth", "slug": "loc-auth"}, "source_identifier": "no2003051721"}, {"id": 9051, "source": {"name": "WorldCat", "slug": "worldcat"}, "source_identifier": "lccn-no2003051721"}], "date_modified": "2023-09-13T12:29:33.106146+10:00"}]}