{"count": 28684, "next": "https://api.acmi.net.au/creators/?page=1435", "previous": "https://api.acmi.net.au/creators/?page=1433", "results": [{"id": 35975, "name": "NDF International", "roles_in_work": [{"id": 2650569, "title": "Kama Sutra", "work_id": 115738, "role": "production company", "role_id": 941, "is_primary": true}, {"id": 2170834, "title": "Kama sutra", "work_id": 94065, "role": "production company", "role_id": 941, "is_primary": true}, {"id": 2169576, "title": "Kama sutra: a tale of love", "work_id": 95255, "role": "production company", "role_id": 941, "is_primary": true}], "also_known_as": "", "date_of_birth": "", "date_of_death": "", "genders": [], "languages": [], "places_of_operation": [], "biography": "", "biography_author": null, "date_of_biography": "2023-05-09T14:35:07.949190+10:00", "external_links": [], "uuid": "fe3fbb50-5748-4b71-92b1-fffc7072bcfc", "source": {"name": "Vernon", "slug": "vernon"}, "source_identifier": "10859", "external_references": [{"id": 41237, "source": {"name": "Wikidata", "slug": "wikidata"}, "source_identifier": "Q121091233"}], "date_modified": "2025-03-05T14:21:13.765535+11:00"}, {"id": 35972, "name": "Celeste Geer", "roles_in_work": [{"id": 3085633, "title": "Mick's gift", "work_id": 94048, "role": "director", "role_id": 938, "is_primary": true}], "also_known_as": "", "date_of_birth": "", "date_of_death": "", "genders": [], "languages": [], "places_of_operation": [], "biography": "", "biography_author": null, "date_of_biography": "2023-05-09T16:27:03.391743+10:00", "external_links": [], "uuid": "00dfc344-ea67-42d4-acc0-245c7b721021", "source": {"name": "Vernon", "slug": "vernon"}, "source_identifier": "16637", "external_references": [{"id": 33942, "source": {"name": "Wikidata", "slug": "wikidata"}, "source_identifier": "Q121223437"}], "date_modified": "2025-03-17T10:40:49.401366+11:00"}, {"id": 35952, "name": "Brad Bird", "roles_in_work": [{"id": 2356410, "title": "The Incredibles", "work_id": 95146, "role": "director", "role_id": 938, "is_primary": true}, {"id": 2356673, "title": "The Iron giant", "work_id": 94025, "role": "director", "role_id": 938, "is_primary": true}, {"id": 2236323, "title": "Ratatouille", "work_id": 95632, "role": "co-director", "role_id": 959, "is_primary": true}], "also_known_as": "Phillip Bradley Bird", "date_of_birth": "1957-09-24", "date_of_death": null, "genders": [{"id": 9, "name": "Male", "slug": "male"}], "languages": [{"id": 1, "name": "English", "slug": "english"}], "places_of_operation": [{"id": 1, "name": "United States of America", "slug": "united-states-of-america"}], "biography": "Phillip Bradley Bird (born September 24, 1957) is an American film director, animator, screenwriter, producer, and voice actor. He has had a career spanning forty years in both animation and live-action, and is best known for his films The Incredibles franchise, Ratatouille, The Iron Giant, and Mission: Impossible – Ghost Protocol. Bird was born in Montana and grew up in Oregon. He developed an interest in the art of animation early on, and completed his first short subject by age 14. Bird sent the film to Walt Disney Productions, leading to an apprenticeship from the studio's Nine Old Men. He attended the California Institute of the Arts in the late 1970s, and worked for Disney shortly thereafter.\nIn the 1980s, he worked in film development with various studios; he wrote the screenplay for *batteries not included, and developed two episodes of Amazing Stories for Steven Spielberg, including the influential Family Dog. Afterwards, Bird joined The Simpsons as creative consultant for eight seasons. He directed the 1999 feature The Iron Giant, adapted from a book by poet Ted Hughes; though critically lauded, it was a box-office bomb. He moved to Pixar where he wrote and directed two movies, The Incredibles (2004) and Ratatouille (2007) that were worldwide critical and financial smash hits; both earned Bird two Academy Award for Best Animated Feature wins and Best Original Screenplay nominations. He transitioned to live-action filmmaking with 2011's similarly successful Mission Impossible: Ghost Protocol, but his 2015 effort Tomorrowland significantly underperformed. He returned to Pixar to develop Incredibles 2, which was released in 2018 and became the second highest-grossing animated picture of all-time.\nAs a filmmaker, Bird has been considered an auteur; he is known to supervise his projects to a high degree of detail. The bulk of Bird's filmography has attracted widespread acclaim; with the exception of Tomorrowland, all of his movies have high aggregate scores from viewers and critics. His films' themes have been subject to interpretation by commentators due to their parallels with novelist Ayn Rand's Objectivism philosophy, an analysis Bird has dismissed. He is known as an advocate for creative freedom and the possibilities of animation, and has criticized its stereotype as children's entertainment, or classification as a genre, rather than art.", "biography_author": "Wikidata", "date_of_biography": "2022-05-19T10:58:39.053916+10:00", "external_links": [{"id": 1744, "uri": "https://en.wikipedia.org/wiki/Brad_Bird"}], "uuid": "5d86b01d-2f12-4e96-be8b-4c2e8feffd11", "source": {"name": "Vernon", "slug": "vernon"}, "source_identifier": "16150", "external_references": [{"id": 7607, "source": {"name": "Wikidata", "slug": "wikidata"}, "source_identifier": "Q310960"}, {"id": 7608, "source": {"name": "VIAF", "slug": "viaf"}, "source_identifier": "19701133"}, {"id": 7609, "source": {"name": "LOC Auth", "slug": "loc-auth"}, "source_identifier": "no2005032744"}, {"id": 7610, "source": {"name": "WorldCat", "slug": "worldcat"}, "source_identifier": "lccn-no2005032744"}], "date_modified": "2023-09-13T12:28:32.169085+10:00"}, {"id": 35945, "name": "Bernadette O'Mahony", "roles_in_work": [{"id": 918144, "title": "Round the twist Series 3 - Volume 5 [DVD]", "work_id": 95573, "role": "co-producer", "role_id": 915, "is_primary": true}, {"id": 918137, "title": "Round the twist Series 3 - Volume 4 [DVD]", "work_id": 95572, "role": "co-producer", "role_id": 915, "is_primary": true}, {"id": 3085438, "title": "Crash zone. Vol. 6. Season 2. Eps 10-13", "work_id": 94018, "role": "producer", "role_id": 1089, "is_primary": true}, {"id": 3085411, "title": "Crash zone. Vol. 5. Season 2. Eps 06-09", "work_id": 94016, "role": "producer", "role_id": 1089, "is_primary": true}, {"id": 3085387, "title": "Crash zone. Vol. 4. Season 2. Eps 01-05", "work_id": 94017, "role": "producer", "role_id": 1089, "is_primary": true}], "also_known_as": "", "date_of_birth": "", "date_of_death": "", "genders": [], "languages": [], "places_of_operation": [], "biography": "", "biography_author": null, "date_of_biography": "2023-05-09T18:22:36.254252+10:00", "external_links": [], "uuid": "f84d4ba7-f60d-4681-8c13-776d0211572c", "source": {"name": "Vernon", "slug": "vernon"}, "source_identifier": "15827", "external_references": [{"id": 37105, "source": {"name": "Wikidata", "slug": "wikidata"}, "source_identifier": "Q121126281"}], "date_modified": "2025-03-17T10:40:11.548879+11:00"}, {"id": 35942, "name": "Disney Channel Australia", "roles_in_work": [{"id": 3085311, "title": "Crash zone. Vol. 1. Season 1. Eps 01-05", "work_id": 94059, "role": "production company", "role_id": 941, "is_primary": true}, {"id": 3085336, "title": "Crash zone. Vol. 2. Season 1. Eps 06-09", "work_id": 94049, "role": "production company", "role_id": 941, "is_primary": true}, {"id": 3085363, "title": "Crash zone. Vol. 3. Season 1. Eps 10-13", "work_id": 94014, "role": "production company", "role_id": 941, "is_primary": true}, {"id": 3085386, "title": "Crash zone. Vol. 4. Season 2. Eps 01-05", "work_id": 94017, "role": "production company", "role_id": 941, "is_primary": true}, {"id": 3085408, "title": "Crash zone. Vol. 5. Season 2. Eps 06-09", "work_id": 94016, "role": "production company", "role_id": 941, "is_primary": true}, {"id": 3085435, "title": "Crash zone. Vol. 6. Season 2. Eps 10-13", "work_id": 94018, "role": "production company", "role_id": 941, "is_primary": true}, {"id": 3085456, "title": "Crash zone", "work_id": 115604, "role": "production company", "role_id": 941, "is_primary": true}], "also_known_as": "", "date_of_birth": "", "date_of_death": "", "genders": [], "languages": [], "places_of_operation": [], "biography": "", "biography_author": null, "date_of_biography": "2023-05-09T18:22:38.622447+10:00", "external_links": [], "uuid": "d5987df5-3bcb-42c8-9624-903f9b731d53", "source": {"name": "Vernon", "slug": "vernon"}, "source_identifier": "7596", "external_references": [{"id": 43009, "source": {"name": "Wikidata", "slug": "wikidata"}, "source_identifier": "Q121314934"}], "date_modified": "2025-03-17T10:40:15.548945+11:00"}, {"id": 35937, "name": "Marilyn Lewis Entertainment", "roles_in_work": [{"id": 2318606, "title": "Superstar: the life and times of Andy Warhol", "work_id": 94011, "role": "production company", "role_id": 941, "is_primary": true}], "also_known_as": "", "date_of_birth": "", "date_of_death": "", "genders": [], "languages": [], "places_of_operation": [], "biography": "", "biography_author": null, "date_of_biography": "2023-05-09T19:08:46.695652+10:00", "external_links": [], "uuid": "3bba3a09-43bd-409c-8dcf-11de7b813e85", "source": {"name": "Vernon", "slug": "vernon"}, "source_identifier": "10301", "external_references": [{"id": 38296, "source": {"name": "Wikidata", "slug": "wikidata"}, "source_identifier": "Q121315097"}], "date_modified": "2023-09-05T22:42:59.027469+10:00"}, {"id": 35936, "name": "Aries Cinematografica Argentina", "roles_in_work": [{"id": 2318601, "title": "Superstar: the life and times of Andy Warhol", "work_id": 94011, "role": "production company", "role_id": 941, "is_primary": true}], "also_known_as": "", "date_of_birth": "", "date_of_death": "", "genders": [], "languages": [], "places_of_operation": [], "biography": "", "biography_author": null, "date_of_biography": "2023-05-09T19:08:46.438185+10:00", "external_links": [], "uuid": "cb4b1384-70d2-4a48-a31b-9f3ea354675f", "source": {"name": "Vernon", "slug": "vernon"}, "source_identifier": "5374", "external_references": [{"id": 36145, "source": {"name": "Wikidata", "slug": "wikidata"}, "source_identifier": "Q121058027"}], "date_modified": "2023-09-05T17:44:15.751242+10:00"}, {"id": 35935, "name": "Lawrence Guterman", "roles_in_work": [{"id": 2132882, "title": "Cats & dogs = Cats and dogs [DVD]", "work_id": 94075, "role": "director", "role_id": 938, "is_primary": true}], "also_known_as": "", "date_of_birth": "1966-07-18", "date_of_death": null, "genders": [{"id": 9, "name": "Male", "slug": "male"}], "languages": [], "places_of_operation": [{"id": 36, "name": "Canada", "slug": "canada"}], "biography": "Lawrence Guterman (born July 18, 1966) is a Canadian film director known for his work in companies like DreamWorks, Warner Bros., New Line Cinema and Universal. He directed the feature films Cats & Dogs (2001) and Son of the Mask (2005), as well as several episodes of Out of Jimmy's Head (between 2007 and 2008).", "biography_author": "Wikidata", "date_of_biography": "2022-05-19T12:13:45.302372+10:00", "external_links": [{"id": 2553, "uri": "https://en.wikipedia.org/wiki/Lawrence_Guterman"}], "uuid": "8cd1c732-4aed-439d-9fa5-75814f2c0d2c", "source": {"name": "Vernon", "slug": "vernon"}, "source_identifier": "23582", "external_references": [{"id": 10911, "source": {"name": "Wikidata", "slug": "wikidata"}, "source_identifier": "Q6504110"}, {"id": 10912, "source": {"name": "VIAF", "slug": "viaf"}, "source_identifier": "226373011"}, {"id": 10913, "source": {"name": "LOC Auth", "slug": "loc-auth"}, "source_identifier": "no2002032594"}, {"id": 10914, "source": {"name": "WorldCat", "slug": "worldcat"}, "source_identifier": "lccn-no2002032594"}], "date_modified": "2023-09-13T12:30:56.114415+10:00"}, {"id": 35927, "name": "Brook Lapping", "roles_in_work": [{"id": 2234046, "title": "Queen Victoria's empire", "work_id": 94545, "role": "co-producer", "role_id": 915, "is_primary": true}, {"id": 817993, "title": "The Vietnam War: a descent into hell", "work_id": 94004, "role": "production company", "role_id": 941, "is_primary": true}], "also_known_as": "", "date_of_birth": "", "date_of_death": "", "genders": [], "languages": [], "places_of_operation": [], "biography": "", "biography_author": null, "date_of_biography": "2023-05-09T16:42:57.209618+10:00", "external_links": [], "uuid": "2a98c5c2-68cc-41d8-a5fb-607186aae0c8", "source": {"name": "Vernon", "slug": "vernon"}, "source_identifier": "16280", "external_references": [{"id": 38023, "source": {"name": "Wikidata", "slug": "wikidata"}, "source_identifier": "Q121143914"}], "date_modified": "2023-09-05T18:12:07.590252+10:00"}, {"id": 35923, "name": "Bronwen Hughes", "roles_in_work": [{"id": 1998698, "title": "Harriet the spy", "work_id": 93998, "role": "director", "role_id": 938, "is_primary": true}], "also_known_as": "", "date_of_birth": "1967-10-17", "date_of_death": null, "genders": [{"id": 5, "name": "Female", "slug": "female"}], "languages": [], "places_of_operation": [{"id": 36, "name": "Canada", "slug": "canada"}], "biography": "Bronwen Hughes is a Canadian film director. She was born in Toronto and is of Welsh descent. A graduate of the Department of Film, York University she has directed commercials and feature films. Since 2006 most of her work has been in television directing.", "biography_author": "Wikidata", "date_of_biography": "2022-05-19T10:59:30.954745+10:00", "external_links": [{"id": 1754, "uri": "https://en.wikipedia.org/wiki/Bronwen_Hughes"}], "uuid": "ee54241b-df48-410b-a01a-d761701822d4", "source": {"name": "Vernon", "slug": "vernon"}, "source_identifier": "16277", "external_references": [{"id": 7648, "source": {"name": "Wikidata", "slug": "wikidata"}, "source_identifier": "Q4974114"}, {"id": 7649, "source": {"name": "VIAF", "slug": "viaf"}, "source_identifier": "34664333"}, {"id": 7650, "source": {"name": "LOC Auth", "slug": "loc-auth"}, "source_identifier": "no97029468"}, {"id": 7651, "source": {"name": "WorldCat", "slug": "worldcat"}, "source_identifier": "lccn-no97029468"}], "date_modified": "2023-09-13T12:28:33.428770+10:00"}]}