{"count": 28687, "next": "https://api.acmi.net.au/creators/?page=1263", "previous": "https://api.acmi.net.au/creators/?page=1261", "results": [{"id": 39394, "name": "Chris Bryer", "roles_in_work": [{"id": 2787997, "title": "The Aid trap. Parts 1 & 2", "work_id": 99423, "role": "co-director", "role_id": 959, "is_primary": true}, {"id": 2787999, "title": "The Hunger machine. Parts 1 & 2", "work_id": 99425, "role": "producer", "role_id": 1089, "is_primary": true}, {"id": 2787994, "title": "Politics of food", "work_id": 115347, "role": "producer", "role_id": 1089, "is_primary": true}, {"id": 2788002, "title": "Battle for the land. Parts 1 & 2", "work_id": 99426, "role": "producer", "role_id": 1089, "is_primary": true}, {"id": 1816101, "title": "An unnecessary famine", "work_id": 99424, "role": "producer", "role_id": 1089, "is_primary": true}], "also_known_as": "", "date_of_birth": null, "date_of_death": null, "genders": [], "languages": [], "places_of_operation": [], "biography": "", "biography_author": null, "date_of_biography": null, "external_links": [], "uuid": "bad529ea-a833-4a63-9932-81a3cd8cc52f", "source": {"name": "Vernon", "slug": "vernon"}, "source_identifier": "16808", "external_references": [], "date_modified": "2025-03-14T19:42:12.026359+11:00"}, {"id": 39393, "name": "Judith Weymont", "roles_in_work": [{"id": 2787995, "title": "The Aid trap. Parts 1 & 2", "work_id": 99423, "role": "producer", "role_id": 1089, "is_primary": true}], "also_known_as": "", "date_of_birth": null, "date_of_death": null, "genders": [], "languages": [], "places_of_operation": [], "biography": "", "biography_author": null, "date_of_biography": null, "external_links": [], "uuid": "576620b9-7f54-4014-bb48-c8cc11af810a", "source": {"name": "Vernon", "slug": "vernon"}, "source_identifier": "22806", "external_references": [], "date_modified": "2025-03-14T19:42:08.948544+11:00"}, {"id": 39392, "name": "Scott Hennesy", "roles_in_work": [{"id": 2754898, "title": "Computers: where they come from & how they work", "work_id": 99416, "role": "director", "role_id": 938, "is_primary": true}], "also_known_as": "", "date_of_birth": null, "date_of_death": null, "genders": [], "languages": [], "places_of_operation": [], "biography": "", "biography_author": null, "date_of_biography": null, "external_links": [], "uuid": "5eb53603-9617-48a6-845b-ec91232cfb6b", "source": {"name": "Vernon", "slug": "vernon"}, "source_identifier": "28625", "external_references": [], "date_modified": "2025-03-13T01:52:59.275896+11:00"}, {"id": 39391, "name": "Rick Rothschild", "roles_in_work": [{"id": 2754897, "title": "Computers: where they come from & how they work", "work_id": 99416, "role": "producer", "role_id": 1089, "is_primary": true}], "also_known_as": "", "date_of_birth": null, "date_of_death": null, "genders": [], "languages": [], "places_of_operation": [], "biography": "", "biography_author": null, "date_of_biography": null, "external_links": [], "uuid": "87f9a79f-7aa7-4225-abb1-1f172a3e34b7", "source": {"name": "Vernon", "slug": "vernon"}, "source_identifier": "27557", "external_references": [], "date_modified": "2025-03-13T01:52:58.689513+11:00"}, {"id": 39390, "name": "E F S Productions", "roles_in_work": [{"id": 2754895, "title": "Computers: where they come from & how they work", "work_id": 99416, "role": "production company", "role_id": 941, "is_primary": true}], "also_known_as": "", "date_of_birth": null, "date_of_death": null, "genders": [], "languages": [], "places_of_operation": [], "biography": "", "biography_author": null, "date_of_biography": null, "external_links": [], "uuid": "ea0db23b-1ce5-4d30-a809-d2e4ff42ea14", "source": {"name": "Vernon", "slug": "vernon"}, "source_identifier": "7697", "external_references": [], "date_modified": "2025-03-13T01:52:57.520164+11:00"}, {"id": 39387, "name": "Today's Territory", "roles_in_work": [{"id": 2754889, "title": "Battle of Australia", "work_id": 99413, "role": "production company", "role_id": 941, "is_primary": true}], "also_known_as": "", "date_of_birth": "", "date_of_death": "", "genders": [], "languages": [], "places_of_operation": [], "biography": "", "biography_author": null, "date_of_biography": "2023-05-09T12:42:59.189327+10:00", "external_links": [], "uuid": "1aece5b5-883f-4d5f-a474-c29ddb4ebaf0", "source": {"name": "Vernon", "slug": "vernon"}, "source_identifier": "13559", "external_references": [{"id": 37204, "source": {"name": "Wikidata", "slug": "wikidata"}, "source_identifier": "Q121126596"}], "date_modified": "2025-03-13T01:52:53.764710+11:00"}, {"id": 39386, "name": "Gerald T Rogers Productions", "roles_in_work": [{"id": 2754888, "title": "Women, wine and wellness: alcohol and your body", "work_id": 99412, "role": "production company", "role_id": 941, "is_primary": true}], "also_known_as": "", "date_of_birth": "", "date_of_death": "", "genders": [], "languages": [], "places_of_operation": [], "biography": "", "biography_author": null, "date_of_biography": "2023-08-14T12:50:37.525369+10:00", "external_links": [], "uuid": "5e4874ea-0e2d-421c-bb8b-14d85a9cbc0d", "source": {"name": "Vernon", "slug": "vernon"}, "source_identifier": "8712", "external_references": [], "date_modified": "2025-03-13T01:52:52.955603+11:00"}, {"id": 39385, "name": "Beyond Communications", "roles_in_work": [{"id": 2754881, "title": "Like nowhere else", "work_id": 99409, "role": "production company", "role_id": 941, "is_primary": true}], "also_known_as": "", "date_of_birth": "", "date_of_death": "", "genders": [], "languages": [], "places_of_operation": [], "biography": "", "biography_author": null, "date_of_biography": "2023-08-11T19:30:38.688404+10:00", "external_links": [], "uuid": "62fd9348-e589-4e93-a82f-3b5c5d1c848e", "source": {"name": "Vernon", "slug": "vernon"}, "source_identifier": "5830", "external_references": [], "date_modified": "2025-03-13T01:52:48.630242+11:00"}, {"id": 39382, "name": "Australian Credit Unions", "roles_in_work": [{"id": 2754873, "title": "Youth and credit", "work_id": 99407, "role": "production company", "role_id": 941, "is_primary": true}], "also_known_as": "", "date_of_birth": "", "date_of_death": "", "genders": [], "languages": [], "places_of_operation": [], "biography": "", "biography_author": null, "date_of_biography": "2023-05-09T18:06:38.048555+10:00", "external_links": [], "uuid": "96b0c0c6-d220-47a7-b93c-fa9584a7811b", "source": {"name": "Vernon", "slug": "vernon"}, "source_identifier": "4185", "external_references": [{"id": 32471, "source": {"name": "Wikidata", "slug": "wikidata"}, "source_identifier": "Q121035348"}], "date_modified": "2025-03-13T01:52:43.426460+11:00"}, {"id": 39380, "name": "For Beyond Productions", "roles_in_work": [{"id": 2754861, "title": "Climate in crisis", "work_id": 99403, "role": "production company", "role_id": 941, "is_primary": true}], "also_known_as": "", "date_of_birth": "", "date_of_death": "", "genders": [], "languages": [], "places_of_operation": [], "biography": "", "biography_author": null, "date_of_biography": "2023-05-09T16:17:19.531580+10:00", "external_links": [], "uuid": "3584a6a4-4df2-4b8c-b726-d85d484afcd5", "source": {"name": "Vernon", "slug": "vernon"}, "source_identifier": "8428", "external_references": [{"id": 34607, "source": {"name": "Wikidata", "slug": "wikidata"}, "source_identifier": "Q121222509"}], "date_modified": "2025-03-13T01:52:35.576728+11:00"}]}