{"count": 28687, "next": "https://api.acmi.net.au/creators/?page=1458", "previous": "https://api.acmi.net.au/creators/?page=1456", "results": [{"id": 35295, "name": "Claire Devers", "roles_in_work": [{"id": 883083, "title": "Noir et blanc", "work_id": 93524, "role": "director", "role_id": 938, "is_primary": true}], "also_known_as": "", "date_of_birth": "1955-08-20", "date_of_death": null, "genders": [{"id": 5, "name": "Female", "slug": "female"}], "languages": [{"id": 4, "name": "French", "slug": "french"}], "places_of_operation": [{"id": 17, "name": "France", "slug": "france"}], "biography": "Claire Devers (born 20 August 1955, in Paris) is a French film director and screenwriter. She was nominated for the 1987 César Award for Best Debut for directing Noir et Blanc (1986).\n\n", "biography_author": "Wikidata", "date_of_biography": "2022-05-19T11:06:20.743236+10:00", "external_links": [{"id": 1829, "uri": "https://en.wikipedia.org/wiki/Claire_Devers"}], "uuid": "4093f3be-fdd7-47d4-b524-48300e9109ad", "source": {"name": "Vernon", "slug": "vernon"}, "source_identifier": "17037", "external_references": [{"id": 7951, "source": {"name": "Wikidata", "slug": "wikidata"}, "source_identifier": "Q2975034"}, {"id": 7952, "source": {"name": "VIAF", "slug": "viaf"}, "source_identifier": "311488597"}, {"id": 7953, "source": {"name": "WorldCat", "slug": "worldcat"}, "source_identifier": "lccn-no2019129101"}], "date_modified": "2023-09-13T12:28:45.811376+10:00"}, {"id": 35292, "name": "Maria Novaro", "roles_in_work": [{"id": 1997893, "title": "Danzon", "work_id": 93523, "role": "director", "role_id": 938, "is_primary": true}], "also_known_as": "María Luisa Novaro Peñaloza", "date_of_birth": "1951-09-11", "date_of_death": null, "genders": [{"id": 5, "name": "Female", "slug": "female"}], "languages": [], "places_of_operation": [{"id": 185, "name": "Mexico", "slug": "mexico"}], "biography": "María Novaro (born María Luisa Novaro Peñaloza; September 11, 1951, in Mexico City) is a Mexican film director. She was among the first generation of female filmmakers to graduate from a film school in Mexico. She has made five feature films and fourteen short films. Within the Mexican film industry, she has been a cinematographer, sound mixer, director, screenwriter and editor. Today, Novaro is one of the best known Mexican filmmakers to come out of the New Mexican Cinema and her films express Millian's idea of cinema in feminine.", "biography_author": "Wikidata", "date_of_biography": "2023-08-01T16:03:47.514124+10:00", "external_links": [{"id": 4609, "uri": "https://en.wikipedia.org/wiki/Maria_Novaro"}], "uuid": "d58230dc-534b-4ced-b417-a385b628d3d4", "source": {"name": "Vernon", "slug": "vernon"}, "source_identifier": "24394", "external_references": [{"id": 26470, "source": {"name": "Wikidata", "slug": "wikidata"}, "source_identifier": "Q3850620"}, {"id": 30104, "source": {"name": "VIAF", "slug": "viaf"}, "source_identifier": "65097060"}, {"id": 30105, "source": {"name": "LOC Auth", "slug": "loc-auth"}, "source_identifier": "nr2002013419"}, {"id": 30106, "source": {"name": "WorldCat", "slug": "worldcat"}, "source_identifier": "lccn-nr2002013419"}], "date_modified": "2023-09-13T12:31:12.432512+10:00"}, {"id": 35287, "name": "Mindy Kaplan", "roles_in_work": [{"id": 2406104, "title": "Devotion", "work_id": 93520, "role": "director", "role_id": 938, "is_primary": true}], "also_known_as": "", "date_of_birth": "", "date_of_death": "", "genders": [], "languages": [], "places_of_operation": [], "biography": "", "biography_author": null, "date_of_biography": "2023-08-11T16:06:36.372522+10:00", "external_links": [], "uuid": "f55e9c5e-ce16-4df9-bf08-6c23fc627ae4", "source": {"name": "Vernon", "slug": "vernon"}, "source_identifier": "25449", "external_references": [], "date_modified": "2023-08-11T16:06:36.372776+10:00"}, {"id": 35286, "name": "Arlene Battishill", "roles_in_work": [{"id": 2406103, "title": "Devotion", "work_id": 93520, "role": "producer", "role_id": 1089, "is_primary": true}], "also_known_as": "", "date_of_birth": "", "date_of_death": "", "genders": [], "languages": [], "places_of_operation": [], "biography": "", "biography_author": null, "date_of_biography": "2023-08-11T16:06:35.746047+10:00", "external_links": [], "uuid": "c3f2d516-5a7b-4208-b7b7-5dd6e3b56e1f", "source": {"name": "Vernon", "slug": "vernon"}, "source_identifier": "15453", "external_references": [], "date_modified": "2023-08-11T16:06:35.746339+10:00"}, {"id": 35285, "name": "Northern Arts", "roles_in_work": [{"id": 2406102, "title": "Devotion", "work_id": 93520, "role": "production company", "role_id": 941, "is_primary": true}], "also_known_as": "", "date_of_birth": "", "date_of_death": "", "genders": [], "languages": [], "places_of_operation": [], "biography": "", "biography_author": null, "date_of_biography": "2023-08-11T16:06:35.125483+10:00", "external_links": [], "uuid": "ac9d1f62-4da3-420a-87fe-e27e615ced01", "source": {"name": "Vernon", "slug": "vernon"}, "source_identifier": "11001", "external_references": [], "date_modified": "2023-08-11T16:06:35.125742+10:00"}, {"id": 35284, "name": "Dancing Arrow Productions", "roles_in_work": [{"id": 2406101, "title": "Devotion", "work_id": 93520, "role": "production company", "role_id": 941, "is_primary": true}], "also_known_as": "", "date_of_birth": "", "date_of_death": "", "genders": [], "languages": [], "places_of_operation": [], "biography": "", "biography_author": null, "date_of_biography": "2023-08-11T16:06:34.449544+10:00", "external_links": [], "uuid": "2cba08e4-1bb5-4b76-b0a3-9e8cdf6da922", "source": {"name": "Vernon", "slug": "vernon"}, "source_identifier": "7307", "external_references": [], "date_modified": "2023-08-11T16:06:34.449952+10:00"}, {"id": 35281, "name": "Corporation Image M and M", "roles_in_work": [{"id": 2343277, "title": "The Decline of the American empire = Le Declin de l'empire Americain", "work_id": 93518, "role": "production company", "role_id": 941, "is_primary": true}], "also_known_as": "", "date_of_birth": "", "date_of_death": "", "genders": [], "languages": [], "places_of_operation": [], "biography": "", "biography_author": null, "date_of_biography": "2023-05-09T19:43:07.028771+10:00", "external_links": [], "uuid": "5040fa63-6605-49a9-81ea-c0181bf6d3ae", "source": {"name": "Vernon", "slug": "vernon"}, "source_identifier": "7091", "external_references": [{"id": 35432, "source": {"name": "Wikidata", "slug": "wikidata"}, "source_identifier": "Q121035515"}], "date_modified": "2023-09-05T18:45:45.630851+10:00"}, {"id": 35278, "name": "Les Films Flan", "roles_in_work": [{"id": 2474802, "title": "French twist = Gazon maudit [Widescreen]", "work_id": 93516, "role": "production company", "role_id": 941, "is_primary": true}], "also_known_as": "", "date_of_birth": "", "date_of_death": "", "genders": [], "languages": [], "places_of_operation": [], "biography": "", "biography_author": null, "date_of_biography": "2023-08-17T15:00:07.205946+10:00", "external_links": [], "uuid": "ce519587-5ef4-4634-a9f1-f83bbe7038ca", "source": {"name": "Vernon", "slug": "vernon"}, "source_identifier": "10014", "external_references": [], "date_modified": "2023-08-17T15:00:07.206159+10:00"}, {"id": 35277, "name": "Paul Saadoun", "roles_in_work": [{"id": 2280171, "title": "Werckmeister harmonies. Damnation = Werckmeister harmoniak. Karhozat", "work_id": 94636, "role": "co-producer", "role_id": 915, "is_primary": true}, {"id": 1815671, "title": "La Commune (Paris 1871)", "work_id": 93515, "role": "producer", "role_id": 1089, "is_primary": true}], "also_known_as": "", "date_of_birth": "", "date_of_death": "", "genders": [], "languages": [], "places_of_operation": [], "biography": "", "biography_author": null, "date_of_biography": "2023-05-09T17:59:05.296608+10:00", "external_links": [], "uuid": "a7857ea0-6a3e-4da7-8d52-04a0046cb8bb", "source": {"name": "Vernon", "slug": "vernon"}, "source_identifier": "26323", "external_references": [{"id": 39595, "source": {"name": "Wikidata", "slug": "wikidata"}, "source_identifier": "Q121298995"}], "date_modified": "2023-09-05T23:49:22.363910+10:00"}, {"id": 35275, "name": "13 Productions", "roles_in_work": [{"id": 883039, "title": "La Commune (Paris 1871)", "work_id": 93515, "role": "production company", "role_id": 941, "is_primary": true}, {"id": 2280153, "title": "Werckmeister harmonies. Damnation = Werckmeister harmoniak. Karhozat", "work_id": 94636, "role": "production company", "role_id": 941, "is_primary": true}], "also_known_as": "", "date_of_birth": "", "date_of_death": "", "genders": [], "languages": [], "places_of_operation": [], "biography": "", "biography_author": null, "date_of_biography": "2023-05-09T17:59:03.757440+10:00", "external_links": [], "uuid": "9f712317-ac9b-4e0e-98a1-c110a28b9139", "source": {"name": "Vernon", "slug": "vernon"}, "source_identifier": "3687", "external_references": [{"id": 34343, "source": {"name": "Wikidata", "slug": "wikidata"}, "source_identifier": "Q121222761"}], "date_modified": "2023-09-05T17:13:10.950750+10:00"}]}