{"count": 28687, "next": "https://api.acmi.net.au/creators/?page=1837", "previous": "https://api.acmi.net.au/creators/?page=1835", "results": [{"id": 25674, "name": "Castle Hill", "roles_in_work": [{"id": 2178945, "title": "Othello", "work_id": 83580, "role": "production company", "role_id": 941, "is_primary": true}, {"id": 2285481, "title": "What's up Tiger Lily?", "work_id": 93661, "role": "production company", "role_id": 941, "is_primary": true}], "also_known_as": "", "date_of_birth": "", "date_of_death": "", "genders": [], "languages": [], "places_of_operation": [], "biography": "", "biography_author": null, "date_of_biography": "2023-05-09T18:08:57.500545+10:00", "external_links": [], "uuid": "e434ff64-9609-41b7-83c4-80a3d5574cc2", "source": {"name": "Vernon", "slug": "vernon"}, "source_identifier": "6340", "external_references": [], "date_modified": "2023-06-14T16:33:30.576250+10:00"}, {"id": 25671, "name": "Hugh Davidson", "roles_in_work": [{"id": 2082003, "title": "Adriana Lecouvreur", "work_id": 83578, "role": "director", "role_id": 938, "is_primary": true}], "also_known_as": "", "date_of_birth": "", "date_of_death": "", "genders": [], "languages": [], "places_of_operation": [], "biography": "", "biography_author": null, "date_of_biography": "2023-05-09T11:50:22.819977+10:00", "external_links": [], "uuid": "aebdc59b-7602-4960-925e-47971db3fb21", "source": {"name": "Vernon", "slug": "vernon"}, "source_identifier": "20672", "external_references": [{"id": 36927, "source": {"name": "Wikidata", "slug": "wikidata"}, "source_identifier": "Q121058001"}], "date_modified": "2023-09-05T20:43:26.815038+10:00"}, {"id": 25670, "name": "Binney and Smith", "roles_in_work": [{"id": 2398395, "title": "A Survey of acrylic techniques", "work_id": 83577, "role": "production company", "role_id": 941, "is_primary": true}], "also_known_as": "", "date_of_birth": "", "date_of_death": "", "genders": [], "languages": [], "places_of_operation": [], "biography": "", "biography_author": null, "date_of_biography": "2023-08-11T13:17:37.741193+10:00", "external_links": [], "uuid": "4446d989-013f-41e1-9092-1f91ef77ae6e", "source": {"name": "Vernon", "slug": "vernon"}, "source_identifier": "5865", "external_references": [], "date_modified": "2023-08-11T13:17:37.741638+10:00"}, {"id": 25668, "name": "American Book Publisher's Council", "roles_in_work": [{"id": 2776407, "title": "Archibald MacLeish", "work_id": 83575, "role": "production company", "role_id": 941, "is_primary": true}], "also_known_as": "", "date_of_birth": "", "date_of_death": "", "genders": [], "languages": [], "places_of_operation": [], "biography": "", "biography_author": null, "date_of_biography": "2023-05-09T12:29:46.710628+10:00", "external_links": [], "uuid": "5854ac36-5c4b-4e2f-8589-cc6eba78207a", "source": {"name": "Vernon", "slug": "vernon"}, "source_identifier": "5187", "external_references": [{"id": 34257, "source": {"name": "Wikidata", "slug": "wikidata"}, "source_identifier": "Q121034937"}], "date_modified": "2025-03-14T18:47:39.330705+11:00"}, {"id": 25665, "name": "Peter Napier", "roles_in_work": [{"id": 2308976, "title": "St. Kilda Pier composite tape", "work_id": 83572, "role": "co-director", "role_id": 959, "is_primary": true}, {"id": 2308974, "title": "St. Kilda Pier composite tape", "work_id": 83572, "role": "producer", "role_id": 1089, "is_primary": true}], "also_known_as": "", "date_of_birth": "", "date_of_death": "", "genders": [], "languages": [], "places_of_operation": [], "biography": "", "biography_author": null, "date_of_biography": "2023-05-09T18:49:21.237124+10:00", "external_links": [], "uuid": "6662391f-9d7a-4562-876c-bdaa2c00973a", "source": {"name": "Vernon", "slug": "vernon"}, "source_identifier": "26657", "external_references": [{"id": 33787, "source": {"name": "Wikidata", "slug": "wikidata"}, "source_identifier": "Q121057809"}], "date_modified": "2023-09-05T23:59:17.013311+10:00"}, {"id": 25664, "name": "Action Replay", "roles_in_work": [{"id": 2308971, "title": "St. Kilda Pier composite tape", "work_id": 83572, "role": "production company", "role_id": 941, "is_primary": true}], "also_known_as": "", "date_of_birth": "", "date_of_death": "", "genders": [], "languages": [], "places_of_operation": [], "biography": "", "biography_author": null, "date_of_biography": "2023-05-09T18:49:20.640279+10:00", "external_links": [], "uuid": "73f7ce2a-34f3-4ede-80df-f245c190230c", "source": {"name": "Vernon", "slug": "vernon"}, "source_identifier": "5017", "external_references": [{"id": 36480, "source": {"name": "Wikidata", "slug": "wikidata"}, "source_identifier": "Q121298758"}], "date_modified": "2023-09-05T17:15:50.498996+10:00"}, {"id": 25663, "name": "K Lynch", "roles_in_work": [{"id": 2754715, "title": "The Guide to 35mm photography", "work_id": 99321, "role": "director", "role_id": 938, "is_primary": true}, {"id": 2335185, "title": "The Business of photography", "work_id": 83576, "role": "director", "role_id": 938, "is_primary": true}, {"id": 782712, "title": "The Studio", "work_id": 83571, "role": "director", "role_id": 938, "is_primary": true}], "also_known_as": "", "date_of_birth": "", "date_of_death": "", "genders": [], "languages": [], "places_of_operation": [], "biography": "", "biography_author": null, "date_of_biography": "2023-05-09T19:30:51.591136+10:00", "external_links": [], "uuid": "7ea8c7a1-fe39-42a4-b30a-20ca113f94d7", "source": {"name": "Vernon", "slug": "vernon"}, "source_identifier": "22954", "external_references": [], "date_modified": "2025-03-13T01:50:15.608478+11:00"}, {"id": 25662, "name": "Sally Lynch", "roles_in_work": [{"id": 2335175, "title": "The Business of photography", "work_id": 83576, "role": "producer", "role_id": 1089, "is_primary": true}, {"id": 1810234, "title": "The Studio", "work_id": 83571, "role": "producer", "role_id": 1089, "is_primary": true}], "also_known_as": "", "date_of_birth": "", "date_of_death": "", "genders": [], "languages": [], "places_of_operation": [], "biography": "", "biography_author": null, "date_of_biography": "2023-05-09T19:30:51.211456+10:00", "external_links": [], "uuid": "c0f6a23e-2051-4f95-b5c3-25450da52ea9", "source": {"name": "Vernon", "slug": "vernon"}, "source_identifier": "28450", "external_references": [{"id": 33012, "source": {"name": "Wikidata", "slug": "wikidata"}, "source_identifier": "Q121126546"}], "date_modified": "2023-09-06T01:01:51.865223+10:00"}, {"id": 25661, "name": "Media West", "roles_in_work": [{"id": 2614357, "title": "Photographic design", "work_id": 83574, "role": "production company", "role_id": 941, "is_primary": true}, {"id": 2754714, "title": "The Guide to 35mm photography", "work_id": 99321, "role": "production company", "role_id": 941, "is_primary": true}, {"id": 2335169, "title": "The Business of photography", "work_id": 83576, "role": "production company", "role_id": 941, "is_primary": true}, {"id": 782710, "title": "The Studio", "work_id": 83571, "role": "production company", "role_id": 941, "is_primary": true}], "also_known_as": "", "date_of_birth": "", "date_of_death": "", "genders": [], "languages": [], "places_of_operation": [], "biography": "", "biography_author": null, "date_of_biography": "2023-05-09T19:30:50.861442+10:00", "external_links": [], "uuid": "352aa74c-1ee9-4387-9680-e21d869a4199", "source": {"name": "Vernon", "slug": "vernon"}, "source_identifier": "10430", "external_references": [], "date_modified": "2025-03-13T01:50:15.028967+11:00"}, {"id": 25659, "name": "Redwing", "roles_in_work": [{"id": 2178655, "title": "David Anderson: works on film", "work_id": 83570, "role": "production company", "role_id": 941, "is_primary": true}], "also_known_as": "", "date_of_birth": "", "date_of_death": "", "genders": [], "languages": [], "places_of_operation": [], "biography": "", "biography_author": null, "date_of_biography": "2023-05-09T14:49:08.490700+10:00", "external_links": [], "uuid": "c7393ace-2045-4bbc-8afd-f5d3f0bca329", "source": {"name": "Vernon", "slug": "vernon"}, "source_identifier": "11920", "external_references": [{"id": 39651, "source": {"name": "Wikidata", "slug": "wikidata"}, "source_identifier": "Q121337586"}], "date_modified": "2023-09-06T00:24:30.970407+10:00"}]}