{"count": 28687, "next": "https://api.acmi.net.au/creators/?page=1236", "previous": "https://api.acmi.net.au/creators/?page=1234", "results": [{"id": 72966, "name": "Charles Wild", "roles_in_work": [{"id": 2685378, "title": "The Favourite reference image of the Queen's Audience Chamber at Windsor Castle", "work_id": 100702, "role": "artist", "role_id": 505, "is_primary": true}, {"id": 2685372, "title": "The Favourite reference image of St James Palace Guard chamber", "work_id": 100700, "role": "artist", "role_id": 505, "is_primary": true}], "also_known_as": "", "date_of_birth": "", "date_of_death": "", "genders": [], "languages": [], "places_of_operation": [], "biography": "", "biography_author": null, "date_of_biography": "2023-08-09T04:26:46.281319+10:00", "external_links": [], "uuid": "29b843e1-8ba4-499a-a16f-e29cc653384e", "source": {"name": "Vernon", "slug": "vernon"}, "source_identifier": "39499", "external_references": [], "date_modified": "2025-03-11T11:48:30.798520+11:00"}, {"id": 72965, "name": "James Stephanoff", "roles_in_work": [{"id": 2685375, "title": "The Favourite reference image of Windsor Castle Kitchen", "work_id": 100699, "role": "artist", "role_id": 505, "is_primary": true}, {"id": 2685370, "title": "The Favourite reference image of Hampton Court Palace", "work_id": 100698, "role": "artist", "role_id": 505, "is_primary": true}], "also_known_as": "", "date_of_birth": "", "date_of_death": "", "genders": [], "languages": [], "places_of_operation": [], "biography": "", "biography_author": null, "date_of_biography": "2023-08-09T04:26:45.125145+10:00", "external_links": [], "uuid": "1a9073fc-d189-4e85-bc33-c281a1ea0a39", "source": {"name": "Vernon", "slug": "vernon"}, "source_identifier": "39497", "external_references": [], "date_modified": "2025-03-11T11:48:29.762682+11:00"}, {"id": 72964, "name": "Mold Design Studio", "roles_in_work": [{"id": 2685169, "title": "Sweet Country homestead blueprints", "work_id": 100693, "role": "designer", "role_id": 495, "is_primary": false}], "also_known_as": "", "date_of_birth": "", "date_of_death": "", "genders": [], "languages": [], "places_of_operation": [], "biography": "", "biography_author": null, "date_of_biography": "2023-05-09T19:10:40.585373+10:00", "external_links": [], "uuid": "ecb618d2-8bea-4666-ae7e-12038f0b970f", "source": {"name": "Vernon", "slug": "vernon"}, "source_identifier": "39520", "external_references": [], "date_modified": "2025-03-11T11:46:46.304537+11:00"}, {"id": 72963, "name": "Theo Benton", "roles_in_work": [{"id": 2685173, "title": "Plans and colour references for set", "work_id": 112208, "role": "creator", "role_id": 968, "is_primary": true}, {"id": 2685186, "title": "Set during contsruction", "work_id": 112207, "role": "creator", "role_id": 968, "is_primary": true}, {"id": 2685171, "title": "Sweet Country set design panoramic collage", "work_id": 100795, "role": "photographer", "role_id": 440, "is_primary": false}, {"id": 2685184, "title": "Sweet Country set being moved", "work_id": 100691, "role": "photographer", "role_id": 440, "is_primary": false}, {"id": 2685168, "title": "Sweet Country set colour references", "work_id": 100692, "role": "photographer", "role_id": 440, "is_primary": false}, {"id": 2685178, "title": "Sweet Country set during construction", "work_id": 100688, "role": "photographer", "role_id": 440, "is_primary": false}, {"id": 2685180, "title": "Sweet Country set homestead production photo", "work_id": 100690, "role": "photographer", "role_id": 440, "is_primary": false}, {"id": 2685182, "title": "Sweet Country set under construction", "work_id": 100689, "role": "photographer", "role_id": 440, "is_primary": false}], "also_known_as": "", "date_of_birth": "", "date_of_death": "", "genders": [], "languages": [], "places_of_operation": [], "biography": "", "biography_author": null, "date_of_biography": "2023-05-09T19:11:13.058153+10:00", "external_links": [], "uuid": "d4467f81-9079-4c6b-b3ed-b3f9711ca76c", "source": {"name": "Vernon", "slug": "vernon"}, "source_identifier": "39519", "external_references": [], "date_modified": "2025-03-11T11:46:56.587808+11:00"}, {"id": 72962, "name": "Tamara Dean", "roles_in_work": [{"id": 2685160, "title": "Sweet Country production photo of Shanika Cole", "work_id": 100685, "role": "photographer", "role_id": 440, "is_primary": false}], "also_known_as": "", "date_of_birth": "", "date_of_death": "", "genders": [], "languages": [], "places_of_operation": [], "biography": "", "biography_author": null, "date_of_biography": "2023-05-09T17:47:01.423433+10:00", "external_links": [], "uuid": "f01bd56e-9c33-4305-acd1-eaa8839d77a6", "source": {"name": "Vernon", "slug": "vernon"}, "source_identifier": "39517", "external_references": [], "date_modified": "2025-03-11T11:46:33.373038+11:00"}, {"id": 72961, "name": "Michael Corridore", "roles_in_work": [{"id": 2685161, "title": "Tremayne and Trevon Doolan during production of Sweet Country", "work_id": 100683, "role": "photographer", "role_id": 440, "is_primary": false}], "also_known_as": "", "date_of_birth": "", "date_of_death": "", "genders": [], "languages": [], "places_of_operation": [], "biography": "", "biography_author": null, "date_of_biography": "2023-05-09T17:46:52.794653+10:00", "external_links": [], "uuid": "0ec34853-efc2-4d62-8b41-8f4936bcdfe5", "source": {"name": "Vernon", "slug": "vernon"}, "source_identifier": "39516", "external_references": [], "date_modified": "2025-03-11T11:46:34.525156+11:00"}, {"id": 72960, "name": "Mark Rogers", "roles_in_work": [{"id": 2685165, "title": "Hamilton Morris, Natassia Gorey-Furber and Warwick Thornton during production", "work_id": 114479, "role": "creator", "role_id": 968, "is_primary": true}, {"id": 2685164, "title": "Sweet Country production photo of Hamilton Morris, Natassia Gorey-Furber and Warwick Thornton on street", "work_id": 100684, "role": "photographer", "role_id": 440, "is_primary": false}, {"id": 2685163, "title": "Sweet Country production photo of Hamilton Morris, Natassia Gorey-Furber and Warwick Thornton", "work_id": 100686, "role": "photographer", "role_id": 440, "is_primary": false}, {"id": 2685162, "title": "Hamilton Morris, Natassia Gorey-Furber and Warwick Thornton during production of Sweet Country", "work_id": 100682, "role": "photographer", "role_id": 440, "is_primary": false}], "also_known_as": "", "date_of_birth": "", "date_of_death": "", "genders": [], "languages": [], "places_of_operation": [], "biography": "", "biography_author": null, "date_of_biography": "2023-05-09T18:27:20.800597+10:00", "external_links": [], "uuid": "7cdc54bd-ca43-46ee-aaba-ac2cf2b37f72", "source": {"name": "Vernon", "slug": "vernon"}, "source_identifier": "39515", "external_references": [], "date_modified": "2025-03-11T11:46:39.111171+11:00"}, {"id": 72959, "name": "Fabrice Faivre-Poussin", "roles_in_work": [{"id": 2685009, "title": "Behind the scenes photo of Isle of Dogs puppeteer Kim Keukeleire and puppets", "work_id": 100680, "role": "photographer", "role_id": 440, "is_primary": false}], "also_known_as": "", "date_of_birth": "", "date_of_death": "", "genders": [], "languages": [], "places_of_operation": [], "biography": "", "biography_author": null, "date_of_biography": "2023-05-09T15:48:46.785737+10:00", "external_links": [], "uuid": "62b90e0e-39ba-446c-ae4c-b40260dc3d62", "source": {"name": "Vernon", "slug": "vernon"}, "source_identifier": "39489", "external_references": [], "date_modified": "2025-03-11T11:45:03.456319+11:00"}, {"id": 72958, "name": "Piotr Jablonski", "roles_in_work": [{"id": 2685069, "title": "Concept art, mood drawings and studies of locations in Karnaca", "work_id": 114478, "role": "creator", "role_id": 968, "is_primary": true}, {"id": 2685054, "title": "Dishonored 2 edge of the world concept art", "work_id": 100672, "role": "creator", "role_id": 968, "is_primary": true}, {"id": 2685056, "title": "Dishonored 2 curator mood concept art", "work_id": 100677, "role": "creator", "role_id": 968, "is_primary": true}, {"id": 2685058, "title": "Dishonored 2  Dust District mood concept art", "work_id": 100676, "role": "creator", "role_id": 968, "is_primary": true}, {"id": 2685052, "title": "Dishonored 2 mood drawing of Addemire Institute", "work_id": 100673, "role": "creator", "role_id": 968, "is_primary": true}], "also_known_as": "", "date_of_birth": "", "date_of_death": "", "genders": [], "languages": [], "places_of_operation": [], "biography": "", "biography_author": null, "date_of_biography": "2023-06-07T03:46:04.150699+10:00", "external_links": [], "uuid": "423bdff3-5dc5-4378-b16e-e744a955214a", "source": {"name": "Vernon", "slug": "vernon"}, "source_identifier": "39488", "external_references": [], "date_modified": "2025-03-11T11:45:39.113743+11:00"}, {"id": 72957, "name": "Sergey Kolasov", "roles_in_work": [], "also_known_as": "", "date_of_birth": null, "date_of_death": null, "genders": [], "languages": [], "places_of_operation": [], "biography": "", "biography_author": null, "date_of_biography": null, "external_links": [], "uuid": "e404bc8e-33c9-47b0-8d3b-510473183155", "source": {"name": "Vernon", "slug": "vernon"}, "source_identifier": null, "external_references": [], "date_modified": "2023-06-14T16:33:30.576250+10:00"}]}