{"count": 28687, "next": "https://api.acmi.net.au/creators/?page=2227", "previous": "https://api.acmi.net.au/creators/?page=2225", "results": [{"id": 18168, "name": "Pinschewer Film Studio", "roles_in_work": [{"id": 2398396, "title": "A Swiss peasant artist", "work_id": 73421, "role": "production company", "role_id": 941, "is_primary": true}], "also_known_as": "", "date_of_birth": "", "date_of_death": "", "genders": [], "languages": [], "places_of_operation": [], "biography": "", "biography_author": null, "date_of_biography": "2023-08-11T13:17:39.999233+10:00", "external_links": [], "uuid": "85eab947-63ea-4eb9-93aa-c19baf152de4", "source": {"name": "Vernon", "slug": "vernon"}, "source_identifier": "11498", "external_references": [], "date_modified": "2023-08-11T13:17:39.999534+10:00"}, {"id": 18166, "name": "Merchant Ivory Productions", "roles_in_work": [{"id": 2614044, "title": "Bombay talkie", "work_id": 83089, "role": "production company", "role_id": 941, "is_primary": true}, {"id": 2750307, "title": "Mahatma and the mad boy", "work_id": 97244, "role": "production company", "role_id": 941, "is_primary": true}, {"id": 2751932, "title": "Autobiography of a princess", "work_id": 98059, "role": "production company", "role_id": 941, "is_primary": true}, {"id": 2174855, "title": "Jane Austen in Manhattan", "work_id": 84008, "role": "production company", "role_id": 941, "is_primary": true}, {"id": 859149, "title": "Sweet sounds", "work_id": 73417, "role": "production company", "role_id": 941, "is_primary": true}, {"id": 1987540, "title": "Heat and dust", "work_id": 83782, "role": "production company", "role_id": 941, "is_primary": true}, {"id": 1987657, "title": "Hullabaloo over Georgie & Bonnie's pictures", "work_id": 83857, "role": "production company", "role_id": 941, "is_primary": true}, {"id": 1987073, "title": "Howard's End", "work_id": 83148, "role": "production company", "role_id": 941, "is_primary": true}, {"id": 929451, "title": "Le Divorce", "work_id": 94883, "role": "production company", "role_id": 941, "is_primary": true}, {"id": 1989590, "title": "The Remains of the day", "work_id": 85311, "role": "production company", "role_id": 941, "is_primary": true}, {"id": 2074427, "title": "A Soldier's daughter never cries", "work_id": 92777, "role": "production company", "role_id": 941, "is_primary": true}, {"id": 2333873, "title": "The Bostonians", "work_id": 83129, "role": "production company", "role_id": 941, "is_primary": true}, {"id": 1984206, "title": "A Room with a view", "work_id": 79562, "role": "production company", "role_id": 941, "is_primary": true}, {"id": 2319055, "title": "Surviving Picasso", "work_id": 88455, "role": "production company", "role_id": 941, "is_primary": true}, {"id": 2167964, "title": "Maurice", "work_id": 85310, "role": "production company", "role_id": 941, "is_primary": true}], "also_known_as": "", "date_of_birth": "", "date_of_death": "", "genders": [], "languages": [], "places_of_operation": [], "biography": "Merchant Ivory Productions is a film company founded in 1961 by producer Ismail Merchant (1936–2005) and director James Ivory (b. 1928). Merchant and Ivory were life and business partners from 1961 until Merchant's death in 2005. During their time together, they made 44 films. The films were for the most part produced by Merchant and directed by Ivory, and 23 of them were scripted by Ruth Prawer Jhabvala (1927–2013) in some capacity. The films were often based upon novels or short stories, particularly the work of Henry James, E. M. Forster, and Jhabvala herself.\n\nThe initial goal of the company was \"to make English-language films in India aimed at the international market\". The style of Merchant Ivory films set and photographed in India became iconic. The company also went on to make films in the United Kingdom and America.Some actors and producers associated with Merchant Ivory include Maggie Smith, Leela Naidu, Madhur Jaffrey, Aparna Sen, Shashi Kapoor, Jennifer Kendal, Hugh Grant, James Wilby, Rupert Graves, Simon Callow, Anthony Hopkins, Glenn Close, Uma Thurman, Emma Thompson, Vanessa Redgrave, Natasha Richardson, Ralph Fiennes, Colin Firth, Richard Hawley and Helena Bonham Carter.Of this collaboration, Merchant once commented: \"It is a strange marriage we have at Merchant Ivory... I am an Indian Muslim, Ruth is a German Jew, and Jim is a Protestant American. Someone once described us as a three-headed god. Maybe they should have called us a three-headed monster!\"The expression \"Merchant–Ivory film\" has made its way into common parlance, to denote a particular genre of film rather than the actual production company. While 1965's Shakespeare Wallah put this genre on the international map, its heyday was the 1980s and 1990s with such films as A Room with a View (1985) and Howards End (1992).  A typical \"Merchant–Ivory film\" would be a period piece set in the early 20th century, usually in Edwardian England, featuring lavish sets and top British actors portraying genteel characters who suffer from disillusionment and tragic entanglements. The main theme often surrounded a house, which took on a particular importance in many Merchant Ivory films. Source: Wikidata; 01/08/2023", "biography_author": null, "date_of_biography": "2025-03-13T00:55:18.102686+11:00", "external_links": [{"id": 4672, "uri": "https://en.wikipedia.org/wiki/Merchant_Ivory_Productions"}], "uuid": "ab74a5e9-28e2-432b-a77b-04204e77a2f4", "source": {"name": "Vernon", "slug": "vernon"}, "source_identifier": "4870", "external_references": [{"id": 26891, "source": {"name": "Wikidata", "slug": "wikidata"}, "source_identifier": "Q2407366"}, {"id": 30268, "source": {"name": "VIAF", "slug": "viaf"}, "source_identifier": "147871981"}, {"id": 30269, "source": {"name": "LOC Auth", "slug": "loc-auth"}, "source_identifier": "n82249872"}, {"id": 30270, "source": {"name": "WorldCat", "slug": "worldcat"}, "source_identifier": "lccn-n82249872"}], "date_modified": "2025-03-13T00:55:18.103000+11:00"}, {"id": 18163, "name": "Cinerep Productions", "roles_in_work": [{"id": 2468228, "title": "The Swan song by Anton Chekhov", "work_id": 73411, "role": "production company", "role_id": 941, "is_primary": true}], "also_known_as": "", "date_of_birth": "", "date_of_death": "", "genders": [], "languages": [], "places_of_operation": [], "biography": "", "biography_author": null, "date_of_biography": "2023-08-14T11:36:53.664279+10:00", "external_links": [], "uuid": "02d911f7-aab0-4f65-bfc5-110c92f9b0a5", "source": {"name": "Vernon", "slug": "vernon"}, "source_identifier": "6737", "external_references": [], "date_modified": "2023-08-14T11:36:53.664497+10:00"}, {"id": 18159, "name": "Edmund Lawrence Dorfman", "roles_in_work": [{"id": 2646508, "title": "Surface chemistry", "work_id": 73398, "role": "producer", "role_id": 1089, "is_primary": true}], "also_known_as": "", "date_of_birth": null, "date_of_death": null, "genders": [], "languages": [], "places_of_operation": [], "biography": "", "biography_author": null, "date_of_biography": null, "external_links": [], "uuid": "8cb75f2f-3059-4287-88b6-86840cddf702", "source": {"name": "Vernon", "slug": "vernon"}, "source_identifier": "33083", "external_references": [], "date_modified": "2025-03-05T13:06:01.939468+11:00"}, {"id": 18158, "name": "Nobel Films", "roles_in_work": [{"id": 2646507, "title": "Surface chemistry", "work_id": 73398, "role": "production company", "role_id": 941, "is_primary": true}], "also_known_as": "", "date_of_birth": null, "date_of_death": null, "genders": [], "languages": [], "places_of_operation": [], "biography": "", "biography_author": null, "date_of_biography": null, "external_links": [], "uuid": "388d0521-8709-4e51-9693-baaf1c79d608", "source": {"name": "Vernon", "slug": "vernon"}, "source_identifier": "33082", "external_references": [], "date_modified": "2025-03-05T13:06:01.369688+11:00"}, {"id": 18156, "name": "David Eastman", "roles_in_work": [{"id": 2392902, "title": "Australian report", "work_id": 96329, "role": "director", "role_id": 938, "is_primary": true}, {"id": 825133, "title": "Australian diary. No. 015", "work_id": 95694, "role": "cinematographer", "role_id": 32, "is_primary": false}, {"id": 2392158, "title": "Surf Patrol", "work_id": 73396, "role": "director of photography", "role_id": 925, "is_primary": false}], "also_known_as": "", "date_of_birth": "", "date_of_death": "", "genders": [], "languages": [], "places_of_operation": [], "biography": "", "biography_author": null, "date_of_biography": "2023-08-09T04:10:25.262781+10:00", "external_links": [], "uuid": "f96bd1c6-4257-4774-8059-36e2e679d7d0", "source": {"name": "Vernon", "slug": "vernon"}, "source_identifier": "37458", "external_references": [{"id": 41705, "source": {"name": "Wikidata", "slug": "wikidata"}, "source_identifier": "Q121315335"}], "date_modified": "2023-09-06T10:48:46.677877+10:00"}, {"id": 18155, "name": "Eric Kenning", "roles_in_work": [{"id": 2648216, "title": "A Step in the right direction", "work_id": 78580, "role": "director", "role_id": 938, "is_primary": true}, {"id": 2392152, "title": "Surf Beach", "work_id": 73392, "role": "director of photography", "role_id": 925, "is_primary": false}], "also_known_as": "", "date_of_birth": "", "date_of_death": "", "genders": [], "languages": [], "places_of_operation": [], "biography": "", "biography_author": null, "date_of_biography": "2023-08-09T03:52:54.855713+10:00", "external_links": [], "uuid": "8069de3e-95b4-4a24-89ba-8d37de112407", "source": {"name": "Vernon", "slug": "vernon"}, "source_identifier": "18816", "external_references": [{"id": 36577, "source": {"name": "Wikidata", "slug": "wikidata"}, "source_identifier": "Q120837795"}], "date_modified": "2025-03-05T13:41:10.159066+11:00"}, {"id": 18154, "name": "Science Research Associates", "roles_in_work": [{"id": 2753033, "title": "Basics of direct instruction", "work_id": 98574, "role": "production company", "role_id": 941, "is_primary": true}, {"id": 2762361, "title": "Supporting behavior (TEFC)", "work_id": 73390, "role": "production company", "role_id": 941, "is_primary": true}, {"id": 2753035, "title": "Correction procedures", "work_id": 98576, "role": "production company", "role_id": 941, "is_primary": true}, {"id": 2753034, "title": "Presentation techniques", "work_id": 98575, "role": "production company", "role_id": 941, "is_primary": true}], "also_known_as": "", "date_of_birth": "", "date_of_death": "", "genders": [], "languages": [], "places_of_operation": [], "biography": "", "biography_author": null, "date_of_biography": "2023-08-11T15:32:30.244466+10:00", "external_links": [], "uuid": "7b2a27fe-da5c-46e7-a347-5f450620dbf4", "source": {"name": "Vernon", "slug": "vernon"}, "source_identifier": "12347", "external_references": [], "date_modified": "2025-03-14T17:37:51.278658+11:00"}, {"id": 18149, "name": "University of St Andrews", "roles_in_work": [{"id": 2318535, "title": "Superfluid helium", "work_id": 73377, "role": "production company", "role_id": 941, "is_primary": true}], "also_known_as": "", "date_of_birth": "", "date_of_death": "", "genders": [], "languages": [], "places_of_operation": [], "biography": "", "biography_author": null, "date_of_biography": "2023-05-09T19:08:40.835349+10:00", "external_links": [], "uuid": "dd725431-cf4b-4c9d-a0d0-3764b6d4a4fd", "source": {"name": "Vernon", "slug": "vernon"}, "source_identifier": "33407", "external_references": [{"id": 35775, "source": {"name": "Wikidata", "slug": "wikidata"}, "source_identifier": "Q121126671"}], "date_modified": "2023-09-06T02:01:36.392981+10:00"}, {"id": 18144, "name": "Pathe Contemporary Films", "roles_in_work": [{"id": 2317271, "title": "Sunday lark", "work_id": 73370, "role": "production company", "role_id": 941, "is_primary": true}], "also_known_as": "", "date_of_birth": "", "date_of_death": "", "genders": [], "languages": [], "places_of_operation": [], "biography": "", "biography_author": null, "date_of_biography": "2023-05-09T19:06:48.212399+10:00", "external_links": [], "uuid": "5f582b69-7876-4b9f-a741-3ea9a547b743", "source": {"name": "Vernon", "slug": "vernon"}, "source_identifier": "11326", "external_references": [{"id": 50712, "source": {"name": "Wikidata", "slug": "wikidata"}, "source_identifier": "Q121358037"}], "date_modified": "2023-09-05T23:42:08.230731+10:00"}]}