{"count": 28687, "next": "https://api.acmi.net.au/creators/?page=2002", "previous": "https://api.acmi.net.au/creators/?page=2000", "results": [{"id": 22552, "name": "Victoria. Country Fire Authority", "roles_in_work": [{"id": 899555, "title": "Fire fuels", "work_id": 80378, "role": "co-producer", "role_id": 915, "is_primary": true}, {"id": 865757, "title": "Fire weather", "work_id": 80376, "role": "production company", "role_id": 941, "is_primary": true}, {"id": 2642702, "title": "From the ashes: stories from the Gippsland Bushfires 06-07 : Digital Storytelling project", "work_id": 111022, "role": "support", "role_id": 492, "is_primary": false}], "also_known_as": "", "date_of_birth": "", "date_of_death": "", "genders": [], "languages": [], "places_of_operation": [], "biography": "", "biography_author": null, "date_of_biography": "2023-05-09T19:31:45.030984+10:00", "external_links": [], "uuid": "83c7fe82-481b-49a8-b9e8-a9c4f992dcfb", "source": {"name": "Vernon", "slug": "vernon"}, "source_identifier": "4458", "external_references": [{"id": 36111, "source": {"name": "Wikidata", "slug": "wikidata"}, "source_identifier": "Q121126394"}], "date_modified": "2025-03-05T11:49:23.794091+11:00"}, {"id": 22551, "name": "Kerryn Pratt", "roles_in_work": [{"id": 2648928, "title": "Outward Bound - Willing and Able", "work_id": 80375, "role": "producer", "role_id": 1089, "is_primary": true}], "also_known_as": "", "date_of_birth": "", "date_of_death": "", "genders": [], "languages": [], "places_of_operation": [], "biography": "", "biography_author": null, "date_of_biography": "2023-08-14T10:16:47.222120+10:00", "external_links": [], "uuid": "92c49c20-71e6-44fb-a528-4ab1a3c907c1", "source": {"name": "Vernon", "slug": "vernon"}, "source_identifier": "23276", "external_references": [], "date_modified": "2025-03-05T13:52:30.293479+11:00"}, {"id": 22550, "name": "Michael McCann", "roles_in_work": [{"id": 2648927, "title": "Outward Bound - the Challenge", "work_id": 80374, "role": "producer", "role_id": 1089, "is_primary": true}], "also_known_as": "", "date_of_birth": "", "date_of_death": "", "genders": [], "languages": [], "places_of_operation": [], "biography": "", "biography_author": null, "date_of_biography": "2023-08-14T10:16:45.149353+10:00", "external_links": [], "uuid": "9f698023-567e-4af8-bc07-5dfcd6ce8f49", "source": {"name": "Vernon", "slug": "vernon"}, "source_identifier": "25155", "external_references": [], "date_modified": "2025-03-05T13:52:29.497087+11:00"}, {"id": 22547, "name": "Ed Brumby", "roles_in_work": [{"id": 899549, "title": "Kayaking: the basic skills", "work_id": 80372, "role": "director", "role_id": 938, "is_primary": true}, {"id": 2129759, "title": "Canoeing: The Basic Skills", "work_id": 80373, "role": "director", "role_id": 938, "is_primary": true}], "also_known_as": "", "date_of_birth": "", "date_of_death": "", "genders": [], "languages": [], "places_of_operation": [], "biography": "", "biography_author": null, "date_of_biography": "2023-05-09T13:17:45.685695+10:00", "external_links": [], "uuid": "2ed49c0d-5ddd-4278-a7f4-289c596a2116", "source": {"name": "Vernon", "slug": "vernon"}, "source_identifier": "18521", "external_references": [{"id": 32773, "source": {"name": "Wikidata", "slug": "wikidata"}, "source_identifier": "Q121222659"}], "date_modified": "2023-09-05T19:22:57.924980+10:00"}, {"id": 22544, "name": "Kostas Andritos", "roles_in_work": [{"id": 2403223, "title": "Brothers Manakia - Pioneers of Greek and Balkan Cinema", "work_id": 80371, "role": "director", "role_id": 938, "is_primary": true}], "also_known_as": "", "date_of_birth": "", "date_of_death": "", "genders": [], "languages": [], "places_of_operation": [], "biography": "", "biography_author": null, "date_of_biography": "2023-08-11T15:07:38.254522+10:00", "external_links": [], "uuid": "14bd8530-46b2-4189-a366-2c0e5caa1cd6", "source": {"name": "Vernon", "slug": "vernon"}, "source_identifier": "23398", "external_references": [], "date_modified": "2023-08-11T15:07:38.254761+10:00"}, {"id": 22543, "name": "Paul Winkler", "roles_in_work": [{"id": 2401730, "title": "Ayers Rock; Brick and Tile; Incongruous", "work_id": 80366, "role": "director", "role_id": 938, "is_primary": true}, {"id": 1426522, "title": "Sydney Harbour Bridge. Bondi. Sydney Bush. Cars", "work_id": 80368, "role": "director", "role_id": 938, "is_primary": true}, {"id": 810050, "title": "Sydney Harbour Bridge. Bondi. Ayers Rock", "work_id": 92045, "role": "producer/director", "role_id": 31, "is_primary": true}], "also_known_as": "", "date_of_birth": "", "date_of_death": "", "genders": [], "languages": [], "places_of_operation": [], "biography": "", "biography_author": null, "date_of_biography": "2023-08-11T14:31:06.840887+10:00", "external_links": [], "uuid": "2931d130-b122-42f9-8aad-56254b3e64f7", "source": {"name": "Vernon", "slug": "vernon"}, "source_identifier": "26362", "external_references": [], "date_modified": "2023-08-11T14:31:06.841120+10:00"}, {"id": 22542, "name": "Doreen Bentley", "roles_in_work": [{"id": 2409130, "title": "Have You Ever Thought?", "work_id": 80365, "role": "director", "role_id": 938, "is_primary": true}], "also_known_as": "", "date_of_birth": "", "date_of_death": "", "genders": [], "languages": [], "places_of_operation": [], "biography": "", "biography_author": null, "date_of_biography": "2023-08-11T17:15:47.543996+10:00", "external_links": [], "uuid": "c0d2a8c1-8282-4380-a97e-4ecfa6376820", "source": {"name": "Vernon", "slug": "vernon"}, "source_identifier": "18341", "external_references": [], "date_modified": "2023-08-11T17:15:47.544247+10:00"}, {"id": 22541, "name": "Christian Myles Productions", "roles_in_work": [{"id": 2409129, "title": "Have You Ever Thought?", "work_id": 80365, "role": "producer", "role_id": 1089, "is_primary": true}], "also_known_as": "", "date_of_birth": "", "date_of_death": "", "genders": [], "languages": [], "places_of_operation": [], "biography": "", "biography_author": null, "date_of_biography": "2023-08-11T17:15:46.873583+10:00", "external_links": [], "uuid": "72cdaba8-b372-4818-a055-38106a84bf50", "source": {"name": "Vernon", "slug": "vernon"}, "source_identifier": "6598", "external_references": [], "date_modified": "2023-08-11T17:15:46.873907+10:00"}, {"id": 22540, "name": "Steve Macdonald", "roles_in_work": [{"id": 771969, "title": "Women with rheumatoid arthritis: \"Don't take us at face value\"", "work_id": 80364, "role": "director", "role_id": 938, "is_primary": true}, {"id": 2754402, "title": "Celebrating whole language", "work_id": 99188, "role": "co-producer", "role_id": 915, "is_primary": true}], "also_known_as": "", "date_of_birth": "", "date_of_death": "", "genders": [], "languages": [], "places_of_operation": [], "biography": "", "biography_author": null, "date_of_biography": "2023-05-09T13:23:33.078090+10:00", "external_links": [], "uuid": "3284ceaf-0d87-4fd8-996b-9474ea9805af", "source": {"name": "Vernon", "slug": "vernon"}, "source_identifier": "29148", "external_references": [{"id": 39728, "source": {"name": "Wikidata", "slug": "wikidata"}, "source_identifier": "Q121057839"}], "date_modified": "2025-03-13T01:43:14.931604+11:00"}, {"id": 22537, "name": "General Secretariat of Press and Information of Greece", "roles_in_work": [{"id": 2648924, "title": "Macedonia", "work_id": 80362, "role": "production company", "role_id": 941, "is_primary": true}], "also_known_as": "", "date_of_birth": "", "date_of_death": "", "genders": [], "languages": [], "places_of_operation": [], "biography": "", "biography_author": null, "date_of_biography": "2023-08-11T19:38:34.827479+10:00", "external_links": [], "uuid": "b1e610a9-0e77-4b3d-9006-379401006c81", "source": {"name": "Vernon", "slug": "vernon"}, "source_identifier": "8691", "external_references": [], "date_modified": "2025-03-05T13:52:27.314127+11:00"}]}