{"count": 28687, "next": "https://api.acmi.net.au/creators/?page=1452", "previous": "https://api.acmi.net.au/creators/?page=1450", "results": [{"id": 35459, "name": "Pledge Productions", "roles_in_work": [{"id": 2475640, "title": "The Pledge", "work_id": 93630, "role": "production company", "role_id": 941, "is_primary": true}], "also_known_as": "", "date_of_birth": "", "date_of_death": "", "genders": [], "languages": [], "places_of_operation": [], "biography": "", "biography_author": null, "date_of_biography": "2023-08-17T15:10:54.480793+10:00", "external_links": [], "uuid": "73f61327-6004-4387-b1ff-e7e3ebe8221b", "source": {"name": "Vernon", "slug": "vernon"}, "source_identifier": "11528", "external_references": [], "date_modified": "2023-08-17T15:10:54.481003+10:00"}, {"id": 35456, "name": "Pas de Quoi", "roles_in_work": [{"id": 2327500, "title": "The Anniversary party", "work_id": 93629, "role": "production company", "role_id": 941, "is_primary": true}], "also_known_as": "", "date_of_birth": "", "date_of_death": "", "genders": [], "languages": [], "places_of_operation": [], "biography": "", "biography_author": null, "date_of_biography": "2023-05-09T19:21:13.564993+10:00", "external_links": [], "uuid": "8748f3ca-ee5a-4d43-901a-5c06d24dfb4f", "source": {"name": "Vernon", "slug": "vernon"}, "source_identifier": "11313", "external_references": [{"id": 35894, "source": {"name": "Wikidata", "slug": "wikidata"}, "source_identifier": "Q121079388"}], "date_modified": "2023-09-05T23:41:00.690897+10:00"}, {"id": 35443, "name": "CP Medien", "roles_in_work": [{"id": 913994, "title": "The Score [DVD]", "work_id": 93610, "role": "production company", "role_id": 941, "is_primary": true}, {"id": 2336569, "title": "The Cat's meow [DVD]", "work_id": 94347, "role": "production company", "role_id": 941, "is_primary": true}], "also_known_as": "", "date_of_birth": "", "date_of_death": "", "genders": [], "languages": [], "places_of_operation": [], "biography": "", "biography_author": null, "date_of_biography": "2023-05-09T19:32:48.651741+10:00", "external_links": [], "uuid": "7d94d2b4-84e4-4106-8f3d-338622dad55d", "source": {"name": "Vernon", "slug": "vernon"}, "source_identifier": "7131", "external_references": [{"id": 36708, "source": {"name": "Wikidata", "slug": "wikidata"}, "source_identifier": "Q121223277"}], "date_modified": "2023-09-05T18:46:06.750529+10:00"}, {"id": 35436, "name": "Radical Media", "roles_in_work": [{"id": 2349009, "title": "The Fog of war", "work_id": 94854, "role": "production company", "role_id": 941, "is_primary": true}, {"id": 2336237, "title": "The Cell [DVD] (D)", "work_id": 93608, "role": "production company", "role_id": 941, "is_primary": true}], "also_known_as": "", "date_of_birth": "", "date_of_death": "", "genders": [], "languages": [], "places_of_operation": [], "biography": "RadicalMedia is an independent global media and creative production company. Founded by Jon Kamen and Frank Scherma, the company develops, creates, and produces film, television, advertising, branded content, music videos, live events, design, digital and immersive experiences.In 2010, Fremantle purchased a 60 percent stake of the company. In 2015, RadicalMedia bought back shares of the company's shares, retaining its majority ownership.", "biography_author": "Wikidata", "date_of_biography": "2023-09-06T00:18:13.933244+10:00", "external_links": [{"id": 6115, "uri": "https://en.wikipedia.org/wiki/RadicalMedia"}], "uuid": "5276db22-b9d7-4aeb-9ae6-afd942fe3372", "source": {"name": "Vernon", "slug": "vernon"}, "source_identifier": "11820", "external_references": [{"id": 40174, "source": {"name": "Wikidata", "slug": "wikidata"}, "source_identifier": "Q4646764"}, {"id": 55568, "source": {"name": "VIAF", "slug": "viaf"}, "source_identifier": "125842819"}, {"id": 55569, "source": {"name": "LOC Auth", "slug": "loc-auth"}, "source_identifier": "no2004099481"}, {"id": 55570, "source": {"name": "WorldCat", "slug": "worldcat"}, "source_identifier": "lccn-no2004099481"}], "date_modified": "2023-09-06T00:18:13.956105+10:00"}, {"id": 35435, "name": "VH1 Films", "roles_in_work": [{"id": 2291859, "title": "Zoolander [DVD]", "work_id": 93604, "role": "production company", "role_id": 941, "is_primary": true}], "also_known_as": "", "date_of_birth": "", "date_of_death": "", "genders": [], "languages": [], "places_of_operation": [], "biography": "", "biography_author": null, "date_of_biography": "2023-05-09T18:20:48.162541+10:00", "external_links": [], "uuid": "e0a6971d-1bd6-4cb4-9f33-6d5541a384bc", "source": {"name": "Vernon", "slug": "vernon"}, "source_identifier": "14040", "external_references": [], "date_modified": "2023-06-14T16:33:30.576250+10:00"}, {"id": 35433, "name": "Grandview Pictures", "roles_in_work": [{"id": 2110417, "title": "Before night falls [DVD]", "work_id": 93601, "role": "production company", "role_id": 941, "is_primary": true}], "also_known_as": "", "date_of_birth": "", "date_of_death": "", "genders": [], "languages": [], "places_of_operation": [], "biography": "", "biography_author": null, "date_of_biography": "2023-05-09T12:45:14.804184+10:00", "external_links": [], "uuid": "224b4315-f28c-48cd-9d17-9f3f560c70b9", "source": {"name": "Vernon", "slug": "vernon"}, "source_identifier": "8847", "external_references": [{"id": 38981, "source": {"name": "Wikidata", "slug": "wikidata"}, "source_identifier": "Q121315249"}], "date_modified": "2023-09-05T20:19:41.676697+10:00"}, {"id": 35431, "name": "Pelleport Investors", "roles_in_work": [{"id": 2346855, "title": "The Entity", "work_id": 93597, "role": "production company", "role_id": 941, "is_primary": true}], "also_known_as": "", "date_of_birth": "", "date_of_death": "", "genders": [], "languages": [], "places_of_operation": [], "biography": "", "biography_author": null, "date_of_biography": "2023-05-09T19:48:22.778746+10:00", "external_links": [], "uuid": "a24b2760-e0f4-447e-81b9-60b80327d392", "source": {"name": "Vernon", "slug": "vernon"}, "source_identifier": "11381", "external_references": [{"id": 32925, "source": {"name": "Wikidata", "slug": "wikidata"}, "source_identifier": "Q121270891"}], "date_modified": "2023-09-05T23:51:21.781026+10:00"}, {"id": 35430, "name": "American Cinema Productions", "roles_in_work": [{"id": 2346851, "title": "The Entity", "work_id": 93597, "role": "production company", "role_id": 941, "is_primary": true}], "also_known_as": "", "date_of_birth": "", "date_of_death": "", "genders": [], "languages": [], "places_of_operation": [], "biography": "", "biography_author": null, "date_of_biography": "2023-05-09T19:48:22.548497+10:00", "external_links": [], "uuid": "621380c3-0c81-4099-bea7-a47cb9c0ae0b", "source": {"name": "Vernon", "slug": "vernon"}, "source_identifier": "5192", "external_references": [{"id": 50926, "source": {"name": "Wikidata", "slug": "wikidata"}, "source_identifier": "Q121357744"}], "date_modified": "2023-09-05T17:31:16.336068+10:00"}, {"id": 35428, "name": "Kanzaman S A", "roles_in_work": [{"id": 2296168, "title": "Sexy beast", "work_id": 93596, "role": "production company", "role_id": 941, "is_primary": true}], "also_known_as": "", "date_of_birth": "", "date_of_death": "", "genders": [], "languages": [], "places_of_operation": [], "biography": "", "biography_author": null, "date_of_biography": "2023-05-09T18:27:59.237006+10:00", "external_links": [], "uuid": "1f436822-735e-4357-bc0c-e3f65ed5ecad", "source": {"name": "Vernon", "slug": "vernon"}, "source_identifier": "9701", "external_references": [{"id": 33369, "source": {"name": "Wikidata", "slug": "wikidata"}, "source_identifier": "Q121034350"}], "date_modified": "2023-09-05T21:59:17.219749+10:00"}, {"id": 35426, "name": "Warner Sister Film and TV Ltd", "roles_in_work": [{"id": 2196397, "title": "Do or die = The Rubicon", "work_id": 93593, "role": "production company", "role_id": 941, "is_primary": true}], "also_known_as": "", "date_of_birth": "", "date_of_death": "", "genders": [], "languages": [], "places_of_operation": [], "biography": "", "biography_author": null, "date_of_biography": "2023-05-09T15:17:37.946164+10:00", "external_links": [], "uuid": "876a1c28-c128-4cb0-871c-a8d5692e0ca1", "source": {"name": "Vernon", "slug": "vernon"}, "source_identifier": "14247", "external_references": [{"id": 35774, "source": {"name": "Wikidata", "slug": "wikidata"}, "source_identifier": "Q121337634"}], "date_modified": "2023-09-06T02:11:53.408782+10:00"}]}