{"count": 28687, "next": "https://api.acmi.net.au/creators/?page=2684", "previous": "https://api.acmi.net.au/creators/?page=2682", "results": [{"id": 11633, "name": "Bridget Robertson", "roles_in_work": [{"id": 2642467, "title": "The Airport", "work_id": 93819, "role": "creator", "role_id": 968, "is_primary": true}], "also_known_as": "", "date_of_birth": "", "date_of_death": "", "genders": [], "languages": [], "places_of_operation": [], "biography": "", "biography_author": null, "date_of_biography": "2023-08-14T11:00:42.646016+10:00", "external_links": [], "uuid": "57610c7c-95dd-494c-8986-a64d086c1bcf", "source": {"name": "Vernon", "slug": "vernon"}, "source_identifier": "3422", "external_references": [], "date_modified": "2025-03-05T11:46:49.640996+11:00"}, {"id": 11631, "name": "Anita Flahive", "roles_in_work": [{"id": 2642461, "title": "Squirrel animation", "work_id": 110901, "role": "creator", "role_id": 968, "is_primary": true}], "also_known_as": "", "date_of_birth": "", "date_of_death": "", "genders": [], "languages": [], "places_of_operation": [], "biography": "", "biography_author": null, "date_of_biography": "2023-08-14T10:49:51.018016+10:00", "external_links": [], "uuid": "40f84837-5ec8-4f07-bfcc-a550350c4e41", "source": {"name": "Vernon", "slug": "vernon"}, "source_identifier": "3419", "external_references": [], "date_modified": "2025-03-05T11:46:46.863650+11:00"}, {"id": 11630, "name": "Stephana Mu", "roles_in_work": [{"id": 2642459, "title": "Plant nurturing", "work_id": 110900, "role": "creator", "role_id": 968, "is_primary": true}], "also_known_as": "", "date_of_birth": "", "date_of_death": "", "genders": [], "languages": [], "places_of_operation": [], "biography": "", "biography_author": null, "date_of_biography": "2023-08-14T10:22:12.504697+10:00", "external_links": [], "uuid": "ef0766d4-0635-49cb-be01-c316519ccdfd", "source": {"name": "Vernon", "slug": "vernon"}, "source_identifier": "3418", "external_references": [], "date_modified": "2025-03-05T11:46:46.051636+11:00"}, {"id": 11629, "name": "Jarryd Guilfoyle", "roles_in_work": [{"id": 2642457, "title": "Renegade", "work_id": 110899, "role": "creator", "role_id": 968, "is_primary": true}], "also_known_as": "", "date_of_birth": "", "date_of_death": "", "genders": [], "languages": [], "places_of_operation": [], "biography": "", "biography_author": null, "date_of_biography": "2023-08-30T03:35:05.039100+10:00", "external_links": [], "uuid": "59321f44-3d39-415e-bbb3-97c4f01d19f2", "source": {"name": "Vernon", "slug": "vernon"}, "source_identifier": "3417", "external_references": [], "date_modified": "2025-03-05T11:46:45.222511+11:00"}, {"id": 11628, "name": "Brent Hatton", "roles_in_work": [{"id": 2642455, "title": "Space colony", "work_id": 110898, "role": "creator", "role_id": 968, "is_primary": true}], "also_known_as": "", "date_of_birth": "", "date_of_death": "", "genders": [], "languages": [], "places_of_operation": [], "biography": "", "biography_author": null, "date_of_biography": "2023-08-14T10:47:50.609498+10:00", "external_links": [], "uuid": "ee364227-a4f0-4393-b6f5-e24abeeb1ceb", "source": {"name": "Vernon", "slug": "vernon"}, "source_identifier": "3416", "external_references": [], "date_modified": "2025-03-05T11:46:44.004191+11:00"}, {"id": 11627, "name": "Joanne Tien", "roles_in_work": [{"id": 2642453, "title": "The Crab game", "work_id": 110897, "role": "creator", "role_id": 968, "is_primary": true}], "also_known_as": "", "date_of_birth": "", "date_of_death": "", "genders": [], "languages": [], "places_of_operation": [], "biography": "", "biography_author": null, "date_of_biography": "2023-08-14T11:08:16.437088+10:00", "external_links": [], "uuid": "7c89ac2a-8ba2-4931-911d-610d16862429", "source": {"name": "Vernon", "slug": "vernon"}, "source_identifier": "3415", "external_references": [], "date_modified": "2025-03-05T11:46:43.206002+11:00"}, {"id": 11626, "name": "Jason Wong", "roles_in_work": [{"id": 2642450, "title": "Metropollen", "work_id": 110896, "role": "creator", "role_id": 968, "is_primary": true}], "also_known_as": "", "date_of_birth": null, "date_of_death": null, "genders": [], "languages": [], "places_of_operation": [], "biography": "", "biography_author": null, "date_of_biography": null, "external_links": [], "uuid": "f562074d-fbf2-4d24-b3d1-a88e8285edb9", "source": {"name": "Vernon", "slug": "vernon"}, "source_identifier": "3414", "external_references": [], "date_modified": "2025-03-05T11:46:41.839185+11:00"}, {"id": 11625, "name": "Alexandra Zhadan", "roles_in_work": [{"id": 2642441, "title": "The Fall and rise of Marla's eyes", "work_id": 110893, "role": "creator", "role_id": 968, "is_primary": true}], "also_known_as": "", "date_of_birth": null, "date_of_death": null, "genders": [], "languages": [], "places_of_operation": [], "biography": "", "biography_author": null, "date_of_biography": null, "external_links": [], "uuid": "224db51a-6d60-4c09-b3c6-74d0f6073b26", "source": {"name": "Vernon", "slug": "vernon"}, "source_identifier": "3413", "external_references": [], "date_modified": "2025-03-05T11:46:37.713271+11:00"}, {"id": 11623, "name": "Clare Spoelstra", "roles_in_work": [{"id": 2642438, "title": "Baba Yaga: a Russian fairy tale", "work_id": 110892, "role": "creator", "role_id": 968, "is_primary": true}], "also_known_as": "", "date_of_birth": "", "date_of_death": "", "genders": [], "languages": [], "places_of_operation": [], "biography": "", "biography_author": null, "date_of_biography": "2023-05-09T12:39:01.959109+10:00", "external_links": [], "uuid": "216b4e2d-daa0-49a2-bac1-bc522570e87b", "source": {"name": "Vernon", "slug": "vernon"}, "source_identifier": "3411", "external_references": [], "date_modified": "2025-03-05T11:46:36.334147+11:00"}, {"id": 11622, "name": "John Scarpa", "roles_in_work": [{"id": 2642435, "title": "CZ Chromozone", "work_id": 110891, "role": "creator", "role_id": 968, "is_primary": true}], "also_known_as": "", "date_of_birth": "", "date_of_death": "", "genders": [], "languages": [], "places_of_operation": [], "biography": "", "biography_author": null, "date_of_biography": "2023-05-09T14:13:25.717784+10:00", "external_links": [], "uuid": "7ecfac8d-ec3c-488b-ba13-a6d2de54a24a", "source": {"name": "Vernon", "slug": "vernon"}, "source_identifier": "3410", "external_references": [], "date_modified": "2025-03-05T11:46:34.930483+11:00"}]}