{"count": 28687, "next": "https://api.acmi.net.au/creators/?page=2261", "previous": "https://api.acmi.net.au/creators/?page=2259", "results": [{"id": 17505, "name": "Saffron Films", "roles_in_work": [{"id": 2468225, "title": "The Swallowtail story: the life history of an English butterfly", "work_id": 73410, "role": "production company", "role_id": 941, "is_primary": true}, {"id": 2467946, "title": "The Rainbow and the forest", "work_id": 72044, "role": "production company", "role_id": 941, "is_primary": true}], "also_known_as": "", "date_of_birth": "", "date_of_death": "", "genders": [], "languages": [], "places_of_operation": [], "biography": "", "biography_author": null, "date_of_biography": "2023-08-14T11:36:48.741475+10:00", "external_links": [], "uuid": "b50e9cf2-17ea-4cdb-8b60-6e5490887f5d", "source": {"name": "Vernon", "slug": "vernon"}, "source_identifier": "12234", "external_references": [], "date_modified": "2023-08-14T11:36:48.741693+10:00"}, {"id": 17501, "name": "George Sluizer", "roles_in_work": [{"id": 906497, "title": "The Vanishing (Captioned)", "work_id": 87189, "role": "director", "role_id": 938, "is_primary": true}, {"id": 900186, "title": "The Vanishing", "work_id": 81091, "role": "director", "role_id": 938, "is_primary": true}, {"id": 900185, "title": "The Vanishing", "work_id": 81091, "role": "co-producer", "role_id": 915, "is_primary": true}, {"id": 2750861, "title": "Zeca: portrait of a Vaqueiro", "work_id": 97543, "role": "producer/director", "role_id": 31, "is_primary": true}, {"id": 751672, "title": "Raft", "work_id": 72033, "role": "producer/director", "role_id": 31, "is_primary": true}], "also_known_as": "", "date_of_birth": "1932-06-25", "date_of_death": "2014-09-20", "genders": [{"id": 9, "name": "Male", "slug": "male"}], "languages": [{"id": 38, "name": "Dutch", "slug": "dutch"}], "places_of_operation": [{"id": 293, "name": "Kingdom of the Netherlands", "slug": "kingdom-of-the-netherlands"}], "biography": "George Sluizer (25 June 1932 – 20 September 2014) was a French-born Dutch filmmaker whose credits included features as well as documentary films.", "biography_author": "Wikidata", "date_of_biography": "2023-08-01T14:59:29.917455+10:00", "external_links": [{"id": 4054, "uri": "https://en.wikipedia.org/wiki/George_Sluizer"}], "uuid": "ea805fbc-e91c-4140-85c4-20e64c2e25de", "source": {"name": "Vernon", "slug": "vernon"}, "source_identifier": "19675", "external_references": [{"id": 25974, "source": {"name": "Wikidata", "slug": "wikidata"}, "source_identifier": "Q345994"}, {"id": 28633, "source": {"name": "VIAF", "slug": "viaf"}, "source_identifier": "76523179"}, {"id": 28634, "source": {"name": "LOC Auth", "slug": "loc-auth"}, "source_identifier": "n81075533"}, {"id": 28635, "source": {"name": "WorldCat", "slug": "worldcat"}, "source_identifier": "lccn-n81075533"}], "date_modified": "2025-03-13T00:31:37.829363+11:00"}, {"id": 17500, "name": "Sluizer Films", "roles_in_work": [{"id": 2750860, "title": "Zeca: portrait of a Vaqueiro", "work_id": 97543, "role": "production company", "role_id": 941, "is_primary": true}, {"id": 751671, "title": "Raft", "work_id": 72033, "role": "production company", "role_id": 941, "is_primary": true}], "also_known_as": "", "date_of_birth": null, "date_of_death": null, "genders": [], "languages": [], "places_of_operation": [], "biography": "", "biography_author": null, "date_of_biography": null, "external_links": [], "uuid": "ea7e064e-aedf-4fe2-952b-628e6d0bd6b8", "source": {"name": "Vernon", "slug": "vernon"}, "source_identifier": "12655", "external_references": [], "date_modified": "2025-03-13T00:31:37.218827+11:00"}, {"id": 17498, "name": "U K Atomic Energy Authority", "roles_in_work": [{"id": 751667, "title": "Radioisotopes in industry", "work_id": 72032, "role": "production company", "role_id": 941, "is_primary": true}, {"id": 2465184, "title": "Putting the atom to work", "work_id": 89550, "role": "production company", "role_id": 941, "is_primary": true}], "also_known_as": "", "date_of_birth": "", "date_of_death": "", "genders": [], "languages": [], "places_of_operation": [], "biography": "", "biography_author": null, "date_of_biography": "2023-08-14T10:29:03.619326+10:00", "external_links": [], "uuid": "234aa673-c457-4cad-ab41-fdc12955bbb2", "source": {"name": "Vernon", "slug": "vernon"}, "source_identifier": "13822", "external_references": [], "date_modified": "2023-08-14T10:29:03.619703+10:00"}, {"id": 17497, "name": "Alfred Butterfield", "roles_in_work": [{"id": 2465218, "title": "Radio view of the universe", "work_id": 72029, "role": "producer", "role_id": 1089, "is_primary": true}, {"id": 1811308, "title": "For all the world's children", "work_id": 89053, "role": "producer", "role_id": 1089, "is_primary": true}], "also_known_as": "", "date_of_birth": "", "date_of_death": "", "genders": [], "languages": [], "places_of_operation": [], "biography": "", "biography_author": null, "date_of_biography": "2023-08-14T10:29:51.571576+10:00", "external_links": [], "uuid": "3e218643-c5fa-4969-b4a9-7ae104e0968d", "source": {"name": "Vernon", "slug": "vernon"}, "source_identifier": "14950", "external_references": [], "date_modified": "2023-08-14T10:29:51.571952+10:00"}, {"id": 17495, "name": "Stanley Brogden", "roles_in_work": [{"id": 1814150, "title": "RAAF Record. Newsreel No. 02", "work_id": 89743, "role": "producer", "role_id": 1089, "is_primary": true}, {"id": 1820161, "title": "RAAF Record. Newsreel No. 08", "work_id": 72016, "role": "producer", "role_id": 1089, "is_primary": true}, {"id": 2373951, "title": "RAAF Record. Newsreel No. 07", "work_id": 72015, "role": "producer", "role_id": 1089, "is_primary": true}, {"id": 1809081, "title": "Operation Bala Lagin", "work_id": 88308, "role": "producer", "role_id": 1089, "is_primary": true}, {"id": 1814853, "title": "RAAF Record. Newsreel No. 06", "work_id": 90228, "role": "producer", "role_id": 1089, "is_primary": true}], "also_known_as": "", "date_of_birth": "1913", "date_of_death": "", "genders": [], "languages": [], "places_of_operation": [], "biography": "", "biography_author": null, "date_of_biography": "2023-07-05T03:47:30.523311+10:00", "external_links": [], "uuid": "6f5dd2b7-b19a-4095-9cdc-9d2da27bccab", "source": {"name": "Vernon", "slug": "vernon"}, "source_identifier": "28953", "external_references": [{"id": 33136, "source": {"name": "Wikidata", "slug": "wikidata"}, "source_identifier": "Q121270632"}], "date_modified": "2023-09-06T01:26:32.879130+10:00"}, {"id": 17493, "name": "Marvin Albert Films", "roles_in_work": [{"id": 2234168, "title": "Quiddity tree", "work_id": 72004, "role": "production company", "role_id": 941, "is_primary": true}], "also_known_as": "", "date_of_birth": "", "date_of_death": "", "genders": [], "languages": [], "places_of_operation": [], "biography": "", "biography_author": null, "date_of_biography": "2023-05-09T16:43:08.396836+10:00", "external_links": [], "uuid": "0e8e06d7-4067-47e8-acfa-d448f0241806", "source": {"name": "Vernon", "slug": "vernon"}, "source_identifier": "10330", "external_references": [{"id": 35892, "source": {"name": "Wikidata", "slug": "wikidata"}, "source_identifier": "Q121144232"}], "date_modified": "2023-09-05T22:51:23.490780+10:00"}, {"id": 17483, "name": "Setag Educational Films", "roles_in_work": [{"id": 2234091, "title": "Quest for perfection: A look at trampolining", "work_id": 71995, "role": "production company", "role_id": 941, "is_primary": true}], "also_known_as": "", "date_of_birth": "", "date_of_death": "", "genders": [], "languages": [], "places_of_operation": [], "biography": "", "biography_author": null, "date_of_biography": "2023-05-09T16:43:01.440105+10:00", "external_links": [], "uuid": "f44ea595-b610-4e6f-b6b8-46213c24bc80", "source": {"name": "Vernon", "slug": "vernon"}, "source_identifier": "12458", "external_references": [{"id": 40273, "source": {"name": "Wikidata", "slug": "wikidata"}, "source_identifier": "Q121091222"}], "date_modified": "2023-09-06T01:12:03.899955+10:00"}, {"id": 17481, "name": "Robert Boucher", "roles_in_work": [{"id": 2465197, "title": "Quest for flight", "work_id": 71992, "role": "director", "role_id": 938, "is_primary": true}, {"id": 2752074, "title": "Stress management: wedding daze", "work_id": 98126, "role": "co-producer", "role_id": 915, "is_primary": true}, {"id": 1819501, "title": "Listening: a key to problem solving", "work_id": 76981, "role": "producer", "role_id": 1089, "is_primary": true}], "also_known_as": "", "date_of_birth": "", "date_of_death": "", "genders": [], "languages": [], "places_of_operation": [], "biography": "", "biography_author": null, "date_of_biography": "2023-08-14T10:53:48.059564+10:00", "external_links": [], "uuid": "e4492bdf-73f1-4110-8182-cbd3848aa37f", "source": {"name": "Vernon", "slug": "vernon"}, "source_identifier": "27660", "external_references": [], "date_modified": "2025-03-13T00:56:56.909859+11:00"}, {"id": 17480, "name": "Alan P. Sloan", "roles_in_work": [{"id": 2465196, "title": "Quest for flight", "work_id": 71992, "role": "producer", "role_id": 1089, "is_primary": true}, {"id": 1817215, "title": "Wind: the power and the promise", "work_id": 97729, "role": "producer", "role_id": 1089, "is_primary": true}, {"id": 1812599, "title": "Television: behind the scenes", "work_id": 73589, "role": "producer", "role_id": 1089, "is_primary": true}, {"id": 2750423, "title": "Whales: Can they be saved?", "work_id": 97318, "role": "producer", "role_id": 1089, "is_primary": true}, {"id": 2750833, "title": "Like you, like me: I can do it", "work_id": 97530, "role": "producer", "role_id": 1089, "is_primary": true}, {"id": 2750835, "title": "Like you, like me: see what I feel", "work_id": 97531, "role": "producer", "role_id": 1089, "is_primary": true}, {"id": 2750420, "title": "Bionics: man or machine", "work_id": 97316, "role": "producer", "role_id": 1089, "is_primary": true}], "also_known_as": "", "date_of_birth": "", "date_of_death": "", "genders": [], "languages": [], "places_of_operation": [], "biography": "", "biography_author": null, "date_of_biography": "2023-08-14T12:42:02.095669+10:00", "external_links": [], "uuid": "59410a64-b836-40c4-bf83-55afda03381d", "source": {"name": "Vernon", "slug": "vernon"}, "source_identifier": "14786", "external_references": [], "date_modified": "2025-03-13T00:31:19.503224+11:00"}]}