{"count": 28687, "next": "https://api.acmi.net.au/creators/?page=2678", "previous": "https://api.acmi.net.au/creators/?page=2676", "results": [{"id": 11724, "name": "Fatma Coskun", "roles_in_work": [{"id": 3109978, "title": "New life new country", "work_id": 114327, "role": "creator", "role_id": 968, "is_primary": true}, {"id": 3109905, "title": "Stories from the Turkish community : Digital Storytelling project", "work_id": 114328, "role": "creator", "role_id": 968, "is_primary": true}], "also_known_as": "", "date_of_birth": "", "date_of_death": "", "genders": [{"id": 5, "name": "Female", "slug": "female"}], "languages": [], "places_of_operation": [], "biography": "", "biography_author": null, "date_of_biography": "2023-05-09T19:00:11.098036+10:00", "external_links": [], "uuid": "c3a78f5c-c776-4327-929c-8bcee6376091", "source": {"name": "Vernon", "slug": "vernon"}, "source_identifier": "3524", "external_references": [], "date_modified": "2025-12-02T14:28:02.361283+11:00"}, {"id": 11723, "name": "Rita el-Khoury", "roles_in_work": [{"id": 2642960, "title": "Where Do I Belong?", "work_id": 114326, "role": "creator", "role_id": 968, "is_primary": true}], "also_known_as": "", "date_of_birth": "", "date_of_death": "", "genders": [{"id": 5, "name": "Female", "slug": "female"}], "languages": [], "places_of_operation": [], "biography": "", "biography_author": null, "date_of_biography": "2023-09-05T14:34:11.872437+10:00", "external_links": [], "uuid": "8fe4153d-b915-4ffa-bd45-f65c3d282a92", "source": {"name": "Vernon", "slug": "vernon"}, "source_identifier": "3521", "external_references": [], "date_modified": "2025-03-05T11:52:16.828811+11:00"}, {"id": 11722, "name": "Carla Pascoe", "roles_in_work": [{"id": 2642956, "title": "The Spaces in Between", "work_id": 114324, "role": "creator", "role_id": 968, "is_primary": true}], "also_known_as": "", "date_of_birth": "", "date_of_death": "", "genders": [{"id": 5, "name": "Female", "slug": "female"}], "languages": [], "places_of_operation": [], "biography": "", "biography_author": null, "date_of_biography": "2023-09-05T14:34:04.982133+10:00", "external_links": [], "uuid": "57657c84-9b38-4920-a03c-cb73d34b127b", "source": {"name": "Vernon", "slug": "vernon"}, "source_identifier": "3520", "external_references": [], "date_modified": "2025-03-05T11:52:13.642594+11:00"}, {"id": 11721, "name": "Zeina Zogheib", "roles_in_work": [{"id": 2642952, "title": "The Affliction of Memory", "work_id": 114316, "role": "creator", "role_id": 968, "is_primary": true}], "also_known_as": "", "date_of_birth": "", "date_of_death": "", "genders": [{"id": 5, "name": "Female", "slug": "female"}], "languages": [], "places_of_operation": [], "biography": "", "biography_author": null, "date_of_biography": "2023-09-05T14:33:34.628291+10:00", "external_links": [], "uuid": "960cf4cd-067b-4f39-8064-0f8142341645", "source": {"name": "Vernon", "slug": "vernon"}, "source_identifier": "3519", "external_references": [], "date_modified": "2025-03-05T11:52:10.463513+11:00"}, {"id": 11720, "name": "Sam Haddad", "roles_in_work": [{"id": 2642948, "title": "Loving Lebanon and Australia", "work_id": 114322, "role": "creator", "role_id": 968, "is_primary": true}], "also_known_as": "", "date_of_birth": "", "date_of_death": "", "genders": [{"id": 9, "name": "Male", "slug": "male"}], "languages": [], "places_of_operation": [], "biography": "", "biography_author": null, "date_of_biography": "2023-09-05T14:33:58.043625+10:00", "external_links": [], "uuid": "8df7ac0c-cb24-46ca-b7d3-6dd48cbc060b", "source": {"name": "Vernon", "slug": "vernon"}, "source_identifier": "3518", "external_references": [], "date_modified": "2025-03-05T11:52:07.289188+11:00"}, {"id": 11719, "name": "Raymond Nashar", "roles_in_work": [{"id": 2642901, "title": "El Ajnabi", "work_id": 114314, "role": "creator", "role_id": 968, "is_primary": true}], "also_known_as": "", "date_of_birth": "", "date_of_death": "", "genders": [{"id": 9, "name": "Male", "slug": "male"}], "languages": [], "places_of_operation": [], "biography": "", "biography_author": null, "date_of_biography": "2023-09-05T14:33:38.020157+10:00", "external_links": [], "uuid": "55f128b0-b427-4eb9-a4c3-f3527de90871", "source": {"name": "Vernon", "slug": "vernon"}, "source_identifier": "3517", "external_references": [], "date_modified": "2025-03-05T11:51:30.457883+11:00"}, {"id": 11718, "name": "Anne Hederics", "roles_in_work": [{"id": 2642877, "title": "Time delay", "work_id": 100176, "role": "creator", "role_id": 968, "is_primary": true}], "also_known_as": "", "date_of_birth": "", "date_of_death": "", "genders": [{"id": 5, "name": "Female", "slug": "female"}], "languages": [], "places_of_operation": [], "biography": "", "biography_author": null, "date_of_biography": "2023-08-14T11:54:41.051589+10:00", "external_links": [], "uuid": "630ef40d-9adf-4d33-91f1-69c23cdd35e5", "source": {"name": "Vernon", "slug": "vernon"}, "source_identifier": "3515", "external_references": [], "date_modified": "2025-03-05T11:51:12.584157+11:00"}, {"id": 11717, "name": "John Star", "roles_in_work": [{"id": 2642872, "title": "Lost in Time and Space", "work_id": 111042, "role": "creator", "role_id": 968, "is_primary": true}], "also_known_as": "", "date_of_birth": null, "date_of_death": null, "genders": [{"id": 9, "name": "Male", "slug": "male"}], "languages": [], "places_of_operation": [], "biography": "", "biography_author": null, "date_of_biography": null, "external_links": [], "uuid": "51e8ec48-fe77-42a2-8c75-0119d473a4c9", "source": {"name": "Vernon", "slug": "vernon"}, "source_identifier": "3516", "external_references": [], "date_modified": "2025-03-05T11:51:09.579251+11:00"}, {"id": 11716, "name": "Bernadette Wells", "roles_in_work": [{"id": 2642869, "title": "Margaret living with LAM", "work_id": 100175, "role": "creator", "role_id": 968, "is_primary": true}], "also_known_as": "", "date_of_birth": null, "date_of_death": null, "genders": [{"id": 5, "name": "Female", "slug": "female"}], "languages": [], "places_of_operation": [], "biography": "", "biography_author": null, "date_of_biography": null, "external_links": [], "uuid": "0e4c7a9c-b111-4b4d-89cc-c6ddf8aa1c5b", "source": {"name": "Vernon", "slug": "vernon"}, "source_identifier": "3513", "external_references": [], "date_modified": "2025-03-05T11:51:08.158067+11:00"}, {"id": 11715, "name": "Kay Sylvester", "roles_in_work": [{"id": 2642866, "title": "Tarrango", "work_id": 100174, "role": "creator", "role_id": 968, "is_primary": true}], "also_known_as": "", "date_of_birth": null, "date_of_death": null, "genders": [{"id": 5, "name": "Female", "slug": "female"}], "languages": [], "places_of_operation": [], "biography": "", "biography_author": null, "date_of_biography": null, "external_links": [], "uuid": "fd918496-7056-4fb5-aba6-c2321aff7cc0", "source": {"name": "Vernon", "slug": "vernon"}, "source_identifier": "3512", "external_references": [], "date_modified": "2025-03-05T11:51:06.740203+11:00"}]}