{"count": 28683, "next": "https://api.acmi.net.au/creators/?page=2798", "previous": "https://api.acmi.net.au/creators/?page=2796", "results": [{"id": 9083, "name": "Rod Kefford", "roles_in_work": [{"id": 3108619, "title": "Tomatoes for processing", "work_id": 109006, "role": "writer", "role_id": 939, "is_primary": true}], "also_known_as": "", "date_of_birth": "", "date_of_death": "", "genders": [], "languages": [], "places_of_operation": [], "biography": "", "biography_author": null, "date_of_biography": "2023-05-09T19:02:55.095469+10:00", "external_links": [], "uuid": "ca312f7b-7526-4895-a2b6-530fc91e5db0", "source": {"name": "Vernon", "slug": "vernon"}, "source_identifier": "1795", "external_references": [{"id": 37543, "source": {"name": "Wikidata", "slug": "wikidata"}, "source_identifier": "Q121299174"}], "date_modified": "2025-10-01T16:42:56.838457+10:00"}, {"id": 9082, "name": "U.S.A Department of Agriculture", "roles_in_work": [{"id": 2711056, "title": "Farm tractor safety", "work_id": 109001, "role": "creator", "role_id": 968, "is_primary": true}, {"id": 877843, "title": "The National Arboretum", "work_id": 90927, "role": "production company", "role_id": 941, "is_primary": true}, {"id": 2713097, "title": "The Eternal forest", "work_id": 67241, "role": "production company", "role_id": 941, "is_primary": true}, {"id": 2715213, "title": "Harvest", "work_id": 68334, "role": "production company", "role_id": 941, "is_primary": true}, {"id": 2715346, "title": "Helicopter management: fire", "work_id": 68391, "role": "production company", "role_id": 941, "is_primary": true}, {"id": 874840, "title": "The Burning issue", "work_id": 89130, "role": "production company", "role_id": 941, "is_primary": true}, {"id": 861399, "title": "Voice of the forest", "work_id": 75279, "role": "production company", "role_id": 941, "is_primary": true}, {"id": 2750470, "title": "The REA story", "work_id": 97343, "role": "production company", "role_id": 941, "is_primary": true}, {"id": 2716212, "title": "In the beginning", "work_id": 68834, "role": "production company", "role_id": 941, "is_primary": true}, {"id": 748591, "title": "Mr Stuart answers the question", "work_id": 70662, "role": "production company", "role_id": 941, "is_primary": true}], "also_known_as": "", "date_of_birth": "", "date_of_death": "", "genders": [], "languages": [], "places_of_operation": [], "biography": "", "biography_author": null, "date_of_biography": "2023-08-11T18:21:54.448579+10:00", "external_links": [], "uuid": "7e5730c5-b20e-43eb-9737-00984bd063d8", "source": {"name": "Vernon", "slug": "vernon"}, "source_identifier": "1689", "external_references": [], "date_modified": "2025-03-13T00:22:17.990551+11:00"}, {"id": 9081, "name": "Churches Television Centre", "roles_in_work": [{"id": 2619555, "title": "Project the right image", "work_id": 109000, "role": "creator", "role_id": 968, "is_primary": true}], "also_known_as": "", "date_of_birth": "", "date_of_death": "", "genders": [], "languages": [], "places_of_operation": [], "biography": "", "biography_author": null, "date_of_biography": "2023-08-14T10:27:26.255830+10:00", "external_links": [], "uuid": "03338680-9002-497c-83fe-9db70344ea49", "source": {"name": "Vernon", "slug": "vernon"}, "source_identifier": "1220", "external_references": [], "date_modified": "2025-02-26T23:15:50.545235+11:00"}, {"id": 9078, "name": "Cyril Jones", "roles_in_work": [{"id": 1817471, "title": "Hitler: the final chapter", "work_id": 87154, "role": "producer", "role_id": 1089, "is_primary": true}, {"id": 770632, "title": "Help yourself - self employment (Captioned)", "work_id": 79779, "role": "producer/director", "role_id": 31, "is_primary": true}, {"id": 2711050, "title": "Dirty Harry", "work_id": 108999, "role": "writer", "role_id": 939, "is_primary": true}], "also_known_as": "", "date_of_birth": "", "date_of_death": "", "genders": [], "languages": [], "places_of_operation": [], "biography": "", "biography_author": null, "date_of_biography": "2023-05-09T15:13:05.613203+10:00", "external_links": [], "uuid": "40ffe008-37e3-4d7e-acec-deba508bbbae", "source": {"name": "Vernon", "slug": "vernon"}, "source_identifier": "1749", "external_references": [{"id": 39855, "source": {"name": "Wikidata", "slug": "wikidata"}, "source_identifier": "Q121034477"}], "date_modified": "2025-03-11T23:45:32.666047+11:00"}, {"id": 9077, "name": "John Martin-Jones", "roles_in_work": [{"id": 2391932, "title": "North to the sun", "work_id": 70967, "role": "director", "role_id": 938, "is_primary": true}, {"id": 2677910, "title": "Australian diary. No. 129", "work_id": 65121, "role": "director", "role_id": 938, "is_primary": true}, {"id": 2392782, "title": "Know your children", "work_id": 95761, "role": "director", "role_id": 938, "is_primary": true}, {"id": 2676720, "title": "Aeradio: the pilot's link to the ground", "work_id": 64559, "role": "director", "role_id": 938, "is_primary": true}, {"id": 3081340, "title": "Water: our problem", "work_id": 74512, "role": "co-producer", "role_id": 915, "is_primary": true}, {"id": 896081, "title": "Valley deep, mountain high", "work_id": 74270, "role": "co-producer", "role_id": 915, "is_primary": true}, {"id": 2716210, "title": "In song and dance", "work_id": 68833, "role": "executive producer", "role_id": 916, "is_primary": false}, {"id": 2765715, "title": "People of the Australian western desert", "work_id": 114913, "role": "producer", "role_id": 1089, "is_primary": true}, {"id": 2679012, "title": "Bush harvest", "work_id": 65688, "role": "producer", "role_id": 1089, "is_primary": true}, {"id": 2713796, "title": "Five Aboriginal dances from Cape York", "work_id": 67593, "role": "producer", "role_id": 1089, "is_primary": true}, {"id": 2680127, "title": "Colleges of Advanced Education", "work_id": 66224, "role": "producer", "role_id": 1089, "is_primary": true}, {"id": 2765703, "title": "Spear making; boys' spear fight", "work_id": 73071, "role": "producer", "role_id": 1089, "is_primary": true}, {"id": 2391955, "title": "One man's road", "work_id": 71137, "role": "producer", "role_id": 1089, "is_primary": true}, {"id": 2765712, "title": "Stone and gum working", "work_id": 73204, "role": "producer", "role_id": 1089, "is_primary": true}, {"id": 2391873, "title": "Keep it green", "work_id": 69361, "role": "producer", "role_id": 1089, "is_primary": true}, {"id": 2392107, "title": "Snowy waters", "work_id": 72942, "role": "producer", "role_id": 1089, "is_primary": true}, {"id": 2765709, "title": "Spinning hair string; Getting water from well; Binding girl's hair", "work_id": 73100, "role": "producer", "role_id": 1089, "is_primary": true}, {"id": 2392150, "title": "Surf Beach", "work_id": 73392, "role": "producer", "role_id": 1089, "is_primary": true}, {"id": 2392167, "title": "Taxation office", "work_id": 73528, "role": "producer", "role_id": 1089, "is_primary": true}, {"id": 2276508, "title": "Young hands", "work_id": 75019, "role": "producer", "role_id": 1089, "is_primary": true}, {"id": 2392004, "title": "Power from the snow", "work_id": 71753, "role": "producer", "role_id": 1089, "is_primary": true}, {"id": 1810283, "title": "New Guinea election story", "work_id": 95857, "role": "producer", "role_id": 1089, "is_primary": true}, {"id": 1809733, "title": "Style of champions: the Australian crawl", "work_id": 73332, "role": "producer", "role_id": 1089, "is_primary": true}, {"id": 1810016, "title": "Surf beach [Greek version]", "work_id": 73393, "role": "producer", "role_id": 1089, "is_primary": true}, {"id": 1811801, "title": "The Story of diplomacy", "work_id": 73236, "role": "producer", "role_id": 1089, "is_primary": true}, {"id": 1810017, "title": "Surf beach [Italian Version]", "work_id": 73394, "role": "producer", "role_id": 1089, "is_primary": true}, {"id": 3093512, "title": "Nullarbor hideout", "work_id": 71015, "role": "producer", "role_id": 1089, "is_primary": true}, {"id": 3105990, "title": "Beyond the pack ice", "work_id": 65386, "role": "producer", "role_id": 1089, "is_primary": true}, {"id": 3107948, "title": "David and Jennifer Learn Their Kerb Drill", "work_id": 66621, "role": "producer", "role_id": 1089, "is_primary": true}, {"id": 3108411, "title": "Flying menace", "work_id": 67658, "role": "producer", "role_id": 1089, "is_primary": true}, {"id": 2765706, "title": "Spear-thrower making, including stone flaking and gum preparation", "work_id": 73072, "role": "producer", "role_id": 1089, "is_primary": true}, {"id": 2765698, "title": "Quandong cake", "work_id": 71977, "role": "producer", "role_id": 1089, "is_primary": true}, {"id": 2765695, "title": "Old camp sites at Tika Tika", "work_id": 71068, "role": "producer", "role_id": 1089, "is_primary": true}, {"id": 2765692, "title": "Mamu", "work_id": 70070, "role": "producer", "role_id": 1089, "is_primary": true}, {"id": 2714070, "title": "Forest without spears", "work_id": 67729, "role": "producer", "role_id": 1089, "is_primary": true}, {"id": 2644340, "title": "Channel country", "work_id": 65959, "role": "producer", "role_id": 1089, "is_primary": true}, {"id": 2645176, "title": "In one lifetime", "work_id": 68821, "role": "producer", "role_id": 1089, "is_primary": true}, {"id": 2646415, "title": "Stealthy", "work_id": 73183, "role": "producer", "role_id": 1089, "is_primary": true}, {"id": 2647004, "title": "Your local council", "work_id": 75044, "role": "producer", "role_id": 1089, "is_primary": true}, {"id": 2765689, "title": "Making a wira", "work_id": 70031, "role": "producer", "role_id": 1089, "is_primary": true}, {"id": 2765685, "title": "Kangaroo cooking at Kunapural", "work_id": 69338, "role": "producer", "role_id": 1089, "is_primary": true}, {"id": 2711041, "title": "Young Hands", "work_id": 108998, "role": "producer", "role_id": 1089, "is_primary": true}, {"id": 2765682, "title": "Headache", "work_id": 68356, "role": "producer", "role_id": 1089, "is_primary": true}, {"id": 2765673, "title": "Cooking kangaroo", "work_id": 66389, "role": "producer", "role_id": 1089, "is_primary": true}, {"id": 2749184, "title": "Towards Baruya manhood. Part 1. Village life I", "work_id": 96679, "role": "producer", "role_id": 1089, "is_primary": true}, {"id": 2749187, "title": "Towards Baruya manhood. Part 2. Village life II", "work_id": 96680, "role": "producer", "role_id": 1089, "is_primary": true}, {"id": 3081314, "title": "Portrait of an Australian", "work_id": 71714, "role": "producer", "role_id": 1089, "is_primary": true}, {"id": 3081330, "title": "Sir John Monash", "work_id": 72853, "role": "producer", "role_id": 1089, "is_primary": true}, {"id": 2765669, "title": "At Patantja clay pan", "work_id": 65022, "role": "producer", "role_id": 1089, "is_primary": true}, {"id": 2711988, "title": "Desert people", "work_id": 66716, "role": "producer", "role_id": 1089, "is_primary": true}, {"id": 2677949, "title": "Australian war memorial", "work_id": 65143, "role": "producer", "role_id": 1089, "is_primary": true}, {"id": 2677937, "title": "The Australian National University", "work_id": 65137, "role": "producer", "role_id": 1089, "is_primary": true}, {"id": 2677605, "title": "Asian students in Australia", "work_id": 64957, "role": "producer", "role_id": 1089, "is_primary": true}, {"id": 1814866, "title": "Mind your back", "work_id": 90247, "role": "producer", "role_id": 1089, "is_primary": true}, {"id": 1813582, "title": "Northern Territory mining", "work_id": 70977, "role": "producer", "role_id": 1089, "is_primary": true}, {"id": 1813583, "title": "North-west horizon", "work_id": 70978, "role": "producer", "role_id": 1089, "is_primary": true}, {"id": 1812590, "title": "Third secretary", "work_id": 73705, "role": "producer", "role_id": 1089, "is_primary": true}, {"id": 1814794, "title": "Neville Mendham: agronomist", "work_id": 90154, "role": "producer", "role_id": 1089, "is_primary": true}, {"id": 1813396, "title": "My valley is changing", "work_id": 70728, "role": "producer", "role_id": 1089, "is_primary": true}, {"id": 1812862, "title": "Tree business", "work_id": 73999, "role": "producer", "role_id": 1089, "is_primary": true}, {"id": 1819516, "title": "Plant quarantine at work", "work_id": 71629, "role": "producer", "role_id": 1089, "is_primary": true}, {"id": 1818632, "title": "Weatherwise", "work_id": 74572, "role": "producer", "role_id": 1089, "is_primary": true}, {"id": 1818309, "title": "Papua and New Guinea, 1967", "work_id": 71349, "role": "producer", "role_id": 1089, "is_primary": true}, {"id": 1818577, "title": "It's so easy", "work_id": 76293, "role": "producer", "role_id": 1089, "is_primary": true}, {"id": 1818310, "title": "Papua and New Guinea development", "work_id": 71351, "role": "producer", "role_id": 1089, "is_primary": true}, {"id": 1818485, "title": "Path to nationhood", "work_id": 71390, "role": "producer", "role_id": 1089, "is_primary": true}, {"id": 1806391, "title": "The Challenge of water", "work_id": 96094, "role": "producer", "role_id": 1089, "is_primary": true}, {"id": 1807137, "title": "Setting up an overseas post", "work_id": 72689, "role": "producer", "role_id": 1089, "is_primary": true}, {"id": 1806404, "title": "It's so easy. - [rev. ed.]", "work_id": 96112, "role": "producer", "role_id": 1089, "is_primary": true}, {"id": 1807295, "title": "The Silent battle", "work_id": 72817, "role": "producer", "role_id": 1089, "is_primary": true}, {"id": 1806403, "title": "Golden sands", "work_id": 96111, "role": "producer", "role_id": 1089, "is_primary": true}, {"id": 1805335, "title": "Rescue by helicopter", "work_id": 72168, "role": "producer", "role_id": 1089, "is_primary": true}, {"id": 2392042, "title": "Reaching for the stars", "work_id": 72069, "role": "producer", "role_id": 1089, "is_primary": true}, {"id": 1820056, "title": "A Question of attitude", "work_id": 71997, "role": "producer", "role_id": 1089, "is_primary": true}, {"id": 756220, "title": "Tropical north", "work_id": 74028, "role": "producer/director", "role_id": 31, "is_primary": true}, {"id": 2679557, "title": "The Changing hills", "work_id": 65954, "role": "producer/director", "role_id": 31, "is_primary": true}], "also_known_as": "", "date_of_birth": "", "date_of_death": "", "genders": [], "languages": [], "places_of_operation": [], "biography": "", "biography_author": null, "date_of_biography": "2023-08-09T04:08:31.447245+10:00", "external_links": [], "uuid": "40b07cc5-17e4-4726-9e5b-a8fa143d2435", "source": {"name": "Vernon", "slug": "vernon"}, "source_identifier": "1573", "external_references": [{"id": 43302, "source": {"name": "Wikidata", "slug": "wikidata"}, "source_identifier": "Q121270654"}], "date_modified": "2025-10-01T10:39:07.595346+10:00"}, {"id": 9073, "name": "George Lowe", "roles_in_work": [{"id": 2677339, "title": "Antarctic crossing", "work_id": 64815, "role": "director", "role_id": 938, "is_primary": true}, {"id": 2711034, "title": "Young Hands", "work_id": 108998, "role": "camera operator", "role_id": 931, "is_primary": false}, {"id": 2680226, "title": "Cinesound review. No. 1989. Communications unlimited", "work_id": 66289, "role": "cinematographer", "role_id": 32, "is_primary": false}, {"id": 2392217, "title": "Top end", "work_id": 73927, "role": "cinematographer", "role_id": 32, "is_primary": false}, {"id": 2276516, "title": "Young hands", "work_id": 75019, "role": "cinematographer", "role_id": 32, "is_primary": false}], "also_known_as": "", "date_of_birth": "1924-01-15", "date_of_death": "2013-03-20", "genders": [{"id": 9, "name": "Male", "slug": "male"}], "languages": [{"id": 1, "name": "English", "slug": "english"}], "places_of_operation": [{"id": 9, "name": "New Zealand", "slug": "new-zealand"}], "biography": "Wallace George Lowe  (15 January 1924 – 20 March 2013), known as George Lowe, was a New Zealand-born mountaineer, explorer, film director and educator. He was the last surviving member of the 1953 British Mount Everest Expedition, during which his friend Edmund Hillary and Sherpa Tenzing Norgay became the first known people to summit the world's highest peak. Sir Edmund was his fellow Briton and served as his mentor.\n\n", "biography_author": "Wikidata", "date_of_biography": "2022-05-19T11:35:41.785702+10:00", "external_links": [{"id": 2119, "uri": "https://en.wikipedia.org/wiki/George_Lowe_(mountaineer)"}], "uuid": "15a0bd07-e953-47e9-939c-7b1061ba7455", "source": {"name": "Vernon", "slug": "vernon"}, "source_identifier": "1569", "external_references": [{"id": 9130, "source": {"name": "Wikidata", "slug": "wikidata"}, "source_identifier": "Q3101729"}, {"id": 9131, "source": {"name": "VIAF", "slug": "viaf"}, "source_identifier": "119836674"}, {"id": 9132, "source": {"name": "LOC Auth", "slug": "loc-auth"}, "source_identifier": "no00020598"}, {"id": 9133, "source": {"name": "WorldCat", "slug": "worldcat"}, "source_identifier": "lccn-no00020598"}], "date_modified": "2025-03-11T23:45:18.376634+11:00"}, {"id": 9072, "name": "W.H. Shepard", "roles_in_work": [{"id": 2711033, "title": "Young Hands", "work_id": 108998, "role": "director", "role_id": 938, "is_primary": true}], "also_known_as": "", "date_of_birth": "", "date_of_death": "", "genders": [], "languages": [], "places_of_operation": [], "biography": "", "biography_author": null, "date_of_biography": "2023-05-09T17:52:49.461234+10:00", "external_links": [], "uuid": "1cd1bb8f-e8b9-48ed-ab90-41415490ae25", "source": {"name": "Vernon", "slug": "vernon"}, "source_identifier": "1568", "external_references": [{"id": 35577, "source": {"name": "Wikidata", "slug": "wikidata"}, "source_identifier": "Q120358567"}], "date_modified": "2025-03-11T23:45:16.674503+11:00"}, {"id": 9071, "name": "Shannon Owen", "roles_in_work": [{"id": 2619552, "title": "Irati-wanti: the poison leave it", "work_id": 108992, "role": "director", "role_id": 938, "is_primary": true}, {"id": 2619553, "title": "Irati-wanti: the poison leave it", "work_id": 108992, "role": "associate producer", "role_id": 930, "is_primary": false}, {"id": 2619554, "title": "Irati-wanti: the poison leave it", "work_id": 108992, "role": "writer", "role_id": 939, "is_primary": true}], "also_known_as": "", "date_of_birth": null, "date_of_death": null, "genders": [], "languages": [], "places_of_operation": [], "biography": "", "biography_author": null, "date_of_biography": null, "external_links": [], "uuid": "abe3f25b-a817-4bb1-87e8-43b437d6e640", "source": {"name": "Vernon", "slug": "vernon"}, "source_identifier": "112315", "external_references": [], "date_modified": "2025-02-26T23:15:46.578462+11:00"}, {"id": 9069, "name": "Stewart Lodge", "roles_in_work": [{"id": 2619549, "title": "Juggling the elements", "work_id": 114124, "role": "writer", "role_id": 939, "is_primary": true}], "also_known_as": "", "date_of_birth": "", "date_of_death": "", "genders": [], "languages": [], "places_of_operation": [], "biography": "", "biography_author": null, "date_of_biography": "2023-05-09T13:51:43.819595+10:00", "external_links": [], "uuid": "7c42396b-44d2-438e-8513-524bd6e66a8b", "source": {"name": "Vernon", "slug": "vernon"}, "source_identifier": "1168", "external_references": [{"id": 33789, "source": {"name": "Wikidata", "slug": "wikidata"}, "source_identifier": "Q121143673"}], "date_modified": "2025-02-26T23:15:43.204030+11:00"}, {"id": 9068, "name": "Tracey Power", "roles_in_work": [{"id": 2619548, "title": "Juggling the elements", "work_id": 114124, "role": "writer", "role_id": 939, "is_primary": true}], "also_known_as": "", "date_of_birth": "", "date_of_death": "", "genders": [], "languages": [], "places_of_operation": [], "biography": "", "biography_author": null, "date_of_biography": "2023-05-09T13:51:43.585430+10:00", "external_links": [], "uuid": "3b08f5c2-a852-4af3-9f1e-7b217ff6c72e", "source": {"name": "Vernon", "slug": "vernon"}, "source_identifier": "1167", "external_references": [{"id": 40554, "source": {"name": "Wikidata", "slug": "wikidata"}, "source_identifier": "Q121079452"}], "date_modified": "2025-02-26T23:15:42.607845+11:00"}]}