{"count": 28687, "next": "https://api.acmi.net.au/creators/?page=335", "previous": "https://api.acmi.net.au/creators/?page=333", "results": [{"id": 82267, "name": "Jiang Yi", "roles_in_work": [{"id": 2650625, "title": "The Spring festival = Guo nian", "work_id": 115748, "role": "script", "role_id": 962, "is_primary": false}], "also_known_as": "", "date_of_birth": null, "date_of_death": null, "genders": [], "languages": [], "places_of_operation": [], "biography": "", "biography_author": null, "date_of_biography": null, "external_links": [], "uuid": "2152cb78-a3fd-442a-9f3c-8b2641991482", "source": {"name": "Vernon", "slug": "vernon"}, "source_identifier": "36593", "external_references": [], "date_modified": "2025-03-05T14:21:47.012740+11:00"}, {"id": 82266, "name": "Huang Jianzhong", "roles_in_work": [{"id": 2650624, "title": "The Spring festival = Guo nian", "work_id": 115748, "role": "director", "role_id": 938, "is_primary": true}], "also_known_as": "", "date_of_birth": "1941-01-01", "date_of_death": null, "genders": [{"id": 9, "name": "Male", "slug": "male"}], "languages": [], "places_of_operation": [], "biography": "", "biography_author": null, "date_of_biography": null, "external_links": [], "uuid": "eb233bf4-8d0f-4d5f-a74a-95b8ab0f58c2", "source": {"name": "Vernon", "slug": "vernon"}, "source_identifier": "36592", "external_references": [{"id": 35434, "source": {"name": "Wikidata", "slug": "wikidata"}, "source_identifier": "Q8968454"}], "date_modified": "2025-03-05T14:21:45.897505+11:00"}, {"id": 82265, "name": "Hong Kong Vanho Film Company Ltd", "roles_in_work": [{"id": 2650623, "title": "The Spring festival = Guo nian", "work_id": 115748, "role": "production company", "role_id": 941, "is_primary": true}], "also_known_as": "", "date_of_birth": null, "date_of_death": null, "genders": [], "languages": [], "places_of_operation": [], "biography": "", "biography_author": null, "date_of_biography": null, "external_links": [], "uuid": "ed684bbc-94fc-4b87-bd0c-594e2ab7cf7a", "source": {"name": "Vernon", "slug": "vernon"}, "source_identifier": "36591", "external_references": [{"id": 38494, "source": {"name": "Wikidata", "slug": "wikidata"}, "source_identifier": "Q121270805"}], "date_modified": "2025-03-05T14:21:45.296192+11:00"}, {"id": 82264, "name": "Zhou Zhengbo", "roles_in_work": [{"id": 2650621, "title": "Blossoming years = Dou kou nian hua", "work_id": 115747, "role": "cast", "role_id": 33, "is_primary": false}], "also_known_as": "", "date_of_birth": "", "date_of_death": "", "genders": [], "languages": [], "places_of_operation": [], "biography": "", "biography_author": null, "date_of_biography": "2023-05-09T13:03:53.038947+10:00", "external_links": [], "uuid": "1f4a5663-811d-440b-96df-d2ed5a0fa5fb", "source": {"name": "Vernon", "slug": "vernon"}, "source_identifier": "36340", "external_references": [{"id": 43107, "source": {"name": "Wikidata", "slug": "wikidata"}, "source_identifier": "Q121091072"}], "date_modified": "2025-03-05T14:21:43.841555+11:00"}, {"id": 82263, "name": "Cai Xiangliang", "roles_in_work": [{"id": 2650620, "title": "Blossoming years = Dou kou nian hua", "work_id": 115747, "role": "cast", "role_id": 33, "is_primary": false}], "also_known_as": "", "date_of_birth": "", "date_of_death": "", "genders": [], "languages": [], "places_of_operation": [], "biography": "", "biography_author": null, "date_of_biography": "2023-05-09T13:03:52.798534+10:00", "external_links": [], "uuid": "299222c7-d1df-4c9a-b4b2-42681b806a2d", "source": {"name": "Vernon", "slug": "vernon"}, "source_identifier": "36339", "external_references": [{"id": 33039, "source": {"name": "Wikidata", "slug": "wikidata"}, "source_identifier": "Q121298981"}], "date_modified": "2025-03-05T14:21:43.256521+11:00"}, {"id": 82262, "name": "Miaomiao", "roles_in_work": [{"id": 2650619, "title": "Blossoming years = Dou kou nian hua", "work_id": 115747, "role": "cast", "role_id": 33, "is_primary": false}], "also_known_as": "", "date_of_birth": "", "date_of_death": "", "genders": [{"id": 5, "name": "Female", "slug": "female"}], "languages": [], "places_of_operation": [], "biography": "", "biography_author": null, "date_of_biography": "2023-05-09T13:03:52.566360+10:00", "external_links": [], "uuid": "752e2102-4ee5-44c0-932a-52a97da02609", "source": {"name": "Vernon", "slug": "vernon"}, "source_identifier": "36338", "external_references": [{"id": 42210, "source": {"name": "Wikidata", "slug": "wikidata"}, "source_identifier": "Q121337448"}], "date_modified": "2025-03-05T14:21:42.673427+11:00"}, {"id": 82261, "name": "Zhang Xi", "roles_in_work": [{"id": 2650765, "title": "A Fatherless village = Mei you ba ba de cun zhuang", "work_id": 115762, "role": "cast", "role_id": 33, "is_primary": false}, {"id": 2650618, "title": "Blossoming years = Dou kou nian hua", "work_id": 115747, "role": "cast", "role_id": 33, "is_primary": false}], "also_known_as": "", "date_of_birth": "", "date_of_death": "", "genders": [{"id": 5, "name": "Female", "slug": "female"}], "languages": [], "places_of_operation": [], "biography": "", "biography_author": null, "date_of_biography": "2023-05-09T13:03:52.315468+10:00", "external_links": [], "uuid": "d4f4fc24-e00d-43fd-9bdc-5f36437e7fcc", "source": {"name": "Vernon", "slug": "vernon"}, "source_identifier": "36337", "external_references": [{"id": 34318, "source": {"name": "Wikidata", "slug": "wikidata"}, "source_identifier": "Q121086156"}], "date_modified": "2025-03-05T14:23:14.103261+11:00"}, {"id": 82260, "name": "Wang Xiaoyong", "roles_in_work": [{"id": 2650617, "title": "Blossoming years = Dou kou nian hua", "work_id": 115747, "role": "music", "role_id": 949, "is_primary": false}], "also_known_as": "", "date_of_birth": "", "date_of_death": "", "genders": [], "languages": [], "places_of_operation": [], "biography": "", "biography_author": null, "date_of_biography": "2023-05-09T13:03:52.072426+10:00", "external_links": [], "uuid": "2c943b73-c161-4c52-8f80-e66608f9c7f9", "source": {"name": "Vernon", "slug": "vernon"}, "source_identifier": "36343", "external_references": [{"id": 51609, "source": {"name": "Wikidata", "slug": "wikidata"}, "source_identifier": "Q121360551"}], "date_modified": "2025-03-05T14:21:41.492994+11:00"}, {"id": 82259, "name": "Wu Yun", "roles_in_work": [{"id": 2650615, "title": "Blossoming years = Dou kou nian hua", "work_id": 115747, "role": "cinematographer", "role_id": 32, "is_primary": false}], "also_known_as": "", "date_of_birth": "", "date_of_death": "", "genders": [], "languages": [], "places_of_operation": [], "biography": "", "biography_author": null, "date_of_biography": "2023-05-09T13:03:51.474526+10:00", "external_links": [], "uuid": "755d7404-c9fe-43af-bec0-0003b0411969", "source": {"name": "Vernon", "slug": "vernon"}, "source_identifier": "36344", "external_references": [{"id": 38798, "source": {"name": "Wikidata", "slug": "wikidata"}, "source_identifier": "Q121036338"}], "date_modified": "2025-03-05T14:21:40.330648+11:00"}, {"id": 82258, "name": "Cheng Wei", "roles_in_work": [{"id": 2650614, "title": "Blossoming years = Dou kou nian hua", "work_id": 115747, "role": "script", "role_id": 962, "is_primary": false}], "also_known_as": "", "date_of_birth": "", "date_of_death": "", "genders": [], "languages": [], "places_of_operation": [], "biography": "", "biography_author": null, "date_of_biography": "2023-05-09T13:03:51.086603+10:00", "external_links": [], "uuid": "22d026ca-e998-4a38-9519-4a66ddf670f2", "source": {"name": "Vernon", "slug": "vernon"}, "source_identifier": "36335", "external_references": [], "date_modified": "2025-03-05T14:21:39.751235+11:00"}]}