{"count": 28687, "next": "https://api.acmi.net.au/creators/?page=1002", "previous": "https://api.acmi.net.au/creators/?page=1000", "results": [{"id": 75572, "name": "Barton Weiss", "roles_in_work": [{"id": 2357951, "title": "The Joycelin Shrager story", "work_id": 75220, "role": "co-director", "role_id": 959, "is_primary": true}], "also_known_as": "", "date_of_birth": "", "date_of_death": "", "genders": [], "languages": [], "places_of_operation": [], "biography": "", "biography_author": null, "date_of_biography": "2023-05-09T20:06:55.192641+10:00", "external_links": [], "uuid": "dcbfb8b4-2538-4514-9c45-6de154c64064", "source": {"name": "Vernon", "slug": "vernon"}, "source_identifier": "15751", "external_references": [{"id": 37586, "source": {"name": "Wikidata", "slug": "wikidata"}, "source_identifier": "Q121079332"}], "date_modified": "2023-09-06T10:19:20.828099+10:00"}, {"id": 75571, "name": "Mark Block", "roles_in_work": [{"id": 2357947, "title": "The Joycelin Shrager story", "work_id": 75220, "role": "co-director", "role_id": 959, "is_primary": true}], "also_known_as": "", "date_of_birth": "", "date_of_death": "", "genders": [], "languages": [], "places_of_operation": [], "biography": "", "biography_author": null, "date_of_biography": "2023-05-09T20:06:54.705327+10:00", "external_links": [], "uuid": "8b8a6e5a-0a30-4d01-b62e-5a15bf3eecda", "source": {"name": "Vernon", "slug": "vernon"}, "source_identifier": "24467", "external_references": [{"id": 40448, "source": {"name": "Wikidata", "slug": "wikidata"}, "source_identifier": "Q121036551"}], "date_modified": "2023-09-05T22:45:14.433842+10:00"}, {"id": 75570, "name": "Micheline Lanctot", "roles_in_work": [{"id": 2282385, "title": "Token gesture", "work_id": 75190, "role": "director", "role_id": 938, "is_primary": true}], "also_known_as": "", "date_of_birth": "", "date_of_death": "", "genders": [], "languages": [], "places_of_operation": [], "biography": "", "biography_author": null, "date_of_biography": "2023-05-09T18:02:40.334786+10:00", "external_links": [], "uuid": "aee4fd11-85b5-41be-b784-3a03dd7df36a", "source": {"name": "Vernon", "slug": "vernon"}, "source_identifier": "25306", "external_references": [], "date_modified": "2023-06-14T16:33:30.576250+10:00"}, {"id": 75569, "name": "Mallica Vanarathon", "roles_in_work": [{"id": 2065366, "title": "A Book for every child", "work_id": 75186, "role": "co-producer", "role_id": 915, "is_primary": true}], "also_known_as": "", "date_of_birth": "", "date_of_death": "", "genders": [], "languages": [], "places_of_operation": [], "biography": "", "biography_author": null, "date_of_biography": "2023-05-09T11:22:12.551212+10:00", "external_links": [], "uuid": "b47f1e3f-7837-449a-8281-8d9180ae315b", "source": {"name": "Vernon", "slug": "vernon"}, "source_identifier": "24240", "external_references": [{"id": 42907, "source": {"name": "Wikidata", "slug": "wikidata"}, "source_identifier": "Q121299374"}], "date_modified": "2023-09-05T22:37:58.964436+10:00"}, {"id": 75568, "name": "Alastair Matheson", "roles_in_work": [{"id": 2310167, "title": "Starting from scratch", "work_id": 88993, "role": "co-producer", "role_id": 915, "is_primary": true}, {"id": 2065364, "title": "A Book for every child", "work_id": 75186, "role": "co-producer", "role_id": 915, "is_primary": true}], "also_known_as": "", "date_of_birth": "", "date_of_death": "", "genders": [], "languages": [], "places_of_operation": [], "biography": "", "biography_author": null, "date_of_biography": "2023-05-09T18:52:00.026480+10:00", "external_links": [], "uuid": "bd5911c0-2104-4a66-9672-4465964f9b00", "source": {"name": "Vernon", "slug": "vernon"}, "source_identifier": "14824", "external_references": [{"id": 39063, "source": {"name": "Wikidata", "slug": "wikidata"}, "source_identifier": "Q121222563"}], "date_modified": "2023-09-05T17:21:49.475374+10:00"}, {"id": 75567, "name": "Rene Jordan", "roles_in_work": [{"id": 1820021, "title": "Hunger = La Faim", "work_id": 75177, "role": "producer", "role_id": 1089, "is_primary": true}], "also_known_as": "", "date_of_birth": null, "date_of_death": null, "genders": [], "languages": [], "places_of_operation": [], "biography": "", "biography_author": null, "date_of_biography": null, "external_links": [], "uuid": "2dd00a3b-4d2d-4468-b4e8-de07b4ad14a1", "source": {"name": "Vernon", "slug": "vernon"}, "source_identifier": null, "external_references": [{"id": 38669, "source": {"name": "Wikidata", "slug": "wikidata"}, "source_identifier": "Q121091292"}], "date_modified": "2023-09-06T00:25:32.862011+10:00"}, {"id": 75566, "name": "Jack Joynes", "roles_in_work": [{"id": 2341486, "title": "The Creative stitch", "work_id": 75169, "role": "producer/director", "role_id": 31, "is_primary": true}], "also_known_as": "", "date_of_birth": "", "date_of_death": "", "genders": [], "languages": [], "places_of_operation": [], "biography": "", "biography_author": null, "date_of_biography": "2023-05-09T19:40:16.233429+10:00", "external_links": [], "uuid": "33202b8f-5538-4b2f-bd7e-3095ba63e239", "source": {"name": "Vernon", "slug": "vernon"}, "source_identifier": "21061", "external_references": [{"id": 51602, "source": {"name": "Wikidata", "slug": "wikidata"}, "source_identifier": "Q121361043"}], "date_modified": "2023-09-05T20:55:49.839599+10:00"}, {"id": 75565, "name": "Tony Ryan", "roles_in_work": [{"id": 2220037, "title": "Erte", "work_id": 75164, "role": "co-producer", "role_id": 915, "is_primary": true}], "also_known_as": "", "date_of_birth": "", "date_of_death": "", "genders": [], "languages": [], "places_of_operation": [], "biography": "", "biography_author": null, "date_of_biography": "2023-05-09T16:15:17.478326+10:00", "external_links": [], "uuid": "49cb8512-7f37-49c9-9628-0573002dbdd3", "source": {"name": "Vernon", "slug": "vernon"}, "source_identifier": "4228", "external_references": [], "date_modified": "2023-06-14T16:33:30.576250+10:00"}, {"id": 75564, "name": "Esdras Giddy", "roles_in_work": [{"id": 758828, "title": "Where dead men lie", "work_id": 75163, "role": "sound", "role_id": 952, "is_primary": false}], "also_known_as": "", "date_of_birth": null, "date_of_death": null, "genders": [], "languages": [], "places_of_operation": [], "biography": "", "biography_author": null, "date_of_biography": null, "external_links": [], "uuid": "b2317883-63e9-4073-bbd5-2231f989a3f2", "source": {"name": "Vernon", "slug": "vernon"}, "source_identifier": null, "external_references": [], "date_modified": "2023-06-14T16:33:30.576250+10:00"}, {"id": 75563, "name": "Susan Hannaford", "roles_in_work": [{"id": 2392380, "title": "Travellin' round", "work_id": 75161, "role": "cast", "role_id": 33, "is_primary": false}], "also_known_as": "", "date_of_birth": "", "date_of_death": "", "genders": [], "languages": [], "places_of_operation": [], "biography": "", "biography_author": null, "date_of_biography": "2023-08-09T03:55:49.877424+10:00", "external_links": [], "uuid": "c080a4c8-ba0f-4c1a-9921-48fc14fb123c", "source": {"name": "Vernon", "slug": "vernon"}, "source_identifier": "33893", "external_references": [{"id": 36335, "source": {"name": "Wikidata", "slug": "wikidata"}, "source_identifier": "Q121299017"}], "date_modified": "2023-09-06T01:36:41.424921+10:00"}]}