{"count": 28687, "next": "https://api.acmi.net.au/creators/?page=1868", "previous": "https://api.acmi.net.au/creators/?page=1866", "results": [{"id": 25121, "name": "Eric Rohmer", "roles_in_work": [{"id": 2785792, "title": "The Collector girl = La Collectionneuse", "work_id": 83016, "role": "director", "role_id": 938, "is_primary": true}, {"id": 2785798, "title": "Six contes moraux = Six moral tales", "work_id": 115305, "role": "director", "role_id": 938, "is_primary": true}, {"id": 2614068, "title": "A Tale of springtime = Conte de printemps", "work_id": 83109, "role": "director", "role_id": 938, "is_primary": true}, {"id": 2614371, "title": "The Marquise of O... = Die Marquise von O...", "work_id": 83586, "role": "director", "role_id": 938, "is_primary": true}, {"id": 2650266, "title": "Six in Paris = Paris vu par ...", "work_id": 83029, "role": "director", "role_id": 938, "is_primary": true}, {"id": 2785723, "title": "Full moon in Paris = Les Nuits de la pleine lune", "work_id": 83012, "role": "director", "role_id": 938, "is_primary": true}, {"id": 2785737, "title": "The Aviator's wife = La Femme de l'Aviateur ou On ne saurait penser a rien = One can't think of nothing", "work_id": 83018, "role": "director", "role_id": 938, "is_primary": true}, {"id": 2785752, "title": "Le Beau mariage = A Good marriage", "work_id": 83017, "role": "director", "role_id": 938, "is_primary": true}, {"id": 2785764, "title": "Pauline at the beach = Pauline a la plage", "work_id": 83027, "role": "director", "role_id": 938, "is_primary": true}, {"id": 2785775, "title": "Boyfriends and girlfriends = L'Ami de mon amie", "work_id": 83011, "role": "director", "role_id": 938, "is_primary": true}, {"id": 2785780, "title": "Comedies et proverbes", "work_id": 115311, "role": "director", "role_id": 938, "is_primary": true}, {"id": 2785781, "title": "My night with Maud = ma nuit chez Maud", "work_id": 87461, "role": "director", "role_id": 938, "is_primary": true}, {"id": 2322127, "title": "A Winter's tale = Conte d'hiver", "work_id": 89866, "role": "director", "role_id": 938, "is_primary": true}, {"id": 2322115, "title": "A Summer's tale = Conte d'ete", "work_id": 88767, "role": "director", "role_id": 938, "is_primary": true}, {"id": 2322090, "title": "Autumn tale = Conte d'Automne", "work_id": 89725, "role": "director", "role_id": 938, "is_primary": true}, {"id": 3104369, "title": "Le Signe du Lion = the Sign of Leo", "work_id": 115883, "role": "director", "role_id": 938, "is_primary": true}, {"id": 3104419, "title": "La Collectionneuse = the Collector Girl", "work_id": 115905, "role": "director", "role_id": 938, "is_primary": true}, {"id": 3104458, "title": "Ma Nuit Chez Maud = My Night with Maud", "work_id": 115922, "role": "director", "role_id": 938, "is_primary": true}, {"id": 3104655, "title": "Pauline a la Plage = Pauline at the Beach", "work_id": 116018, "role": "director", "role_id": 938, "is_primary": true}, {"id": 3104953, "title": "Le Rayon Vert = the Green Ray", "work_id": 116165, "role": "director", "role_id": 938, "is_primary": true}, {"id": 3104956, "title": "La Carriere de Suzanne = Suzanne's Career", "work_id": 116167, "role": "director", "role_id": 938, "is_primary": true}, {"id": 3105164, "title": "4 aventures de Reinette et Mirabelle = 4 adventures of Reinette and Mirabelle", "work_id": 116277, "role": "director", "role_id": 938, "is_primary": true}, {"id": 2322060, "title": "Tales of the four seasons = Contes des quatre saisons", "work_id": 115318, "role": "director", "role_id": 938, "is_primary": true}], "also_known_as": "Maurice Henri Joseph Schérer", "date_of_birth": "1920-03-21", "date_of_death": "2010-01-11", "genders": [{"id": 9, "name": "Male", "slug": "male"}], "languages": [{"id": 4, "name": "French", "slug": "french"}, {"id": 5, "name": "German", "slug": "german"}], "places_of_operation": [{"id": 17, "name": "France", "slug": "france"}], "biography": "Jean Marie Maurice Schérer or Maurice Henri Joseph Schérer, known as Éric Rohmer (French: [eʁik ʁomɛʁ]; 21 March 1920 – 11 January 2010), was a French film director, film critic, journalist, novelist, screenwriter, and teacher.\nRohmer was the last of the post-World War II French New Wave directors to become established. He edited the influential film journal Cahiers du cinéma from 1957 to 1963, while most of his colleagues—among them Jean-Luc Godard and François Truffaut—were making the transition from critics to filmmakers and gaining international attention.\nRohmer gained international acclaim around 1969 when his film My Night at Maud's was nominated at the Academy Awards. He won the San Sebastián International Film Festival with Claire's Knee in 1971 and the Golden Lion at the Venice Film Festival for The Green Ray in 1986. Rohmer went on to receive the Venice Film Festival's Career Golden Lion in 2001.\nAfter Rohmer's death in 2010, his obituary in The Daily Telegraph described him as \"the most durable filmmaker of the French New Wave\", outlasting his peers and \"still making movies the public wanted to see\" late in his career.", "biography_author": "Wikidata", "date_of_biography": "2022-05-19T11:24:55.835076+10:00", "external_links": [{"id": 2009, "uri": "https://en.wikipedia.org/wiki/%C3%89ric_Rohmer"}], "uuid": "9330b557-37fb-4e3a-b943-2616eec9a6a8", "source": {"name": "Vernon", "slug": "vernon"}, "source_identifier": "18834", "external_references": [{"id": 8685, "source": {"name": "Wikidata", "slug": "wikidata"}, "source_identifier": "Q50764"}, {"id": 8686, "source": {"name": "VIAF", "slug": "viaf"}, "source_identifier": "56615643"}, {"id": 8687, "source": {"name": "LOC Auth", "slug": "loc-auth"}, "source_identifier": "n79124606"}, {"id": 8688, "source": {"name": "WorldCat", "slug": "worldcat"}, "source_identifier": "lccn-n79124606"}], "date_modified": "2025-05-22T22:57:15.997125+10:00"}, {"id": 25120, "name": "Sofica Investimage", "roles_in_work": [{"id": 2785771, "title": "Boyfriends and girlfriends = L'Ami de mon amie", "work_id": 83011, "role": "production company", "role_id": 941, "is_primary": true}], "also_known_as": "", "date_of_birth": "", "date_of_death": "", "genders": [], "languages": [], "places_of_operation": [], "biography": "", "biography_author": null, "date_of_biography": "2023-05-09T19:23:14.034311+10:00", "external_links": [], "uuid": "2cc8caef-8db5-4e75-98a3-6b656eb16db8", "source": {"name": "Vernon", "slug": "vernon"}, "source_identifier": "12708", "external_references": [{"id": 36295, "source": {"name": "Wikidata", "slug": "wikidata"}, "source_identifier": "Q121035940"}], "date_modified": "2025-03-14T19:25:48.734971+11:00"}, {"id": 25106, "name": "Cinefort", "roles_in_work": [{"id": 2786896, "title": "Making perfect babies", "work_id": 82986, "role": "production company", "role_id": 941, "is_primary": true}, {"id": 2786889, "title": "On the eighth day: perfecting Mother Nature", "work_id": 115326, "role": "production company", "role_id": 941, "is_primary": true}, {"id": 2786890, "title": "Making babies", "work_id": 82985, "role": "production company", "role_id": 941, "is_primary": true}], "also_known_as": "", "date_of_birth": "", "date_of_death": "", "genders": [], "languages": [], "places_of_operation": [], "biography": "", "biography_author": null, "date_of_biography": "2023-05-09T14:00:27.297142+10:00", "external_links": [], "uuid": "a1eb7cbe-8743-42d7-b311-174e7218a2dc", "source": {"name": "Vernon", "slug": "vernon"}, "source_identifier": "6683", "external_references": [{"id": 33170, "source": {"name": "Wikidata", "slug": "wikidata"}, "source_identifier": "Q121035122"}], "date_modified": "2025-03-14T19:35:46.620565+11:00"}, {"id": 25098, "name": "Pat Phillips", "roles_in_work": [{"id": 2102847, "title": "Asthma", "work_id": 82975, "role": "director", "role_id": 938, "is_primary": true}], "also_known_as": "", "date_of_birth": "", "date_of_death": "", "genders": [], "languages": [], "places_of_operation": [], "biography": "", "biography_author": null, "date_of_biography": "2023-05-09T12:33:59.372016+10:00", "external_links": [], "uuid": "a95e5e83-20f8-4434-9b5c-579064f9dbbc", "source": {"name": "Vernon", "slug": "vernon"}, "source_identifier": "26082", "external_references": [{"id": 41109, "source": {"name": "Wikidata", "slug": "wikidata"}, "source_identifier": "Q121271136"}], "date_modified": "2023-09-05T23:41:48.514422+10:00"}, {"id": 25097, "name": "Marie Meyrick", "roles_in_work": [{"id": 2102842, "title": "Asthma", "work_id": 82975, "role": "producer", "role_id": 1089, "is_primary": true}], "also_known_as": "", "date_of_birth": "", "date_of_death": "", "genders": [], "languages": [], "places_of_operation": [], "biography": "", "biography_author": null, "date_of_biography": "2023-05-09T12:33:59.135869+10:00", "external_links": [], "uuid": "0ad1df61-1cd2-4187-94da-ca1ca71dc659", "source": {"name": "Vernon", "slug": "vernon"}, "source_identifier": "24410", "external_references": [{"id": 36770, "source": {"name": "Wikidata", "slug": "wikidata"}, "source_identifier": "Q121057904"}], "date_modified": "2023-09-05T22:42:46.590948+10:00"}, {"id": 25096, "name": "British Medical Television", "roles_in_work": [{"id": 2102838, "title": "Asthma", "work_id": 82975, "role": "production company", "role_id": 941, "is_primary": true}], "also_known_as": "", "date_of_birth": "", "date_of_death": "", "genders": [], "languages": [], "places_of_operation": [], "biography": "", "biography_author": null, "date_of_biography": "2023-05-09T12:33:58.866584+10:00", "external_links": [], "uuid": "2d2ecbdb-30d2-44e8-a3cb-476d83903f2a", "source": {"name": "Vernon", "slug": "vernon"}, "source_identifier": "6034", "external_references": [{"id": 36650, "source": {"name": "Wikidata", "slug": "wikidata"}, "source_identifier": "Q121270658"}], "date_modified": "2023-09-05T18:11:46.387137+10:00"}, {"id": 25094, "name": "Graham Chedd", "roles_in_work": [{"id": 2786439, "title": "The Sword and the cross", "work_id": 82967, "role": "co-director", "role_id": 959, "is_primary": true}, {"id": 908237, "title": "1919: lost peace: 1930: sporting fever: 1924: on the line: 1927: great escape", "work_id": 88688, "role": "co-producer", "role_id": 915, "is_primary": true}, {"id": 2786438, "title": "The Sword and the cross", "work_id": 82967, "role": "producer", "role_id": 1089, "is_primary": true}, {"id": 2786443, "title": "The Columbian exchange", "work_id": 82968, "role": "producer/director", "role_id": 31, "is_primary": true}, {"id": 2786446, "title": "In search of Columbus", "work_id": 82969, "role": "producer/director", "role_id": 31, "is_primary": true}], "also_known_as": "", "date_of_birth": "", "date_of_death": "", "genders": [], "languages": [], "places_of_operation": [], "biography": "", "biography_author": null, "date_of_biography": "2023-05-09T19:40:40.603114+10:00", "external_links": [], "uuid": "fe20e80a-8676-4f0c-9c0d-9238719b3a94", "source": {"name": "Vernon", "slug": "vernon"}, "source_identifier": "19989", "external_references": [{"id": 40479, "source": {"name": "Wikidata", "slug": "wikidata"}, "source_identifier": "Q121079296"}], "date_modified": "2025-03-14T19:31:48.079232+11:00"}, {"id": 25092, "name": "Zvi Dor-Ner", "roles_in_work": [{"id": 2786434, "title": "Worlds found and lost", "work_id": 82966, "role": "co-director", "role_id": 959, "is_primary": true}, {"id": 2786429, "title": "The Crossing", "work_id": 82965, "role": "co-director", "role_id": 959, "is_primary": true}, {"id": 2786428, "title": "The Crossing", "work_id": 82965, "role": "producer", "role_id": 1089, "is_primary": true}, {"id": 2786433, "title": "Worlds found and lost", "work_id": 82966, "role": "producer", "role_id": 1089, "is_primary": true}], "also_known_as": "", "date_of_birth": "", "date_of_death": "", "genders": [], "languages": [], "places_of_operation": [], "biography": "", "biography_author": null, "date_of_biography": "2023-05-09T19:40:37.124491+10:00", "external_links": [], "uuid": "ecf9098e-5786-4a86-8302-1b408177757f", "source": {"name": "Vernon", "slug": "vernon"}, "source_identifier": "30700", "external_references": [{"id": 43550, "source": {"name": "Wikidata", "slug": "wikidata"}, "source_identifier": "Q121159763"}], "date_modified": "2025-03-14T19:31:40.268381+11:00"}, {"id": 25091, "name": "Thomas Friedman", "roles_in_work": [{"id": 2751882, "title": "One man's multinational", "work_id": 98030, "role": "co-producer", "role_id": 915, "is_primary": true}, {"id": 2786448, "title": "Columbus and the age of discovery", "work_id": 115319, "role": "producer", "role_id": 1089, "is_primary": true}, {"id": 2786418, "title": "Columbus' world", "work_id": 82963, "role": "producer", "role_id": 1089, "is_primary": true}, {"id": 2786422, "title": "An Idea takes shape", "work_id": 82964, "role": "producer", "role_id": 1089, "is_primary": true}], "also_known_as": "", "date_of_birth": "", "date_of_death": "", "genders": [], "languages": [], "places_of_operation": [], "biography": "", "biography_author": null, "date_of_biography": "2023-05-09T19:40:38.481397+10:00", "external_links": [], "uuid": "5deaa310-6daf-4b85-9bab-e1dfc7ffa8c0", "source": {"name": "Vernon", "slug": "vernon"}, "source_identifier": "29680", "external_references": [{"id": 42923, "source": {"name": "Wikidata", "slug": "wikidata"}, "source_identifier": "Q121223346"}], "date_modified": "2025-03-14T19:31:50.044505+11:00"}, {"id": 25087, "name": "Carol Stowe", "roles_in_work": [{"id": 2308737, "title": "Staking a claim", "work_id": 82959, "role": "director", "role_id": 938, "is_primary": true}, {"id": 2650211, "title": "The Writing on the screen", "work_id": 82962, "role": "director", "role_id": 938, "is_primary": true}, {"id": 2308704, "title": "Pictures of the invisible", "work_id": 82961, "role": "co-director", "role_id": 959, "is_primary": true}, {"id": 2308781, "title": "Heaven and earth", "work_id": 82957, "role": "co-director", "role_id": 959, "is_primary": true}, {"id": 2308864, "title": "Empire", "work_id": 82960, "role": "co-director", "role_id": 959, "is_primary": true}, {"id": 2308833, "title": "Secrets of the sea", "work_id": 82958, "role": "co-director", "role_id": 959, "is_primary": true}, {"id": 2308666, "title": "The Shape of the world", "work_id": 115308, "role": "director", "role_id": 938, "is_primary": true}], "also_known_as": "", "date_of_birth": "", "date_of_death": "", "genders": [], "languages": [], "places_of_operation": [], "biography": "", "biography_author": null, "date_of_biography": "2023-05-09T18:49:08.504151+10:00", "external_links": [], "uuid": "397252c6-5417-4fe7-a135-104dec93398a", "source": {"name": "Vernon", "slug": "vernon"}, "source_identifier": "3833", "external_references": [{"id": 33505, "source": {"name": "Wikidata", "slug": "wikidata"}, "source_identifier": "Q121126936"}], "date_modified": "2025-03-05T14:11:32.092362+11:00"}]}