{"count": 28687, "next": "https://api.acmi.net.au/creators/?page=3", "previous": "https://api.acmi.net.au/creators/?page=1", "results": [{"id": 89195, "name": "Keystone Pictures", "roles_in_work": [{"id": 3110420, "title": "GRAPHIC: Evonne Goolagong competes in Ladies Singles Final at Wimbledon 1975", "work_id": 125479, "role": "", "role_id": 604, "is_primary": false}], "also_known_as": "", "date_of_birth": null, "date_of_death": null, "genders": [], "languages": [], "places_of_operation": [], "biography": "", "biography_author": null, "date_of_biography": null, "external_links": [], "uuid": "383cf70a-b130-4195-875d-4dadcf5d9441", "source": {"name": "Vernon", "slug": "vernon"}, "source_identifier": "41704", "external_references": [], "date_modified": "2026-02-02T12:35:15.556172+11:00"}, {"id": 89194, "name": "Hubert van Eyck", "roles_in_work": [{"id": 3109719, "title": "GRAPHIC: Reference Image The Adoration of the Mystic Lamb panel, part of the Ghent Altarpiece", "work_id": 125475, "role": "artist", "role_id": 505, "is_primary": true}], "also_known_as": "", "date_of_birth": "1370", "date_of_death": "1426", "genders": [], "languages": [], "places_of_operation": [], "biography": "", "biography_author": null, "date_of_biography": null, "external_links": [], "uuid": "fc5bee56-8103-4003-893e-7c2898b71426", "source": {"name": "Vernon", "slug": "vernon"}, "source_identifier": "41707", "external_references": [], "date_modified": "2025-12-01T12:01:17.474832+11:00"}, {"id": 89193, "name": "Jan van Eyck", "roles_in_work": [{"id": 3109718, "title": "GRAPHIC: Reference Image The Adoration of the Mystic Lamb panel, part of the Ghent Altarpiece", "work_id": 125475, "role": "artist", "role_id": 505, "is_primary": true}], "also_known_as": "", "date_of_birth": "Pre 1390", "date_of_death": "09 JUL 1441", "genders": [], "languages": [], "places_of_operation": [], "biography": "", "biography_author": null, "date_of_biography": null, "external_links": [], "uuid": "f6b906db-c957-4345-9df6-7214cfa69c11", "source": {"name": "Vernon", "slug": "vernon"}, "source_identifier": "41547", "external_references": [], "date_modified": "2025-12-01T12:01:16.739185+11:00"}, {"id": 89192, "name": "Playtech", "roles_in_work": [{"id": 3109500, "title": "Telesport TV Pong console", "work_id": 125451, "role": "manufacturer", "role_id": 627, "is_primary": true}], "also_known_as": "", "date_of_birth": null, "date_of_death": null, "genders": [], "languages": [], "places_of_operation": [], "biography": "", "biography_author": null, "date_of_biography": null, "external_links": [], "uuid": "432d5264-081a-4340-b198-bf269a203597", "source": {"name": "Vernon", "slug": "vernon"}, "source_identifier": "41672", "external_references": [], "date_modified": "2025-11-28T18:37:58.968171+11:00"}, {"id": 89191, "name": "Paddy Neowarra", "roles_in_work": [{"id": 3109387, "title": "ngarinyin pathways dulwan", "work_id": 107924, "role": "", "role_id": 604, "is_primary": false}], "also_known_as": "", "date_of_birth": null, "date_of_death": null, "genders": [], "languages": [], "places_of_operation": [], "biography": "", "biography_author": null, "date_of_biography": null, "external_links": [], "uuid": "eff7ca7a-16e1-4034-ae18-e294ee54eaf4", "source": {"name": "Vernon", "slug": "vernon"}, "source_identifier": "41679", "external_references": [], "date_modified": "2025-11-28T18:35:13.691149+11:00"}, {"id": 89190, "name": "Paddy Wamma", "roles_in_work": [{"id": 3109386, "title": "ngarinyin pathways dulwan", "work_id": 107924, "role": "", "role_id": 604, "is_primary": false}], "also_known_as": "", "date_of_birth": null, "date_of_death": null, "genders": [], "languages": [], "places_of_operation": [], "biography": "", "biography_author": null, "date_of_biography": null, "external_links": [], "uuid": "6ab79e72-2a74-4dea-a28a-ce5a2e7388aa", "source": {"name": "Vernon", "slug": "vernon"}, "source_identifier": "41678", "external_references": [], "date_modified": "2025-11-28T18:35:12.802507+11:00"}, {"id": 89189, "name": "David Mowaljarli", "roles_in_work": [{"id": 3109385, "title": "ngarinyin pathways dulwan", "work_id": 107924, "role": "", "role_id": 604, "is_primary": false}], "also_known_as": "", "date_of_birth": null, "date_of_death": null, "genders": [], "languages": [], "places_of_operation": [], "biography": "", "biography_author": null, "date_of_biography": null, "external_links": [], "uuid": "24e1b92a-9c98-4da4-93ae-50a66dfefc2a", "source": {"name": "Vernon", "slug": "vernon"}, "source_identifier": "41677", "external_references": [], "date_modified": "2025-11-28T18:35:11.991121+11:00"}, {"id": 89188, "name": "Laurie Gawanali", "roles_in_work": [{"id": 3109384, "title": "ngarinyin pathways dulwan", "work_id": 107924, "role": "", "role_id": 604, "is_primary": false}], "also_known_as": "", "date_of_birth": "Circa 1916", "date_of_death": "AUG 2000", "genders": [], "languages": [], "places_of_operation": [], "biography": "", "biography_author": null, "date_of_biography": null, "external_links": [], "uuid": "79514488-b969-445e-8d78-0a5ba2e438c6", "source": {"name": "Vernon", "slug": "vernon"}, "source_identifier": "41676", "external_references": [], "date_modified": "2025-11-28T18:35:11.081741+11:00"}, {"id": 89090, "name": "Future Pictures", "roles_in_work": [{"id": 3109525, "title": "Night Owls host area studio set construction and dressing", "work_id": 125456, "role": "", "role_id": 604, "is_primary": false}, {"id": 3109526, "title": "Night Owls band area studio set construction and dressing", "work_id": 125457, "role": "", "role_id": 604, "is_primary": false}, {"id": 3109516, "title": "Studio Set Design in Late Night with the Devil", "work_id": 125420, "role": "production company", "role_id": 941, "is_primary": true}], "also_known_as": "", "date_of_birth": null, "date_of_death": null, "genders": [], "languages": [], "places_of_operation": [], "biography": "", "biography_author": null, "date_of_biography": null, "external_links": [], "uuid": "5a2076f5-d364-4311-88dc-31e462faab04", "source": {"name": "Vernon", "slug": "vernon"}, "source_identifier": "41637", "external_references": [], "date_modified": "2025-11-28T18:38:45.158680+11:00"}, {"id": 89089, "name": "Otello Stolfo", "roles_in_work": [{"id": 3109519, "title": "Concept development art for Night Owls Logo in Late Night with the Devil Studio Set Design ", "work_id": 125424, "role": "production designer", "role_id": 966, "is_primary": true}, {"id": 3109520, "title": "Concept development art for Night Owls Logo in Late Night with the Devil Studio Set Design ", "work_id": 125425, "role": "production designer", "role_id": 966, "is_primary": true}, {"id": 3109504, "title": "Architectural Model of Late Night with the Devil Set Design Final Concept", "work_id": 125421, "role": "production designer", "role_id": 966, "is_primary": true}, {"id": 3109522, "title": "Elevations of Set Panel Details for Late Night with the Devil Studio Set Design ", "work_id": 125427, "role": "production designer", "role_id": 966, "is_primary": true}, {"id": 3109523, "title": "Detail of Set Dressing for Late Night with the Devil Studio Set Design ", "work_id": 125426, "role": "production designer", "role_id": 966, "is_primary": true}, {"id": 3109524, "title": "Floor Plan of Late Night with the Devil studio set ", "work_id": 125430, "role": "production designer", "role_id": 966, "is_primary": true}, {"id": 3109521, "title": "Panel Elevation Detail for Late Night with the Devil Studio Set Design ", "work_id": 125431, "role": "production designer", "role_id": 966, "is_primary": true}, {"id": 3109505, "title": "Architectural Model of Late Night with the Devil Set Design First Concept", "work_id": 125422, "role": "production designer", "role_id": 966, "is_primary": true}, {"id": 3109506, "title": "First Concept Sketch of Late Night with the Devil Studio Set Design", "work_id": 125423, "role": "production designer", "role_id": 966, "is_primary": true}, {"id": 3109515, "title": "Studio Set Design in Late Night with the Devil", "work_id": 125420, "role": "production designer", "role_id": 966, "is_primary": true}, {"id": 3109517, "title": "First Concept Colour Sketch of Studio Set Design ", "work_id": 125428, "role": "production designer", "role_id": 966, "is_primary": true}, {"id": 3109518, "title": "First Concept Floorplan of Studio Set Design ", "work_id": 125429, "role": "production designer", "role_id": 966, "is_primary": true}], "also_known_as": "", "date_of_birth": null, "date_of_death": null, "genders": [], "languages": [], "places_of_operation": [], "biography": "", "biography_author": null, "date_of_biography": null, "external_links": [], "uuid": "1e212219-0ea9-49b3-bbdc-0596db199325", "source": {"name": "Vernon", "slug": "vernon"}, "source_identifier": "41636", "external_references": [], "date_modified": "2025-11-28T18:38:31.521401+11:00"}]}