{"count": 28687, "next": "https://api.acmi.net.au/creators/?page=966", "previous": "https://api.acmi.net.au/creators/?page=964", "results": [{"id": 75932, "name": "National Centre for Industrial Language Training", "roles_in_work": [{"id": 2148664, "title": "Crosstalk (TEFC)", "work_id": 77322, "role": "production company", "role_id": 941, "is_primary": true}], "also_known_as": "", "date_of_birth": "", "date_of_death": "", "genders": [], "languages": [], "places_of_operation": [], "biography": "", "biography_author": null, "date_of_biography": "2023-05-09T13:49:19.742056+10:00", "external_links": [], "uuid": "2c612a66-c4c0-4871-b2d7-59adc347aa72", "source": {"name": "Vernon", "slug": "vernon"}, "source_identifier": "10782", "external_references": [{"id": 38207, "source": {"name": "Wikidata", "slug": "wikidata"}, "source_identifier": "Q121036004"}], "date_modified": "2023-09-05T23:25:37.642644+10:00"}, {"id": 75931, "name": "Anthony Perkins", "roles_in_work": [{"id": 2232007, "title": "Psycho (TEFC)", "work_id": 77320, "role": "cast", "role_id": 33, "is_primary": false}, {"id": 2151574, "title": "On the beach", "work_id": 84979, "role": "cast", "role_id": 33, "is_primary": false}, {"id": 2232000, "title": "Psycho (1960) [DVD]", "work_id": 91453, "role": "cast", "role_id": 33, "is_primary": false}], "also_known_as": "", "date_of_birth": "1932-04-04", "date_of_death": "1992-09-12", "genders": [{"id": 9, "name": "Male", "slug": "male"}], "languages": [{"id": 1, "name": "English", "slug": "english"}], "places_of_operation": [{"id": 1, "name": "United States of America", "slug": "united-states-of-america"}], "biography": "Anthony Perkins (April 4, 1932 – September 12, 1992) was an American actor, director, and singer. Perkins played the role of Norman Bates in Alfred Hitchcock's suspense thriller Psycho, which made him an influential figure in pop culture and in horror films.\nBorn in New York City, Perkins got his start as an adolescent in summer stock programs, although he acted in films before he set foot on a Broadway stage. His first film, The Actress, costarring Spencer Tracy and Jean Simmons and directed by George Cukor, was a disappointment save for an Oscar nod for its costumes, and Perkins returned to the boards instead. He made his Broadway debut in the Elia Kazan-directed Tea and Sympathy where he played Tom Lee, a \"sissy\" cured by the right woman. He was praised for the role, and after it closed, he turned to Hollywood once more, starring in Friendly Persuasion (1956) with Gary Cooper and Dorothy McGuire, which earned him the Golden Globe Award for Best New Actor of the Year and a nomination for the Academy Award for Best Supporting Actor. Rushes of the film led to Perkins landing a seven-year, semi-exclusive contract with Paramount Pictures. He was their last matinee idol.\nPerkins went on to appear in Fear Strikes Out the following year. Paramount was concerned with heterosexualizing Perkins's image, which led to a string of romantic roles alongside Audrey Hepburn, Sophia Loren, and Shirley MacLaine. He was able to score the occasional serious role in the Broadway play Look Homeward, Angel (for which he was nominated for a Tony Award) and the 1959 film On the Beach with Gregory Peck, Fred Astaire, and Ava Gardner. Although he was once again cast as a romantic lead in Jane Fonda's film debut, Tall Story, he was shortly thereafter cast as Norman Bates in Alfred Hitchcock's Psycho (1960), which established him as a horror icon and garnered him a Bambi Award nomination for Best Actor, as well as both a Best Actor nomination and a win from the International Board of Motion Picture Reviewers. His  work in the 1960 horror-thriller also led to his being typecast, and in order to escape the same villainous roles, Perkins bought himself out of his Paramount contract and moved to France, where he debuted in European film with Goodbye Again (1961). The film earned him a Best Actor Bravo Otto nomination, a second career Bambi nomination, as well as his winning the Cannes Film Festival Award for Best Actor and a Best Actor David di Donatello award.\nAfter European films featuring Sophia Loren, Orson Welles, Melina Mercouri, and Brigitte Bardot, Perkins returned to America in 1968 with his first American film after an eight-year absence, Pretty Poison. He costarred with Tuesday Weld. In the film's wake, he starred in commercially and critically successful films, such as Catch-22 (1970), Play It as It Lays (1972), Murder on the Orient Express (1974), and Mahogany (1975). During this time, Perkins went through conversion therapy and married Berry Berenson in 1973. He reprised his role as Norman Bates in Psycho II (1983), Psycho III (1986) and Psycho IV: The Beginning (1990). His turn in the 1986 entry of the anthology earned Perkins a Saturn Award nomination for Best Actor. Additionally, he was involved in numerous television excursions. His last film, In the Deep Woods, was a television film broadcast a month after his death in September 1992 from AIDS-related causes.", "biography_author": "Wikidata", "date_of_biography": "2023-09-05T17:41:53.485567+10:00", "external_links": [{"id": 5684, "uri": "https://en.wikipedia.org/wiki/Anthony_Perkins"}], "uuid": "c46a30a0-0a06-4cfa-b291-59fc75a78af4", "source": {"name": "Vernon", "slug": "vernon"}, "source_identifier": "35334", "external_references": [{"id": 33889, "source": {"name": "Wikidata", "slug": "wikidata"}, "source_identifier": "Q193146"}, {"id": 53972, "source": {"name": "VIAF", "slug": "viaf"}, "source_identifier": "117496191"}, {"id": 53973, "source": {"name": "LOC Auth", "slug": "loc-auth"}, "source_identifier": "n90704435"}, {"id": 53974, "source": {"name": "WorldCat", "slug": "worldcat"}, "source_identifier": "lccn-n90704435"}], "date_modified": "2023-09-05T17:41:56.375734+10:00"}, {"id": 75930, "name": "Carlos Marchiori", "roles_in_work": [{"id": 2344621, "title": "The Drag", "work_id": 77319, "role": "director", "role_id": 938, "is_primary": true}], "also_known_as": "", "date_of_birth": "1937-01-01", "date_of_death": "", "genders": [{"id": 9, "name": "Male", "slug": "male"}], "languages": [], "places_of_operation": [{"id": 19, "name": "Italy", "slug": "italy"}], "biography": "", "biography_author": null, "date_of_biography": "2023-05-09T19:44:59.416998+10:00", "external_links": [], "uuid": "9601b2cf-bf3b-441f-a018-c0082c93c232", "source": {"name": "Vernon", "slug": "vernon"}, "source_identifier": "16555", "external_references": [{"id": 42598, "source": {"name": "Wikidata", "slug": "wikidata"}, "source_identifier": "Q113865687"}, {"id": 54145, "source": {"name": "VIAF", "slug": "viaf"}, "source_identifier": "101572229"}, {"id": 54146, "source": {"name": "LOC Auth", "slug": "loc-auth"}, "source_identifier": "no2009172907"}, {"id": 54147, "source": {"name": "WorldCat", "slug": "worldcat"}, "source_identifier": "lccn-no2009172907"}], "date_modified": "2023-09-05T18:19:49.469548+10:00"}, {"id": 75929, "name": "Christopher Brough", "roles_in_work": [{"id": 2751100, "title": "The Invisible children", "work_id": 97655, "role": "co-producer", "role_id": 915, "is_primary": true}, {"id": 2356301, "title": "The Invisible children (TEFC)", "work_id": 77299, "role": "co-producer", "role_id": 915, "is_primary": true}], "also_known_as": "", "date_of_birth": "", "date_of_death": "", "genders": [], "languages": [], "places_of_operation": [], "biography": "", "biography_author": null, "date_of_biography": "2023-05-09T20:04:21.674605+10:00", "external_links": [], "uuid": "3f8f3ef8-a7a8-4dfc-89f3-16df833ed450", "source": {"name": "Vernon", "slug": "vernon"}, "source_identifier": "16948", "external_references": [{"id": 33635, "source": {"name": "Wikidata", "slug": "wikidata"}, "source_identifier": "Q121040130"}], "date_modified": "2025-03-13T00:36:33.774100+11:00"}, {"id": 75928, "name": "Rift Fournier", "roles_in_work": [{"id": 2751099, "title": "The Invisible children", "work_id": 97655, "role": "co-producer", "role_id": 915, "is_primary": true}, {"id": 2356299, "title": "The Invisible children (TEFC)", "work_id": 77299, "role": "co-producer", "role_id": 915, "is_primary": true}], "also_known_as": "", "date_of_birth": "1936-05-16", "date_of_death": "2013-10-06", "genders": [{"id": 9, "name": "Male", "slug": "male"}], "languages": [], "places_of_operation": [{"id": 1, "name": "United States of America", "slug": "united-states-of-america"}], "biography": "Rift Fournier (May 16, 1936 – October 6, 2013) was an American writer, screenwriter and television producer. Fournier, who lost the ability to walk at 17 years old due to polio, had a long and diverse career in television. He wrote episodes of numerous television series, including Baretta, Charlie's Angels, Highway to Heaven, Hell Town, Kojak, Matlock, Charley Hannah, High Mountain Rangers and NYPD Blue.Fournier was born in 1936 in Wichita, Kansas, and raised in both Chicago and Omaha, Nebraska. His parents decided to call him \"Rift\" after a dispute over what they would name their son. Fournier was acting and screenwriting at the Omaha Community Playhouse by the time he was 13 years old. He attended a Jesuit school, where he excelled as an athlete.Fournier contracted polio during his junior year in high school. On a Sunday morning in 1953, Fournier collapsed while getting out of bed to answer the telephone. He never regained his ability to walk and remained in a wheelchair for the rest of his life. Rift Fournier never let his disability dissuade him from pursuing his career. In a 1986 interview with the Los Angeles Times, he said, \"I didn't know [polio] was supposed to stop me from doing something,...You've heard the joke. 'I never knew I was poor.… ' Well, I never knew I was handicapped.\"In 1963, Fournier began co-producing The Mike Douglas Show, which was created in Cleveland, Ohio, for syndication.He died in St. Louis, Missouri, on October 6, 2013, at the age of 77. Cause of death was cancer.", "biography_author": "Wikidata", "date_of_biography": "2023-09-06T00:35:16.005796+10:00", "external_links": [{"id": 6134, "uri": "https://en.wikipedia.org/wiki/Rift_Fournier"}], "uuid": "1a5d91c9-a6c8-46dc-9e3c-35dad95ba1aa", "source": {"name": "Vernon", "slug": "vernon"}, "source_identifier": "27569", "external_references": [{"id": 39112, "source": {"name": "Wikidata", "slug": "wikidata"}, "source_identifier": "Q15992981"}, {"id": 55647, "source": {"name": "VIAF", "slug": "viaf"}, "source_identifier": "75860356"}, {"id": 55648, "source": {"name": "LOC Auth", "slug": "loc-auth"}, "source_identifier": "no00044758"}, {"id": 55649, "source": {"name": "WorldCat", "slug": "worldcat"}, "source_identifier": "lccn-no00044758"}], "date_modified": "2025-03-13T00:36:33.066573+11:00"}, {"id": 75927, "name": "Bud Greenspan", "roles_in_work": [{"id": 2762751, "title": "Children and sports", "work_id": 77294, "role": "producer/director", "role_id": 31, "is_primary": true}, {"id": 2063345, "title": "100 years of Olympic glory", "work_id": 85217, "role": "producer/director", "role_id": 31, "is_primary": true}, {"id": 2136413, "title": "Children and sports (TEFC)", "work_id": 78313, "role": "producer/director", "role_id": 31, "is_primary": true}], "also_known_as": "", "date_of_birth": "", "date_of_death": "", "genders": [], "languages": [], "places_of_operation": [], "biography": "", "biography_author": null, "date_of_biography": "2023-05-09T15:45:32.217979+10:00", "external_links": [], "uuid": "5ce81c8d-909b-43e6-9a12-a252403925bc", "source": {"name": "Vernon", "slug": "vernon"}, "source_identifier": "4335", "external_references": [{"id": 51029, "source": {"name": "Wikidata", "slug": "wikidata"}, "source_identifier": "Q121360664"}], "date_modified": "2025-03-14T17:39:17.179602+11:00"}, {"id": 75926, "name": "Sam Summerlin", "roles_in_work": [{"id": 2647780, "title": "Olympics: the eternal torch", "work_id": 77293, "role": "co-director", "role_id": 959, "is_primary": true}, {"id": 3088575, "title": "Mao: organised chaos", "work_id": 97699, "role": "co-producer", "role_id": 915, "is_primary": true}, {"id": 3088564, "title": "Mao: long march to power", "work_id": 97698, "role": "co-producer", "role_id": 915, "is_primary": true}, {"id": 2751193, "title": "End of the old order: 1900-1918", "work_id": 97695, "role": "co-producer", "role_id": 915, "is_primary": true}], "also_known_as": "", "date_of_birth": "", "date_of_death": "", "genders": [], "languages": [], "places_of_operation": [], "biography": "", "biography_author": null, "date_of_biography": "2023-05-09T16:08:08.376222+10:00", "external_links": [], "uuid": "f0ee941a-6d9a-479c-a925-701f42ac2f28", "source": {"name": "Vernon", "slug": "vernon"}, "source_identifier": "28496", "external_references": [{"id": 33218, "source": {"name": "Wikidata", "slug": "wikidata"}, "source_identifier": "Q121271258"}], "date_modified": "2025-03-17T10:55:40.863520+11:00"}, {"id": 75925, "name": "Christine Wardale", "roles_in_work": [{"id": 2225067, "title": "Fab noir", "work_id": 77289, "role": "co-producer", "role_id": 915, "is_primary": true}], "also_known_as": "", "date_of_birth": "", "date_of_death": "", "genders": [], "languages": [], "places_of_operation": [], "biography": "", "biography_author": null, "date_of_biography": "2023-05-09T16:25:03.932177+10:00", "external_links": [], "uuid": "e769faea-8f7f-46d2-a521-63ffbb17d7f6", "source": {"name": "Vernon", "slug": "vernon"}, "source_identifier": "16934", "external_references": [{"id": 33291, "source": {"name": "Wikidata", "slug": "wikidata"}, "source_identifier": "Q121036704"}], "date_modified": "2023-09-05T18:34:51.781090+10:00"}, {"id": 75924, "name": "Debbie Packham", "roles_in_work": [{"id": 2225063, "title": "Fab noir", "work_id": 77289, "role": "co-producer", "role_id": 915, "is_primary": true}], "also_known_as": "", "date_of_birth": "", "date_of_death": "", "genders": [], "languages": [], "places_of_operation": [], "biography": "", "biography_author": null, "date_of_biography": "2023-05-09T16:25:03.641928+10:00", "external_links": [], "uuid": "221e14d5-8634-432c-8cb5-32de1aef221a", "source": {"name": "Vernon", "slug": "vernon"}, "source_identifier": "17895", "external_references": [{"id": 41769, "source": {"name": "Wikidata", "slug": "wikidata"}, "source_identifier": "Q121058107"}], "date_modified": "2023-09-05T19:05:10.645921+10:00"}, {"id": 75923, "name": "W.H. Stephens", "roles_in_work": [{"id": 2469449, "title": "Tukiki and his search for a Merry Christmas", "work_id": 77285, "role": "co-producer", "role_id": 915, "is_primary": true}], "also_known_as": "", "date_of_birth": "", "date_of_death": "", "genders": [], "languages": [], "places_of_operation": [], "biography": "", "biography_author": null, "date_of_biography": "2023-08-14T12:01:21.283138+10:00", "external_links": [], "uuid": "75b7ca32-810c-4d2d-8765-574d3809b2c8", "source": {"name": "Vernon", "slug": "vernon"}, "source_identifier": "30197", "external_references": [{"id": 40205, "source": {"name": "Wikidata", "slug": "wikidata"}, "source_identifier": "Q121298792"}], "date_modified": "2023-09-06T02:09:40.925134+10:00"}]}