{"count": 28687, "next": "https://api.acmi.net.au/creators/?page=1968", "previous": "https://api.acmi.net.au/creators/?page=1966", "results": [{"id": 23203, "name": "Christopher Fraser", "roles_in_work": [{"id": 2317612, "title": "Summer City", "work_id": 80983, "role": "director", "role_id": 938, "is_primary": true}], "also_known_as": "", "date_of_birth": "1962-10-25", "date_of_death": null, "genders": [{"id": 9, "name": "Male", "slug": "male"}], "languages": [{"id": 1, "name": "English", "slug": "english"}], "places_of_operation": [{"id": 10, "name": "United Kingdom", "slug": "united-kingdom"}], "biography": "Christopher James Fraser, OBE (born 25 October 1962) is a former British Conservative Party politician who was the Member of Parliament (MP) for Mid Dorset and North Poole from the 1997 general election to 2001 and South West Norfolk from 2005 to 2010.", "biography_author": "Wikidata", "date_of_biography": "2022-05-19T11:05:33.923443+10:00", "external_links": [{"id": 1820, "uri": "https://en.wikipedia.org/wiki/Christopher_Fraser"}], "uuid": "843d87ab-0c8f-4322-9fdb-3af9033f6d58", "source": {"name": "Vernon", "slug": "vernon"}, "source_identifier": "16956", "external_references": [{"id": 7921, "source": {"name": "Wikidata", "slug": "wikidata"}, "source_identifier": "Q5112358"}], "date_modified": "2023-09-13T12:28:45.069965+10:00"}, {"id": 23202, "name": "Phil Avalon", "roles_in_work": [{"id": 2317618, "title": "Summer City", "work_id": 80983, "role": "cast", "role_id": 33, "is_primary": false}, {"id": 2317611, "title": "Summer City", "work_id": 80983, "role": "producer", "role_id": 1089, "is_primary": true}], "also_known_as": "", "date_of_birth": "1955-02-24", "date_of_death": null, "genders": [{"id": 9, "name": "Male", "slug": "male"}], "languages": [], "places_of_operation": [{"id": 3, "name": "Australia", "slug": "australia"}], "biography": "Phillip Avalon is an Australian writer, producer, director and actor of films and TV.\nFilm writer Scott Murray wrote in 1993 that:\n\nIf Australia has any producer-cum-auteurs, then Phillip Avalon is certainly one... Avalon's films are preoccupied with violence bubbling to the surface in a lower-middle-class society repressed by Christian and materialist values. He has a decided affinity for the topsider, for those who refuse to play society's games, and whose anti-social attitudes may, in fact, conceal a soul well attuned to life's pulses.", "biography_author": "Wikidata", "date_of_biography": "2022-05-19T12:43:16.703427+10:00", "external_links": [{"id": 2870, "uri": "https://en.wikipedia.org/wiki/Phillip_Avalon"}], "uuid": "68e0af3b-7695-4b5d-a3f8-5f0097764ea4", "source": {"name": "Vernon", "slug": "vernon"}, "source_identifier": "26774", "external_references": [{"id": 12198, "source": {"name": "Wikidata", "slug": "wikidata"}, "source_identifier": "Q7185610"}, {"id": 12199, "source": {"name": "VIAF", "slug": "viaf"}, "source_identifier": "87028736"}, {"id": 12200, "source": {"name": "LOC Auth", "slug": "loc-auth"}, "source_identifier": "nb2017001714"}, {"id": 12201, "source": {"name": "WorldCat", "slug": "worldcat"}, "source_identifier": "lccn-nb2017001714"}], "date_modified": "2023-09-13T12:31:58.896309+10:00"}, {"id": 23201, "name": "Summer City Productions", "roles_in_work": [{"id": 2317609, "title": "Summer City", "work_id": 80983, "role": "production company", "role_id": 941, "is_primary": true}], "also_known_as": "", "date_of_birth": "", "date_of_death": "", "genders": [], "languages": [], "places_of_operation": [], "biography": "", "biography_author": null, "date_of_biography": "2023-05-09T19:07:22.284115+10:00", "external_links": [], "uuid": "45a45bbb-9dfc-4b84-87d5-448ee0c70464", "source": {"name": "Vernon", "slug": "vernon"}, "source_identifier": "13041", "external_references": [{"id": 43433, "source": {"name": "Wikidata", "slug": "wikidata"}, "source_identifier": "Q121034375"}], "date_modified": "2023-09-06T01:35:50.577160+10:00"}, {"id": 23199, "name": "Hedon", "roles_in_work": [{"id": 2311152, "title": "Stone", "work_id": 80982, "role": "production company", "role_id": 941, "is_primary": true}], "also_known_as": "", "date_of_birth": "", "date_of_death": "", "genders": [], "languages": [], "places_of_operation": [], "biography": "", "biography_author": null, "date_of_biography": "2023-05-09T18:56:59.945963+10:00", "external_links": [], "uuid": "9658c08b-bbfe-4dcf-98b7-978133083e1f", "source": {"name": "Vernon", "slug": "vernon"}, "source_identifier": "9054", "external_references": [], "date_modified": "2023-06-14T16:33:30.576250+10:00"}, {"id": 23197, "name": "Rychemond Film", "roles_in_work": [{"id": 2199123, "title": "Double deal", "work_id": 80981, "role": "production company", "role_id": 941, "is_primary": true}], "also_known_as": "", "date_of_birth": "", "date_of_death": "", "genders": [], "languages": [], "places_of_operation": [], "biography": "", "biography_author": null, "date_of_biography": "2023-05-09T15:23:10.692781+10:00", "external_links": [], "uuid": "01ba1593-75de-4fed-aed8-87cb4660dfb2", "source": {"name": "Vernon", "slug": "vernon"}, "source_identifier": "12192", "external_references": [{"id": 36322, "source": {"name": "Wikidata", "slug": "wikidata"}, "source_identifier": "Q121337346"}], "date_modified": "2023-09-06T01:00:16.129879+10:00"}, {"id": 23194, "name": "Brian Rosen", "roles_in_work": [{"id": 1809473, "title": "The Last bastion", "work_id": 81034, "role": "producer", "role_id": 1089, "is_primary": true}, {"id": 2196384, "title": "Doctors and nurses", "work_id": 80977, "role": "producer", "role_id": 1089, "is_primary": true}, {"id": 2238518, "title": "Fatty Finn", "work_id": 81002, "role": "producer", "role_id": 1089, "is_primary": true}], "also_known_as": "", "date_of_birth": "", "date_of_death": "", "genders": [], "languages": [], "places_of_operation": [], "biography": "", "biography_author": null, "date_of_biography": "2023-05-09T16:49:42.062239+10:00", "external_links": [], "uuid": "1c2d4b6a-1bdd-460e-98a0-b3cb16e619e1", "source": {"name": "Vernon", "slug": "vernon"}, "source_identifier": "16255", "external_references": [{"id": 33105, "source": {"name": "Wikidata", "slug": "wikidata"}, "source_identifier": "Q121091144"}], "date_modified": "2023-09-05T18:11:07.747857+10:00"}, {"id": 23193, "name": "Finn Productions", "roles_in_work": [{"id": 2196382, "title": "Doctors and nurses", "work_id": 80977, "role": "production company", "role_id": 941, "is_primary": true}], "also_known_as": "", "date_of_birth": "", "date_of_death": "", "genders": [], "languages": [], "places_of_operation": [], "biography": "", "biography_author": null, "date_of_biography": "2023-05-09T15:17:35.018788+10:00", "external_links": [], "uuid": "6294bba4-af56-4700-be16-93ab7b6e4332", "source": {"name": "Vernon", "slug": "vernon"}, "source_identifier": "8354", "external_references": [{"id": 34281, "source": {"name": "Wikidata", "slug": "wikidata"}, "source_identifier": "Q121035765"}], "date_modified": "2023-09-05T19:43:57.530943+10:00"}, {"id": 23192, "name": "Universal Entertainment", "roles_in_work": [{"id": 2196380, "title": "Doctors and nurses", "work_id": 80977, "role": "production company", "role_id": 941, "is_primary": true}], "also_known_as": "", "date_of_birth": "", "date_of_death": "", "genders": [], "languages": [], "places_of_operation": [], "biography": "", "biography_author": null, "date_of_biography": "2023-05-09T15:17:34.670620+10:00", "external_links": [], "uuid": "bf6076d1-c6c2-4e13-9535-43f9278e93d8", "source": {"name": "Vernon", "slug": "vernon"}, "source_identifier": "13897", "external_references": [{"id": 40538, "source": {"name": "Wikidata", "slug": "wikidata"}, "source_identifier": "Q121271127"}], "date_modified": "2023-09-06T02:01:18.721107+10:00"}, {"id": 23187, "name": "Chateau Productions Investments", "roles_in_work": [{"id": 2281423, "title": "The Time guardian", "work_id": 80974, "role": "production company", "role_id": 941, "is_primary": true}], "also_known_as": "", "date_of_birth": "", "date_of_death": "", "genders": [], "languages": [], "places_of_operation": [], "biography": "", "biography_author": null, "date_of_biography": "2023-05-09T18:01:07.997845+10:00", "external_links": [], "uuid": "8894b676-368d-46ee-b280-bc22dade65f4", "source": {"name": "Vernon", "slug": "vernon"}, "source_identifier": "6532", "external_references": [{"id": 36966, "source": {"name": "Wikidata", "slug": "wikidata"}, "source_identifier": "Q121079252"}], "date_modified": "2023-09-05T18:29:21.236169+10:00"}, {"id": 23186, "name": "International Film Management", "roles_in_work": [{"id": 2614409, "title": "The Dreaming", "work_id": 83641, "role": "production company", "role_id": 941, "is_primary": true}, {"id": 2281418, "title": "The Time guardian", "work_id": 80974, "role": "production company", "role_id": 941, "is_primary": true}, {"id": 2000561, "title": "Grievous bodily harm", "work_id": 95103, "role": "production company", "role_id": 941, "is_primary": true}], "also_known_as": "", "date_of_birth": "", "date_of_death": "", "genders": [], "languages": [], "places_of_operation": [], "biography": "", "biography_author": null, "date_of_biography": "2023-05-09T19:45:19.389961+10:00", "external_links": [], "uuid": "1ff62ee4-9c5e-4037-9266-05df3e1d3506", "source": {"name": "Vernon", "slug": "vernon"}, "source_identifier": "9384", "external_references": [{"id": 34486, "source": {"name": "Wikidata", "slug": "wikidata"}, "source_identifier": "Q121126113"}], "date_modified": "2025-02-26T20:10:27.862077+11:00"}]}