{"count": 28687, "next": "https://api.acmi.net.au/creators/?page=673", "previous": "https://api.acmi.net.au/creators/?page=671", "results": [{"id": 78863, "name": "Electric Shadows", "roles_in_work": [{"id": 1996284, "title": "The Poseidon adventure", "work_id": 92618, "role": "distributor", "role_id": 437, "is_primary": false}, {"id": 2348966, "title": "The Flower of my secret = La Flor de mi secreto", "work_id": 89039, "role": "distributor", "role_id": 437, "is_primary": false}, {"id": 2293113, "title": "Tora! tora! tora!", "work_id": 92619, "role": "distributor", "role_id": 437, "is_primary": false}, {"id": 2208839, "title": "Planet of the apes [Box set special edition]", "work_id": 92620, "role": "distributor", "role_id": 437, "is_primary": false}, {"id": 2216483, "title": "Emerald city [DVD]", "work_id": 93206, "role": "distributor", "role_id": 437, "is_primary": false}, {"id": 1996280, "title": "Himalaya", "work_id": 92617, "role": "distributor", "role_id": 437, "is_primary": false}, {"id": 911972, "title": "Innocence", "work_id": 92506, "role": "distributor", "role_id": 437, "is_primary": false}, {"id": 2320604, "title": "Sweet smell of success [DVD]", "work_id": 93205, "role": "distributor", "role_id": 437, "is_primary": false}, {"id": 2145709, "title": "Cookie's fortune", "work_id": 92508, "role": "distributor", "role_id": 437, "is_primary": false}, {"id": 2233960, "title": "Querelle [DVD]", "work_id": 93202, "role": "distributor", "role_id": 437, "is_primary": false}, {"id": 1996294, "title": "Gentleman's agreement [DVD]", "work_id": 92622, "role": "distributor", "role_id": 437, "is_primary": false}, {"id": 2107527, "title": "Bamboozled [DVD]", "work_id": 92621, "role": "distributor", "role_id": 437, "is_primary": false}, {"id": 2088556, "title": "An Affair to remember [DVD]", "work_id": 92623, "role": "distributor", "role_id": 437, "is_primary": false}, {"id": 2172066, "title": "Dancer in the dark", "work_id": 92505, "role": "distributor", "role_id": 437, "is_primary": false}, {"id": 2293913, "title": "Withnail & I", "work_id": 88695, "role": "distributor", "role_id": 437, "is_primary": false}, {"id": 1996965, "title": "The Man who shot Liberty Valance", "work_id": 93052, "role": "distributor", "role_id": 437, "is_primary": false}, {"id": 2188175, "title": "Paris when it sizzles", "work_id": 92624, "role": "distributor", "role_id": 437, "is_primary": false}, {"id": 1997182, "title": "Three colours red = Trois couleurs rouge [DVD]", "work_id": 93156, "role": "distributor", "role_id": 437, "is_primary": false}, {"id": 2139586, "title": "Cleopatra [DVD]", "work_id": 92626, "role": "distributor", "role_id": 437, "is_primary": false}, {"id": 2174605, "title": "Mean streets", "work_id": 88357, "role": "distributor", "role_id": 437, "is_primary": false}, {"id": 2249049, "title": "Requiem for a dream [DVD] (D)", "work_id": 92616, "role": "distributor", "role_id": 437, "is_primary": false}, {"id": 2302915, "title": "Small faces", "work_id": 89150, "role": "distributor", "role_id": 437, "is_primary": false}, {"id": 2310279, "title": "State and Main", "work_id": 93204, "role": "distributor", "role_id": 437, "is_primary": false}, {"id": 2317539, "title": "Sunshine [DVD]", "work_id": 93051, "role": "distributor", "role_id": 437, "is_primary": false}, {"id": 2357630, "title": "The Killer", "work_id": 89209, "role": "distributor", "role_id": 437, "is_primary": false}, {"id": 2082862, "title": "After hours", "work_id": 88684, "role": "distributor", "role_id": 437, "is_primary": false}, {"id": 2309204, "title": "Star wars. Ep. 1: The Phantom menace [DVD]", "work_id": 92625, "role": "distributor", "role_id": 437, "is_primary": false}], "also_known_as": "", "date_of_birth": "", "date_of_death": "", "genders": [], "languages": [], "places_of_operation": [], "biography": "", "biography_author": null, "date_of_biography": "2023-05-09T20:06:25.867359+10:00", "external_links": [], "uuid": "f6f5415b-b76b-453c-aaed-88bc1885bd13", "source": {"name": "Vernon", "slug": "vernon"}, "source_identifier": "30718", "external_references": [], "date_modified": "2023-06-14T16:33:30.576250+10:00"}, {"id": 78862, "name": "Yana Gould", "roles_in_work": [{"id": 2795439, "title": "Donna Karan. Vivienne Westwood", "work_id": 88354, "role": "co-producer", "role_id": 915, "is_primary": true}], "also_known_as": "", "date_of_birth": "", "date_of_death": "", "genders": [], "languages": [], "places_of_operation": [], "biography": "", "biography_author": null, "date_of_biography": "2023-05-09T15:22:51.498348+10:00", "external_links": [], "uuid": "237dacba-c358-4192-a7fd-64414bcbc131", "source": {"name": "Vernon", "slug": "vernon"}, "source_identifier": "30562", "external_references": [{"id": 37973, "source": {"name": "Wikidata", "slug": "wikidata"}, "source_identifier": "Q121036383"}], "date_modified": "2025-03-14T20:31:57.604668+11:00"}, {"id": 78861, "name": "Michelle Brown", "roles_in_work": [{"id": 2795437, "title": "Donna Karan. Vivienne Westwood", "work_id": 88354, "role": "co-producer", "role_id": 915, "is_primary": true}], "also_known_as": "", "date_of_birth": "", "date_of_death": "", "genders": [], "languages": [], "places_of_operation": [], "biography": "", "biography_author": null, "date_of_biography": "2023-05-09T15:22:51.260706+10:00", "external_links": [], "uuid": "f6baf73f-bda6-4f7b-b6a1-f46383f5123b", "source": {"name": "Vernon", "slug": "vernon"}, "source_identifier": "25308", "external_references": [{"id": 36572, "source": {"name": "Wikidata", "slug": "wikidata"}, "source_identifier": "Q121337463"}], "date_modified": "2025-03-14T20:31:56.991769+11:00"}, {"id": 78860, "name": "Jessica Ramer", "roles_in_work": [{"id": 2795448, "title": "Gianni Versace. Givenchy", "work_id": 88355, "role": "co-producer", "role_id": 915, "is_primary": true}, {"id": 2795432, "title": "Christian Dior", "work_id": 88353, "role": "co-producer", "role_id": 915, "is_primary": true}], "also_known_as": "", "date_of_birth": "", "date_of_death": "", "genders": [], "languages": [], "places_of_operation": [], "biography": "", "biography_author": null, "date_of_biography": "2023-05-09T15:22:55.965611+10:00", "external_links": [], "uuid": "803dc35b-2665-472b-8bc5-fe721bc544d3", "source": {"name": "Vernon", "slug": "vernon"}, "source_identifier": "21836", "external_references": [{"id": 39564, "source": {"name": "Wikidata", "slug": "wikidata"}, "source_identifier": "Q121036763"}], "date_modified": "2025-03-14T20:32:01.524220+11:00"}, {"id": 78859, "name": "Lida Piompino", "roles_in_work": [{"id": 2795430, "title": "Christian Dior", "work_id": 88353, "role": "co-producer", "role_id": 915, "is_primary": true}, {"id": 2795446, "title": "Gianni Versace. Givenchy", "work_id": 88355, "role": "co-producer", "role_id": 915, "is_primary": true}, {"id": 2795440, "title": "Donna Karan. Vivienne Westwood", "work_id": 88354, "role": "co-producer", "role_id": 915, "is_primary": true}], "also_known_as": "", "date_of_birth": "", "date_of_death": "", "genders": [], "languages": [], "places_of_operation": [], "biography": "", "biography_author": null, "date_of_biography": "2023-05-09T15:22:55.726181+10:00", "external_links": [], "uuid": "751f5eb1-ccb2-4ee6-aa10-fb9ae760b2be", "source": {"name": "Vernon", "slug": "vernon"}, "source_identifier": "23838", "external_references": [{"id": 39365, "source": {"name": "Wikidata", "slug": "wikidata"}, "source_identifier": "Q121337097"}], "date_modified": "2025-03-14T20:32:00.897625+11:00"}, {"id": 78858, "name": "Adam Falk", "roles_in_work": [{"id": 2795427, "title": "Christian Dior", "work_id": 88353, "role": "co-producer", "role_id": 915, "is_primary": true}, {"id": 2795445, "title": "Gianni Versace. Givenchy", "work_id": 88355, "role": "co-producer", "role_id": 915, "is_primary": true}], "also_known_as": "", "date_of_birth": "", "date_of_death": "", "genders": [], "languages": [], "places_of_operation": [], "biography": "", "biography_author": null, "date_of_biography": "2023-05-09T15:22:55.499251+10:00", "external_links": [], "uuid": "9cfa7886-02a6-47d0-bf34-cfafb4d1ab80", "source": {"name": "Vernon", "slug": "vernon"}, "source_identifier": "14641", "external_references": [{"id": 37809, "source": {"name": "Wikidata", "slug": "wikidata"}, "source_identifier": "Q121270927"}], "date_modified": "2025-03-14T20:32:00.299832+11:00"}, {"id": 78857, "name": "K Zeman", "roles_in_work": [{"id": 2337085, "title": "The Christmas dream", "work_id": 88347, "role": "co-director", "role_id": 959, "is_primary": true}], "also_known_as": "", "date_of_birth": "", "date_of_death": "", "genders": [], "languages": [], "places_of_operation": [], "biography": "", "biography_author": null, "date_of_biography": "2023-05-09T19:33:37.945315+10:00", "external_links": [], "uuid": "5afb4e65-9705-453d-b929-85b11011e32f", "source": {"name": "Vernon", "slug": "vernon"}, "source_identifier": "22967", "external_references": [], "date_modified": "2023-06-14T16:33:30.576250+10:00"}, {"id": 78856, "name": "B Zeman", "roles_in_work": [{"id": 2337081, "title": "The Christmas dream", "work_id": 88347, "role": "co-director", "role_id": 959, "is_primary": true}], "also_known_as": "", "date_of_birth": "", "date_of_death": "", "genders": [], "languages": [], "places_of_operation": [], "biography": "", "biography_author": null, "date_of_biography": "2023-05-09T19:33:37.711854+10:00", "external_links": [], "uuid": "4c89f913-40d1-46ca-b25a-2514f205c70f", "source": {"name": "Vernon", "slug": "vernon"}, "source_identifier": "15622", "external_references": [], "date_modified": "2023-06-14T16:33:30.576250+10:00"}, {"id": 78855, "name": "Andrew Niccol", "roles_in_work": [{"id": 1993740, "title": "Gattaca [DVD]", "work_id": 89498, "role": "director", "role_id": 938, "is_primary": true}, {"id": 2293073, "title": "The Truman show", "work_id": 88321, "role": "co-producer", "role_id": 915, "is_primary": true}], "also_known_as": "", "date_of_birth": "1964-06-10", "date_of_death": "", "genders": [{"id": 9, "name": "Male", "slug": "male"}], "languages": [{"id": 1, "name": "English", "slug": "english"}], "places_of_operation": [{"id": 9, "name": "New Zealand", "slug": "new-zealand"}], "biography": "Andrew Niccol (born 10 June 1964) is a New Zealand screenwriter, producer, and director. He wrote and directed Gattaca (1997), Simone (2002), Lord of War (2005), In Time (2011),  The Host (2013), and Good Kill (2014). He wrote and co-produced The Truman Show, which earned him a nomination for the Academy Award for Best Original Screenplay and won him the BAFTA Award in the same category. His films tend to explore social, cultural and political issues, as well as artificial realities, simulations and the male gaze.His film Good Kill was selected to compete for the Golden Lion at the 71st Venice International Film Festival.", "biography_author": "Wikidata", "date_of_biography": "2023-08-01T14:02:41.684686+10:00", "external_links": [{"id": 3552, "uri": "https://en.wikipedia.org/wiki/Andrew_Niccol"}], "uuid": "1bb0c46c-88b3-4117-b31b-bc7e6dd51273", "source": {"name": "Vernon", "slug": "vernon"}, "source_identifier": "15204", "external_references": [{"id": 26113, "source": {"name": "Wikidata", "slug": "wikidata"}, "source_identifier": "Q360737"}, {"id": 27260, "source": {"name": "VIAF", "slug": "viaf"}, "source_identifier": "37124054"}, {"id": 27261, "source": {"name": "LOC Auth", "slug": "loc-auth"}, "source_identifier": "n98084708"}, {"id": 27262, "source": {"name": "WorldCat", "slug": "worldcat"}, "source_identifier": "lccn-n98084708"}], "date_modified": "2023-09-05T17:36:32.621458+10:00"}, {"id": 78854, "name": "Jack Parker", "roles_in_work": [{"id": 2043631, "title": "Morning paper", "work_id": 88310, "role": "cinematographer", "role_id": 32, "is_primary": false}], "also_known_as": "", "date_of_birth": null, "date_of_death": null, "genders": [], "languages": [], "places_of_operation": [], "biography": "", "biography_author": null, "date_of_biography": null, "external_links": [], "uuid": "d5f92754-6d4a-47e2-a9e7-7f7c127a6066", "source": {"name": "Vernon", "slug": "vernon"}, "source_identifier": null, "external_references": [{"id": 33690, "source": {"name": "Wikidata", "slug": "wikidata"}, "source_identifier": "Q121036638"}], "date_modified": "2023-09-05T20:56:27.891553+10:00"}]}