{"count": 28683, "next": "https://api.acmi.net.au/creators/?page=677", "previous": "https://api.acmi.net.au/creators/?page=675", "results": [{"id": 78819, "name": "Movie Mail", "roles_in_work": [{"id": 2288179, "title": "Violent Cop = Sono otoko kyobo ni tsuki (D)", "work_id": 88251, "role": "distributor", "role_id": 437, "is_primary": false}, {"id": 916247, "title": "Unknown pleasures = Ren Xiao yao [DVD]", "work_id": 94638, "role": "distributor", "role_id": 437, "is_primary": false}, {"id": 2196141, "title": "Divine horsemen: the living gods of Haiti", "work_id": 94619, "role": "distributor", "role_id": 437, "is_primary": false}, {"id": 916181, "title": "The Son = Le Fils [DVD]", "work_id": 94606, "role": "distributor", "role_id": 437, "is_primary": false}, {"id": 1999667, "title": "Viva Zapata! [DVD]", "work_id": 94618, "role": "distributor", "role_id": 437, "is_primary": false}, {"id": 2151038, "title": "Martin Arnold: cinemnesis", "work_id": 94634, "role": "distributor", "role_id": 437, "is_primary": false}, {"id": 2327825, "title": "The Apple", "work_id": 88221, "role": "distributor", "role_id": 437, "is_primary": false}, {"id": 2245276, "title": "Fluxfilm anthology", "work_id": 94631, "role": "distributor", "role_id": 437, "is_primary": false}, {"id": 820681, "title": "Hans Richter: early works", "work_id": 94617, "role": "distributor", "role_id": 437, "is_primary": false}, {"id": 2180570, "title": "Dead or alive 2: Birds [DVD] (D)", "work_id": 94607, "role": "distributor", "role_id": 437, "is_primary": false}, {"id": 2280144, "title": "Werckmeister harmonies. Damnation = Werckmeister harmoniak. Karhozat", "work_id": 94636, "role": "distributor", "role_id": 437, "is_primary": false}, {"id": 2257566, "title": "Rumpelstilzchen. Passion", "work_id": 94628, "role": "distributor", "role_id": 437, "is_primary": false}, {"id": 2305396, "title": "Sonatine", "work_id": 88250, "role": "distributor", "role_id": 437, "is_primary": false}, {"id": 2115089, "title": "Bill Morrison: 8 films", "work_id": 94629, "role": "distributor", "role_id": 437, "is_primary": false}, {"id": 3084035, "title": "The West", "work_id": 115583, "role": "distributor", "role_id": 437, "is_primary": false}, {"id": 2319537, "title": "Suzhou River = Su Zhou He [DVD]", "work_id": 94611, "role": "distributor", "role_id": 437, "is_primary": false}, {"id": 820733, "title": "L'Ange", "work_id": 94633, "role": "distributor", "role_id": 437, "is_primary": false}, {"id": 820741, "title": "Jonas Mekas: lost lost lost", "work_id": 94635, "role": "distributor", "role_id": 437, "is_primary": false}, {"id": 820731, "title": "Has the feature started? = Le Film est deja commence?", "work_id": 94632, "role": "distributor", "role_id": 437, "is_primary": false}, {"id": 2240648, "title": "Films by Harry Smith = Harry Smith: early abstractions", "work_id": 94630, "role": "distributor", "role_id": 437, "is_primary": false}, {"id": 1992710, "title": "The Life of Oharu = Saikaku ichidai onna", "work_id": 88300, "role": "distributor", "role_id": 437, "is_primary": false}, {"id": 820701, "title": "Le Revelateur", "work_id": 94622, "role": "distributor", "role_id": 437, "is_primary": false}, {"id": 2354683, "title": "The Hole = Onibaba [Widescreen]", "work_id": 88223, "role": "distributor", "role_id": 437, "is_primary": false}, {"id": 1992663, "title": "Through the olive trees", "work_id": 88249, "role": "distributor", "role_id": 437, "is_primary": false}, {"id": 1992646, "title": "Hana-Bi = Fireworks", "work_id": 88220, "role": "distributor", "role_id": 437, "is_primary": false}, {"id": 1992642, "title": "Kwaidan = Woman of the snow", "work_id": 88219, "role": "distributor", "role_id": 437, "is_primary": false}], "also_known_as": "", "date_of_birth": "", "date_of_death": "", "genders": [], "languages": [], "places_of_operation": [], "biography": "", "biography_author": null, "date_of_biography": "2023-05-09T20:01:56.652598+10:00", "external_links": [], "uuid": "b7da382d-2a91-4dfc-8c83-624ac45a137a", "source": {"name": "Vernon", "slug": "vernon"}, "source_identifier": "30739", "external_references": [], "date_modified": "2025-03-17T10:35:18.026068+11:00"}, {"id": 78818, "name": "Jean Anne DeVoe", "roles_in_work": [{"id": 2414577, "title": "Laura's pregnant!", "work_id": 88217, "role": "co-producers/directors", "role_id": 628, "is_primary": true}], "also_known_as": "", "date_of_birth": "", "date_of_death": "", "genders": [], "languages": [], "places_of_operation": [], "biography": "", "biography_author": null, "date_of_biography": "2023-08-11T19:19:10.280707+10:00", "external_links": [], "uuid": "2e37733c-bc50-49de-ad79-719e119444f6", "source": {"name": "Vernon", "slug": "vernon"}, "source_identifier": "21512", "external_references": [], "date_modified": "2023-08-11T19:19:10.280944+10:00"}, {"id": 78817, "name": "Deane Hutton", "roles_in_work": [{"id": 2414576, "title": "Laura's pregnant!", "work_id": 88217, "role": "co-producers/directors", "role_id": 628, "is_primary": true}], "also_known_as": "", "date_of_birth": "", "date_of_death": "", "genders": [], "languages": [], "places_of_operation": [], "biography": "", "biography_author": null, "date_of_biography": "2023-08-11T19:19:09.646992+10:00", "external_links": [], "uuid": "bf8dd9a0-6591-473e-b643-d1ecafdeea15", "source": {"name": "Vernon", "slug": "vernon"}, "source_identifier": "17887", "external_references": [], "date_modified": "2023-08-11T19:19:09.647234+10:00"}, {"id": 78816, "name": "Bevon Peddell", "roles_in_work": [{"id": 2161592, "title": "Just a short story", "work_id": 88209, "role": "director", "role_id": 938, "is_primary": true}], "also_known_as": "", "date_of_birth": "", "date_of_death": "", "genders": [], "languages": [], "places_of_operation": [], "biography": "", "biography_author": null, "date_of_biography": "2023-05-09T14:16:32.442424+10:00", "external_links": [], "uuid": "fc65d5cd-904c-4cad-8200-5ec0052058b5", "source": {"name": "Vernon", "slug": "vernon"}, "source_identifier": "15923", "external_references": [{"id": 33666, "source": {"name": "Wikidata", "slug": "wikidata"}, "source_identifier": "Q121271219"}], "date_modified": "2023-09-05T18:01:34.998147+10:00"}, {"id": 78815, "name": "Haidi Lun", "roles_in_work": [{"id": 2198361, "title": "Don't stand so close to me", "work_id": 88208, "role": "co-producer", "role_id": 915, "is_primary": true}], "also_known_as": "", "date_of_birth": "", "date_of_death": "", "genders": [], "languages": [], "places_of_operation": [], "biography": "", "biography_author": null, "date_of_biography": "2023-05-09T15:21:36.696461+10:00", "external_links": [], "uuid": "a0a494a4-40cd-4fcc-bd6a-66d7f4ced353", "source": {"name": "Vernon", "slug": "vernon"}, "source_identifier": "20194", "external_references": [{"id": 34663, "source": {"name": "Wikidata", "slug": "wikidata"}, "source_identifier": "Q121126374"}], "date_modified": "2023-09-05T20:26:53.040448+10:00"}, {"id": 78814, "name": "Kevin Reher", "roles_in_work": [{"id": 2065507, "title": "A Bug's life [DVD]", "work_id": 93203, "role": "co-producer", "role_id": 915, "is_primary": true}, {"id": 2065490, "title": "A Bug's life", "work_id": 88204, "role": "co-producer", "role_id": 915, "is_primary": true}], "also_known_as": "", "date_of_birth": "1968-09-13", "date_of_death": "", "genders": [{"id": 9, "name": "Male", "slug": "male"}], "languages": [], "places_of_operation": [{"id": 1, "name": "United States of America", "slug": "united-states-of-america"}], "biography": "", "biography_author": null, "date_of_biography": "2023-05-09T11:22:29.816312+10:00", "external_links": [], "uuid": "d00311f4-ed9f-41bd-8dd2-b16070c23f49", "source": {"name": "Vernon", "slug": "vernon"}, "source_identifier": "23304", "external_references": [{"id": 38831, "source": {"name": "Wikidata", "slug": "wikidata"}, "source_identifier": "Q22083704"}], "date_modified": "2023-09-05T22:07:49.029382+10:00"}, {"id": 78813, "name": "Roberto Gandara", "roles_in_work": [{"id": 2322063, "title": "Tango Bar", "work_id": 88200, "role": "co-producer", "role_id": 915, "is_primary": true}], "also_known_as": "", "date_of_birth": "", "date_of_death": "", "genders": [], "languages": [], "places_of_operation": [], "biography": "", "biography_author": null, "date_of_biography": "2023-05-09T19:13:35.738413+10:00", "external_links": [], "uuid": "9c87c6d2-33d4-4167-a061-b3ceec4f0c1e", "source": {"name": "Vernon", "slug": "vernon"}, "source_identifier": "27933", "external_references": [{"id": 40651, "source": {"name": "Wikidata", "slug": "wikidata"}, "source_identifier": "Q121079393"}], "date_modified": "2023-09-06T00:48:34.158599+10:00"}, {"id": 78812, "name": "Juan Carlos Codazzi", "roles_in_work": [{"id": 2322005, "title": "Tango", "work_id": 94234, "role": "co-producer", "role_id": 915, "is_primary": true}, {"id": 2322057, "title": "Tango Bar", "work_id": 88200, "role": "co-producer", "role_id": 915, "is_primary": true}], "also_known_as": "", "date_of_birth": "", "date_of_death": "", "genders": [], "languages": [], "places_of_operation": [], "biography": "", "biography_author": null, "date_of_biography": "2023-05-09T19:13:35.502127+10:00", "external_links": [], "uuid": "5cfe29f9-89f9-4578-b299-dca86fb28f58", "source": {"name": "Vernon", "slug": "vernon"}, "source_identifier": "22784", "external_references": [{"id": 42412, "source": {"name": "Wikidata", "slug": "wikidata"}, "source_identifier": "Q121036510"}], "date_modified": "2023-09-05T21:52:43.335234+10:00"}, {"id": 78811, "name": "Allyn Stewart", "roles_in_work": [{"id": 907809, "title": "Madeline", "work_id": 88193, "role": "co-producer", "role_id": 915, "is_primary": true}], "also_known_as": "", "date_of_birth": null, "date_of_death": null, "genders": [], "languages": [], "places_of_operation": [], "biography": "", "biography_author": null, "date_of_biography": null, "external_links": [], "uuid": "72313520-4616-42cb-918d-ff72dab1bb95", "source": {"name": "Vernon", "slug": "vernon"}, "source_identifier": null, "external_references": [{"id": 40939, "source": {"name": "Wikidata", "slug": "wikidata"}, "source_identifier": "Q121337441"}], "date_modified": "2023-09-05T17:30:23.648281+10:00"}, {"id": 78810, "name": "Pancho Kohner", "roles_in_work": [{"id": 907808, "title": "Madeline", "work_id": 88193, "role": "co-producer", "role_id": 915, "is_primary": true}], "also_known_as": "", "date_of_birth": null, "date_of_death": null, "genders": [], "languages": [], "places_of_operation": [], "biography": "", "biography_author": null, "date_of_biography": null, "external_links": [], "uuid": "0c2fa4b1-fb40-4455-8886-753a5cd346e2", "source": {"name": "Vernon", "slug": "vernon"}, "source_identifier": null, "external_references": [{"id": 39966, "source": {"name": "Wikidata", "slug": "wikidata"}, "source_identifier": "Q121270929"}], "date_modified": "2023-09-05T23:39:39.983319+10:00"}]}