{"count": 28687, "next": "https://api.acmi.net.au/creators/?page=829", "previous": "https://api.acmi.net.au/creators/?page=827", "results": [{"id": 77303, "name": "Lynne Fernie", "roles_in_work": [{"id": 2650232, "title": "Forbidden love: the unashamed stories of lesbian lives", "work_id": 82987, "role": "co-director", "role_id": 959, "is_primary": true}], "also_known_as": "", "date_of_birth": null, "date_of_death": null, "genders": [{"id": 5, "name": "Female", "slug": "female"}], "languages": [], "places_of_operation": [{"id": 36, "name": "Canada", "slug": "canada"}], "biography": "Lynne Fernie (born 1946) is a Canadian filmmaker and interdisciplinary artist. She spent fourteen years as the Canadian Spectrum programmer for the Hot Docs Festival from 2002-2016, and was described as having a passion as \"deep as her knowledge,\" and it was said that her \"championing of Canadian documentaries and the people who make them has never wavered.\"", "biography_author": "Wikidata", "date_of_biography": "2022-05-19T12:19:45.676797+10:00", "external_links": [{"id": 2610, "uri": "https://en.wikipedia.org/wiki/Lynne_Fernie"}], "uuid": "db6773f0-3ddd-4317-b22e-7e5830450b10", "source": {"name": "Vernon", "slug": "vernon"}, "source_identifier": "24143", "external_references": [{"id": 11160, "source": {"name": "Wikidata", "slug": "wikidata"}, "source_identifier": "Q16107305"}], "date_modified": "2025-03-05T14:11:45.442132+11:00"}, {"id": 77302, "name": "Aerlyn Weissman", "roles_in_work": [{"id": 2650231, "title": "Forbidden love: the unashamed stories of lesbian lives", "work_id": 82987, "role": "co-director", "role_id": 959, "is_primary": true}], "also_known_as": "", "date_of_birth": "1947-01-01", "date_of_death": null, "genders": [{"id": 5, "name": "Female", "slug": "female"}], "languages": [], "places_of_operation": [{"id": 36, "name": "Canada", "slug": "canada"}], "biography": "Aerlyn Weissman (born 1947 in Chicago, Illinois) is a two-time Genie Award-winning Canadian documentary filmmaker and political activist on behalf of the lesbian community.", "biography_author": "Wikidata", "date_of_biography": "2023-09-05T17:17:22.247899+10:00", "external_links": [{"id": 5654, "uri": "https://en.wikipedia.org/wiki/Aerlyn_Weissman"}], "uuid": "21e9408a-a43b-4816-8be1-ba7f6fad9dfe", "source": {"name": "Vernon", "slug": "vernon"}, "source_identifier": "14673", "external_references": [{"id": 38352, "source": {"name": "Wikidata", "slug": "wikidata"}, "source_identifier": "Q16205864"}], "date_modified": "2025-03-05T14:11:44.866093+11:00"}, {"id": 77301, "name": "Ginny Stikeman", "roles_in_work": [{"id": 2650230, "title": "Forbidden love: the unashamed stories of lesbian lives", "work_id": 82987, "role": "co-producer", "role_id": 915, "is_primary": true}], "also_known_as": "Virginia Stikeman", "date_of_birth": "1941-01-01", "date_of_death": null, "genders": [{"id": 5, "name": "Female", "slug": "female"}], "languages": [], "places_of_operation": [{"id": 36, "name": "Canada", "slug": "canada"}], "biography": "Virginia \"Ginny\" Stikeman is a Canadian filmmaker, director, producer and editor known for her documentary work. Stikeman had a 30-year career at the National Film Board of Canada, and led its women's unit, Studio D, from 1990 until its closure in 1996.", "biography_author": "Wikidata", "date_of_biography": "2023-09-05T20:14:03.305420+10:00", "external_links": [{"id": 5843, "uri": "https://en.wikipedia.org/wiki/Ginny_Stikeman"}], "uuid": "7cc6811e-bdf4-4d6a-9bab-6b0d87e68c9f", "source": {"name": "Vernon", "slug": "vernon"}, "source_identifier": "19858", "external_references": [{"id": 38747, "source": {"name": "Wikidata", "slug": "wikidata"}, "source_identifier": "Q27781208"}], "date_modified": "2025-03-05T14:11:44.287986+11:00"}, {"id": 77300, "name": "Telefilms Canada", "roles_in_work": [{"id": 2786899, "title": "Making perfect babies", "work_id": 82986, "role": "production company", "role_id": 941, "is_primary": true}], "also_known_as": "", "date_of_birth": "", "date_of_death": "", "genders": [], "languages": [], "places_of_operation": [], "biography": "", "biography_author": null, "date_of_biography": "2023-05-09T14:00:26.291117+10:00", "external_links": [], "uuid": "73ba498e-6dad-40b8-8d77-38d5280df0ad", "source": {"name": "Vernon", "slug": "vernon"}, "source_identifier": "13239", "external_references": [{"id": 34398, "source": {"name": "Wikidata", "slug": "wikidata"}, "source_identifier": "Q121034485"}], "date_modified": "2025-03-14T19:35:44.181390+11:00"}, {"id": 77299, "name": "Gwynne Basen", "roles_in_work": [{"id": 2786894, "title": "Making babies", "work_id": 82985, "role": "director", "role_id": 938, "is_primary": true}, {"id": 2786901, "title": "Making perfect babies", "work_id": 82986, "role": "director", "role_id": 938, "is_primary": true}, {"id": 2786906, "title": "On the eighth day: perfecting Mother Nature", "work_id": 115326, "role": "director", "role_id": 938, "is_primary": true}], "also_known_as": "", "date_of_birth": "", "date_of_death": "", "genders": [], "languages": [], "places_of_operation": [], "biography": "", "biography_author": null, "date_of_biography": "2023-05-09T14:00:28.352018+10:00", "external_links": [], "uuid": "c0a28664-8ca1-4f39-bbaa-c6c16aa8e648", "source": {"name": "Vernon", "slug": "vernon"}, "source_identifier": "20159", "external_references": [{"id": 37235, "source": {"name": "Wikidata", "slug": "wikidata"}, "source_identifier": "Q121126181"}], "date_modified": "2025-03-14T19:35:48.990944+11:00"}, {"id": 77298, "name": "Mary Armstrong", "roles_in_work": [{"id": 2790342, "title": "The Burning times", "work_id": 84514, "role": "co-producer", "role_id": 915, "is_primary": true}, {"id": 2786905, "title": "On the eighth day: perfecting Mother Nature", "work_id": 115326, "role": "producer", "role_id": 1089, "is_primary": true}, {"id": 2786893, "title": "Making babies", "work_id": 82985, "role": "producer", "role_id": 1089, "is_primary": true}, {"id": 2786900, "title": "Making perfect babies", "work_id": 82986, "role": "producer", "role_id": 1089, "is_primary": true}], "also_known_as": "", "date_of_birth": "", "date_of_death": "", "genders": [], "languages": [], "places_of_operation": [], "biography": "", "biography_author": null, "date_of_biography": "2023-05-09T19:30:48.355873+10:00", "external_links": [], "uuid": "675edbb5-a9d5-4a14-a89d-18593a39840e", "source": {"name": "Vernon", "slug": "vernon"}, "source_identifier": "24706", "external_references": [{"id": 38013, "source": {"name": "Wikidata", "slug": "wikidata"}, "source_identifier": "Q121126431"}], "date_modified": "2025-03-14T19:55:17.511222+11:00"}, {"id": 77297, "name": "Debbie McGee", "roles_in_work": [{"id": 780803, "title": "Toward intimacy (Captioned)", "work_id": 82984, "role": "director", "role_id": 938, "is_primary": true}], "also_known_as": "", "date_of_birth": null, "date_of_death": null, "genders": [], "languages": [], "places_of_operation": [], "biography": "", "biography_author": null, "date_of_biography": null, "external_links": [], "uuid": "c94da953-7300-4bb2-9c32-8bfd865148fc", "source": {"name": "Vernon", "slug": "vernon"}, "source_identifier": null, "external_references": [{"id": 32776, "source": {"name": "Wikidata", "slug": "wikidata"}, "source_identifier": "Q121079341"}], "date_modified": "2023-09-05T19:05:09.621010+10:00"}, {"id": 77296, "name": "Nicole Hubert", "roles_in_work": [{"id": 1809199, "title": "Toward intimacy (Captioned)", "work_id": 82984, "role": "producer", "role_id": 1089, "is_primary": true}, {"id": 2082920, "title": "After the Montreal massacre", "work_id": 82988, "role": "producer", "role_id": 1089, "is_primary": true}], "also_known_as": "", "date_of_birth": "", "date_of_death": "", "genders": [], "languages": [], "places_of_operation": [], "biography": "", "biography_author": null, "date_of_biography": "2023-05-09T11:52:25.773125+10:00", "external_links": [], "uuid": "88a8c96e-3d6c-4224-91f7-065ed64f6b7d", "source": {"name": "Vernon", "slug": "vernon"}, "source_identifier": "25797", "external_references": [{"id": 51345, "source": {"name": "Wikidata", "slug": "wikidata"}, "source_identifier": "Q121357848"}], "date_modified": "2023-09-05T23:31:09.144699+10:00"}, {"id": 77295, "name": "Wendy Hill-Tout", "roles_in_work": [{"id": 2277202, "title": "The Third person", "work_id": 92893, "role": "director", "role_id": 938, "is_primary": true}, {"id": 2296882, "title": "Shattered dreams", "work_id": 82983, "role": "director", "role_id": 938, "is_primary": true}], "also_known_as": "", "date_of_birth": "", "date_of_death": "", "genders": [], "languages": [], "places_of_operation": [], "biography": "", "biography_author": null, "date_of_biography": "2023-05-09T18:29:12.685752+10:00", "external_links": [], "uuid": "f1b89bf7-2e7e-457d-9911-3d36e01f9f49", "source": {"name": "Vernon", "slug": "vernon"}, "source_identifier": "30319", "external_references": [{"id": 33769, "source": {"name": "Wikidata", "slug": "wikidata"}, "source_identifier": "Q121035762"}], "date_modified": "2023-09-06T02:12:46.749256+10:00"}, {"id": 77294, "name": "Inland Films", "roles_in_work": [{"id": 780759, "title": "It's not easy", "work_id": 82973, "role": "production company", "role_id": 941, "is_primary": true}], "also_known_as": "", "date_of_birth": null, "date_of_death": null, "genders": [], "languages": [], "places_of_operation": [], "biography": "", "biography_author": null, "date_of_biography": null, "external_links": [], "uuid": "498d89f2-ae99-4ea0-b749-bb078518b18f", "source": {"name": "Vernon", "slug": "vernon"}, "source_identifier": null, "external_references": [{"id": 35107, "source": {"name": "Wikidata", "slug": "wikidata"}, "source_identifier": "Q121079440"}], "date_modified": "2023-09-05T20:48:57.847821+10:00"}]}