{"count": 28687, "next": "https://api.acmi.net.au/creators/?page=2673", "previous": "https://api.acmi.net.au/creators/?page=2671", "results": [{"id": 11776, "name": "Nadia Rose", "roles_in_work": [{"id": 2643261, "title": "My wardrobe door", "work_id": 93759, "role": "creator", "role_id": 968, "is_primary": true}], "also_known_as": "", "date_of_birth": null, "date_of_death": null, "genders": [{"id": 5, "name": "Female", "slug": "female"}], "languages": [], "places_of_operation": [], "biography": "", "biography_author": null, "date_of_biography": null, "external_links": [], "uuid": "cc60b689-1d39-4ad1-a54a-86f48a84d1a2", "source": {"name": "Vernon", "slug": "vernon"}, "source_identifier": "3584", "external_references": [], "date_modified": "2025-03-05T11:55:28.308956+11:00"}, {"id": 11775, "name": "Lee Stewart", "roles_in_work": [{"id": 2643255, "title": "The old man", "work_id": 93758, "role": "creator", "role_id": 968, "is_primary": true}], "also_known_as": "", "date_of_birth": null, "date_of_death": null, "genders": [{"id": 9, "name": "Male", "slug": "male"}], "languages": [], "places_of_operation": [], "biography": "", "biography_author": null, "date_of_biography": null, "external_links": [], "uuid": "c2c57e34-70e3-4c4c-bd89-f69fd74a8c1b", "source": {"name": "Vernon", "slug": "vernon"}, "source_identifier": "3583", "external_references": [], "date_modified": "2025-03-05T11:55:25.939731+11:00"}, {"id": 11774, "name": "Sheiny New", "roles_in_work": [{"id": 2643159, "title": "Stories from the Jewish Community", "work_id": 114340, "role": "creator", "role_id": 968, "is_primary": true}, {"id": 2643246, "title": "Journeys", "work_id": 114345, "role": "creator", "role_id": 968, "is_primary": true}], "also_known_as": "", "date_of_birth": "", "date_of_death": "", "genders": [{"id": 5, "name": "Female", "slug": "female"}], "languages": [], "places_of_operation": [], "biography": "", "biography_author": null, "date_of_biography": "2023-05-09T18:59:02.762057+10:00", "external_links": [], "uuid": "2fe2fa37-f63b-4a6b-9911-183ab0c953d5", "source": {"name": "Vernon", "slug": "vernon"}, "source_identifier": "3580", "external_references": [], "date_modified": "2025-03-05T11:55:22.430289+11:00"}, {"id": 11773, "name": "Emma Levy", "roles_in_work": [{"id": 2643237, "title": "Small town girl", "work_id": 114349, "role": "creator", "role_id": 968, "is_primary": true}, {"id": 2643160, "title": "Stories from the Jewish Community", "work_id": 114340, "role": "creator", "role_id": 968, "is_primary": true}], "also_known_as": "", "date_of_birth": "", "date_of_death": "", "genders": [{"id": 5, "name": "Female", "slug": "female"}], "languages": [], "places_of_operation": [], "biography": "", "biography_author": null, "date_of_biography": "2023-05-09T18:59:02.998308+10:00", "external_links": [], "uuid": "a35443f4-112d-40a0-865b-713d77376315", "source": {"name": "Vernon", "slug": "vernon"}, "source_identifier": "3579", "external_references": [], "date_modified": "2025-03-05T11:55:18.871562+11:00"}, {"id": 11772, "name": "Adriana Gomberg", "roles_in_work": [{"id": 2643227, "title": "One wedding and several migrations", "work_id": 114346, "role": "creator", "role_id": 968, "is_primary": true}, {"id": 2643165, "title": "Stories from the Jewish Community", "work_id": 114340, "role": "creator", "role_id": 968, "is_primary": true}], "also_known_as": "", "date_of_birth": "", "date_of_death": "", "genders": [{"id": 5, "name": "Female", "slug": "female"}], "languages": [], "places_of_operation": [], "biography": "", "biography_author": null, "date_of_biography": "2023-05-09T18:59:04.168785+10:00", "external_links": [], "uuid": "260fbc2d-4a55-4872-8608-86192ca28221", "source": {"name": "Vernon", "slug": "vernon"}, "source_identifier": "3578", "external_references": [], "date_modified": "2025-03-05T11:55:15.281859+11:00"}, {"id": 11771, "name": "Idit Benjamin", "roles_in_work": [{"id": 2643218, "title": "Fate makes all the moves", "work_id": 114341, "role": "creator", "role_id": 968, "is_primary": true}, {"id": 2643164, "title": "Stories from the Jewish Community", "work_id": 114340, "role": "creator", "role_id": 968, "is_primary": true}], "also_known_as": "", "date_of_birth": "", "date_of_death": "", "genders": [{"id": 5, "name": "Female", "slug": "female"}], "languages": [], "places_of_operation": [], "biography": "", "biography_author": null, "date_of_biography": "2023-05-09T18:59:09.874171+10:00", "external_links": [], "uuid": "0fe888ca-f59f-4007-8db8-f40ca8bb812c", "source": {"name": "Vernon", "slug": "vernon"}, "source_identifier": "3577", "external_references": [], "date_modified": "2025-03-05T11:55:11.713953+11:00"}, {"id": 11770, "name": "Astrid Silberman", "roles_in_work": [{"id": 2643156, "title": "Stories from the Jewish Community", "work_id": 114340, "role": "creator", "role_id": 968, "is_primary": true}, {"id": 2643205, "title": "A Fishy problem", "work_id": 114342, "role": "creator", "role_id": 968, "is_primary": true}], "also_known_as": "", "date_of_birth": "", "date_of_death": "", "genders": [{"id": 5, "name": "Female", "slug": "female"}], "languages": [], "places_of_operation": [], "biography": "", "biography_author": null, "date_of_biography": "2023-05-09T18:59:06.192428+10:00", "external_links": [], "uuid": "f5024b52-0d7a-4041-abcc-89c32aeb6828", "source": {"name": "Vernon", "slug": "vernon"}, "source_identifier": "3576", "external_references": [], "date_modified": "2025-03-05T11:55:06.577452+11:00"}, {"id": 11769, "name": "Jenni Klempfner", "roles_in_work": [{"id": 2643196, "title": "Ingredients of love", "work_id": 114344, "role": "creator", "role_id": 968, "is_primary": true}, {"id": 2643158, "title": "Stories from the Jewish Community", "work_id": 114340, "role": "creator", "role_id": 968, "is_primary": true}], "also_known_as": "", "date_of_birth": "", "date_of_death": "", "genders": [{"id": 5, "name": "Female", "slug": "female"}], "languages": [], "places_of_operation": [], "biography": "", "biography_author": null, "date_of_biography": "2023-05-09T18:59:02.538276+10:00", "external_links": [], "uuid": "1ee4fe9e-7692-4fbd-bfb5-c7f43b302afc", "source": {"name": "Vernon", "slug": "vernon"}, "source_identifier": "3575", "external_references": [], "date_modified": "2025-03-05T11:55:03.032511+11:00"}, {"id": 11768, "name": "Alain Herz", "roles_in_work": [{"id": 2643163, "title": "Stories from the Jewish Community", "work_id": 114340, "role": "creator", "role_id": 968, "is_primary": true}, {"id": 2643187, "title": "I'm not French", "work_id": 114343, "role": "creator", "role_id": 968, "is_primary": true}], "also_known_as": "", "date_of_birth": "", "date_of_death": "", "genders": [{"id": 9, "name": "Male", "slug": "male"}], "languages": [], "places_of_operation": [], "biography": "", "biography_author": null, "date_of_biography": "2023-05-09T18:59:03.696643+10:00", "external_links": [], "uuid": "a3c34513-c096-4390-8720-36a669682177", "source": {"name": "Vernon", "slug": "vernon"}, "source_identifier": "3574", "external_references": [], "date_modified": "2025-03-05T11:54:59.459838+11:00"}, {"id": 11767, "name": "Ximena Silberman", "roles_in_work": [{"id": 2643157, "title": "Stories from the Jewish Community", "work_id": 114340, "role": "creator", "role_id": 968, "is_primary": true}, {"id": 2643182, "title": "Second life", "work_id": 114347, "role": "creator", "role_id": 968, "is_primary": true}], "also_known_as": "", "date_of_birth": "", "date_of_death": "", "genders": [{"id": 5, "name": "Female", "slug": "female"}], "languages": [], "places_of_operation": [], "biography": "", "biography_author": null, "date_of_biography": "2023-05-09T18:59:02.311106+10:00", "external_links": [], "uuid": "1f5eaf45-1b19-4c12-a28e-ae27f894e869", "source": {"name": "Vernon", "slug": "vernon"}, "source_identifier": "3573", "external_references": [], "date_modified": "2025-03-05T11:54:55.975841+11:00"}]}