{"count": 28681, "next": "https://api.acmi.net.au/creators/?page=608", "previous": "https://api.acmi.net.au/creators/?page=606", "results": [{"id": 79509, "name": "Edward Denault", "roles_in_work": [{"id": 1995123, "title": "The Last starfighter", "work_id": 91158, "role": "co-producer", "role_id": 915, "is_primary": true}], "also_known_as": "", "date_of_birth": null, "date_of_death": null, "genders": [], "languages": [], "places_of_operation": [], "biography": "", "biography_author": null, "date_of_biography": null, "external_links": [], "uuid": "b91a86b3-ff36-4fc0-84a2-94ffc34f843f", "source": {"name": "Vernon", "slug": "vernon"}, "source_identifier": null, "external_references": [{"id": 43432, "source": {"name": "Wikidata", "slug": "wikidata"}, "source_identifier": "Q121079107"}], "date_modified": "2023-09-05T19:25:52.918856+10:00"}, {"id": 79508, "name": "Philippe Marie Charluet", "roles_in_work": [{"id": 2116135, "title": "Bill Henson: dreams of darkness", "work_id": 91155, "role": "producer/director", "role_id": 31, "is_primary": true}], "also_known_as": "", "date_of_birth": "", "date_of_death": "", "genders": [], "languages": [], "places_of_operation": [], "biography": "", "biography_author": null, "date_of_biography": "2023-05-09T12:54:27.455667+10:00", "external_links": [], "uuid": "630aedd5-7b06-4716-9331-178d08a91cce", "source": {"name": "Vernon", "slug": "vernon"}, "source_identifier": "26863", "external_references": [{"id": 52147, "source": {"name": "Wikidata", "slug": "wikidata"}, "source_identifier": "Q121360809"}], "date_modified": "2023-09-06T00:06:18.462577+10:00"}, {"id": 79507, "name": "Miranda Richardson", "roles_in_work": [{"id": 2135993, "title": "Chicken run [DVD]", "work_id": 91154, "role": "voice", "role_id": 471, "is_primary": false}], "also_known_as": "", "date_of_birth": "1958-03-03", "date_of_death": "", "genders": [{"id": 5, "name": "Female", "slug": "female"}], "languages": [{"id": 4, "name": "French", "slug": "french"}], "places_of_operation": [{"id": 10, "name": "United Kingdom", "slug": "united-kingdom"}], "biography": "Miranda Jane Richardson (born 3 March 1958)  is an English actress who has worked in TV, Films, and Theatre.After graduating from the Bristol Old Vic Theatre School, Richardson began her career in 1979 and made her West End debut in the 1981 play Moving , before being nominated for the 1987 Olivier Award for Best Actress for A Lie of the Mind.\nHer films include Empire of the Sun, The Crying Game, The Apostle, Sleepy Hollow, Chicken Run, The Hours, Spider, The Phantom Of The Opera, Harry Potter and the Goblet of Fire, The Young Victoria, Made in Dagenham, Belle, and Stronger.Her television credits include  Blackadder, A Dance to the Music of Time, Merlin, The Lost Prince, Gideon's Daughter, the sitcom The Life and Times of Vivienne Vyle, Rubicon  and Good Omens . \nRichardson has been nominated for Academy Award for Damage and Tom & Viv. A six-time BAFTA Award nominee, she won the BAFTA Award for Best Actress in a Supporting Role for Damage . She has also been nominated for seven Golden Globe Awards, winning twice for Enchanted April  and the TV film Fatherland.", "biography_author": "Wikidata", "date_of_biography": "2023-09-05T23:18:02.675399+10:00", "external_links": [{"id": 6041, "uri": "https://en.wikipedia.org/wiki/Miranda_Richardson"}], "uuid": "043a9149-7d24-4e6a-a9dd-1e49d6c9b7a6", "source": {"name": "Vernon", "slug": "vernon"}, "source_identifier": "38175", "external_references": [{"id": 50925, "source": {"name": "Wikidata", "slug": "wikidata"}, "source_identifier": "Q229241"}, {"id": 55294, "source": {"name": "VIAF", "slug": "viaf"}, "source_identifier": "7587211"}, {"id": 55295, "source": {"name": "LOC Auth", "slug": "loc-auth"}, "source_identifier": "no95054677"}, {"id": 55296, "source": {"name": "WorldCat", "slug": "worldcat"}, "source_identifier": "lccn-no95054677"}], "date_modified": "2023-09-05T23:18:05.498470+10:00"}, {"id": 79506, "name": "Julia Sawalha", "roles_in_work": [{"id": 2135991, "title": "Chicken run [DVD]", "work_id": 91154, "role": "voice", "role_id": 471, "is_primary": false}], "also_known_as": "", "date_of_birth": "1968-09-09", "date_of_death": "", "genders": [{"id": 5, "name": "Female", "slug": "female"}], "languages": [{"id": 1, "name": "English", "slug": "english"}], "places_of_operation": [{"id": 10, "name": "United Kingdom", "slug": "united-kingdom"}], "biography": "Julia Sawalha (born 9 September 1968) is an English actress. She is best known for playing Saffron \"Saffy\" Monsoon in the BBC sitcom Absolutely Fabulous (1992–2012). Her other television roles include as Lynda Day in Press Gang (1989–1993), as Hannah Greyshott in Second Thoughts (1991–1994), and its sequel series, Faith in the Future (1995–1998), Lydia Bennet in the television miniseries of Jane Austen's Pride and Prejudice (1995), Georgina and Kid's vocal effects in Sheeep (2000–2001), Carla Borrego in Jonathan Creek (2001–2004), and Dorcas Lane in the BBC's costume drama Lark Rise to Candleford (2008–2011). Her film credits include Buddy's Song (1991), The Wind in the Willows (1996), Chicken Run (2000) and Absolutely Fabulous: The Movie (2016).", "biography_author": "Wikidata", "date_of_biography": "2023-09-05T21:54:57.770972+10:00", "external_links": [{"id": 5945, "uri": "https://en.wikipedia.org/wiki/Julia_Sawalha"}], "uuid": "0f4c740d-a1bf-4e40-845d-ec7df3a907af", "source": {"name": "Vernon", "slug": "vernon"}, "source_identifier": "38174", "external_references": [{"id": 36978, "source": {"name": "Wikidata", "slug": "wikidata"}, "source_identifier": "Q272567"}, {"id": 54944, "source": {"name": "VIAF", "slug": "viaf"}, "source_identifier": "41435438"}, {"id": 54945, "source": {"name": "LOC Auth", "slug": "loc-auth"}, "source_identifier": "no96042272"}, {"id": 54946, "source": {"name": "WorldCat", "slug": "worldcat"}, "source_identifier": "lccn-no96042272"}], "date_modified": "2023-09-05T21:54:57.791071+10:00"}, {"id": 79505, "name": "Gary McCaffrie", "roles_in_work": [{"id": 910412, "title": "The Micallef programme [Series 2: episodes 1 - 3]", "work_id": 91152, "role": "co-producer", "role_id": 915, "is_primary": true}], "also_known_as": "", "date_of_birth": null, "date_of_death": null, "genders": [], "languages": [], "places_of_operation": [], "biography": "", "biography_author": null, "date_of_biography": null, "external_links": [], "uuid": "1040af6e-7332-49af-a64f-a70dfecfeac7", "source": {"name": "Vernon", "slug": "vernon"}, "source_identifier": null, "external_references": [{"id": 33048, "source": {"name": "Wikidata", "slug": "wikidata"}, "source_identifier": "Q121270936"}], "date_modified": "2023-09-05T19:58:00.728739+10:00"}, {"id": 79504, "name": "Shaun Micallef", "roles_in_work": [{"id": 2265485, "title": "Seachange = Sea change. Series 3. Ep. 1-7", "work_id": 91195, "role": "cast", "role_id": 33, "is_primary": false}, {"id": 910411, "title": "The Micallef programme [Series 2: episodes 1 - 3]", "work_id": 91152, "role": "co-producer", "role_id": 915, "is_primary": true}], "also_known_as": "", "date_of_birth": "1962-07-18", "date_of_death": "", "genders": [{"id": 9, "name": "Male", "slug": "male"}], "languages": [{"id": 1, "name": "English", "slug": "english"}], "places_of_operation": [{"id": 3, "name": "Australia", "slug": "australia"}], "biography": "Shaun Patrick Micallef (; born 18 July 1962) is an Australian comedian, actor, writer and television presenter. He is currently the host of the satirical news comedy series Shaun Micallef's Mad as Hell on the ABC. He also hosted the game show Talkin' 'Bout Your Generation on Channel 10.\nMicallef first gained recognition as a cast member of the sketch comedy show Full Frontal, which led to his own sketch show, The Micallef P(r)ogram(me), the sitcom Welcher & Welcher and the variety show Micallef Tonight. He then hosted the satirical news comedy series Newstopia on SBS, the game show Talkin' 'Bout Your Generation on Network Ten, and Shaun Micallef's Mad as Hell on ABC TV. He also co-created and starred in Mr & Mrs Murder on Network Ten.\nIn addition to his television work Micallef has appeared on stage, most notably in a revival of The Odd Couple (2016) for the Melbourne Theatre Company and on radio as the co-host of Melbourne station Vega 91.5's morning program.  He is also the author of several books: Smithereens (2004), Preincarnate (2010), The President's Desk (2014), Tales from a Tall Forest (2017), The Uncollected Plays of Shaun Micallef (2018), Mad as Hell and Back (2019), Happily Ever Afterwards (2021) and Tripping Over Myself, a memoir (2022).", "biography_author": "Wikidata", "date_of_biography": "2023-09-06T01:14:01.247286+10:00", "external_links": [{"id": 6175, "uri": "https://en.wikipedia.org/wiki/Shaun_Micallef"}], "uuid": "8aff0b46-6f54-4c69-80a4-9c8b225348ad", "source": {"name": "Vernon", "slug": "vernon"}, "source_identifier": "28725", "external_references": [{"id": 35250, "source": {"name": "Wikidata", "slug": "wikidata"}, "source_identifier": "Q3776714"}, {"id": 55804, "source": {"name": "VIAF", "slug": "viaf"}, "source_identifier": "93368369"}, {"id": 55805, "source": {"name": "LOC Auth", "slug": "loc-auth"}, "source_identifier": "nb2012018491"}, {"id": 55806, "source": {"name": "WorldCat", "slug": "worldcat"}, "source_identifier": "lccn-nb2012018491"}], "date_modified": "2023-09-06T01:14:08.400154+10:00"}, {"id": 79503, "name": "Mike Tollin", "roles_in_work": [{"id": 2476012, "title": "Varsity blues", "work_id": 91151, "role": "co-producer", "role_id": 915, "is_primary": true}], "also_known_as": "", "date_of_birth": "1955-10-06", "date_of_death": "", "genders": [{"id": 9, "name": "Male", "slug": "male"}], "languages": [], "places_of_operation": [{"id": 1, "name": "United States of America", "slug": "united-states-of-america"}], "biography": "Michael Tollin is an American film and television producer/director who served as executive producer of the Emmy award-winning The Last Dance, a 10-part documentary series on Michael Jordan and the Chicago Bulls dynasty. The series received rave reviews and set numerous ratings records, being seen by nearly 15 million viewers per episode on ESPN and many million more on Netflix around the world. Tollin's other  career highlights include Radio, Coach Carter, Hank Aaron: Chasing the Dream, and Varsity Blues. He has also produced and/or directed such movies and television shows as Arli$$, Smallville, One Tree Hill, All That, Kenan & Kel, Summer Catch, Wild Hogs, Dreamer (2005 film), Good Burger, Big Fat Liar, and The Bronx is Burning. Tollin has also directed and/or produced documentaries, including The Comedy Store Documentary, Let Me Be Brave, Morningside Five, Iverson, Kareem: Minority of One, and Small Potatoes: Who Killed the USFL?. He is currently the co-chairman of Mandalay Sports Media.\n\n", "biography_author": "Wikidata", "date_of_biography": "2023-09-05T23:15:38.392655+10:00", "external_links": [{"id": 2747, "uri": "https://en.wikipedia.org/wiki/Michael_Tollin"}], "uuid": "4d0fa051-3795-45b4-86e0-711b3199eaea", "source": {"name": "Vernon", "slug": "vernon"}, "source_identifier": "25399", "external_references": [{"id": 11708, "source": {"name": "Wikidata", "slug": "wikidata"}, "source_identifier": "Q1274453"}, {"id": 11709, "source": {"name": "VIAF", "slug": "viaf"}, "source_identifier": "51910826"}, {"id": 11710, "source": {"name": "LOC Auth", "slug": "loc-auth"}, "source_identifier": "no98116327"}, {"id": 11711, "source": {"name": "WorldCat", "slug": "worldcat"}, "source_identifier": "lccn-no98116327"}], "date_modified": "2023-09-05T23:15:38.402722+10:00"}, {"id": 79502, "name": "Tova Laiter", "roles_in_work": [{"id": 2476011, "title": "Varsity blues", "work_id": 91151, "role": "co-producer", "role_id": 915, "is_primary": true}], "also_known_as": "", "date_of_birth": "", "date_of_death": "", "genders": [], "languages": [], "places_of_operation": [], "biography": "", "biography_author": null, "date_of_biography": "2023-08-17T15:31:04.705710+10:00", "external_links": [], "uuid": "824701ab-83f6-4fa2-a40f-1d1c74b9e529", "source": {"name": "Vernon", "slug": "vernon"}, "source_identifier": "29947", "external_references": [{"id": 39751, "source": {"name": "Wikidata", "slug": "wikidata"}, "source_identifier": "Q121143954"}], "date_modified": "2023-09-06T01:57:53.790909+10:00"}, {"id": 79501, "name": "David Hodgson", "roles_in_work": [{"id": 878180, "title": "Like ordinary children", "work_id": 91144, "role": "producer/director", "role_id": 31, "is_primary": true}], "also_known_as": "", "date_of_birth": null, "date_of_death": null, "genders": [], "languages": [], "places_of_operation": [], "biography": "", "biography_author": null, "date_of_biography": null, "external_links": [], "uuid": "34a2c79a-e5dc-47b1-9ef7-14b7aa1c4eba", "source": {"name": "Vernon", "slug": "vernon"}, "source_identifier": null, "external_references": [{"id": 51365, "source": {"name": "Wikidata", "slug": "wikidata"}, "source_identifier": "Q121360945"}], "date_modified": "2023-09-05T18:58:40.954269+10:00"}, {"id": 79500, "name": "Sue Hayes", "roles_in_work": [{"id": 807347, "title": "King Arthur: his life and legends", "work_id": 91141, "role": "producer/director", "role_id": 31, "is_primary": true}], "also_known_as": "", "date_of_birth": null, "date_of_death": null, "genders": [], "languages": [], "places_of_operation": [], "biography": "", "biography_author": null, "date_of_biography": null, "external_links": [], "uuid": "5bc894cf-012a-43de-9baf-7da7c3f51df9", "source": {"name": "Vernon", "slug": "vernon"}, "source_identifier": null, "external_references": [{"id": 50614, "source": {"name": "Wikidata", "slug": "wikidata"}, "source_identifier": "Q121361386"}], "date_modified": "2023-09-06T01:35:16.778312+10:00"}]}