{"count": 28687, "next": "https://api.acmi.net.au/creators/?page=2201", "previous": "https://api.acmi.net.au/creators/?page=2199", "results": [{"id": 18681, "name": "On Film", "roles_in_work": [{"id": 2471155, "title": "Watching ballet", "work_id": 74491, "role": "production company", "role_id": 941, "is_primary": true}], "also_known_as": "", "date_of_birth": "", "date_of_death": "", "genders": [], "languages": [], "places_of_operation": [], "biography": "", "biography_author": null, "date_of_biography": "2023-08-14T12:35:06.960621+10:00", "external_links": [], "uuid": "1645b508-b7dc-4d88-9132-c52aeef85809", "source": {"name": "Vernon", "slug": "vernon"}, "source_identifier": "11130", "external_references": [], "date_modified": "2023-08-14T12:35:06.960880+10:00"}, {"id": 18679, "name": "Adventure Films", "roles_in_work": [{"id": 2646835, "title": "Watch the birdie", "work_id": 74487, "role": "production company", "role_id": 941, "is_primary": true}], "also_known_as": "", "date_of_birth": null, "date_of_death": null, "genders": [], "languages": [], "places_of_operation": [], "biography": "", "biography_author": null, "date_of_biography": null, "external_links": [], "uuid": "9753b10c-9746-4f7d-996c-9cee9ce98570", "source": {"name": "Vernon", "slug": "vernon"}, "source_identifier": "5037", "external_references": [], "date_modified": "2025-03-05T13:12:22.660030+11:00"}, {"id": 18675, "name": "Turners Film Productions", "roles_in_work": [{"id": 878876, "title": "The Roll press: a Hugh Smith shipyard machine tool", "work_id": 91439, "role": "production company", "role_id": 941, "is_primary": true}, {"id": 877796, "title": "Metalization service", "work_id": 90895, "role": "production company", "role_id": 941, "is_primary": true}, {"id": 2401711, "title": "Automatic magazine loading applied to the Churchill-Fay automatic lathe", "work_id": 91825, "role": "production company", "role_id": 941, "is_primary": true}, {"id": 860498, "title": "Washington: the first seven years", "work_id": 74480, "role": "production company", "role_id": 941, "is_primary": true}, {"id": 875818, "title": "Churchill link line", "work_id": 89668, "role": "production company", "role_id": 941, "is_primary": true}], "also_known_as": "", "date_of_birth": "", "date_of_death": "", "genders": [], "languages": [], "places_of_operation": [], "biography": "", "biography_author": null, "date_of_biography": "2023-08-11T14:30:29.953212+10:00", "external_links": [], "uuid": "db5d8fda-3fdd-4aa3-aff6-eeaf0a85ef48", "source": {"name": "Vernon", "slug": "vernon"}, "source_identifier": "13748", "external_references": [], "date_modified": "2023-08-11T14:30:29.953492+10:00"}, {"id": 18672, "name": "Frost Productions", "roles_in_work": [{"id": 861795, "title": "George Washington country", "work_id": 75794, "role": "production company", "role_id": 941, "is_primary": true}, {"id": 2283256, "title": "Twin Peaks. Pilot. Season one. Eps 1-4 [DVD]", "work_id": 94412, "role": "production company", "role_id": 941, "is_primary": true}, {"id": 2283244, "title": "Twin Peaks. Pilot episode", "work_id": 88099, "role": "production company", "role_id": 941, "is_primary": true}, {"id": 2283270, "title": "Twin Peaks. Season one. Eps 5-7 [DVD]", "work_id": 94413, "role": "production company", "role_id": 941, "is_primary": true}, {"id": 860494, "title": "Washington D.C.: a living city", "work_id": 74479, "role": "production company", "role_id": 941, "is_primary": true}, {"id": 2283652, "title": "Twin Peaks. Season one. Eps 5 and 6 [DVD]", "work_id": 93072, "role": "production company", "role_id": 941, "is_primary": true}, {"id": 2283646, "title": "Twin Peaks. Season one. Eps 1 and 2 [DVD]", "work_id": 92724, "role": "production company", "role_id": 941, "is_primary": true}], "also_known_as": "", "date_of_birth": "", "date_of_death": "", "genders": [], "languages": [], "places_of_operation": [], "biography": "", "biography_author": null, "date_of_biography": "2023-05-09T18:05:55.898669+10:00", "external_links": [], "uuid": "51cfe661-c6f0-48d7-86ae-0c23156b67fb", "source": {"name": "Vernon", "slug": "vernon"}, "source_identifier": "8587", "external_references": [{"id": 42451, "source": {"name": "Wikidata", "slug": "wikidata"}, "source_identifier": "Q121035611"}], "date_modified": "2023-09-05T19:54:34.162400+10:00"}, {"id": 18671, "name": "A B Nordisk Filmkopia", "roles_in_work": [{"id": 2469682, "title": "Vasaloppet: the Vasa ski race = the Wasa ski race", "work_id": 74476, "role": "production company", "role_id": 941, "is_primary": true}], "also_known_as": "", "date_of_birth": "", "date_of_death": "", "genders": [], "languages": [], "places_of_operation": [], "biography": "", "biography_author": null, "date_of_biography": "2023-08-14T12:06:32.028760+10:00", "external_links": [], "uuid": "d4804cb0-75da-4d60-8597-d70d8eb43582", "source": {"name": "Vernon", "slug": "vernon"}, "source_identifier": "4925", "external_references": [], "date_modified": "2023-08-14T12:06:32.029082+10:00"}, {"id": 18663, "name": "Line Films", "roles_in_work": [{"id": 2471135, "title": "Walt Whitman's Leaves of grass", "work_id": 74457, "role": "production company", "role_id": 941, "is_primary": true}], "also_known_as": "", "date_of_birth": "", "date_of_death": "", "genders": [], "languages": [], "places_of_operation": [], "biography": "", "biography_author": null, "date_of_biography": "2023-08-14T12:34:46.618089+10:00", "external_links": [], "uuid": "16c1aae4-09dc-4c4c-a4b5-a86ab4f2299f", "source": {"name": "Vernon", "slug": "vernon"}, "source_identifier": "10072", "external_references": [], "date_modified": "2023-08-14T12:34:46.618343+10:00"}, {"id": 18662, "name": "Frederic Goodich", "roles_in_work": [{"id": 2227383, "title": "Fantasy of feet", "work_id": 96241, "role": "director", "role_id": 938, "is_primary": true}, {"id": 2278409, "title": "Toes tell", "work_id": 96244, "role": "co-director", "role_id": 959, "is_primary": true}, {"id": 2759252, "title": "What makes clouds", "work_id": 96069, "role": "producer", "role_id": 1089, "is_primary": true}, {"id": 860463, "title": "Walt Whitman's Civil War", "work_id": 74456, "role": "producer/director", "role_id": 31, "is_primary": true}], "also_known_as": "", "date_of_birth": "", "date_of_death": "", "genders": [], "languages": [], "places_of_operation": [], "biography": "", "biography_author": null, "date_of_biography": "2023-05-09T17:55:56.925988+10:00", "external_links": [], "uuid": "76277dc2-83be-4a9e-98ca-6c3c801ee221", "source": {"name": "Vernon", "slug": "vernon"}, "source_identifier": "19266", "external_references": [{"id": 35380, "source": {"name": "Wikidata", "slug": "wikidata"}, "source_identifier": "Q121126121"}], "date_modified": "2023-09-05T19:53:07.712510+10:00"}, {"id": 18661, "name": "Keith Fraser", "roles_in_work": [{"id": 2646830, "title": "Walking the mob", "work_id": 74454, "role": "producer", "role_id": 1089, "is_primary": true}], "also_known_as": "", "date_of_birth": null, "date_of_death": null, "genders": [], "languages": [], "places_of_operation": [], "biography": "", "biography_author": null, "date_of_biography": null, "external_links": [], "uuid": "03c50cda-f250-42ac-8d80-207ea55c57d7", "source": {"name": "Vernon", "slug": "vernon"}, "source_identifier": "23137", "external_references": [], "date_modified": "2025-03-05T13:12:18.881985+11:00"}, {"id": 18659, "name": "Ted Spiegel", "roles_in_work": [{"id": 2398424, "title": "A Walk in the park", "work_id": 74451, "role": "director", "role_id": 938, "is_primary": true}], "also_known_as": "", "date_of_birth": "", "date_of_death": "", "genders": [], "languages": [], "places_of_operation": [], "biography": "", "biography_author": null, "date_of_biography": "2023-08-11T13:23:41.015485+10:00", "external_links": [], "uuid": "09ec8f10-49aa-4cc3-b774-cc8aaba1e48b", "source": {"name": "Vernon", "slug": "vernon"}, "source_identifier": "29541", "external_references": [], "date_modified": "2023-08-11T13:23:41.015831+10:00"}, {"id": 18658, "name": "Inquiry Inc", "roles_in_work": [{"id": 2398423, "title": "A Walk in the park", "work_id": 74451, "role": "production company", "role_id": 941, "is_primary": true}], "also_known_as": "", "date_of_birth": "", "date_of_death": "", "genders": [], "languages": [], "places_of_operation": [], "biography": "", "biography_author": null, "date_of_biography": "2023-08-11T13:23:40.398357+10:00", "external_links": [], "uuid": "effadf47-39d4-4555-812d-7c862529626a", "source": {"name": "Vernon", "slug": "vernon"}, "source_identifier": "9305", "external_references": [], "date_modified": "2023-08-11T13:23:40.398662+10:00"}]}