{"count": 28681, "next": "https://api.acmi.net.au/creators/?page=1854", "previous": "https://api.acmi.net.au/creators/?page=1852", "results": [{"id": 25356, "name": "Gilda Baracchi", "roles_in_work": [{"id": 2127886, "title": "Bush Christmas", "work_id": 83815, "role": "co-producer", "role_id": 915, "is_primary": true}, {"id": 2043420, "title": "Manganinnie", "work_id": 83199, "role": "producer", "role_id": 1089, "is_primary": true}, {"id": 1987150, "title": "Manganinnie (Captioned)", "work_id": 83200, "role": "producer", "role_id": 1089, "is_primary": true}], "also_known_as": "", "date_of_birth": "", "date_of_death": "", "genders": [], "languages": [], "places_of_operation": [], "biography": "", "biography_author": null, "date_of_biography": "2023-05-09T13:14:36.480984+10:00", "external_links": [], "uuid": "97cab381-cfa0-4be8-b05b-300a7cdacbf1", "source": {"name": "Vernon", "slug": "vernon"}, "source_identifier": "19817", "external_references": [{"id": 40348, "source": {"name": "Wikidata", "slug": "wikidata"}, "source_identifier": "Q121091195"}], "date_modified": "2023-09-05T20:12:08.777402+10:00"}, {"id": 25355, "name": "Mark Rubin", "roles_in_work": [{"id": 2614162, "title": "Peter Ustinov reads the orchestra", "work_id": 83195, "role": "producer", "role_id": 1089, "is_primary": true}], "also_known_as": "", "date_of_birth": "", "date_of_death": "", "genders": [], "languages": [], "places_of_operation": [], "biography": "", "biography_author": null, "date_of_biography": "2023-05-09T15:30:29.882393+10:00", "external_links": [], "uuid": "c8699e74-6d97-436a-9f38-7cc1fe36e6b8", "source": {"name": "Vernon", "slug": "vernon"}, "source_identifier": "24548", "external_references": [{"id": 38295, "source": {"name": "Wikidata", "slug": "wikidata"}, "source_identifier": "Q121270874"}], "date_modified": "2025-02-26T20:07:24.339127+11:00"}, {"id": 25354, "name": "Mark Rubin Productions", "roles_in_work": [{"id": 2614161, "title": "Peter Ustinov reads the orchestra", "work_id": 83195, "role": "production company", "role_id": 941, "is_primary": true}], "also_known_as": "", "date_of_birth": "", "date_of_death": "", "genders": [], "languages": [], "places_of_operation": [], "biography": "", "biography_author": null, "date_of_biography": "2023-05-09T15:30:29.644880+10:00", "external_links": [], "uuid": "44c52407-b33e-4890-b1ab-16585f65140d", "source": {"name": "Vernon", "slug": "vernon"}, "source_identifier": "10310", "external_references": [{"id": 33790, "source": {"name": "Wikidata", "slug": "wikidata"}, "source_identifier": "Q121091018"}], "date_modified": "2025-02-26T20:07:23.739950+11:00"}, {"id": 25353, "name": "Dave Unwin", "roles_in_work": [{"id": 2614159, "title": "The Tale of Tom Kitten and Jemima Puddle-duck", "work_id": 83194, "role": "director", "role_id": 938, "is_primary": true}, {"id": 2238472, "title": "Father Christmas", "work_id": 92540, "role": "director", "role_id": 938, "is_primary": true}, {"id": 2282358, "title": "The Tale of the Flopsy bunnies and Mrs. Tittlemouse", "work_id": 85115, "role": "co-director", "role_id": 959, "is_primary": true}, {"id": 789725, "title": "The Wind in the willows", "work_id": 85456, "role": "director", "role_id": 938, "is_primary": true}], "also_known_as": "", "date_of_birth": "", "date_of_death": "", "genders": [], "languages": [], "places_of_operation": [], "biography": "", "biography_author": null, "date_of_biography": "2023-05-09T18:02:34.305391+10:00", "external_links": [], "uuid": "593443a2-7bf8-4280-9d3d-f5844265d940", "source": {"name": "Vernon", "slug": "vernon"}, "source_identifier": "17476", "external_references": [{"id": 39327, "source": {"name": "Wikidata", "slug": "wikidata"}, "source_identifier": "Q113427521"}], "date_modified": "2025-02-26T20:07:22.315029+11:00"}, {"id": 25352, "name": "Jumping Jack Animation", "roles_in_work": [{"id": 2282349, "title": "The Tale of the Flopsy bunnies and Mrs. Tittlemouse", "work_id": 85115, "role": "production company", "role_id": 941, "is_primary": true}, {"id": 2614158, "title": "The Tale of Tom Kitten and Jemima Puddle-duck", "work_id": 83194, "role": "production company", "role_id": 941, "is_primary": true}], "also_known_as": "", "date_of_birth": "", "date_of_death": "", "genders": [], "languages": [], "places_of_operation": [], "biography": "", "biography_author": null, "date_of_biography": "2023-05-09T18:02:32.949749+10:00", "external_links": [], "uuid": "d48b3a8a-00ff-4884-a000-fc444ea37aac", "source": {"name": "Vernon", "slug": "vernon"}, "source_identifier": "9665", "external_references": [], "date_modified": "2025-02-26T20:07:21.701474+11:00"}, {"id": 25351, "name": "Naked Lunch Productions", "roles_in_work": [{"id": 2614150, "title": "The Naked lunch", "work_id": 83192, "role": "production company", "role_id": 941, "is_primary": true}], "also_known_as": "", "date_of_birth": null, "date_of_death": null, "genders": [], "languages": [], "places_of_operation": [], "biography": "", "biography_author": null, "date_of_biography": null, "external_links": [], "uuid": "fc8f07c2-f86d-4591-a52e-3d93b1a04820", "source": {"name": "Vernon", "slug": "vernon"}, "source_identifier": "10754", "external_references": [], "date_modified": "2025-02-26T20:07:17.056672+11:00"}, {"id": 25347, "name": "Truck Branss", "roles_in_work": [{"id": 781585, "title": "Swan Lake", "work_id": 83189, "role": "director", "role_id": 938, "is_primary": true}], "also_known_as": "", "date_of_birth": "1926-01-21", "date_of_death": "2005-02-23", "genders": [{"id": 9, "name": "Male", "slug": "male"}], "languages": [{"id": 5, "name": "German", "slug": "german"}], "places_of_operation": [{"id": 18, "name": "Germany", "slug": "germany"}], "biography": "", "biography_author": null, "date_of_biography": null, "external_links": [], "uuid": "a53d310a-08ba-416b-b85f-b58787e65b8a", "source": {"name": "Vernon", "slug": "vernon"}, "source_identifier": "29994", "external_references": [{"id": 13690, "source": {"name": "Wikidata", "slug": "wikidata"}, "source_identifier": "Q1393264"}, {"id": 13691, "source": {"name": "VIAF", "slug": "viaf"}, "source_identifier": "54353091"}, {"id": 13692, "source": {"name": "LOC Auth", "slug": "loc-auth"}, "source_identifier": "no2005072166"}, {"id": 13693, "source": {"name": "WorldCat", "slug": "worldcat"}, "source_identifier": "lccn-no2005072166"}], "date_modified": "2023-09-13T12:33:06.427099+10:00"}, {"id": 25344, "name": "Prism Art and Design", "roles_in_work": [{"id": 2241192, "title": "Fireman Sam. Treasure hunt", "work_id": 83913, "role": "production company", "role_id": 941, "is_primary": true}, {"id": 2241127, "title": "Fireman Sam. Snow business", "work_id": 83185, "role": "production company", "role_id": 941, "is_primary": true}], "also_known_as": "", "date_of_birth": "", "date_of_death": "", "genders": [], "languages": [], "places_of_operation": [], "biography": "", "biography_author": null, "date_of_biography": "2023-05-09T16:53:59.406844+10:00", "external_links": [], "uuid": "55d97527-2fb4-4910-bd30-4a4ef9e3554d", "source": {"name": "Vernon", "slug": "vernon"}, "source_identifier": "11651", "external_references": [], "date_modified": "2023-06-14T16:33:30.576250+10:00"}, {"id": 25343, "name": "Sianel 4 Cymru (S4C) (Channel 4 Wales)", "roles_in_work": [{"id": 3082664, "title": "From Camelot to Christ [Widescreen]", "work_id": 93032, "role": "production company", "role_id": 941, "is_primary": true}, {"id": 3082650, "title": "Sacred groves [Widescreen]", "work_id": 93031, "role": "production company", "role_id": 941, "is_primary": true}, {"id": 3082636, "title": "Heroes in defeat [Widescreen]", "work_id": 93030, "role": "production company", "role_id": 941, "is_primary": true}, {"id": 3082622, "title": "In the beginning [Widescreen]", "work_id": 92838, "role": "production company", "role_id": 941, "is_primary": true}, {"id": 2177343, "title": "Operavox", "work_id": 92403, "role": "production company", "role_id": 941, "is_primary": true}, {"id": 1995562, "title": "Solomon and Gaenor", "work_id": 91779, "role": "production company", "role_id": 941, "is_primary": true}, {"id": 3082691, "title": "A Dead song? [Widescreen]", "work_id": 93034, "role": "production company", "role_id": 941, "is_primary": true}, {"id": 2241124, "title": "Fireman Sam. Snow business", "work_id": 83185, "role": "production company", "role_id": 941, "is_primary": true}, {"id": 3082678, "title": "Legend and reality [Widescreen]", "work_id": 93033, "role": "production company", "role_id": 941, "is_primary": true}], "also_known_as": "", "date_of_birth": "", "date_of_death": "", "genders": [], "languages": [], "places_of_operation": [], "biography": "", "biography_author": null, "date_of_biography": "2023-05-09T19:33:10.672583+10:00", "external_links": [], "uuid": "dcad1cd4-558e-4e85-9a4f-3671b6261429", "source": {"name": "Vernon", "slug": "vernon"}, "source_identifier": "12219", "external_references": [{"id": 38258, "source": {"name": "Wikidata", "slug": "wikidata"}, "source_identifier": "Q121143646"}], "date_modified": "2025-03-17T10:30:16.399684+11:00"}, {"id": 25342, "name": "Bumper Films", "roles_in_work": [{"id": 2241120, "title": "Fireman Sam. Snow business", "work_id": 83185, "role": "production company", "role_id": 941, "is_primary": true}], "also_known_as": "", "date_of_birth": "", "date_of_death": "", "genders": [], "languages": [], "places_of_operation": [], "biography": "", "biography_author": null, "date_of_biography": "2023-05-09T16:53:52.500516+10:00", "external_links": [], "uuid": "0b6ff517-df2a-46f0-85ac-9f8c15f96156", "source": {"name": "Vernon", "slug": "vernon"}, "source_identifier": "6112", "external_references": [], "date_modified": "2023-06-14T16:33:30.576250+10:00"}]}