{"count": 28687, "next": "https://api.acmi.net.au/creators/?page=1995", "previous": "https://api.acmi.net.au/creators/?page=1993", "results": [{"id": 22683, "name": "Sandra Alexander", "roles_in_work": [{"id": 2214074, "title": "Imagine, EC and me", "work_id": 85030, "role": "co-producer", "role_id": 915, "is_primary": true}, {"id": 2751369, "title": "Role call", "work_id": 97778, "role": "producer", "role_id": 1089, "is_primary": true}, {"id": 1806901, "title": "About Supertext Subtitles (Captioned)", "work_id": 80563, "role": "producer", "role_id": 1089, "is_primary": true}, {"id": 1809184, "title": "It's not easy", "work_id": 82973, "role": "producer", "role_id": 1089, "is_primary": true}], "also_known_as": "", "date_of_birth": "", "date_of_death": "", "genders": [], "languages": [], "places_of_operation": [], "biography": "", "biography_author": null, "date_of_biography": "2023-05-09T15:51:35.138913+10:00", "external_links": [], "uuid": "84fd4d6a-4224-4f33-bde7-5c503f39a43d", "source": {"name": "Vernon", "slug": "vernon"}, "source_identifier": "28529", "external_references": [{"id": 36344, "source": {"name": "Wikidata", "slug": "wikidata"}, "source_identifier": "Q121034481"}], "date_modified": "2025-03-13T00:41:38.017181+11:00"}, {"id": 22681, "name": "Don Fitzsimmons", "roles_in_work": [{"id": 889180, "title": "Students in action", "work_id": 99005, "role": "director", "role_id": 938, "is_primary": true}, {"id": 2752614, "title": "No. 1 On the Charts : A Look at the Australian Pop Music Industry", "work_id": 98378, "role": "director", "role_id": 938, "is_primary": true}, {"id": 2752750, "title": "Film for art's sake", "work_id": 98438, "role": "director", "role_id": 938, "is_primary": true}, {"id": 2753974, "title": "Countering sexism", "work_id": 99003, "role": "director", "role_id": 938, "is_primary": true}, {"id": 772423, "title": "The Blessed event: quandary", "work_id": 80556, "role": "director", "role_id": 938, "is_primary": true}, {"id": 772417, "title": "The Affair-Quandary", "work_id": 80554, "role": "director", "role_id": 938, "is_primary": true}, {"id": 2753978, "title": "Women working in the media", "work_id": 99004, "role": "director", "role_id": 938, "is_primary": true}, {"id": 901377, "title": "Cover to cover looks at ... = a pet for Mrs Arbuckle ...", "work_id": 82126, "role": "director", "role_id": 938, "is_primary": true}], "also_known_as": "", "date_of_birth": "", "date_of_death": "", "genders": [], "languages": [], "places_of_operation": [], "biography": "", "biography_author": null, "date_of_biography": "2023-05-09T13:46:52.414194+10:00", "external_links": [], "uuid": "2bab8b35-35ef-4cf2-a4fb-c176228447cd", "source": {"name": "Vernon", "slug": "vernon"}, "source_identifier": "18205", "external_references": [{"id": 42596, "source": {"name": "Wikidata", "slug": "wikidata"}, "source_identifier": "Q121085953"}], "date_modified": "2025-03-13T01:35:58.907232+11:00"}, {"id": 22678, "name": "James Porter", "roles_in_work": [{"id": 2649008, "title": "Green Winter", "work_id": 80552, "role": "producer", "role_id": 1089, "is_primary": true}], "also_known_as": "", "date_of_birth": null, "date_of_death": null, "genders": [], "languages": [], "places_of_operation": [], "biography": "", "biography_author": null, "date_of_biography": null, "external_links": [], "uuid": "f735b173-3ac8-4465-a871-25375e59b343", "source": {"name": "Vernon", "slug": "vernon"}, "source_identifier": "21307", "external_references": [], "date_modified": "2025-03-05T13:55:16.945110+11:00"}, {"id": 22677, "name": "Nick Ostrovskis", "roles_in_work": [{"id": 2649006, "title": "Eight in the 80's", "work_id": 80551, "role": "director", "role_id": 938, "is_primary": true}], "also_known_as": "", "date_of_birth": "", "date_of_death": "", "genders": [], "languages": [], "places_of_operation": [], "biography": "", "biography_author": null, "date_of_biography": "2023-08-11T16:18:28.459683+10:00", "external_links": [], "uuid": "27df3e6a-3846-43d2-9ffd-07f8b0e519f3", "source": {"name": "Vernon", "slug": "vernon"}, "source_identifier": "25757", "external_references": [], "date_modified": "2025-03-05T13:55:15.553718+11:00"}, {"id": 22676, "name": "Mark Bayly", "roles_in_work": [{"id": 772408, "title": "Quandary: domestic violence", "work_id": 80550, "role": "director", "role_id": 938, "is_primary": true}, {"id": 2789188, "title": "Media intrusion into grief", "work_id": 99406, "role": "producer/director", "role_id": 31, "is_primary": true}, {"id": 2789194, "title": "Couchman over Australia", "work_id": 115386, "role": "producer/director", "role_id": 31, "is_primary": true}, {"id": 2789185, "title": "Schizophrenia", "work_id": 82744, "role": "producer/director", "role_id": 31, "is_primary": true}, {"id": 2789181, "title": "Couchman on customer service", "work_id": 82662, "role": "producer/director", "role_id": 31, "is_primary": true}, {"id": 2789175, "title": "Tattoos", "work_id": 82661, "role": "producer/director", "role_id": 31, "is_primary": true}, {"id": 2754869, "title": "Violent Nights", "work_id": 99405, "role": "producer/director", "role_id": 31, "is_primary": true}], "also_known_as": "", "date_of_birth": "", "date_of_death": "", "genders": [], "languages": [], "places_of_operation": [], "biography": "", "biography_author": null, "date_of_biography": "2023-08-14T12:32:33.535450+10:00", "external_links": [], "uuid": "744229a8-e786-4239-a4fe-98ab5044c22a", "source": {"name": "Vernon", "slug": "vernon"}, "source_identifier": "24465", "external_references": [], "date_modified": "2025-03-14T19:49:46.820160+11:00"}, {"id": 22675, "name": "Hardy Schmouth Productions", "roles_in_work": [{"id": 2065899, "title": "A Christmas Special with Luciano Pavarotti", "work_id": 80548, "role": "production company", "role_id": 941, "is_primary": true}], "also_known_as": "", "date_of_birth": "", "date_of_death": "", "genders": [], "languages": [], "places_of_operation": [], "biography": "", "biography_author": null, "date_of_biography": "2023-05-09T11:23:06.833916+10:00", "external_links": [], "uuid": "10416617-615a-4091-a4d6-c31038fd6835", "source": {"name": "Vernon", "slug": "vernon"}, "source_identifier": "8993", "external_references": [{"id": 39980, "source": {"name": "Wikidata", "slug": "wikidata"}, "source_identifier": "Q121271451"}], "date_modified": "2023-09-05T20:28:52.071896+10:00"}, {"id": 22674, "name": "Dietmar Dworschak", "roles_in_work": [{"id": 2300274, "title": "Silent night with Jose Carreras", "work_id": 80544, "role": "director", "role_id": 938, "is_primary": true}], "also_known_as": "", "date_of_birth": "", "date_of_death": "", "genders": [], "languages": [], "places_of_operation": [], "biography": "", "biography_author": null, "date_of_biography": "2023-05-09T18:35:27.888033+10:00", "external_links": [], "uuid": "bdc749e9-5d70-4c18-b5b4-d8c21420d32f", "source": {"name": "Vernon", "slug": "vernon"}, "source_identifier": "18143", "external_references": [], "date_modified": "2023-06-14T16:33:30.576250+10:00"}, {"id": 22673, "name": "European American Productions", "roles_in_work": [{"id": 2300270, "title": "Silent night with Jose Carreras", "work_id": 80544, "role": "production company", "role_id": 941, "is_primary": true}], "also_known_as": "", "date_of_birth": "", "date_of_death": "", "genders": [], "languages": [], "places_of_operation": [], "biography": "", "biography_author": null, "date_of_biography": "2023-05-09T18:35:27.653888+10:00", "external_links": [], "uuid": "ed555ddf-94b4-4591-bd87-134f20166bbb", "source": {"name": "Vernon", "slug": "vernon"}, "source_identifier": "8002", "external_references": [], "date_modified": "2023-06-14T16:33:30.576250+10:00"}, {"id": 22672, "name": "Degn-Film", "roles_in_work": [{"id": 2300268, "title": "Silent night with Jose Carreras", "work_id": 80544, "role": "production company", "role_id": 941, "is_primary": true}], "also_known_as": "", "date_of_birth": "", "date_of_death": "", "genders": [], "languages": [], "places_of_operation": [], "biography": "", "biography_author": null, "date_of_biography": "2023-05-09T18:35:27.406516+10:00", "external_links": [], "uuid": "f8b917b9-5f7e-41b4-9e7f-e14fcb420ea0", "source": {"name": "Vernon", "slug": "vernon"}, "source_identifier": "7383", "external_references": [], "date_modified": "2023-06-14T16:33:30.576250+10:00"}, {"id": 22671, "name": "Mike Trumble", "roles_in_work": [{"id": 2258943, "title": "Rupert and the Runaway Dragon", "work_id": 80543, "role": "director", "role_id": 938, "is_primary": true}], "also_known_as": "", "date_of_birth": "", "date_of_death": "", "genders": [], "languages": [], "places_of_operation": [], "biography": "", "biography_author": null, "date_of_biography": "2023-05-09T17:24:34.047510+10:00", "external_links": [], "uuid": "1ddf05c4-35cc-4a42-a4d8-6c6fba59bad1", "source": {"name": "Vernon", "slug": "vernon"}, "source_identifier": "25401", "external_references": [], "date_modified": "2023-06-14T16:33:30.576250+10:00"}]}