{"count": 28687, "next": "https://api.acmi.net.au/creators/?page=585", "previous": "https://api.acmi.net.au/creators/?page=583", "results": [{"id": 79743, "name": "Gihei Kogure", "roles_in_work": [{"id": 1995736, "title": "Madadayo", "work_id": 92248, "role": "co-producer", "role_id": 915, "is_primary": true}], "also_known_as": "", "date_of_birth": null, "date_of_death": null, "genders": [], "languages": [], "places_of_operation": [], "biography": "", "biography_author": null, "date_of_biography": null, "external_links": [], "uuid": "5bf2ab71-74e3-4f3c-8d72-12025a92a132", "source": {"name": "Vernon", "slug": "vernon"}, "source_identifier": null, "external_references": [{"id": 32953, "source": {"name": "Wikidata", "slug": "wikidata"}, "source_identifier": "Q121078746"}], "date_modified": "2023-09-05T20:11:37.321446+10:00"}, {"id": 79742, "name": "Ondrej Trojan", "roles_in_work": [{"id": 2195693, "title": "Divided we fall = Musime si pomahat [DVD]", "work_id": 92247, "role": "co-producer", "role_id": 915, "is_primary": true}], "also_known_as": "", "date_of_birth": "1959-12-31", "date_of_death": "", "genders": [{"id": 9, "name": "Male", "slug": "male"}], "languages": [{"id": 20, "name": "Czech", "slug": "czech"}, {"id": 5, "name": "German", "slug": "german"}], "places_of_operation": [{"id": 49, "name": "Czech Republic", "slug": "czech-republic"}], "biography": "Ondřej Trojan (Czech pronunciation: [ˈondr̝ɛj ˈtrojan]) (born 31 December 1959) is a Czech film producer, actor and film director. Two of the films he produced were nominated for the Academy Award for Best Foreign Language Film : Divided We Fall (2000) and Želary (2003), which he also directed. He is the brother of Ivan Trojan.", "biography_author": "Wikidata", "date_of_biography": "2023-08-01T16:26:10.911581+10:00", "external_links": [{"id": 2802, "uri": "https://en.wikipedia.org/wiki/Ond%C5%99ej_Trojan"}], "uuid": "8c842ae3-dc5c-41f4-86c6-1ce8f2ebf0f5", "source": {"name": "Vernon", "slug": "vernon"}, "source_identifier": "11132", "external_references": [{"id": 11945, "source": {"name": "Wikidata", "slug": "wikidata"}, "source_identifier": "Q3352541"}, {"id": 11946, "source": {"name": "VIAF", "slug": "viaf"}, "source_identifier": "84955431"}, {"id": 11947, "source": {"name": "LOC Auth", "slug": "loc-auth"}, "source_identifier": "no2006045529"}, {"id": 11948, "source": {"name": "WorldCat", "slug": "worldcat"}, "source_identifier": "lccn-no2006045529"}], "date_modified": "2023-09-05T23:37:05.372019+10:00"}, {"id": 79741, "name": "Pavel Pavel Borovan", "roles_in_work": [{"id": 2195689, "title": "Divided we fall = Musime si pomahat [DVD]", "work_id": 92247, "role": "co-producer", "role_id": 915, "is_primary": true}], "also_known_as": "", "date_of_birth": "1946-03-04", "date_of_death": "", "genders": [{"id": 9, "name": "Male", "slug": "male"}], "languages": [], "places_of_operation": [], "biography": "", "biography_author": null, "date_of_biography": "2023-05-09T15:16:28.857392+10:00", "external_links": [], "uuid": "11d4e085-0a88-4398-8677-83e688cea3b3", "source": {"name": "Vernon", "slug": "vernon"}, "source_identifier": "26386", "external_references": [{"id": 12083, "source": {"name": "Wikidata", "slug": "wikidata"}, "source_identifier": "Q95400920"}, {"id": 12084, "source": {"name": "VIAF", "slug": "viaf"}, "source_identifier": "251625032"}], "date_modified": "2023-09-05T23:50:51.727064+10:00"}, {"id": 79740, "name": "Bookwise", "roles_in_work": [{"id": 3083622, "title": "Marc Chagall", "work_id": 92579, "role": "distributor", "role_id": 437, "is_primary": false}, {"id": 3083636, "title": "Max Ernst", "work_id": 92580, "role": "distributor", "role_id": 437, "is_primary": false}, {"id": 3083649, "title": "Hockney at the Tate", "work_id": 92581, "role": "distributor", "role_id": 437, "is_primary": false}, {"id": 3083665, "title": "Point counterpoint: the life and work of Georges Seurat 1859-1891", "work_id": 92582, "role": "distributor", "role_id": 437, "is_primary": false}, {"id": 3083680, "title": "Ben Nicholson 1894-1982", "work_id": 92583, "role": "distributor", "role_id": 437, "is_primary": false}, {"id": 3083696, "title": "Anthony Caro", "work_id": 92584, "role": "distributor", "role_id": 437, "is_primary": false}, {"id": 3083712, "title": "The Story of fashion. Vol 02: the art and sport of fashion", "work_id": 92585, "role": "distributor", "role_id": 437, "is_primary": false}, {"id": 3083727, "title": "The Unquiet spirit: the life and art of Edgar Degas (1834-1917)", "work_id": 92586, "role": "distributor", "role_id": 437, "is_primary": false}, {"id": 3083738, "title": "Lucio Fontana: reaching out into space", "work_id": 92587, "role": "distributor", "role_id": 437, "is_primary": false}, {"id": 3083748, "title": "Vermeer: light, love and silence", "work_id": 92588, "role": "distributor", "role_id": 437, "is_primary": false}, {"id": 3083759, "title": "The Story of fashion. Vol. 1: Remembrance of things past", "work_id": 92589, "role": "distributor", "role_id": 437, "is_primary": false}, {"id": 3083772, "title": "Chanel, Chanel", "work_id": 92590, "role": "distributor", "role_id": 437, "is_primary": false}, {"id": 3083802, "title": "Monsieur Rene Magritte", "work_id": 92593, "role": "distributor", "role_id": 437, "is_primary": false}, {"id": 3083819, "title": "Robert Motherwell and the New York school", "work_id": 92594, "role": "distributor", "role_id": 437, "is_primary": false}, {"id": 3083837, "title": "Chillida", "work_id": 92595, "role": "distributor", "role_id": 437, "is_primary": false}, {"id": 3083850, "title": "The Restless eye: Eugene Delacroix: a film based on his paintings and his journals", "work_id": 92596, "role": "distributor", "role_id": 437, "is_primary": false}, {"id": 3083860, "title": "Vermeer: the spell of a woman", "work_id": 92597, "role": "distributor", "role_id": 437, "is_primary": false}, {"id": 3083871, "title": "The story of fashion. Vol. 3: The Age of dissent", "work_id": 92598, "role": "distributor", "role_id": 437, "is_primary": false}, {"id": 3083883, "title": "Raphael: the apprentice years. [Vol. 1]", "work_id": 92599, "role": "distributor", "role_id": 437, "is_primary": false}, {"id": 3083893, "title": "Raphael: the prince of painters. [Vol. 2]", "work_id": 92600, "role": "distributor", "role_id": 437, "is_primary": false}, {"id": 3083903, "title": "Francis Bacon", "work_id": 92601, "role": "distributor", "role_id": 437, "is_primary": false}, {"id": 3083447, "title": "Marcel Duchamp: a game of chess", "work_id": 92572, "role": "distributor", "role_id": 437, "is_primary": false}, {"id": 3083930, "title": "Jackson Pollock", "work_id": 92603, "role": "distributor", "role_id": 437, "is_primary": false}, {"id": 3083942, "title": "Andy Warhol", "work_id": 92604, "role": "distributor", "role_id": 437, "is_primary": false}, {"id": 3083950, "title": "Miro: theatre of dreams", "work_id": 92605, "role": "distributor", "role_id": 437, "is_primary": false}, {"id": 3083969, "title": "Christian Boltanski", "work_id": 92606, "role": "distributor", "role_id": 437, "is_primary": false}, {"id": 3083978, "title": "Robert Rauschenberg: man at work", "work_id": 92607, "role": "distributor", "role_id": 437, "is_primary": false}, {"id": 3083990, "title": "Phaidon art collection", "work_id": 115582, "role": "distributor", "role_id": 437, "is_primary": false}, {"id": 2097819, "title": "Annie Leibovitz", "work_id": 92592, "role": "distributor", "role_id": 437, "is_primary": false}, {"id": 2086207, "title": "Alphonse Mucha", "work_id": 92243, "role": "distributor", "role_id": 437, "is_primary": false}, {"id": 3083914, "title": "W. Eugene Smith", "work_id": 92602, "role": "distributor", "role_id": 437, "is_primary": false}, {"id": 3083492, "title": "Jasper John: ideas in paint", "work_id": 92573, "role": "distributor", "role_id": 437, "is_primary": false}, {"id": 3083502, "title": "Alvar Aalto: technology and nature", "work_id": 92574, "role": "distributor", "role_id": 437, "is_primary": false}, {"id": 3083514, "title": "Three colours Cezanne", "work_id": 92575, "role": "distributor", "role_id": 437, "is_primary": false}, {"id": 3083542, "title": "Quiet man with welding torch: a portrait of sculptor Julio Gonzalez 1876-1942", "work_id": 92576, "role": "distributor", "role_id": 437, "is_primary": false}, {"id": 3083598, "title": "Isamu Noguchi", "work_id": 92577, "role": "distributor", "role_id": 437, "is_primary": false}, {"id": 3083606, "title": "Donatello 1386-1466: the first modern sculptor", "work_id": 92578, "role": "distributor", "role_id": 437, "is_primary": false}], "also_known_as": "", "date_of_birth": "", "date_of_death": "", "genders": [], "languages": [], "places_of_operation": [], "biography": "", "biography_author": null, "date_of_biography": "2023-08-02T10:12:19.372334+10:00", "external_links": [], "uuid": "b4984e33-3a82-4f3e-b803-9c0bd1379755", "source": {"name": "Vernon", "slug": "vernon"}, "source_identifier": "30711", "external_references": [], "date_modified": "2025-03-17T10:35:15.166449+11:00"}, {"id": 79739, "name": "Stuart Griffiths", "roles_in_work": [{"id": 911447, "title": "Let me out", "work_id": 92235, "role": "co-producers/directors", "role_id": 628, "is_primary": true}], "also_known_as": "", "date_of_birth": null, "date_of_death": null, "genders": [], "languages": [], "places_of_operation": [], "biography": "", "biography_author": null, "date_of_biography": null, "external_links": [], "uuid": "b941f4ed-973b-4470-8c48-d817dc30a767", "source": {"name": "Vernon", "slug": "vernon"}, "source_identifier": null, "external_references": [], "date_modified": "2023-06-14T16:33:30.576250+10:00"}, {"id": 79738, "name": "Gregg Torkington", "roles_in_work": [{"id": 911446, "title": "Let me out", "work_id": 92235, "role": "co-producers/directors", "role_id": 628, "is_primary": true}], "also_known_as": "", "date_of_birth": null, "date_of_death": null, "genders": [], "languages": [], "places_of_operation": [], "biography": "", "biography_author": null, "date_of_biography": null, "external_links": [], "uuid": "7c70fb33-36dc-4865-828d-23f5b1fd5bf2", "source": {"name": "Vernon", "slug": "vernon"}, "source_identifier": null, "external_references": [], "date_modified": "2023-06-14T16:33:30.576250+10:00"}, {"id": 79737, "name": "Kiar Eegan", "roles_in_work": [{"id": 911445, "title": "Let me out", "work_id": 92235, "role": "co-producers/directors", "role_id": 628, "is_primary": true}], "also_known_as": "", "date_of_birth": null, "date_of_death": null, "genders": [], "languages": [], "places_of_operation": [], "biography": "", "biography_author": null, "date_of_biography": null, "external_links": [], "uuid": "9319bbe5-19e4-432f-bdb6-4531fa23b838", "source": {"name": "Vernon", "slug": "vernon"}, "source_identifier": null, "external_references": [], "date_modified": "2023-06-14T16:33:30.576250+10:00"}, {"id": 79736, "name": "Kylie Burke", "roles_in_work": [{"id": 2176431, "title": "One wild weekend with the lonesome rustler", "work_id": 92234, "role": "co-producer", "role_id": 915, "is_primary": true}], "also_known_as": "", "date_of_birth": "", "date_of_death": "", "genders": [], "languages": [], "places_of_operation": [], "biography": "", "biography_author": null, "date_of_biography": "2023-05-09T14:46:08.077066+10:00", "external_links": [], "uuid": "f53a4b6a-0718-4024-b74d-3c76a92f2d91", "source": {"name": "Vernon", "slug": "vernon"}, "source_identifier": "23431", "external_references": [{"id": 39798, "source": {"name": "Wikidata", "slug": "wikidata"}, "source_identifier": "Q121315252"}], "date_modified": "2023-09-05T22:12:52.644604+10:00"}, {"id": 79735, "name": "Melissa Kyu-Jung Lee", "roles_in_work": [{"id": 2265743, "title": "Secret women's business", "work_id": 92233, "role": "producer/director", "role_id": 31, "is_primary": true}], "also_known_as": "", "date_of_birth": "", "date_of_death": "", "genders": [], "languages": [], "places_of_operation": [], "biography": "", "biography_author": null, "date_of_biography": "2023-05-09T17:37:27.328487+10:00", "external_links": [], "uuid": "f40e4421-c427-4785-b4d1-03ebd8786bfc", "source": {"name": "Vernon", "slug": "vernon"}, "source_identifier": "24929", "external_references": [{"id": 51761, "source": {"name": "Wikidata", "slug": "wikidata"}, "source_identifier": "Q121361050"}], "date_modified": "2023-09-05T22:59:52.036655+10:00"}, {"id": 79734, "name": "Edwina Throsby", "roles_in_work": [{"id": 2074413, "title": "A Sense of smell", "work_id": 92232, "role": "producer/director", "role_id": 31, "is_primary": true}], "also_known_as": "", "date_of_birth": "", "date_of_death": "", "genders": [], "languages": [], "places_of_operation": [], "biography": "", "biography_author": null, "date_of_biography": "2023-05-09T11:38:45.438601+10:00", "external_links": [], "uuid": "5774e802-a27a-44b1-8575-1f56904d2ab9", "source": {"name": "Vernon", "slug": "vernon"}, "source_identifier": "18648", "external_references": [{"id": 50688, "source": {"name": "Wikidata", "slug": "wikidata"}, "source_identifier": "Q121361425"}], "date_modified": "2023-09-05T19:27:23.469692+10:00"}]}