{"count": 28684, "next": "https://api.acmi.net.au/creators/?page=2784", "previous": "https://api.acmi.net.au/creators/?page=2782", "results": [{"id": 9287, "name": "Brook Andrew", "roles_in_work": [{"id": 2711403, "title": "Neighbours (the remix) - Brook Andrew (Hail Amerika)", "work_id": 109255, "role": "director", "role_id": 938, "is_primary": true}, {"id": 2711401, "title": "Neighbours (the remix) - Brook Andrew (Hail Amerika)", "work_id": 109255, "role": "creator", "role_id": 968, "is_primary": true}], "also_known_as": "", "date_of_birth": "", "date_of_death": "", "genders": [], "languages": [], "places_of_operation": [], "biography": "", "biography_author": null, "date_of_biography": "2023-08-14T10:05:49.329120+10:00", "external_links": [], "uuid": "a10be4e9-cfbb-42b4-b92f-28b104c783bd", "source": {"name": "Vernon", "slug": "vernon"}, "source_identifier": "112251", "external_references": [], "date_modified": "2025-03-11T23:51:52.044651+11:00"}, {"id": 9286, "name": "gameLab", "roles_in_work": [{"id": 2711546, "title": "Fluid", "work_id": 109254, "role": "creator", "role_id": 968, "is_primary": true}], "also_known_as": "", "date_of_birth": "", "date_of_death": "", "genders": [], "languages": [], "places_of_operation": [], "biography": "gameLab is an independent, award wining game development company focused on\ncreating new ways for people to play. Past and present project include\nsingle-player and multiplayer online games, physical game installations,\nmassively multiplayer social games, and a pop-up book. FLUID was\ncommissioned by the Swiss Centre for Global Dialogue.", "biography_author": null, "date_of_biography": "2025-03-11T23:55:01.431353+11:00", "external_links": [], "uuid": "37cb823c-89ba-4f54-83d4-4432d55319b6", "source": {"name": "Vernon", "slug": "vernon"}, "source_identifier": "112268", "external_references": [], "date_modified": "2025-03-11T23:55:01.431664+11:00"}, {"id": 9285, "name": "Eric Zimmerman", "roles_in_work": [{"id": 2711545, "title": "Fluid", "work_id": 109254, "role": "creator", "role_id": 968, "is_primary": true}], "also_known_as": "", "date_of_birth": "", "date_of_death": "", "genders": [], "languages": [], "places_of_operation": [], "biography": "", "biography_author": null, "date_of_biography": "2023-08-11T16:40:13.644957+10:00", "external_links": [], "uuid": "057e6329-3156-4099-a503-eae9ddd92cc2", "source": {"name": "Vernon", "slug": "vernon"}, "source_identifier": "112266", "external_references": [], "date_modified": "2025-03-11T23:55:00.839964+11:00"}, {"id": 9283, "name": "Donna Leishman", "roles_in_work": [{"id": 2619618, "title": "The Bloody chamber", "work_id": 109253, "role": "creator", "role_id": 968, "is_primary": true}], "also_known_as": "", "date_of_birth": "", "date_of_death": "", "genders": [], "languages": [], "places_of_operation": [], "biography": "Donna Leishman is pursuing a PhD in interactive storytelling at the Glasgow\nSchool of Art. Donna has been an Emmy award nominee for her work on the\nRosie O¹Donnell Show with Bullseyeart.com and her darkly romantic Little Red\nRidinghood work has been widely acclaimed. Her animations have been credited\nin the New York Times and the Guardian Online.", "biography_author": null, "date_of_biography": "2025-02-26T23:17:25.223092+11:00", "external_links": [], "uuid": "222c9b99-da57-4464-8b5b-7c05cb73f342", "source": {"name": "Vernon", "slug": "vernon"}, "source_identifier": "112264", "external_references": [], "date_modified": "2025-02-26T23:17:25.223341+11:00"}, {"id": 9282, "name": "Raafat Ishak", "roles_in_work": [{"id": 2711436, "title": "Neighbours (the remix) - Raafat Ishak (Labrador #2)", "work_id": 109252, "role": "director", "role_id": 938, "is_primary": true}, {"id": 2711434, "title": "Neighbours (the remix) - Raafat Ishak (Labrador #2)", "work_id": 109252, "role": "creator", "role_id": 968, "is_primary": true}], "also_known_as": "", "date_of_birth": "", "date_of_death": "", "genders": [], "languages": [], "places_of_operation": [], "biography": "", "biography_author": null, "date_of_biography": "2023-08-14T10:06:01.569411+10:00", "external_links": [], "uuid": "d7291da5-7589-40bd-a682-d5339b0f6a72", "source": {"name": "Vernon", "slug": "vernon"}, "source_identifier": "112263", "external_references": [], "date_modified": "2025-03-11T23:52:06.993350+11:00"}, {"id": 9281, "name": "DAMP", "roles_in_work": [{"id": 2711544, "title": "Neighbours (the remix) - DAMP (Full potato jacket)", "work_id": 109251, "role": "creator", "role_id": 968, "is_primary": true}], "also_known_as": "", "date_of_birth": "", "date_of_death": "", "genders": [], "languages": [], "places_of_operation": [], "biography": "", "biography_author": null, "date_of_biography": "2023-08-14T10:05:53.964051+10:00", "external_links": [], "uuid": "348a230a-7820-40e2-8857-d03d6f4b1813", "source": {"name": "Vernon", "slug": "vernon"}, "source_identifier": "112262", "external_references": [], "date_modified": "2025-03-11T23:54:01.184561+11:00"}, {"id": 9280, "name": "Joel Anderson", "roles_in_work": [{"id": 2711538, "title": "Neighbours (the remix) - Joel Anderson (Better than Eden)", "work_id": 109247, "role": "director", "role_id": 938, "is_primary": true}, {"id": 2711539, "title": "Neighbours (the remix) - Joel Anderson (Better than Eden)", "work_id": 109247, "role": "creator", "role_id": 968, "is_primary": true}], "also_known_as": "", "date_of_birth": "", "date_of_death": "", "genders": [], "languages": [], "places_of_operation": [], "biography": "", "biography_author": null, "date_of_biography": "2023-08-14T10:05:58.629396+10:00", "external_links": [], "uuid": "9ef11f00-21ee-4ce8-9918-00623f573883", "source": {"name": "Vernon", "slug": "vernon"}, "source_identifier": "112140", "external_references": [], "date_modified": "2025-03-11T23:53:57.439624+11:00"}, {"id": 9279, "name": "Matthew Riley", "roles_in_work": [{"id": 2711534, "title": "Memo", "work_id": 109246, "role": "creator", "role_id": 968, "is_primary": true}], "also_known_as": "", "date_of_birth": "", "date_of_death": "", "genders": [], "languages": [], "places_of_operation": [], "biography": "Matthew Riley is a web and interactive designer currently lecturing in Animation and Interactive Media at RMIT. Matthew has worked ona range of interactive, on-line and print projects with Drome Pty Ltd, Arts Victoria, Chunky Move, the University of Melbourne, RMIT and the Australian Interactive Media Industry Association amoung others.\nMatthew Riley is a Melbourne based new-media artist and designer who works with video, web and interactive media.\nHe was awarded a Bachelors degree in Education and Fine Art at The University of Melbourne in 1996 before completing three years of post-graduate study in multimedia and animation at RMIT, an Advanced Diploma in Electronic Design and Interactive Media (EDIM) and a Graduate Diploma in Animation and Multimedia (AIM).\nPrimarily interested in language, image and sound relationships to examine contemporary and popular consumer culture his work has been exhibited at The Centre for Contemporary Photography, Arts Victoria, The Project Space and Monash University. In 2001 he was the only Australian selected for The New Talent Competition at Milia in Cannes, France, one of the worlds largest and prestigious multimedia showcases for his CD_ROM work 'Memo'.\nHe has often been invited to speak about new media art and design at conferences and institutions, including Fusion -the digital program at The St Kilda Film Festival, The London College of Printings Multimedia Department, the Japanese Broadcasting Corporation - NHK and the Net Zapping Festival in France.\nHe is currently working as a print, web and interactive designer at the multimedia studio Drome.\n\nLong version:\n\nCurriculum Vitae\n\nMatthew Riley\n1975, Born Melbourne, Australia\n\nEducation\n1999\nRoyal Melbourne Institute of Technology\nPost Graduate Course\nGraduate Diploma in Animation and Interactive Media\n\n1997-1998\nRoyal Melbourne Institute of Technology\nPost Graduate Course\nAdv.Diploma in Electronic Design and Interactive Media\n\n\n1993-1996\nThe University of Melbourne\nBachelor of Education in Visual Arts\n\n\nEmployment\n2000\nDrome Pty Ltd\nDirectors: Peter Hennessey and Patricia Piccinini\nCurrently working as a Web, Print and Interactive Designer at\nMelbourne-based multimedia studio, Drome. Involved in a variety of CD-based and web projects (www.patriciapiccinini.net,\nwww.lucyguerin.com,www.chunkymove.com, www.drome.com.au). Clients include Chunky Move, Arts Victoria, Cinemedia, RMIT and The\nUniversity of Melbourne.\n\n1997-1999\nFreelance Designer and Artist\nAs a student was working partime as a freelance designer.\n1993-1996\nStudent Teacher\nCompleted 0ver 60 days supervised teaching at five secondary colleges, teaching Art and Graphic Communication.\nSelected Exhibitions\n2001\nMemo Net Zapping Festival, France\n\nMemo\nNew Talent Competition at Milia, Cannes, France\n2000\nMemo\nOption Digital, Monash University, Melbourne\nCurator Shiralee Saul\nMemo\nE-foyer, Arts Victoria Building, Melbourne\nCurator Shiralee Saul\nMemo\nCreate Conference, Sydney\n\nMemo Centre for Contemporary Photography, E-media Gallery, Melbourne\nCurator Tessa Dwyer\nMemo Fusion Program, St Kilda Film Festival, Melbourne\nCurator Sue McCauley\nSpeaker at Fusion\n\n1999\nMemo\nGraduate Screening, Storey Hall, Melbourne\n\n1998\nSurface\nSurface, Project Space, Melbourne\n\n\nPresentations/Talks\n2001\nTriple R Radio, Melbourne with Fiona Parker\nCinemedia, Melbourne to Cinemedia staff\nLondon College of Printing. Multimedia Department, to students of their Masters class.\nVictoria University of Technology, Melbourne, to multimedia students of the EDIM course.\nCinemedia, Melbourne, to the staff of Cinemedia.\nNet Zapping Festival, France, to new media industry experts and practioners.\n2000\nFusion Program, St Kilda Film Festival, Melbourne", "biography_author": null, "date_of_biography": "2025-03-11T23:53:54.217056+11:00", "external_links": [], "uuid": "2131cb71-a277-424a-92c0-d3e263d6bf35", "source": {"name": "Vernon", "slug": "vernon"}, "source_identifier": "110646", "external_references": [], "date_modified": "2025-03-11T23:53:54.217316+11:00"}, {"id": 9278, "name": "Monika Tichacek", "roles_in_work": [{"id": 2711531, "title": "The Shadowers", "work_id": 114184, "role": "creator", "role_id": 968, "is_primary": true}], "also_known_as": "", "date_of_birth": "", "date_of_death": "", "genders": [], "languages": [], "places_of_operation": [], "biography": "", "biography_author": null, "date_of_biography": "2023-08-14T11:33:56.946051+10:00", "external_links": [], "uuid": "ea4cc29d-a79c-474a-aebf-2dadd8c369e9", "source": {"name": "Vernon", "slug": "vernon"}, "source_identifier": "112144", "external_references": [], "date_modified": "2025-03-11T23:53:51.019136+11:00"}, {"id": 9277, "name": "Mark Larenzetto", "roles_in_work": [{"id": 2711530, "title": "Godspeed Verticals", "work_id": 114182, "role": "producer", "role_id": 1089, "is_primary": true}], "also_known_as": "", "date_of_birth": null, "date_of_death": null, "genders": [], "languages": [], "places_of_operation": [], "biography": "", "biography_author": null, "date_of_biography": null, "external_links": [], "uuid": "cf6581d9-6189-45b1-a434-1861678ebce4", "source": {"name": "Vernon", "slug": "vernon"}, "source_identifier": "1461", "external_references": [], "date_modified": "2025-03-11T23:53:50.124870+11:00"}]}