{"count": 28687, "next": "https://api.acmi.net.au/creators/?page=1405", "previous": "https://api.acmi.net.au/creators/?page=1403", "results": [{"id": 36834, "name": "Daniel Mann", "roles_in_work": [{"id": 1978967, "title": "I'll cry tomorrow", "work_id": 95634, "role": "director", "role_id": 938, "is_primary": true}, {"id": 2208635, "title": "Playing for time", "work_id": 94740, "role": "director", "role_id": 938, "is_primary": true}], "also_known_as": "", "date_of_birth": "1912-08-08", "date_of_death": "1991-11-21", "genders": [{"id": 9, "name": "Male", "slug": "male"}], "languages": [{"id": 1, "name": "English", "slug": "english"}], "places_of_operation": [{"id": 1, "name": "United States of America", "slug": "united-states-of-america"}], "biography": "Daniel Chugerman (August 8, 1912 – November 21, 1991), known professionally as Daniel Mann, was an American stage, film and television director.\nOriginally trained as an actor by Sanford Meisner, between 1952 and 1987 he directed over 31 feature films and made-for-television. Considered a true \"actor's director\", he helmed seven Oscar-nominated and two Tony Award-winning performances, collaborating with actors like Burt Lancaster, Shirley Booth, Susan Hayward, Marlon Brando, Elizabeth Taylor, Dean Martin and Anthony Quinn.\nHe was nominated for several accolades, including two Palme d'Or, three Directors Guild of America Awards and a Golden Bear.\n\n", "biography_author": "Wikidata", "date_of_biography": "2022-05-19T11:10:36.833761+10:00", "external_links": [{"id": 1867, "uri": "https://en.wikipedia.org/wiki/Daniel_Mann"}], "uuid": "4f4ebe09-f029-470f-bd21-694f5e028108", "source": {"name": "Vernon", "slug": "vernon"}, "source_identifier": "17400", "external_references": [{"id": 8106, "source": {"name": "Wikidata", "slug": "wikidata"}, "source_identifier": "Q1161658"}, {"id": 8107, "source": {"name": "VIAF", "slug": "viaf"}, "source_identifier": "39578032"}, {"id": 8108, "source": {"name": "LOC Auth", "slug": "loc-auth"}, "source_identifier": "no96020416"}, {"id": 8109, "source": {"name": "WorldCat", "slug": "worldcat"}, "source_identifier": "lccn-no96020416"}], "date_modified": "2023-09-13T12:28:54.444959+10:00"}, {"id": 36833, "name": "Syzygy Productions", "roles_in_work": [{"id": 2208631, "title": "Playing for time", "work_id": 94740, "role": "production company", "role_id": 941, "is_primary": true}], "also_known_as": "", "date_of_birth": "", "date_of_death": "", "genders": [], "languages": [], "places_of_operation": [], "biography": "", "biography_author": null, "date_of_biography": "2023-05-09T15:40:29.354348+10:00", "external_links": [], "uuid": "04027395-cc1e-49be-a8dc-41ef93113bde", "source": {"name": "Vernon", "slug": "vernon"}, "source_identifier": "13125", "external_references": [{"id": 32581, "source": {"name": "Wikidata", "slug": "wikidata"}, "source_identifier": "Q121126443"}], "date_modified": "2023-09-06T01:39:43.808677+10:00"}, {"id": 36826, "name": "Tim Wheelan", "roles_in_work": [{"id": 2345552, "title": "The Divorce of lady X", "work_id": 94732, "role": "director", "role_id": 938, "is_primary": true}], "also_known_as": "", "date_of_birth": "1893-11-02", "date_of_death": "1957-08-12", "genders": [{"id": 9, "name": "Male", "slug": "male"}], "languages": [{"id": 1, "name": "English", "slug": "english"}], "places_of_operation": [{"id": 1, "name": "United States of America", "slug": "united-states-of-america"}], "biography": "Tim Whelan (November 2, 1893 – August 12, 1957) was an American film director, writer, producer and actor best remembered for his writing credits on Harold Lloyd and Harry Langdon comedies, and his directing of mostly British films (e.g.The Thief of Bagdad (1940). At the time of his death, Whelan was survived by his widow, former silent film actress Miriam Seegar and their two sons.\n\n", "biography_author": "Wikidata", "date_of_biography": "2022-05-19T13:14:47.614496+10:00", "external_links": [{"id": 3207, "uri": "https://en.wikipedia.org/wiki/Tim_Whelan"}], "uuid": "201b0a81-eb4b-4564-ab91-ca0a8ee8ccc9", "source": {"name": "Vernon", "slug": "vernon"}, "source_identifier": "29764", "external_references": [{"id": 13583, "source": {"name": "Wikidata", "slug": "wikidata"}, "source_identifier": "Q3528710"}, {"id": 13584, "source": {"name": "VIAF", "slug": "viaf"}, "source_identifier": "19889313"}, {"id": 13585, "source": {"name": "LOC Auth", "slug": "loc-auth"}, "source_identifier": "n85376724"}, {"id": 13586, "source": {"name": "WorldCat", "slug": "worldcat"}, "source_identifier": "lccn-n85376724"}], "date_modified": "2023-09-13T12:33:01.079236+10:00"}, {"id": 36825, "name": "Barry J Hersey", "roles_in_work": [{"id": 2465203, "title": "Quintessence: five short films by Barry J. Hershey", "work_id": 94731, "role": "director", "role_id": 938, "is_primary": true}], "also_known_as": "", "date_of_birth": "", "date_of_death": "", "genders": [], "languages": [], "places_of_operation": [], "biography": "", "biography_author": null, "date_of_biography": "2023-08-14T10:29:29.906638+10:00", "external_links": [], "uuid": "c7280b7e-7718-4994-8fab-6ff61329006e", "source": {"name": "Vernon", "slug": "vernon"}, "source_identifier": "15715", "external_references": [], "date_modified": "2023-08-14T10:29:29.907071+10:00"}, {"id": 36824, "name": "Waldon Woods Film", "roles_in_work": [{"id": 2465202, "title": "Quintessence: five short films by Barry J. Hershey", "work_id": 94731, "role": "production company", "role_id": 941, "is_primary": true}], "also_known_as": "", "date_of_birth": "", "date_of_death": "", "genders": [], "languages": [], "places_of_operation": [], "biography": "", "biography_author": null, "date_of_biography": "2023-08-14T10:29:29.277465+10:00", "external_links": [], "uuid": "e71af772-cd2d-4afa-8754-9ae438724fcd", "source": {"name": "Vernon", "slug": "vernon"}, "source_identifier": "14225", "external_references": [], "date_modified": "2023-08-14T10:29:29.277766+10:00"}, {"id": 36819, "name": "Mohair Films", "roles_in_work": [{"id": 2415376, "title": "Lost highways: the roadside photography of Richard Szymczuk", "work_id": 94727, "role": "production company", "role_id": 941, "is_primary": true}, {"id": 2415378, "title": "Lost highways: the roadside photography of Richard Szymczuk", "work_id": 94811, "role": "production company", "role_id": 941, "is_primary": true}], "also_known_as": "", "date_of_birth": "", "date_of_death": "", "genders": [], "languages": [], "places_of_operation": [], "biography": "", "biography_author": null, "date_of_biography": "2023-08-11T19:36:32.911034+10:00", "external_links": [], "uuid": "098f557e-9fdc-4f51-a23b-07edde486d1c", "source": {"name": "Vernon", "slug": "vernon"}, "source_identifier": "10601", "external_references": [], "date_modified": "2023-08-11T19:36:32.912009+10:00"}, {"id": 36815, "name": "George McCowan", "roles_in_work": [{"id": 2348084, "title": "The FBI", "work_id": 94725, "role": "director", "role_id": 938, "is_primary": true}], "also_known_as": "", "date_of_birth": "", "date_of_death": "", "genders": [], "languages": [], "places_of_operation": [], "biography": "", "biography_author": null, "date_of_biography": "2023-05-09T19:51:19.485729+10:00", "external_links": [], "uuid": "e000a9d4-9aac-4f11-b6e2-2294d168373c", "source": {"name": "Vernon", "slug": "vernon"}, "source_identifier": "19640", "external_references": [{"id": 36888, "source": {"name": "Wikidata", "slug": "wikidata"}, "source_identifier": "Q121036033"}], "date_modified": "2023-09-05T20:05:52.803259+10:00"}, {"id": 36814, "name": "Charles Larson", "roles_in_work": [{"id": 2348081, "title": "The FBI", "work_id": 94725, "role": "producer", "role_id": 1089, "is_primary": true}], "also_known_as": "", "date_of_birth": "", "date_of_death": "", "genders": [], "languages": [], "places_of_operation": [], "biography": "", "biography_author": null, "date_of_biography": "2023-05-09T19:51:19.254003+10:00", "external_links": [], "uuid": "606a82b5-c8e3-4352-911c-bf3058352eb0", "source": {"name": "Vernon", "slug": "vernon"}, "source_identifier": "16694", "external_references": [{"id": 32498, "source": {"name": "Wikidata", "slug": "wikidata"}, "source_identifier": "Q121222644"}], "date_modified": "2023-09-05T18:27:07.211510+10:00"}, {"id": 36813, "name": "Quinn Martin", "roles_in_work": [{"id": 2348072, "title": "The FBI", "work_id": 94725, "role": "production company", "role_id": 941, "is_primary": true}], "also_known_as": "", "date_of_birth": "", "date_of_death": "", "genders": [], "languages": [], "places_of_operation": [], "biography": "", "biography_author": null, "date_of_biography": "2023-05-09T19:51:18.513525+10:00", "external_links": [], "uuid": "95457d07-e9d7-4669-9831-f40edcbdb251", "source": {"name": "Vernon", "slug": "vernon"}, "source_identifier": "26998", "external_references": [], "date_modified": "2023-06-14T16:33:30.576250+10:00"}, {"id": 36811, "name": "Joseph Depew", "roles_in_work": [{"id": 2331082, "title": "The Beverly Hillbillies: Hired sun", "work_id": 94723, "role": "director", "role_id": 938, "is_primary": true}], "also_known_as": "", "date_of_birth": "", "date_of_death": "", "genders": [], "languages": [], "places_of_operation": [], "biography": "", "biography_author": null, "date_of_biography": "2023-05-09T19:25:40.209296+10:00", "external_links": [], "uuid": "d8e80b71-bf25-4617-a2eb-27eb46f3cfda", "source": {"name": "Vernon", "slug": "vernon"}, "source_identifier": "22719", "external_references": [], "date_modified": "2023-06-14T16:33:30.576250+10:00"}]}