{"count": 28687, "next": "https://api.acmi.net.au/creators/?page=1558", "previous": "https://api.acmi.net.au/creators/?page=1556", "results": [{"id": 32137, "name": "Corey Yuen", "roles_in_work": [{"id": 2161237, "title": "My father is a hero", "work_id": 90410, "role": "director", "role_id": 938, "is_primary": true}], "also_known_as": "", "date_of_birth": "1951-02-15", "date_of_death": null, "genders": [{"id": 9, "name": "Male", "slug": "male"}], "languages": [{"id": 80, "name": "Standard Mandarin", "slug": "standard-mandarin"}], "places_of_operation": [{"id": 290, "name": "People's Republic of China", "slug": "peoples-republic-of-china"}], "biography": "Corey Yuen (Chinese: 元奎; pinyin: Yuán Kuí; Cantonese Yale: Yuen4 Kwai1; born Ying Gang-ming (殷元奎); 15 February 1951) is a Hong Kong director, film director, producer, action choreographer, and former actor.\nYuen was a member of the Peking Opera Schools and one of the Seven Little Fortunes. As an actor, Yuen is perhaps best known as Rubber Legs' student in 1979 kung fu comedy film Dance of the Drunk Mantis. As an action director, Yuen gained fame in American cinema beginning with 1998 film Lethal Weapon 4, followed by the 2000 blockbuster X-Men and six of Jet Li's American works: Romeo Must Die, Kiss of the Dragon, The One, Cradle 2 the Grave, War, and The Expendables.", "biography_author": "Wikidata", "date_of_biography": "2022-05-19T11:08:23.166858+10:00", "external_links": [{"id": 1849, "uri": "https://en.wikipedia.org/wiki/Corey_Yuen"}], "uuid": "35dfe570-9d99-4023-bc78-c765ca65f642", "source": {"name": "Vernon", "slug": "vernon"}, "source_identifier": "17221", "external_references": [{"id": 8031, "source": {"name": "Wikidata", "slug": "wikidata"}, "source_identifier": "Q676051"}, {"id": 8032, "source": {"name": "VIAF", "slug": "viaf"}, "source_identifier": "119923997"}, {"id": 8033, "source": {"name": "LOC Auth", "slug": "loc-auth"}, "source_identifier": "no2003104350"}, {"id": 8034, "source": {"name": "WorldCat", "slug": "worldcat"}, "source_identifier": "lccn-no2003104350"}], "date_modified": "2023-09-13T12:28:51.406120+10:00"}, {"id": 32135, "name": "Jing Tung Productions", "roles_in_work": [{"id": 2161227, "title": "My father is a hero", "work_id": 90410, "role": "production company", "role_id": 941, "is_primary": true}], "also_known_as": "", "date_of_birth": "", "date_of_death": "", "genders": [], "languages": [], "places_of_operation": [], "biography": "", "biography_author": null, "date_of_biography": "2023-05-09T14:15:49.615854+10:00", "external_links": [], "uuid": "535344e1-f286-47c7-89a6-28db9af2b3a8", "source": {"name": "Vernon", "slug": "vernon"}, "source_identifier": "9604", "external_references": [], "date_modified": "2023-06-14T16:33:30.576250+10:00"}, {"id": 32132, "name": "Paragon Films", "roles_in_work": [{"id": 2134159, "title": "Centre stage = Yuen Ling Yuk", "work_id": 90409, "role": "production company", "role_id": 941, "is_primary": true}], "also_known_as": "", "date_of_birth": "", "date_of_death": "", "genders": [], "languages": [], "places_of_operation": [], "biography": "", "biography_author": null, "date_of_biography": "2023-05-09T13:25:59.178265+10:00", "external_links": [], "uuid": "da58be4e-9f26-42f7-a347-1d911cb22158", "source": {"name": "Vernon", "slug": "vernon"}, "source_identifier": "11283", "external_references": [{"id": 33117, "source": {"name": "Wikidata", "slug": "wikidata"}, "source_identifier": "Q121035692"}], "date_modified": "2023-09-05T23:40:23.444110+10:00"}, {"id": 32129, "name": "Cinema City Film Production", "roles_in_work": [{"id": 2229161, "title": "Prison on fire", "work_id": 90405, "role": "production company", "role_id": 941, "is_primary": true}], "also_known_as": "", "date_of_birth": "", "date_of_death": "", "genders": [], "languages": [], "places_of_operation": [], "biography": "", "biography_author": null, "date_of_biography": "2023-05-09T16:31:59.914482+10:00", "external_links": [], "uuid": "c069f938-d50e-4621-a438-74afd5f5fd95", "source": {"name": "Vernon", "slug": "vernon"}, "source_identifier": "6695", "external_references": [{"id": 36581, "source": {"name": "Wikidata", "slug": "wikidata"}, "source_identifier": "Q121126268"}], "date_modified": "2023-09-05T18:37:51.858712+10:00"}, {"id": 32124, "name": "Milky Way Image", "roles_in_work": [{"id": 2258920, "title": "Running out of time", "work_id": 90397, "role": "production company", "role_id": 941, "is_primary": true}], "also_known_as": "", "date_of_birth": "", "date_of_death": "", "genders": [], "languages": [], "places_of_operation": [], "biography": "", "biography_author": null, "date_of_biography": "2023-05-09T17:24:28.987714+10:00", "external_links": [], "uuid": "69b23a68-3f58-4e21-8c7e-4f1d8d79eacc", "source": {"name": "Vernon", "slug": "vernon"}, "source_identifier": "10528", "external_references": [], "date_modified": "2023-06-14T16:33:30.576250+10:00"}, {"id": 32123, "name": "Golden Princess Films", "roles_in_work": [{"id": 2066688, "title": "A Chinese ghost story III = Sinnui yauman III [Widescreen]", "work_id": 90396, "role": "production company", "role_id": 941, "is_primary": true}], "also_known_as": "", "date_of_birth": "", "date_of_death": "", "genders": [], "languages": [], "places_of_operation": [], "biography": "", "biography_author": null, "date_of_biography": "2023-05-09T11:24:15.092680+10:00", "external_links": [], "uuid": "5dae1818-0cec-4f19-a27b-6dcbc99a5fd8", "source": {"name": "Vernon", "slug": "vernon"}, "source_identifier": "8789", "external_references": [{"id": 38183, "source": {"name": "Wikidata", "slug": "wikidata"}, "source_identifier": "Q121159755"}], "date_modified": "2023-09-05T20:16:17.124890+10:00"}, {"id": 32121, "name": "Neil LaBute", "roles_in_work": [{"id": 2281512, "title": "Your friends and neighbors", "work_id": 90394, "role": "director", "role_id": 938, "is_primary": true}, {"id": 1997389, "title": "Nurse Betty [DVD]", "work_id": 93294, "role": "director", "role_id": 938, "is_primary": true}, {"id": 1995031, "title": "In the company of men", "work_id": 90995, "role": "director", "role_id": 938, "is_primary": true}], "also_known_as": "", "date_of_birth": "1963-03-19", "date_of_death": "", "genders": [{"id": 9, "name": "Male", "slug": "male"}], "languages": [{"id": 1, "name": "English", "slug": "english"}], "places_of_operation": [{"id": 1, "name": "United States of America", "slug": "united-states-of-america"}], "biography": "Neil N. LaBute (born March 19, 1963) is an American playwright, film director, screenwriter, and actor. He is best known for a play that he wrote and later adapted for film, In the Company of Men (1997), which won awards from the Sundance Film Festival, the Independent Spirit Awards, and the New York Film Critics Circle. He wrote and directed the films Your Friends & Neighbors (1998), Possession (2002) (based on the A. S. Byatt novel), The Shape of Things (2003) (based on his play of the same name), The Wicker Man (2006), Some Velvet Morning (2013), and Dirty Weekend (2015). He directed the films Nurse Betty (2000), Lakeview Terrace (2008), and the American adaptation of Death at a Funeral (2010). LaBute created the TV series Billy & Billie, writing and directing all of the episodes. He is also the creator of the TV series Van Helsing. Recently, he executive produced, co-directed and co-wrote Netflix's The I-Land. He also directed several episodes for shows such as Hell on Wheels and Billions.\n\n", "biography_author": "Wikidata", "date_of_biography": "2023-08-01T16:22:30.451736+10:00", "external_links": [{"id": 4769, "uri": "https://en.wikipedia.org/wiki/Neil_LaBute"}], "uuid": "a62196ab-eba1-4b07-a8fa-3108b31c2fe1", "source": {"name": "Vernon", "slug": "vernon"}, "source_identifier": "25675", "external_references": [{"id": 26134, "source": {"name": "Wikidata", "slug": "wikidata"}, "source_identifier": "Q965498"}, {"id": 30498, "source": {"name": "VIAF", "slug": "viaf"}, "source_identifier": "84248018"}, {"id": 30499, "source": {"name": "LOC Auth", "slug": "loc-auth"}, "source_identifier": "no95009945"}, {"id": 30500, "source": {"name": "WorldCat", "slug": "worldcat"}, "source_identifier": "lccn-no95009945"}], "date_modified": "2023-09-05T23:27:25.390248+10:00"}, {"id": 32116, "name": "Brigitte Hald", "roles_in_work": [{"id": 1815469, "title": "Festen = Celebration", "work_id": 90391, "role": "producer", "role_id": 1089, "is_primary": true}], "also_known_as": "", "date_of_birth": "1964-05-26", "date_of_death": null, "genders": [{"id": 5, "name": "Female", "slug": "female"}], "languages": [], "places_of_operation": [{"id": 34, "name": "Denmark", "slug": "denmark"}], "biography": "", "biography_author": null, "date_of_biography": null, "external_links": [], "uuid": "0d3c7d76-9888-49b3-99e6-97cfbabaa56f", "source": {"name": "Vernon", "slug": "vernon"}, "source_identifier": "32997", "external_references": [{"id": 7647, "source": {"name": "Wikidata", "slug": "wikidata"}, "source_identifier": "Q20155498"}], "date_modified": "2023-09-13T12:28:33.172704+10:00"}, {"id": 32109, "name": "Sharon McGowan", "roles_in_work": [{"id": 2254304, "title": "Rosanna: a portrait of an immigrant woman", "work_id": 90382, "role": "director", "role_id": 938, "is_primary": true}, {"id": 1994859, "title": "Better than chocolate", "work_id": 90592, "role": "producer", "role_id": 1089, "is_primary": true}], "also_known_as": "", "date_of_birth": "", "date_of_death": "", "genders": [], "languages": [], "places_of_operation": [], "biography": "", "biography_author": null, "date_of_biography": "2023-05-09T17:15:21.015867+10:00", "external_links": [], "uuid": "facd2199-c7e4-4750-ad15-24b7f16d5162", "source": {"name": "Vernon", "slug": "vernon"}, "source_identifier": "28720", "external_references": [{"id": 33885, "source": {"name": "Wikidata", "slug": "wikidata"}, "source_identifier": "Q121091205"}], "date_modified": "2023-09-06T01:13:36.463980+10:00"}, {"id": 32104, "name": "LOUD Media Festival of Youth Culture and the Arts", "roles_in_work": [{"id": 1932229, "title": "How black is black", "work_id": 90383, "role": "production company", "role_id": 941, "is_primary": true}, {"id": 2051582, "title": "[Eat LOUD carpet compilation]", "work_id": 90376, "role": "production company", "role_id": 941, "is_primary": true}], "also_known_as": "", "date_of_birth": "", "date_of_death": "", "genders": [], "languages": [], "places_of_operation": [], "biography": "", "biography_author": null, "date_of_biography": "2023-05-09T10:01:08.555099+10:00", "external_links": [], "uuid": "f346fe41-704a-46bc-b543-1c661d2f0e85", "source": {"name": "Vernon", "slug": "vernon"}, "source_identifier": "10173", "external_references": [{"id": 35231, "source": {"name": "Wikidata", "slug": "wikidata"}, "source_identifier": "Q121034378"}], "date_modified": "2023-09-05T22:30:41.793848+10:00"}]}