{"count": 28687, "next": "https://api.acmi.net.au/creators/?page=79", "previous": "https://api.acmi.net.au/creators/?page=77", "results": [{"id": 86250, "name": "Katy Hackney and Michael Milloy", "roles_in_work": [{"id": 2717190, "title": "The Great season two costume: Catherine's coronation gold headdress", "work_id": 120034, "role": "jewellery designer", "role_id": 1004, "is_primary": false}], "also_known_as": "", "date_of_birth": "", "date_of_death": "", "genders": [], "languages": [], "places_of_operation": [], "biography": "", "biography_author": null, "date_of_biography": "2023-05-09T19:59:10.073641+10:00", "external_links": [], "uuid": "e5449e40-685f-4c50-9f62-a57d00bbe52f", "source": {"name": "Vernon", "slug": "vernon"}, "source_identifier": "40088", "external_references": [], "date_modified": "2025-03-12T05:44:45.525121+11:00"}, {"id": 86249, "name": "Cathryn Avison", "roles_in_work": [{"id": 2716488, "title": "The Great season two costume: Catherine’s red and oyster war dress ", "work_id": 120031, "role": "embroidery/costume production", "role_id": 1079, "is_primary": false}], "also_known_as": "", "date_of_birth": "", "date_of_death": "", "genders": [], "languages": [], "places_of_operation": [], "biography": "", "biography_author": null, "date_of_biography": "2023-05-09T19:58:07.416604+10:00", "external_links": [], "uuid": "d64fa5e1-4085-40d6-90a7-8d7905d46519", "source": {"name": "Vernon", "slug": "vernon"}, "source_identifier": "40087", "external_references": [], "date_modified": "2025-03-12T02:04:38.337494+11:00"}, {"id": 86248, "name": "Catherine Shaw", "roles_in_work": [{"id": 2717156, "title": "The Great season two costume: Catherine’s coronation dress", "work_id": 120032, "role": "costume production", "role_id": 991, "is_primary": false}, {"id": 2716487, "title": "The Great season two costume: Catherine’s red and oyster war dress ", "work_id": 120031, "role": "costume production", "role_id": 991, "is_primary": false}], "also_known_as": "", "date_of_birth": "", "date_of_death": "", "genders": [], "languages": [], "places_of_operation": [], "biography": "", "biography_author": null, "date_of_biography": "2023-05-09T19:59:13.444963+10:00", "external_links": [], "uuid": "84d12a22-ac28-4ad4-b553-277b9f599d21", "source": {"name": "Vernon", "slug": "vernon"}, "source_identifier": "40086", "external_references": [], "date_modified": "2025-03-12T05:43:07.208613+11:00"}, {"id": 86247, "name": "Sharon Long", "roles_in_work": [{"id": 2717117, "title": "The Great season two: Catherin's coronation dress initial sketch", "work_id": 120039, "role": "costume designer", "role_id": 961, "is_primary": true}, {"id": 2717114, "title": "The Great season two: Catherine's coronation dress final sketch", "work_id": 120038, "role": "costume designer", "role_id": 961, "is_primary": true}, {"id": 2716486, "title": "The Great season two costume: Catherine’s red and oyster war dress ", "work_id": 120031, "role": "costume designer", "role_id": 961, "is_primary": true}, {"id": 2717120, "title": "The Great season two sketches and mood boards", "work_id": 120036, "role": "costume designer", "role_id": 961, "is_primary": true}, {"id": 2717154, "title": "The Great season two costume: Catherine’s coronation dress", "work_id": 120032, "role": "costume designer", "role_id": 961, "is_primary": true}, {"id": 2717188, "title": "The Great season two costume: Catherine's coronation gold headdress", "work_id": 120034, "role": "costume designer", "role_id": 961, "is_primary": true}, {"id": 2717221, "title": "The Great season two costume: Catherine’s coronation dress and gold headdress", "work_id": 120033, "role": "costume designer", "role_id": 961, "is_primary": true}, {"id": 2717078, "title": "The Great season two: Catherine's coronation costume mood board", "work_id": 120037, "role": "costume designer", "role_id": 961, "is_primary": true}, {"id": 2717111, "title": "The Great season two: Catherine's war dress costume mood board", "work_id": 120035, "role": "costume designer", "role_id": 961, "is_primary": true}], "also_known_as": "", "date_of_birth": "", "date_of_death": "", "genders": [], "languages": [], "places_of_operation": [], "biography": "", "biography_author": null, "date_of_biography": "2023-05-09T20:00:13.371805+10:00", "external_links": [], "uuid": "65c9a409-04c9-4e5c-b01b-ccf210fb9c6c", "source": {"name": "Vernon", "slug": "vernon"}, "source_identifier": "40085", "external_references": [], "date_modified": "2025-03-12T05:45:48.493123+11:00"}, {"id": 86246, "name": "Josh Butler", "roles_in_work": [{"id": 2716980, "title": "Get you a Prime Minister who can do both (sing the same verse of April Sun In Cuba twice)", "work_id": 120025, "role": "creator", "role_id": 968, "is_primary": true}], "also_known_as": "", "date_of_birth": "", "date_of_death": "", "genders": [{"id": 9, "name": "Male", "slug": "male"}], "languages": [], "places_of_operation": [], "biography": "", "biography_author": null, "date_of_biography": "2023-08-16T04:08:21.625023+10:00", "external_links": [], "uuid": "ed183dc9-d7b0-416e-95ed-6f1330d42901", "source": {"name": "Vernon", "slug": "vernon"}, "source_identifier": "40231", "external_references": [], "date_modified": "2025-03-12T05:35:43.865897+11:00"}, {"id": 86245, "name": "Team Fortress Software", "roles_in_work": [{"id": 3112494, "title": "Emulation of Team Fortress for PC", "work_id": 119996, "role": "developer", "role_id": 658, "is_primary": true}], "also_known_as": "", "date_of_birth": "", "date_of_death": "", "genders": [], "languages": [], "places_of_operation": [], "biography": "", "biography_author": null, "date_of_biography": "2023-05-09T20:06:23.214658+10:00", "external_links": [], "uuid": "841f02cd-983a-4986-bd20-7894ce66cf51", "source": {"name": "Vernon", "slug": "vernon"}, "source_identifier": "40228", "external_references": [], "date_modified": "2026-06-12T10:38:18.957950+10:00"}, {"id": 86244, "name": "BennVenn", "roles_in_work": [{"id": 2716994, "title": "Joey Joebags – Reader/Writer Gen 4", "work_id": 119999, "role": "maker", "role_id": 657, "is_primary": false}], "also_known_as": "", "date_of_birth": "", "date_of_death": "", "genders": [], "languages": [], "places_of_operation": [], "biography": "", "biography_author": null, "date_of_biography": "2023-08-30T03:42:46.404131+10:00", "external_links": [], "uuid": "2520670b-bbec-4ece-9f02-9a3d8f92ce4f", "source": {"name": "Vernon", "slug": "vernon"}, "source_identifier": "40078", "external_references": [], "date_modified": "2025-03-12T05:36:37.952644+11:00"}, {"id": 86243, "name": "Bede Tungutalum", "roles_in_work": [{"id": 2716768, "title": "Wedding dress from Top End Wedding", "work_id": 119997, "role": "artist", "role_id": 505, "is_primary": true}], "also_known_as": "", "date_of_birth": "1952", "date_of_death": "", "genders": [], "languages": [], "places_of_operation": [], "biography": "", "biography_author": null, "date_of_biography": "2023-05-09T17:42:39.676693+10:00", "external_links": [], "uuid": "ea274aee-6ab3-42a6-854f-d507f4a169cd", "source": {"name": "Vernon", "slug": "vernon"}, "source_identifier": "40091", "external_references": [], "date_modified": "2025-03-12T05:19:48.695421+11:00"}, {"id": 86242, "name": "Robyn Trott", "roles_in_work": [{"id": 2716767, "title": "Wedding dress from Top End Wedding", "work_id": 119997, "role": "creator", "role_id": 968, "is_primary": true}], "also_known_as": "", "date_of_birth": "", "date_of_death": "", "genders": [], "languages": [], "places_of_operation": [], "biography": "", "biography_author": null, "date_of_biography": "2023-05-09T17:42:39.449365+10:00", "external_links": [], "uuid": "66a14abf-1b89-4964-8bb6-eb02afd98987", "source": {"name": "Vernon", "slug": "vernon"}, "source_identifier": "39985", "external_references": [], "date_modified": "2025-03-12T05:19:46.842851+11:00"}, {"id": 86241, "name": "Ian Caughley", "roles_in_work": [{"id": 3112497, "title": "Emulation of Team Fortress for PC", "work_id": 119996, "role": "developer", "role_id": 658, "is_primary": true}], "also_known_as": "", "date_of_birth": "", "date_of_death": "", "genders": [], "languages": [], "places_of_operation": [], "biography": "", "biography_author": null, "date_of_biography": "2023-05-09T20:06:23.905764+10:00", "external_links": [], "uuid": "d26fbb91-8941-4064-b5e7-c72ae99017a0", "source": {"name": "Vernon", "slug": "vernon"}, "source_identifier": "40227", "external_references": [], "date_modified": "2026-06-12T10:38:21.119865+10:00"}]}