{"count": 28684, "next": "https://api.acmi.net.au/creators/?page=1885", "previous": "https://api.acmi.net.au/creators/?page=1883", "results": [{"id": 24765, "name": "David Conroy", "roles_in_work": [{"id": 2283564, "title": "Vincent and Theo", "work_id": 89970, "role": "co-producer", "role_id": 915, "is_primary": true}, {"id": 1818897, "title": "Kim / by Rudyard Kipling", "work_id": 82501, "role": "producer", "role_id": 1089, "is_primary": true}, {"id": 1989842, "title": "The Scarlet pimpernel", "work_id": 85447, "role": "producer", "role_id": 1089, "is_primary": true}], "also_known_as": "", "date_of_birth": "", "date_of_death": "", "genders": [], "languages": [], "places_of_operation": [], "biography": "", "biography_author": null, "date_of_biography": "2023-05-09T18:05:44.814051+10:00", "external_links": [], "uuid": "fca508c6-b55d-4ed8-99a3-7a3478875852", "source": {"name": "Vernon", "slug": "vernon"}, "source_identifier": "17537", "external_references": [{"id": 33498, "source": {"name": "Wikidata", "slug": "wikidata"}, "source_identifier": "Q121035862"}], "date_modified": "2023-09-05T18:55:36.346309+10:00"}, {"id": 24764, "name": "Moulin Films", "roles_in_work": [{"id": 2162454, "title": "Moby Dick", "work_id": 82500, "role": "production company", "role_id": 941, "is_primary": true}], "also_known_as": "", "date_of_birth": "", "date_of_death": "", "genders": [], "languages": [], "places_of_operation": [], "biography": "", "biography_author": null, "date_of_biography": "2023-05-09T14:19:22.793860+10:00", "external_links": [], "uuid": "9b75a7d3-8467-4b2c-bbfe-797c2d568a8b", "source": {"name": "Vernon", "slug": "vernon"}, "source_identifier": "10668", "external_references": [{"id": 38339, "source": {"name": "Wikidata", "slug": "wikidata"}, "source_identifier": "Q121270860"}], "date_modified": "2023-09-05T23:22:14.313393+10:00"}, {"id": 24763, "name": "Christine Edzard", "roles_in_work": [{"id": 2311474, "title": "Stories from a flying trunk", "work_id": 95365, "role": "director", "role_id": 938, "is_primary": true}, {"id": 1986402, "title": "Little Dorrit", "work_id": 82499, "role": "director", "role_id": 938, "is_primary": true}], "also_known_as": "", "date_of_birth": "1945-02-15", "date_of_death": "", "genders": [{"id": 5, "name": "Female", "slug": "female"}], "languages": [{"id": 4, "name": "French", "slug": "french"}], "places_of_operation": [{"id": 17, "name": "France", "slug": "france"}], "biography": "Christine Edzard (born 15 February 1945) is a film director, writer, and costume designer, nominated for BAFTA and Oscar awards for her screenwriting. She has been based in London for most of her career.\n\n", "biography_author": "Wikidata", "date_of_biography": "2023-08-01T14:26:24.427462+10:00", "external_links": [{"id": 3767, "uri": "https://en.wikipedia.org/wiki/Christine_Edzard"}], "uuid": "870c0bf3-7172-4243-a0c9-2e0553325961", "source": {"name": "Vernon", "slug": "vernon"}, "source_identifier": "16918", "external_references": [{"id": 26807, "source": {"name": "Wikidata", "slug": "wikidata"}, "source_identifier": "Q4476057"}, {"id": 27839, "source": {"name": "VIAF", "slug": "viaf"}, "source_identifier": "222411779"}, {"id": 27840, "source": {"name": "LOC Auth", "slug": "loc-auth"}, "source_identifier": "nr93000373"}, {"id": 27841, "source": {"name": "WorldCat", "slug": "worldcat"}, "source_identifier": "lccn-nr93000373"}], "date_modified": "2023-09-05T18:34:39.416880+10:00"}, {"id": 24759, "name": "Koninck", "roles_in_work": [{"id": 2334511, "title": "The Brothers Quay. Vol. 01", "work_id": 82498, "role": "production company", "role_id": 941, "is_primary": true}, {"id": 2251881, "title": "Robinson in space", "work_id": 87367, "role": "production company", "role_id": 941, "is_primary": true}], "also_known_as": "", "date_of_birth": "1980", "date_of_death": "", "genders": [], "languages": [], "places_of_operation": [], "biography": "", "biography_author": null, "date_of_biography": "2023-05-09T19:30:04.913602+10:00", "external_links": [], "uuid": "ab7a91a7-e002-401d-8ce7-052a99dc5ae8", "source": {"name": "Vernon", "slug": "vernon"}, "source_identifier": "4554", "external_references": [{"id": 38109, "source": {"name": "Wikidata", "slug": "wikidata"}, "source_identifier": "Q121034277"}], "date_modified": "2023-09-05T22:11:34.175558+10:00"}, {"id": 24757, "name": "Hiroshi Teshigahara", "roles_in_work": [{"id": 1986388, "title": "Woman of the dunes = Suna no onna", "work_id": 82495, "role": "director", "role_id": 938, "is_primary": true}], "also_known_as": "", "date_of_birth": "1927-01-28", "date_of_death": "2001-04-14", "genders": [{"id": 9, "name": "Male", "slug": "male"}], "languages": [{"id": 2, "name": "Japanese", "slug": "japanese"}], "places_of_operation": [{"id": 8, "name": "Japan", "slug": "japan"}], "biography": "Hiroshi Teshigahara (勅使河原 宏, Teshigahara Hiroshi, January 28, 1927 – April 14, 2001) was a Japanese avant-garde filmmaker and artist from the Japanese New Wave era. He is best known for the 1964 film Woman in the Dunes. He is also known for directing other titles such as The Face of Another (1966), Natsu No Heitai (Summer Soldiers, 1972), and Pitfall (1962) which was Teshigahara's directorial debut.  He has been called \"one of the most acclaimed Japanese directors of all time\". Teshigahara is the first person of Asian descent to be nominated for the Academy Award for Best Director, accomplishing this in 1964 for his work on Woman in the Dunes. Apart from being a filmmaker, Teshigahara also practiced other arts, such as calligraphy, pottery, painting, opera and ikebana.", "biography_author": "Wikidata", "date_of_biography": "2023-08-01T15:11:43.193157+10:00", "external_links": [{"id": 4161, "uri": "https://en.wikipedia.org/wiki/Hiroshi_Teshigahara"}], "uuid": "64f1dea8-b88c-436c-acc1-5dcf6d859fcd", "source": {"name": "Vernon", "slug": "vernon"}, "source_identifier": "20580", "external_references": [{"id": 26790, "source": {"name": "Wikidata", "slug": "wikidata"}, "source_identifier": "Q741623"}, {"id": 28926, "source": {"name": "VIAF", "slug": "viaf"}, "source_identifier": "25955067"}, {"id": 28927, "source": {"name": "LOC Auth", "slug": "loc-auth"}, "source_identifier": "n82121917"}, {"id": 28928, "source": {"name": "WorldCat", "slug": "worldcat"}, "source_identifier": "lccn-n82121917"}], "date_modified": "2023-09-13T12:30:00.245365+10:00"}, {"id": 24750, "name": "Sidney Gilliat", "roles_in_work": [{"id": 2177170, "title": "Only two can play", "work_id": 95042, "role": "director", "role_id": 938, "is_primary": true}, {"id": 916322, "title": "The Great St Trinian's train robbery", "work_id": 94706, "role": "co-director", "role_id": 959, "is_primary": true}, {"id": 2476628, "title": "I See a dark stranger = The Adventuress", "work_id": 82494, "role": "co-producer", "role_id": 915, "is_primary": true}, {"id": 2177162, "title": "Only two can play", "work_id": 95042, "role": "production company", "role_id": 941, "is_primary": true}, {"id": 2476630, "title": "I See a dark stranger = The Adventuress", "work_id": 82494, "role": "screenwriter", "role_id": 601, "is_primary": false}], "also_known_as": "", "date_of_birth": "1908-02-15", "date_of_death": "1994-05-31", "genders": [{"id": 9, "name": "Male", "slug": "male"}], "languages": [{"id": 1, "name": "English", "slug": "english"}], "places_of_operation": [{"id": 10, "name": "United Kingdom", "slug": "united-kingdom"}], "biography": "Sidney Gilliat (15 February 1908 – 31 May 1994) was an English film director, producer and writer.\nHe was the son of George Gilliat, editor of the Evening Standard from 1928 to 1933. Sidney was born in the district of Edgeley in Stockport, Cheshire. In the 1930s he worked as a scriptwriter, most notably with Frank Launder on The Lady Vanishes (1938) for Alfred Hitchcock, and Night Train to Munich (1940), directed by Carol Reed. He and Launder made their directorial debut co-directing the home front drama Millions Like Us (1943). From 1945 he also worked as a producer, starting with The Rake's Progress, which he also wrote and directed. He and Launder made over 40 films together, founding their own production company Individual Pictures. While Launder concentrated on directing their comedies, most famously the four St Trinian's School films, Gilliat showed a preference for comedy-thrillers and dramas, including Green for Danger (1946), London Belongs to Me (1948) and State Secret (1950).\nHe wrote the libretto for Malcolm Williamson's opera Our Man in Havana, based on the novel by Graham Greene. He had also worked on the film.", "biography_author": "Wikidata", "date_of_biography": "2023-09-06T01:18:27.812937+10:00", "external_links": [{"id": 2572, "uri": "https://en.wikipedia.org/wiki/Sidney_Gilliat"}], "uuid": "9e53dbc9-e5fd-476e-87ff-687b29b75030", "source": {"name": "Vernon", "slug": "vernon"}, "source_identifier": "28803", "external_references": [{"id": 13175, "source": {"name": "Wikidata", "slug": "wikidata"}, "source_identifier": "Q505853"}, {"id": 31524, "source": {"name": "VIAF", "slug": "viaf"}, "source_identifier": "102338471"}, {"id": 31525, "source": {"name": "LOC Auth", "slug": "loc-auth"}, "source_identifier": "n85144728"}, {"id": 31526, "source": {"name": "WorldCat", "slug": "worldcat"}, "source_identifier": "lccn-n85144728"}], "date_modified": "2023-09-06T01:18:27.822814+10:00"}, {"id": 24749, "name": "Frank Launder", "roles_in_work": [{"id": 2476629, "title": "I See a dark stranger = The Adventuress", "work_id": 82494, "role": "director", "role_id": 938, "is_primary": true}, {"id": 2290167, "title": "Two thousand women", "work_id": 84429, "role": "director", "role_id": 938, "is_primary": true}, {"id": 916321, "title": "The Great St Trinian's train robbery", "work_id": 94706, "role": "co-director", "role_id": 959, "is_primary": true}, {"id": 2476627, "title": "I See a dark stranger = The Adventuress", "work_id": 82494, "role": "co-producer", "role_id": 915, "is_primary": true}, {"id": 2177161, "title": "Only two can play", "work_id": 95042, "role": "production company", "role_id": 941, "is_primary": true}], "also_known_as": "", "date_of_birth": "1906-01-28", "date_of_death": "1997-02-23", "genders": [{"id": 9, "name": "Male", "slug": "male"}], "languages": [{"id": 1, "name": "English", "slug": "english"}], "places_of_operation": [{"id": 10, "name": "United Kingdom", "slug": "united-kingdom"}], "biography": "Frank Launder (28 January 1906 – 23 February 1997) was a British writer, film director and producer, who made more than 40 films, many of them in collaboration with Sidney Gilliat.\n\n", "biography_author": "Wikidata", "date_of_biography": "2022-05-19T11:29:34.020111+10:00", "external_links": [{"id": 2057, "uri": "https://en.wikipedia.org/wiki/Frank_Launder"}], "uuid": "b13597bc-0923-4d5e-b0d1-317ae2b16eec", "source": {"name": "Vernon", "slug": "vernon"}, "source_identifier": "19139", "external_references": [{"id": 8878, "source": {"name": "Wikidata", "slug": "wikidata"}, "source_identifier": "Q979175"}, {"id": 8879, "source": {"name": "VIAF", "slug": "viaf"}, "source_identifier": "5132804"}, {"id": 8880, "source": {"name": "LOC Auth", "slug": "loc-auth"}, "source_identifier": "n78018473"}, {"id": 8881, "source": {"name": "WorldCat", "slug": "worldcat"}, "source_identifier": "lccn-n78018473"}], "date_modified": "2023-09-13T12:29:25.081370+10:00"}, {"id": 24748, "name": "Individual Pictures", "roles_in_work": [{"id": 2476626, "title": "I See a dark stranger = The Adventuress", "work_id": 82494, "role": "production company", "role_id": 941, "is_primary": true}], "also_known_as": "", "date_of_birth": "", "date_of_death": "", "genders": [], "languages": [], "places_of_operation": [], "biography": "", "biography_author": null, "date_of_biography": "2023-08-17T15:39:04.045498+10:00", "external_links": [], "uuid": "9133d6b9-6bf1-44f1-9320-eb4af2f5a46e", "source": {"name": "Vernon", "slug": "vernon"}, "source_identifier": "9279", "external_references": [], "date_modified": "2023-08-17T15:39:04.045710+10:00"}, {"id": 24745, "name": "Exelsior Film-TV", "roles_in_work": [{"id": 2649954, "title": "Dark eyes", "work_id": 82493, "role": "production company", "role_id": 941, "is_primary": true}], "also_known_as": "", "date_of_birth": "", "date_of_death": "", "genders": [], "languages": [], "places_of_operation": [], "biography": "", "biography_author": null, "date_of_biography": "2023-05-09T14:46:47.320997+10:00", "external_links": [], "uuid": "55f45d4b-e853-4942-a36c-0f244e99ec7e", "source": {"name": "Vernon", "slug": "vernon"}, "source_identifier": "8026", "external_references": [{"id": 42687, "source": {"name": "Wikidata", "slug": "wikidata"}, "source_identifier": "Q121079183"}], "date_modified": "2025-03-05T14:07:52.678254+11:00"}, {"id": 24741, "name": "Argus Films", "roles_in_work": [{"id": 2141020, "title": "Color me lurid: the weird world of George Kuchar", "work_id": 82489, "role": "production company", "role_id": 941, "is_primary": true}], "also_known_as": "", "date_of_birth": "", "date_of_death": "", "genders": [], "languages": [], "places_of_operation": [], "biography": "", "biography_author": null, "date_of_biography": "2023-05-09T13:37:43.896444+10:00", "external_links": [], "uuid": "913e29ac-133f-4df3-8eaa-6972973befdc", "source": {"name": "Vernon", "slug": "vernon"}, "source_identifier": "5366", "external_references": [{"id": 40378, "source": {"name": "Wikidata", "slug": "wikidata"}, "source_identifier": "Q121337368"}], "date_modified": "2023-09-05T17:43:50.704972+10:00"}]}