{"count": 28684, "next": "https://api.acmi.net.au/creators/?page=747", "previous": "https://api.acmi.net.au/creators/?page=745", "results": [{"id": 78120, "name": "Silva Basmajian", "roles_in_work": [{"id": 2163989, "title": "K.C.I.: beyond the three r's", "work_id": 88838, "role": "co-producer", "role_id": 915, "is_primary": true}, {"id": 2069310, "title": "A House divided: caregiver stress and elder abuse", "work_id": 92953, "role": "co-producer", "role_id": 915, "is_primary": true}, {"id": 912925, "title": "Mr Nobody", "work_id": 92956, "role": "co-producer", "role_id": 915, "is_primary": true}, {"id": 2235630, "title": "Rape: a crime of war (D)", "work_id": 87089, "role": "producer", "role_id": 1089, "is_primary": true}, {"id": 2615978, "title": "Stolen moments", "work_id": 86501, "role": "producer", "role_id": 1089, "is_primary": true}, {"id": 2182784, "title": "Out: stories of lesbian and gay youth", "work_id": 85883, "role": "producer", "role_id": 1089, "is_primary": true}, {"id": 2242493, "title": "First break", "work_id": 93677, "role": "producer", "role_id": 1089, "is_primary": true}, {"id": 2302059, "title": "Ski bums", "work_id": 93471, "role": "producer", "role_id": 1089, "is_primary": true}, {"id": 2161186, "title": "My father's camera", "work_id": 88162, "role": "producer", "role_id": 1089, "is_primary": true}], "also_known_as": "", "date_of_birth": "", "date_of_death": "", "genders": [], "languages": [], "places_of_operation": [], "biography": "", "biography_author": null, "date_of_biography": "2023-05-09T18:56:54.474165+10:00", "external_links": [], "uuid": "8b4cb828-319a-4c9e-a433-bb02c5a59512", "source": {"name": "Vernon", "slug": "vernon"}, "source_identifier": "28825", "external_references": [{"id": 37650, "source": {"name": "Wikidata", "slug": "wikidata"}, "source_identifier": "Q121315412"}], "date_modified": "2025-02-26T20:32:21.509342+11:00"}, {"id": 78119, "name": "Annette Handley", "roles_in_work": [{"id": 2095702, "title": "Andre", "work_id": 85872, "role": "co-producer", "role_id": 915, "is_primary": true}, {"id": 2332955, "title": "The Blue yonder", "work_id": 86268, "role": "producer", "role_id": 1089, "is_primary": true}], "also_known_as": "", "date_of_birth": "", "date_of_death": "", "genders": [], "languages": [], "places_of_operation": [], "biography": "", "biography_author": null, "date_of_biography": "2023-05-09T19:28:16.160479+10:00", "external_links": [], "uuid": "45ce8273-ad4c-47f5-8511-a84219be7b7d", "source": {"name": "Vernon", "slug": "vernon"}, "source_identifier": "15358", "external_references": [], "date_modified": "2023-06-14T16:33:30.576250+10:00"}, {"id": 78118, "name": "Adam Shapiro", "roles_in_work": [{"id": 2095698, "title": "Andre", "work_id": 85872, "role": "co-producer", "role_id": 915, "is_primary": true}], "also_known_as": "", "date_of_birth": "", "date_of_death": "", "genders": [], "languages": [], "places_of_operation": [], "biography": "", "biography_author": null, "date_of_biography": "2023-05-09T12:23:25.400227+10:00", "external_links": [], "uuid": "0b797b5b-b6f3-4083-87e5-997a2fb5041b", "source": {"name": "Vernon", "slug": "vernon"}, "source_identifier": "14647", "external_references": [], "date_modified": "2023-06-14T16:33:30.576250+10:00"}, {"id": 78117, "name": "Milton Subotsky", "roles_in_work": [{"id": 2615936, "title": "Doctor Who & the Daleks", "work_id": 86437, "role": "co-producer", "role_id": 915, "is_primary": true}, {"id": 2332236, "title": "The Birthday party", "work_id": 85870, "role": "co-producer", "role_id": 915, "is_primary": true}, {"id": 1996534, "title": "I, monster", "work_id": 92748, "role": "co-producer", "role_id": 915, "is_primary": true}, {"id": 2102274, "title": "Asylum", "work_id": 95197, "role": "co-producer", "role_id": 915, "is_primary": true}, {"id": 2095620, "title": "And now the screaming starts!", "work_id": 95213, "role": "co-producer", "role_id": 915, "is_primary": true}, {"id": 2355007, "title": "The House that dripped blood", "work_id": 95215, "role": "co-producer", "role_id": 915, "is_primary": true}, {"id": 2330050, "title": "The Beast must die", "work_id": 95214, "role": "co-producer", "role_id": 915, "is_primary": true}], "also_known_as": "", "date_of_birth": "27 SEP 1921", "date_of_death": "27 JUN 1991", "genders": [{"id": 9, "name": "Male", "slug": "male"}], "languages": [{"id": 1, "name": "English", "slug": "english"}], "places_of_operation": [{"id": 1, "name": "United States of America", "slug": "united-states-of-america"}], "biography": "Milton Subotsky (September 27, 1921 – June 27, 1991) was an American film and television writer and producer. In 1964, he founded Amicus Productions with Max J. Rosenberg. Amicus means \"friend\" in Latin. The partnership produced low-budget science fiction and horror films in the United Kingdom. Source: Wikidata; 01/08/2023", "biography_author": null, "date_of_biography": "2025-02-26T20:31:48.339684+11:00", "external_links": [{"id": 4743, "uri": "https://en.wikipedia.org/wiki/Milton_Subotsky"}], "uuid": "fef05e9c-8185-4ca0-8038-56711a0c0abc", "source": {"name": "Vernon", "slug": "vernon"}, "source_identifier": "25441", "external_references": [{"id": 25954, "source": {"name": "Wikidata", "slug": "wikidata"}, "source_identifier": "Q6861467"}, {"id": 30439, "source": {"name": "VIAF", "slug": "viaf"}, "source_identifier": "51888467"}, {"id": 30440, "source": {"name": "LOC Auth", "slug": "loc-auth"}, "source_identifier": "no98074977"}, {"id": 30441, "source": {"name": "WorldCat", "slug": "worldcat"}, "source_identifier": "lccn-no98074977"}], "date_modified": "2025-02-26T20:31:48.340003+11:00"}, {"id": 78116, "name": "John Rawlins", "roles_in_work": [{"id": 2296988, "title": "Sherlock Holmes faces death. Sherlock Holmes' secret weapon. Shelock Holmes and the voice of terror.", "work_id": 85864, "role": "co-director", "role_id": 959, "is_primary": true}], "also_known_as": "", "date_of_birth": "", "date_of_death": "", "genders": [], "languages": [], "places_of_operation": [], "biography": "", "biography_author": null, "date_of_biography": "2023-05-09T18:29:23.486844+10:00", "external_links": [], "uuid": "41c08d0f-9989-4dbe-84ce-b1aedbabbce2", "source": {"name": "Vernon", "slug": "vernon"}, "source_identifier": "22487", "external_references": [{"id": 43053, "source": {"name": "Wikidata", "slug": "wikidata"}, "source_identifier": "Q121036448"}], "date_modified": "2023-09-05T21:43:41.267950+10:00"}, {"id": 78115, "name": "Miranda Wills", "roles_in_work": [{"id": 905122, "title": "King Koala", "work_id": 85858, "role": "co-director", "role_id": 959, "is_primary": true}], "also_known_as": "", "date_of_birth": null, "date_of_death": null, "genders": [], "languages": [], "places_of_operation": [], "biography": "", "biography_author": null, "date_of_biography": null, "external_links": [], "uuid": "ee4ec52e-0ff9-4f05-a650-fae0920f65a9", "source": {"name": "Vernon", "slug": "vernon"}, "source_identifier": null, "external_references": [{"id": 36677, "source": {"name": "Wikidata", "slug": "wikidata"}, "source_identifier": "Q121036841"}], "date_modified": "2023-09-05T23:18:06.735099+10:00"}, {"id": 78114, "name": "Neil O'Hare", "roles_in_work": [{"id": 2224146, "title": "Eye on the reef", "work_id": 85856, "role": "co-producer", "role_id": 915, "is_primary": true}], "also_known_as": "", "date_of_birth": "", "date_of_death": "", "genders": [], "languages": [], "places_of_operation": [], "biography": "", "biography_author": null, "date_of_biography": "2023-05-09T16:24:00.390655+10:00", "external_links": [], "uuid": "07e2705a-b2f5-4ab1-b7e8-bed946c9f3e6", "source": {"name": "Vernon", "slug": "vernon"}, "source_identifier": "25682", "external_references": [{"id": 38193, "source": {"name": "Wikidata", "slug": "wikidata"}, "source_identifier": "Q121126922"}], "date_modified": "2023-09-05T23:27:37.753015+10:00"}, {"id": 78113, "name": "Hengemeth Panahi", "roles_in_work": [{"id": 1990257, "title": "The Secret adventures of Tom Thumb", "work_id": 85853, "role": "co-producer", "role_id": 915, "is_primary": true}], "also_known_as": "", "date_of_birth": null, "date_of_death": null, "genders": [], "languages": [], "places_of_operation": [], "biography": "", "biography_author": null, "date_of_biography": null, "external_links": [], "uuid": "f5c409d3-1aaa-4447-a7c1-c10f3f5529b5", "source": {"name": "Vernon", "slug": "vernon"}, "source_identifier": null, "external_references": [{"id": 39223, "source": {"name": "Wikidata", "slug": "wikidata"}, "source_identifier": "Q121160005"}], "date_modified": "2023-09-05T20:35:01.583769+10:00"}, {"id": 78112, "name": "Thierry Garrel", "roles_in_work": [{"id": 1990256, "title": "The Secret adventures of Tom Thumb", "work_id": 85853, "role": "co-producer", "role_id": 915, "is_primary": true}], "also_known_as": "", "date_of_birth": null, "date_of_death": null, "genders": [], "languages": [], "places_of_operation": [], "biography": "", "biography_author": null, "date_of_biography": null, "external_links": [], "uuid": "a03c254b-b893-4cdc-9319-4f8dad90d210", "source": {"name": "Vernon", "slug": "vernon"}, "source_identifier": null, "external_references": [{"id": 39050, "source": {"name": "Wikidata", "slug": "wikidata"}, "source_identifier": "Q121337121"}], "date_modified": "2023-09-06T01:47:57.758435+10:00"}, {"id": 78111, "name": "Colin Rose", "roles_in_work": [{"id": 1990255, "title": "The Secret adventures of Tom Thumb", "work_id": 85853, "role": "co-producer", "role_id": 915, "is_primary": true}], "also_known_as": "", "date_of_birth": null, "date_of_death": null, "genders": [], "languages": [], "places_of_operation": [], "biography": "", "biography_author": null, "date_of_biography": null, "external_links": [], "uuid": "6072d6cd-f312-4e7d-87c7-8c527885cb9e", "source": {"name": "Vernon", "slug": "vernon"}, "source_identifier": null, "external_references": [{"id": 38086, "source": {"name": "Wikidata", "slug": "wikidata"}, "source_identifier": "Q121143826"}], "date_modified": "2023-09-05T18:44:02.020623+10:00"}]}