{"count": 28684, "next": "https://api.acmi.net.au/creators/?page=87", "previous": "https://api.acmi.net.au/creators/?page=85", "results": [{"id": 86113, "name": "t.d.f", "roles_in_work": [{"id": 3107711, "title": "Cyberthon V: Spectrum 2 - Orange", "work_id": 118004, "role": "vision", "role_id": 1073, "is_primary": false}], "also_known_as": "", "date_of_birth": "", "date_of_death": "", "genders": [], "languages": [], "places_of_operation": [], "biography": "", "biography_author": null, "date_of_biography": "2023-08-30T03:36:55.191544+10:00", "external_links": [], "uuid": "05539bdd-1583-4b7c-a96b-1c7215d3d7f0", "source": {"name": "Vernon", "slug": "vernon"}, "source_identifier": "40155", "external_references": [], "date_modified": "2025-09-08T09:24:27.150512+10:00"}, {"id": 86112, "name": "abcTVxyz", "roles_in_work": [{"id": 3107710, "title": "Cyberthon V: Spectrum 2 - Orange", "work_id": 118004, "role": "vision", "role_id": 1073, "is_primary": false}], "also_known_as": "", "date_of_birth": "", "date_of_death": "", "genders": [], "languages": [], "places_of_operation": [], "biography": "", "biography_author": null, "date_of_biography": "2023-08-30T03:36:54.563053+10:00", "external_links": [], "uuid": "f3abdafd-1bda-4987-a8b4-849885fba2c1", "source": {"name": "Vernon", "slug": "vernon"}, "source_identifier": "40154", "external_references": [], "date_modified": "2025-09-08T09:24:26.504315+10:00"}, {"id": 86111, "name": "Digital Primate", "roles_in_work": [{"id": 3107752, "title": "Cyberthon V: Spectrum 4 - Green", "work_id": 117985, "role": "disc jockey", "role_id": 1069, "is_primary": false}, {"id": 3107725, "title": "Cyberthon V: Spectrum 3 - Yellow", "work_id": 118005, "role": "disc jockey", "role_id": 1069, "is_primary": false}, {"id": 3107709, "title": "Cyberthon V: Spectrum 2 - Orange", "work_id": 118004, "role": "music", "role_id": 949, "is_primary": false}], "also_known_as": "", "date_of_birth": "", "date_of_death": "", "genders": [], "languages": [], "places_of_operation": [], "biography": "", "biography_author": null, "date_of_biography": "2023-08-30T03:37:06.443790+10:00", "external_links": [], "uuid": "7f31df63-be12-4730-a16a-ce7d6e4d80f2", "source": {"name": "Vernon", "slug": "vernon"}, "source_identifier": "40153", "external_references": [{"id": 51389, "source": {"name": "Wikidata", "slug": "wikidata"}, "source_identifier": "Q121361151"}], "date_modified": "2025-09-08T09:24:59.561604+10:00"}, {"id": 86110, "name": "Anticraft", "roles_in_work": [{"id": 3107708, "title": "Cyberthon V: Spectrum 2 - Orange", "work_id": 118004, "role": "video", "role_id": 445, "is_primary": false}], "also_known_as": "", "date_of_birth": "", "date_of_death": "", "genders": [], "languages": [], "places_of_operation": [], "biography": "", "biography_author": null, "date_of_biography": "2023-08-30T03:36:53.113002+10:00", "external_links": [], "uuid": "69a861ca-5b7b-4a0e-b7b2-952f9d46b47f", "source": {"name": "Vernon", "slug": "vernon"}, "source_identifier": "40152", "external_references": [], "date_modified": "2025-09-08T09:24:25.230103+10:00"}, {"id": 86109, "name": "Voice", "roles_in_work": [{"id": 3107707, "title": "Cyberthon V: Spectrum 2 - Orange", "work_id": 118004, "role": "music", "role_id": 949, "is_primary": false}], "also_known_as": "", "date_of_birth": "", "date_of_death": "", "genders": [], "languages": [], "places_of_operation": [], "biography": "", "biography_author": null, "date_of_biography": "2023-08-30T03:36:52.513990+10:00", "external_links": [], "uuid": "68a63b81-ca70-4501-a391-2118c9698582", "source": {"name": "Vernon", "slug": "vernon"}, "source_identifier": "40151", "external_references": [{"id": 51321, "source": {"name": "Wikidata", "slug": "wikidata"}, "source_identifier": "Q121361260"}], "date_modified": "2025-09-08T09:24:24.585531+10:00"}, {"id": 86108, "name": "Andy Taylor", "roles_in_work": [{"id": 3107706, "title": "Cyberthon V: Spectrum 2 - Orange", "work_id": 118004, "role": "camera operator", "role_id": 931, "is_primary": false}], "also_known_as": "", "date_of_birth": "", "date_of_death": "", "genders": [], "languages": [], "places_of_operation": [], "biography": "", "biography_author": null, "date_of_biography": "2023-08-30T03:36:51.912089+10:00", "external_links": [], "uuid": "de0de50c-4fcd-4117-b7c7-c56ded5db34c", "source": {"name": "Vernon", "slug": "vernon"}, "source_identifier": "40150", "external_references": [{"id": 50994, "source": {"name": "Wikidata", "slug": "wikidata"}, "source_identifier": "Q121360870"}], "date_modified": "2025-09-08T09:24:23.955269+10:00"}, {"id": 86107, "name": "Susan Clinch", "roles_in_work": [{"id": 3107705, "title": "Cyberthon V: Spectrum 2 - Orange", "work_id": 118004, "role": "camera operator", "role_id": 931, "is_primary": false}], "also_known_as": "", "date_of_birth": "", "date_of_death": "", "genders": [], "languages": [], "places_of_operation": [], "biography": "", "biography_author": null, "date_of_biography": "2023-08-30T03:36:51.302745+10:00", "external_links": [], "uuid": "c2f58b8b-032c-483b-abd3-c937ddb65e4a", "source": {"name": "Vernon", "slug": "vernon"}, "source_identifier": "40149", "external_references": [{"id": 51629, "source": {"name": "Wikidata", "slug": "wikidata"}, "source_identifier": "Q121361359"}], "date_modified": "2025-09-08T09:24:23.318859+10:00"}, {"id": 86106, "name": "P. Sexy", "roles_in_work": [{"id": 3107704, "title": "Cyberthon V: Spectrum 2 - Orange", "work_id": 118004, "role": "performer", "role_id": 576, "is_primary": false}], "also_known_as": "", "date_of_birth": "", "date_of_death": "", "genders": [], "languages": [], "places_of_operation": [], "biography": "", "biography_author": null, "date_of_biography": "2023-08-30T03:36:50.692971+10:00", "external_links": [], "uuid": "aa4c77fa-7dbb-48e5-af43-b969925fa757", "source": {"name": "Vernon", "slug": "vernon"}, "source_identifier": "40148", "external_references": [], "date_modified": "2025-09-08T09:24:22.674524+10:00"}, {"id": 86105, "name": "Raed Slim", "roles_in_work": [{"id": 3107703, "title": "Cyberthon V: Spectrum 2 - Orange", "work_id": 118004, "role": "anchor/host", "role_id": 629, "is_primary": false}], "also_known_as": "", "date_of_birth": "", "date_of_death": "", "genders": [], "languages": [], "places_of_operation": [], "biography": "", "biography_author": null, "date_of_biography": "2023-08-30T03:36:50.078735+10:00", "external_links": [], "uuid": "2819bed3-30f7-43ab-957d-60126a74295f", "source": {"name": "Vernon", "slug": "vernon"}, "source_identifier": "40147", "external_references": [], "date_modified": "2025-09-08T09:24:22.026389+10:00"}, {"id": 86104, "name": "Danniel Slim", "roles_in_work": [{"id": 3107702, "title": "Cyberthon V: Spectrum 2 - Orange", "work_id": 118004, "role": "anchor/host", "role_id": 629, "is_primary": false}], "also_known_as": "", "date_of_birth": "", "date_of_death": "", "genders": [], "languages": [], "places_of_operation": [], "biography": "", "biography_author": null, "date_of_biography": "2023-08-30T03:36:49.468638+10:00", "external_links": [], "uuid": "d5ebc9fc-9037-4d0e-8ebd-704bd73a66cf", "source": {"name": "Vernon", "slug": "vernon"}, "source_identifier": "40146", "external_references": [], "date_modified": "2025-09-08T09:24:21.393295+10:00"}]}