{"count": 28687, "next": "https://api.acmi.net.au/creators/?page=574", "previous": "https://api.acmi.net.au/creators/?page=572", "results": [{"id": 79853, "name": "John Grisham", "roles_in_work": [{"id": 2076147, "title": "A Time to kill", "work_id": 92498, "role": "co-producer", "role_id": 915, "is_primary": true}], "also_known_as": "John Ray Grisham, Jr.", "date_of_birth": null, "date_of_death": "", "genders": [{"id": 9, "name": "Male", "slug": "male"}], "languages": [{"id": 1, "name": "English", "slug": "english"}], "places_of_operation": [{"id": 18, "name": "Germany", "slug": "germany"}, {"id": 1, "name": "United States of America", "slug": "united-states-of-america"}], "biography": "John Ray Grisham Jr. (; born February 8, 1955) is an American novelist, lawyer and former member of the 7th district of the Mississippi House of Representatives, known for his best selling legal thrillers. According to the American Academy of Achievement, Grisham has written 37 consecutive number-one fiction bestsellers, and his books have sold 300 million copies worldwide. Along with Tom Clancy and J. K. Rowling, Grisham is one of only three authors to have sold two million copies on the first printing.Grisham graduated from Mississippi State University and earned a Juris Doctor from the University of Mississippi School of Law in 1981. He practised criminal law for about a decade and served in the Mississippi House of Representatives from 1983 to 1990.Grisham's first novel, A Time to Kill, was published in June 1989, four years after he began writing it. It was later adapted into the 1996 feature film of the same name. Grisham's first bestseller, The Firm, sold more than seven million copies, and was also adapted into a 1993 feature film of the same name, starring Tom Cruise, and a 2012 TV series which continues the story ten years after the events of the film and novel. Seven of his other novels have also been adapted into films: The Chamber, The Client, A Painted House, The Pelican Brief, The Rainmaker, The Runaway Jury, and Skipping Christmas.", "biography_author": "Wikidata", "date_of_biography": "2023-08-01T15:36:22.763139+10:00", "external_links": [{"id": 2424, "uri": "https://en.wikipedia.org/wiki/John_Grisham"}], "uuid": "13f4491f-1837-468d-bf84-1974d59cc691", "source": {"name": "Vernon", "slug": "vernon"}, "source_identifier": "22292", "external_references": [{"id": 10369, "source": {"name": "Wikidata", "slug": "wikidata"}, "source_identifier": "Q106465"}, {"id": 10370, "source": {"name": "VIAF", "slug": "viaf"}, "source_identifier": "7449742"}, {"id": 10371, "source": {"name": "LOC Auth", "slug": "loc-auth"}, "source_identifier": "n88231236"}, {"id": 10372, "source": {"name": "WorldCat", "slug": "worldcat"}, "source_identifier": "lccn-n88231236"}], "date_modified": "2023-09-05T21:37:58.923438+10:00"}, {"id": 79852, "name": "Julie Costanzo", "roles_in_work": [{"id": 911950, "title": "The Virgin suicides [DVD]", "work_id": 92496, "role": "co-producer", "role_id": 915, "is_primary": true}], "also_known_as": "", "date_of_birth": null, "date_of_death": null, "genders": [], "languages": [], "places_of_operation": [], "biography": "", "biography_author": null, "date_of_biography": null, "external_links": [], "uuid": "b7b3c9df-7208-4da5-9cef-b1a1c475feb5", "source": {"name": "Vernon", "slug": "vernon"}, "source_identifier": null, "external_references": [{"id": 42946, "source": {"name": "Wikidata", "slug": "wikidata"}, "source_identifier": "Q121270623"}], "date_modified": "2023-09-05T21:56:04.489931+10:00"}, {"id": 79851, "name": "Amos Cohen", "roles_in_work": [{"id": 2104110, "title": "Australia has no winter", "work_id": 92488, "role": "co-producers/directors", "role_id": 628, "is_primary": true}], "also_known_as": "", "date_of_birth": "", "date_of_death": "", "genders": [], "languages": [], "places_of_operation": [], "biography": "", "biography_author": null, "date_of_biography": "2023-05-09T12:35:59.570362+10:00", "external_links": [], "uuid": "d07e3dd3-2936-44ee-9456-e13afe7a0842", "source": {"name": "Vernon", "slug": "vernon"}, "source_identifier": "15069", "external_references": [], "date_modified": "2023-06-14T16:33:30.576250+10:00"}, {"id": 79850, "name": "Sherine Salama", "roles_in_work": [{"id": 2104103, "title": "Australia has no winter", "work_id": 92488, "role": "co-producers/directors", "role_id": 628, "is_primary": true}], "also_known_as": "", "date_of_birth": "", "date_of_death": "", "genders": [], "languages": [], "places_of_operation": [], "biography": "", "biography_author": null, "date_of_biography": "2023-05-09T12:35:59.224141+10:00", "external_links": [], "uuid": "ef43bfe2-39fd-48c2-a900-e57c8cf694ea", "source": {"name": "Vernon", "slug": "vernon"}, "source_identifier": "28751", "external_references": [], "date_modified": "2023-06-14T16:33:30.576250+10:00"}, {"id": 79849, "name": "Alexander Payne", "roles_in_work": [{"id": 2078269, "title": "About Schmidt", "work_id": 94528, "role": "director", "role_id": 938, "is_primary": true}, {"id": 2215800, "title": "Election", "work_id": 92483, "role": "director", "role_id": 938, "is_primary": true}], "also_known_as": "", "date_of_birth": "1961-02-10", "date_of_death": "", "genders": [{"id": 9, "name": "Male", "slug": "male"}], "languages": [{"id": 1, "name": "English", "slug": "english"}], "places_of_operation": [{"id": 1, "name": "United States of America", "slug": "united-states-of-america"}], "biography": "Constantine Alexander Payne (; born February 10, 1961) is an American film director, screenwriter and producer. He is best known for the films Citizen Ruth (1996), Election (1999), About Schmidt (2002), Sideways (2004), The Descendants (2011), Nebraska (2013) and Downsizing (2017). He is noted for his dark humor and satirical depictions of contemporary American society. Payne is a two-time winner of the Academy Award for Best Adapted Screenplay, and a three-time nominee of the Academy Award for Best Director. In 2017, Metacritic ranked Payne 2nd on its list of the 25 best film directors of the 21st century.", "biography_author": "Wikidata", "date_of_biography": "2023-08-01T13:58:40.685965+10:00", "external_links": [{"id": 1598, "uri": "https://en.wikipedia.org/wiki/Alexander_Payne"}], "uuid": "f1c16e3f-1664-4fa2-8876-48aef043acc9", "source": {"name": "Vernon", "slug": "vernon"}, "source_identifier": "14929", "external_references": [{"id": 6993, "source": {"name": "Wikidata", "slug": "wikidata"}, "source_identifier": "Q313566"}, {"id": 6994, "source": {"name": "VIAF", "slug": "viaf"}, "source_identifier": "89942936"}, {"id": 6995, "source": {"name": "LOC Auth", "slug": "loc-auth"}, "source_identifier": "n99835556"}, {"id": 6996, "source": {"name": "WorldCat", "slug": "worldcat"}, "source_identifier": "lccn-n99835556"}], "date_modified": "2023-09-05T17:26:21.761896+10:00"}, {"id": 79848, "name": "Keith Samples", "roles_in_work": [{"id": 2215797, "title": "Election", "work_id": 92483, "role": "co-producer", "role_id": 915, "is_primary": true}], "also_known_as": "", "date_of_birth": "", "date_of_death": "", "genders": [{"id": 9, "name": "Male", "slug": "male"}], "languages": [], "places_of_operation": [{"id": 1, "name": "United States of America", "slug": "united-states-of-america"}], "biography": "Keith Samples (born 1955 or 1956) is an American filmmaker and former syndication executive.He graduated in 1977 at the Texas Tech University and pursued a sports career.He was founder of the film and television production company Rysher Entertainment. He was originally senior vice president of Lorimar-Telepictures, before landing a job at Warner Bros. Television and Walt Disney Television to help them develop projects for syndication.During his time at Rysher Entertainment, he grew the company into the biggest movie-making producers in history, developing their own movie projects. On May 27, 1997, he  resigned from Rysher Entertainment and pursue his own projects. He went on to be a movie maker/television director/producer after leaving Rysher, starting his own production company to develop motion pictures and television shows.For a short period of time, in 2008, he worked at Media Rights Capital's television division. He infamously developed The CW's own Sunday night programming block under a time-lease agreement, but it flopped after a few viewings and poor ratings. He was fired after only a few months working at MRC.", "biography_author": "Wikidata", "date_of_biography": "2023-08-01T15:47:46.188628+10:00", "external_links": [{"id": 2513, "uri": "https://en.wikipedia.org/wiki/Keith_Samples"}], "uuid": "77de5e1d-bf06-48eb-a010-a7947cc2a16d", "source": {"name": "Vernon", "slug": "vernon"}, "source_identifier": "23157", "external_references": [{"id": 10743, "source": {"name": "Wikidata", "slug": "wikidata"}, "source_identifier": "Q6384982"}], "date_modified": "2023-09-05T22:04:04.977603+10:00"}, {"id": 79847, "name": "David Gale", "roles_in_work": [{"id": 2215793, "title": "Election", "work_id": 92483, "role": "co-producer", "role_id": 915, "is_primary": true}, {"id": 2064487, "title": "200 cigarettes", "work_id": 93713, "role": "co-producer", "role_id": 915, "is_primary": true}], "also_known_as": "", "date_of_birth": "", "date_of_death": "", "genders": [], "languages": [], "places_of_operation": [], "biography": "", "biography_author": null, "date_of_biography": "2023-05-09T15:54:23.641385+10:00", "external_links": [], "uuid": "1e811afa-fec0-4ae9-899a-71c5e3bf3a40", "source": {"name": "Vernon", "slug": "vernon"}, "source_identifier": "17586", "external_references": [], "date_modified": "2023-06-14T16:33:30.576250+10:00"}, {"id": 79846, "name": "Bona Fide Productions", "roles_in_work": [{"id": 2215782, "title": "Election", "work_id": 92483, "role": "production company", "role_id": 941, "is_primary": true}], "also_known_as": "", "date_of_birth": "", "date_of_death": "", "genders": [], "languages": [], "places_of_operation": [], "biography": "", "biography_author": null, "date_of_biography": "2023-05-09T15:54:22.826006+10:00", "external_links": [], "uuid": "37f4a77c-fe3c-4a1a-b03d-252cb48a8a45", "source": {"name": "Vernon", "slug": "vernon"}, "source_identifier": "5936", "external_references": [], "date_modified": "2023-06-14T16:33:30.576250+10:00"}, {"id": 79845, "name": "Kip Ohman", "roles_in_work": [{"id": 2354611, "title": "The Hitcher", "work_id": 92482, "role": "co-producer", "role_id": 915, "is_primary": true}], "also_known_as": "", "date_of_birth": "1946-01-01", "date_of_death": "1987-01-01", "genders": [], "languages": [], "places_of_operation": [], "biography": "", "biography_author": null, "date_of_biography": "2023-05-09T20:01:51.879829+10:00", "external_links": [], "uuid": "3f8123ed-938d-4d5e-9c59-60d4d17d6632", "source": {"name": "Vernon", "slug": "vernon"}, "source_identifier": "23354", "external_references": [{"id": 36220, "source": {"name": "Wikidata", "slug": "wikidata"}, "source_identifier": "Q110226822"}, {"id": 55011, "source": {"name": "VIAF", "slug": "viaf"}, "source_identifier": "122002343"}, {"id": 55012, "source": {"name": "LOC Auth", "slug": "loc-auth"}, "source_identifier": "no2010098696"}], "date_modified": "2023-09-05T22:09:57.746993+10:00"}, {"id": 79844, "name": "David Bombyk", "roles_in_work": [{"id": 2354607, "title": "The Hitcher", "work_id": 92482, "role": "co-producer", "role_id": 915, "is_primary": true}], "also_known_as": "", "date_of_birth": "1952-01-01", "date_of_death": "1989-01-01", "genders": [], "languages": [], "places_of_operation": [], "biography": "", "biography_author": null, "date_of_biography": "2023-05-09T20:01:51.635084+10:00", "external_links": [], "uuid": "fa39df7c-8b9c-40c4-ac82-1b8406a6b861", "source": {"name": "Vernon", "slug": "vernon"}, "source_identifier": "17507", "external_references": [{"id": 32543, "source": {"name": "Wikidata", "slug": "wikidata"}, "source_identifier": "Q110877745"}, {"id": 54269, "source": {"name": "VIAF", "slug": "viaf"}, "source_identifier": "19350015"}, {"id": 54270, "source": {"name": "LOC Auth", "slug": "loc-auth"}, "source_identifier": "no2002070115"}], "date_modified": "2023-09-05T18:54:45.331391+10:00"}]}