{"count": 28684, "next": "https://api.acmi.net.au/creators/?page=987", "previous": "https://api.acmi.net.au/creators/?page=985", "results": [{"id": 75719, "name": "Tom Shandel", "roles_in_work": [{"id": 2757488, "title": "Original sin", "work_id": 87875, "role": "director", "role_id": 938, "is_primary": true}, {"id": 761514, "title": "We call them killers", "work_id": 76262, "role": "director", "role_id": 938, "is_primary": true}, {"id": 2649455, "title": "Did You Used to Be R. D. Laing?", "work_id": 81548, "role": "co-producers/directors", "role_id": 628, "is_primary": true}], "also_known_as": "", "date_of_birth": "", "date_of_death": "", "genders": [], "languages": [], "places_of_operation": [], "biography": "", "biography_author": null, "date_of_biography": "2023-05-09T18:41:04.199175+10:00", "external_links": [], "uuid": "9eff71e4-f185-4bba-aee9-ffd1703d1bde", "source": {"name": "Vernon", "slug": "vernon"}, "source_identifier": "13615", "external_references": [{"id": 39729, "source": {"name": "Wikidata", "slug": "wikidata"}, "source_identifier": "Q121143735"}], "date_modified": "2025-03-13T14:45:46.446069+11:00"}, {"id": 75718, "name": "Donald Connolly", "roles_in_work": [{"id": 2308405, "title": "Stamps: a nation's calling card", "work_id": 76225, "role": "producer/director", "role_id": 31, "is_primary": true}], "also_known_as": "", "date_of_birth": "", "date_of_death": "", "genders": [], "languages": [], "places_of_operation": [], "biography": "", "biography_author": null, "date_of_biography": "2023-05-09T18:48:37.626637+10:00", "external_links": [], "uuid": "56d066c9-4e78-4274-8d07-c72ac0ca83eb", "source": {"name": "Vernon", "slug": "vernon"}, "source_identifier": "18284", "external_references": [{"id": 51045, "source": {"name": "Wikidata", "slug": "wikidata"}, "source_identifier": "Q121361475"}], "date_modified": "2023-09-05T19:17:32.333530+10:00"}, {"id": 75717, "name": "Steve A Kahlenbeck", "roles_in_work": [{"id": 2468767, "title": "The Wilderness world of Sigurd F. Olson", "work_id": 76223, "role": "co-director", "role_id": 959, "is_primary": true}], "also_known_as": "", "date_of_birth": "", "date_of_death": "", "genders": [], "languages": [], "places_of_operation": [], "biography": "", "biography_author": null, "date_of_biography": "2023-08-14T11:45:49.287814+10:00", "external_links": [], "uuid": "8e8e975d-bd6c-4d7e-9e63-15ad47cde589", "source": {"name": "Vernon", "slug": "vernon"}, "source_identifier": "29103", "external_references": [{"id": 43008, "source": {"name": "Wikidata", "slug": "wikidata"}, "source_identifier": "Q121036916"}], "date_modified": "2023-09-06T01:30:02.322067+10:00"}, {"id": 75716, "name": "Ray J. Christensen", "roles_in_work": [{"id": 2468766, "title": "The Wilderness world of Sigurd F. Olson", "work_id": 76223, "role": "co-director", "role_id": 959, "is_primary": true}], "also_known_as": "", "date_of_birth": "", "date_of_death": "", "genders": [], "languages": [], "places_of_operation": [], "biography": "", "biography_author": null, "date_of_biography": "2023-08-14T11:45:48.662310+10:00", "external_links": [], "uuid": "3d7210dc-186c-43db-83bb-b768f72732b3", "source": {"name": "Vernon", "slug": "vernon"}, "source_identifier": "27158", "external_references": [{"id": 32973, "source": {"name": "Wikidata", "slug": "wikidata"}, "source_identifier": "Q121223167"}], "date_modified": "2023-09-06T00:22:33.163679+10:00"}, {"id": 75715, "name": "Bob Walker", "roles_in_work": [{"id": 2066737, "title": "A Continent on guard", "work_id": 76221, "role": "director", "role_id": 938, "is_primary": true}, {"id": 2125724, "title": "Brother bear", "work_id": 94867, "role": "co-director", "role_id": 959, "is_primary": true}], "also_known_as": "", "date_of_birth": "", "date_of_death": "", "genders": [], "languages": [], "places_of_operation": [], "biography": "", "biography_author": null, "date_of_biography": "2023-05-09T13:10:37.861014+10:00", "external_links": [], "uuid": "ac32d321-fe66-4b15-8931-627833d83564", "source": {"name": "Vernon", "slug": "vernon"}, "source_identifier": "16113", "external_references": [{"id": 38559, "source": {"name": "Wikidata", "slug": "wikidata"}, "source_identifier": "Q121035494"}], "date_modified": "2023-09-05T18:07:56.772413+10:00"}, {"id": 75714, "name": "Lynn Smith", "roles_in_work": [{"id": 761426, "title": "This is your museum speaking", "work_id": 76219, "role": "director", "role_id": 938, "is_primary": true}, {"id": 2752187, "title": "The Sound collector", "work_id": 98183, "role": "director", "role_id": 938, "is_primary": true}, {"id": 2752184, "title": "The Sound collector", "work_id": 98183, "role": "co-producer", "role_id": 915, "is_primary": true}], "also_known_as": "", "date_of_birth": null, "date_of_death": null, "genders": [{"id": 5, "name": "Female", "slug": "female"}], "languages": [], "places_of_operation": [{"id": 36, "name": "Canada", "slug": "canada"}], "biography": "", "biography_author": null, "date_of_biography": null, "external_links": [], "uuid": "5dc53ea1-eb47-43b5-a630-bd5a46cbc6e1", "source": {"name": "Vernon", "slug": "vernon"}, "source_identifier": "24140", "external_references": [{"id": 11159, "source": {"name": "Wikidata", "slug": "wikidata"}, "source_identifier": "Q46512764"}], "date_modified": "2025-03-13T01:00:30.824141+11:00"}, {"id": 75713, "name": "Grigori Alekandrov", "roles_in_work": [{"id": 2324206, "title": "Ten days that shook the world = October = Oktyabr (TEFC) [SILENT]", "work_id": 76213, "role": "co-director", "role_id": 959, "is_primary": true}], "also_known_as": "", "date_of_birth": "1903-01-10", "date_of_death": "1983-12-16", "genders": [{"id": 9, "name": "Male", "slug": "male"}], "languages": [{"id": 3, "name": "Russian", "slug": "russian"}], "places_of_operation": [{"id": 291, "name": "Russian Empire", "slug": "russian-empire"}], "biography": "Grigori Vasilyevich Aleksandrov or Alexandrov (Russian: Григо́рий Васи́льевич Алекса́ндров; original family name was Мормоненко or Mormonenko; 23 January 1903 – 16 December 1983) was a prominent Soviet film director who was named a People's Artist of the USSR in 1947 and a Hero of Socialist Labour in 1973. He was awarded the Stalin Prizes for 1941 and 1950.\nInitially associated with Sergei Eisenstein, with whom he worked as a co-director, screenwriter and actor, Aleksandrov became a major director in his own right in the 1930s, when he directed Jolly Fellows and a string of other musical comedies starring his wife Lyubov Orlova.\nThough Aleksandrov remained active until his death, his musicals, amongst the first made in the Soviet Union, remain his most popular films. They rival Ivan Pyryev's films as the most effective and light-hearted showcase ever designed for the Stalin-era USSR.", "biography_author": "Wikidata", "date_of_biography": "2023-09-05T20:23:50.628499+10:00", "external_links": [{"id": 5850, "uri": "https://en.wikipedia.org/wiki/Grigori_Aleksandrov"}], "uuid": "f75be685-41bb-4c8a-be67-377667dbd581", "source": {"name": "Vernon", "slug": "vernon"}, "source_identifier": "20097", "external_references": [{"id": 33722, "source": {"name": "Wikidata", "slug": "wikidata"}, "source_identifier": "Q561459"}, {"id": 54589, "source": {"name": "VIAF", "slug": "viaf"}, "source_identifier": "50573190"}, {"id": 54590, "source": {"name": "LOC Auth", "slug": "loc-auth"}, "source_identifier": "n82090866"}, {"id": 54591, "source": {"name": "WorldCat", "slug": "worldcat"}, "source_identifier": "lccn-n82090866"}], "date_modified": "2023-09-05T20:23:54.724912+10:00"}, {"id": 75712, "name": "Kim In Tae", "roles_in_work": [{"id": 862328, "title": "Korean alphabet", "work_id": 76209, "role": "producer/director", "role_id": 31, "is_primary": true}], "also_known_as": "", "date_of_birth": null, "date_of_death": null, "genders": [], "languages": [], "places_of_operation": [], "biography": "", "biography_author": null, "date_of_biography": null, "external_links": [], "uuid": "e341a03d-8276-4c8d-872c-26b1d79ec5d9", "source": {"name": "Vernon", "slug": "vernon"}, "source_identifier": null, "external_references": [{"id": 51738, "source": {"name": "Wikidata", "slug": "wikidata"}, "source_identifier": "Q121361360"}], "date_modified": "2023-09-05T22:08:54.399327+10:00"}, {"id": 75711, "name": "Jack Long", "roles_in_work": [{"id": 862309, "title": "The Man who digs for fish", "work_id": 76192, "role": "director", "role_id": 938, "is_primary": true}, {"id": 2115112, "title": "Bill Reid", "work_id": 77864, "role": "director", "role_id": 938, "is_primary": true}, {"id": 2209598, "title": "Poison Ivy", "work_id": 78001, "role": "producer", "role_id": 1089, "is_primary": true}, {"id": 2195611, "title": "Distant islands", "work_id": 98311, "role": "producer", "role_id": 1089, "is_primary": true}, {"id": 2354723, "title": "The Hometown", "work_id": 76327, "role": "producer", "role_id": 1089, "is_primary": true}], "also_known_as": "", "date_of_birth": "", "date_of_death": "", "genders": [{"id": 9, "name": "Male", "slug": "male"}], "languages": [], "places_of_operation": [], "biography": "", "biography_author": null, "date_of_biography": "2023-05-09T20:02:01.998017+10:00", "external_links": [], "uuid": "f4a1e4c7-afbe-4b99-98b6-138637c058ae", "source": {"name": "Vernon", "slug": "vernon"}, "source_identifier": "21071", "external_references": [{"id": 35787, "source": {"name": "Wikidata", "slug": "wikidata"}, "source_identifier": "Q121222903"}], "date_modified": "2023-09-05T20:56:15.889542+10:00"}, {"id": 75710, "name": "Phillip Robertson", "roles_in_work": [{"id": 2647389, "title": "Coping: isolation and transience in a new Australian mining town", "work_id": 76154, "role": "director", "role_id": 938, "is_primary": true}], "also_known_as": "", "date_of_birth": "", "date_of_death": "", "genders": [], "languages": [], "places_of_operation": [], "biography": "", "biography_author": null, "date_of_biography": "2023-05-09T13:44:04.414182+10:00", "external_links": [], "uuid": "ca89fa02-dfe3-48f3-9bfc-1c965e17a16b", "source": {"name": "Vernon", "slug": "vernon"}, "source_identifier": "26889", "external_references": [{"id": 42755, "source": {"name": "Wikidata", "slug": "wikidata"}, "source_identifier": "Q120401935"}], "date_modified": "2025-03-05T13:25:23.230529+11:00"}]}