{"count": 28683, "next": "https://api.acmi.net.au/creators/?page=2050", "previous": "https://api.acmi.net.au/creators/?page=2048", "results": [{"id": 21553, "name": "Mandy Smith", "roles_in_work": [{"id": 2218899, "title": "English at Work. - Eps. 13-15.", "work_id": 81545, "role": "co-director", "role_id": 959, "is_primary": true}, {"id": 3084117, "title": "Janus. Eps 05 and 06: Judgement amongst short men. Reckless indifference", "work_id": 91632, "role": "co-director", "role_id": 959, "is_primary": true}, {"id": 898618, "title": "In Between. Part 1", "work_id": 78788, "role": "co-director", "role_id": 959, "is_primary": true}, {"id": 3084074, "title": "Janus. Eps 17 and 18: Right to remain silent. My learned friend, Mr Hennessey", "work_id": 91618, "role": "co-director", "role_id": 959, "is_primary": true}, {"id": 2648294, "title": "In Between. Part 2", "work_id": 78784, "role": "co-director", "role_id": 959, "is_primary": true}, {"id": 3084111, "title": "Janus. Eps 13 and 14: Burden of proof. A Lawful apprehension", "work_id": 91624, "role": "co-director", "role_id": 959, "is_primary": true}, {"id": 2754670, "title": "In between", "work_id": 99303, "role": "co-director", "role_id": 959, "is_primary": true}, {"id": 3084093, "title": "Janus. Eps 21 and 22: Demands with menaces. Fit to plead", "work_id": 91621, "role": "co-director", "role_id": 959, "is_primary": true}, {"id": 929367, "title": "The Saddle Club: horse crazy", "work_id": 94862, "role": "co-director", "role_id": 959, "is_primary": true}, {"id": 3084065, "title": "Janus. Eps 25 and 26: Mute by visitation. Elements of murder", "work_id": 91616, "role": "co-director", "role_id": 959, "is_primary": true}, {"id": 2218916, "title": "English at Work. - Eps. 16-18.", "work_id": 81544, "role": "co-director", "role_id": 959, "is_primary": true}, {"id": 3084099, "title": "Janus. Eps 09 and 10: A Mischievous offence. A Familiar utterance", "work_id": 91622, "role": "co-director", "role_id": 959, "is_primary": true}, {"id": 2218958, "title": "English at Work. - Eps. 22-24.", "work_id": 81642, "role": "co-director", "role_id": 959, "is_primary": true}, {"id": 2392617, "title": "Women in the surf", "work_id": 79822, "role": "production company", "role_id": 941, "is_primary": true}], "also_known_as": "", "date_of_birth": "", "date_of_death": "", "genders": [{"id": 5, "name": "Female", "slug": "female"}], "languages": [], "places_of_operation": [], "biography": "", "biography_author": null, "date_of_biography": "2023-08-09T03:58:27.656799+10:00", "external_links": [], "uuid": "f327d6fb-371a-4836-83b0-84efce21aa4d", "source": {"name": "Vernon", "slug": "vernon"}, "source_identifier": "24248", "external_references": [{"id": 38252, "source": {"name": "Wikidata", "slug": "wikidata"}, "source_identifier": "Q121271004"}], "date_modified": "2025-03-13T01:48:21.856112+11:00"}, {"id": 21551, "name": "Christina Wilcox", "roles_in_work": [{"id": 772602, "title": "Carolin and the Frog", "work_id": 80614, "role": "director", "role_id": 938, "is_primary": true}, {"id": 2770744, "title": "The People's diva: Joan Carden", "work_id": 80327, "role": "director", "role_id": 938, "is_primary": true}, {"id": 768037, "title": "The Nights Belong to the Novelist: the Imaginitive World of Elizabeth Jolley, Australian Writer", "work_id": 78780, "role": "director", "role_id": 938, "is_primary": true}, {"id": 2190694, "title": "Patterns of Landscape: Fred Williams 1927-1982", "work_id": 79629, "role": "co-director", "role_id": 959, "is_primary": true}, {"id": 810080, "title": "It's Ruth", "work_id": 92054, "role": "producer/director", "role_id": 31, "is_primary": true}], "also_known_as": "", "date_of_birth": "", "date_of_death": "", "genders": [], "languages": [], "places_of_operation": [], "biography": "", "biography_author": null, "date_of_biography": "2023-05-09T15:08:33.737525+10:00", "external_links": [], "uuid": "d900eb65-ecb3-4f5f-9f03-be91cee75169", "source": {"name": "Vernon", "slug": "vernon"}, "source_identifier": "4405", "external_references": [{"id": 39132, "source": {"name": "Wikidata", "slug": "wikidata"}, "source_identifier": "Q121271242"}], "date_modified": "2023-09-05T18:34:32.673557+10:00"}, {"id": 21543, "name": "Julienne Stretton", "roles_in_work": [{"id": 2398067, "title": "A Portrait of Katherine Mansfield", "work_id": 78768, "role": "director", "role_id": 938, "is_primary": true}], "also_known_as": "", "date_of_birth": "", "date_of_death": "", "genders": [], "languages": [], "places_of_operation": [], "biography": "", "biography_author": null, "date_of_biography": "2023-08-11T13:11:40.483604+10:00", "external_links": [], "uuid": "3639d1a0-fd33-428b-8707-8dd186237fc1", "source": {"name": "Vernon", "slug": "vernon"}, "source_identifier": "22921", "external_references": [], "date_modified": "2023-08-11T13:11:40.483952+10:00"}, {"id": 21542, "name": "Sue Kedgely", "roles_in_work": [{"id": 2398066, "title": "A Portrait of Katherine Mansfield", "work_id": 78768, "role": "producer", "role_id": 1089, "is_primary": true}], "also_known_as": "", "date_of_birth": "", "date_of_death": "", "genders": [], "languages": [], "places_of_operation": [], "biography": "", "biography_author": null, "date_of_biography": "2023-08-11T13:11:39.833943+10:00", "external_links": [], "uuid": "b0eb7693-ef7d-43ef-82d0-a1e5e35e839c", "source": {"name": "Vernon", "slug": "vernon"}, "source_identifier": "29292", "external_references": [], "date_modified": "2023-08-11T13:11:39.834399+10:00"}, {"id": 21541, "name": "Marigold Productions", "roles_in_work": [{"id": 2398065, "title": "A Portrait of Katherine Mansfield", "work_id": 78768, "role": "production company", "role_id": 941, "is_primary": true}], "also_known_as": "", "date_of_birth": "", "date_of_death": "", "genders": [], "languages": [], "places_of_operation": [], "biography": "", "biography_author": null, "date_of_biography": "2023-08-11T13:11:39.210075+10:00", "external_links": [], "uuid": "0d361281-9e74-4ba7-81c6-9576752efff4", "source": {"name": "Vernon", "slug": "vernon"}, "source_identifier": "10300", "external_references": [], "date_modified": "2023-08-11T13:11:39.210390+10:00"}, {"id": 21540, "name": "Fred M Wilcox", "roles_in_work": [{"id": 1978819, "title": "Hills of home", "work_id": 95559, "role": "director", "role_id": 938, "is_primary": true}, {"id": 1983929, "title": "The Secret garden", "work_id": 78767, "role": "director", "role_id": 938, "is_primary": true}, {"id": 1838288, "title": "Lassie come home", "work_id": 79956, "role": "director", "role_id": 938, "is_primary": true}, {"id": 1988965, "title": "The Secret garden (Captioned)", "work_id": 84983, "role": "director", "role_id": 938, "is_primary": true}], "also_known_as": "", "date_of_birth": "1907-12-22", "date_of_death": "1964-09-23", "genders": [{"id": 9, "name": "Male", "slug": "male"}], "languages": [{"id": 1, "name": "English", "slug": "english"}], "places_of_operation": [{"id": 1, "name": "United States of America", "slug": "united-states-of-america"}], "biography": "Fred McLeod Wilcox (December 22, 1907 – September 23, 1964) was an American motion picture director. He worked for Metro-Goldwyn-Mayer for many years best remembered for directing Lassie Come Home (1943) and Forbidden Planet (1956). These films were entered in the National Film Preservation Board's National Film Registry in 1993 and 2013 respectively.", "biography_author": "Wikidata", "date_of_biography": "2022-05-19T11:31:11+10:00", "external_links": [{"id": 2073, "uri": "https://en.wikipedia.org/wiki/Fred_M._Wilcox_(director)"}], "uuid": "0959152f-fb02-4532-a09c-5097e476aa93", "source": {"name": "Vernon", "slug": "vernon"}, "source_identifier": "19235", "external_references": [{"id": 8944, "source": {"name": "Wikidata", "slug": "wikidata"}, "source_identifier": "Q1452440"}, {"id": 8945, "source": {"name": "VIAF", "slug": "viaf"}, "source_identifier": "100242857"}, {"id": 8946, "source": {"name": "LOC Auth", "slug": "loc-auth"}, "source_identifier": "no97049500"}, {"id": 8947, "source": {"name": "WorldCat", "slug": "worldcat"}, "source_identifier": "lccn-no97049500"}], "date_modified": "2023-09-13T12:59:57.840230+10:00"}, {"id": 21538, "name": "Nightingale Productions", "roles_in_work": [{"id": 2763533, "title": "Cardio Pulmonary Resuscitation", "work_id": 78948, "role": "distributor", "role_id": 437, "is_primary": false}, {"id": 2648353, "title": "Hygiene. No. 1. Breathing", "work_id": 78950, "role": "distributor", "role_id": 437, "is_primary": false}, {"id": 2763540, "title": "Burns", "work_id": 78949, "role": "distributor", "role_id": 437, "is_primary": false}, {"id": 2763544, "title": "Airway", "work_id": 78951, "role": "distributor", "role_id": 437, "is_primary": false}, {"id": 2763548, "title": "Heart Attacks", "work_id": 78952, "role": "distributor", "role_id": 437, "is_primary": false}, {"id": 2763553, "title": "Altered consciousness", "work_id": 78953, "role": "distributor", "role_id": 437, "is_primary": false}, {"id": 2763556, "title": "Shock", "work_id": 78954, "role": "distributor", "role_id": 437, "is_primary": false}, {"id": 2763561, "title": "Occupational First Aid", "work_id": 78955, "role": "distributor", "role_id": 437, "is_primary": false}, {"id": 2763570, "title": "Broken Bones", "work_id": 78956, "role": "distributor", "role_id": 437, "is_primary": false}, {"id": 2763575, "title": "Poisons", "work_id": 78957, "role": "distributor", "role_id": 437, "is_primary": false}, {"id": 2763581, "title": "Bleeding", "work_id": 78958, "role": "distributor", "role_id": 437, "is_primary": false}, {"id": 2763588, "title": "Basic Life Support", "work_id": 78959, "role": "distributor", "role_id": 437, "is_primary": false}, {"id": 2763595, "title": "Examination of a Patient", "work_id": 78960, "role": "distributor", "role_id": 437, "is_primary": false}, {"id": 767989, "title": "Every second counts", "work_id": 78764, "role": "distributor", "role_id": 437, "is_primary": false}, {"id": 2763597, "title": "Examination of a Patient", "work_id": 78960, "role": "producer", "role_id": 1089, "is_primary": true}, {"id": 2763566, "title": "Occupational First Aid", "work_id": 78955, "role": "producer", "role_id": 1089, "is_primary": true}, {"id": 2763557, "title": "Shock", "work_id": 78954, "role": "producer", "role_id": 1089, "is_primary": true}, {"id": 2763579, "title": "Poisons", "work_id": 78957, "role": "producer", "role_id": 1089, "is_primary": true}, {"id": 2763550, "title": "Heart Attacks", "work_id": 78952, "role": "producer", "role_id": 1089, "is_primary": true}, {"id": 2763546, "title": "Airway", "work_id": 78951, "role": "producer", "role_id": 1089, "is_primary": true}, {"id": 2763542, "title": "Burns", "work_id": 78949, "role": "producer", "role_id": 1089, "is_primary": true}, {"id": 2763593, "title": "Basic Life Support", "work_id": 78959, "role": "producer", "role_id": 1089, "is_primary": true}, {"id": 2763583, "title": "Bleeding", "work_id": 78958, "role": "producer", "role_id": 1089, "is_primary": true}, {"id": 2763572, "title": "Broken Bones", "work_id": 78956, "role": "producer", "role_id": 1089, "is_primary": true}, {"id": 767990, "title": "Every second counts", "work_id": 78764, "role": "production company", "role_id": 941, "is_primary": true}, {"id": 2763554, "title": "Altered consciousness", "work_id": 78953, "role": "production company", "role_id": 941, "is_primary": true}], "also_known_as": "", "date_of_birth": "", "date_of_death": "", "genders": [], "languages": [], "places_of_operation": [], "biography": "", "biography_author": null, "date_of_biography": "2023-08-11T14:54:22.523337+10:00", "external_links": [], "uuid": "d1749e98-52a1-47e4-9f8d-af17174484e4", "source": {"name": "Vernon", "slug": "vernon"}, "source_identifier": "10967", "external_references": [], "date_modified": "2025-03-14T17:42:27.105847+11:00"}, {"id": 21536, "name": "CTV Television", "roles_in_work": [{"id": 2308936, "title": "Squash Clinic", "work_id": 78762, "role": "producer", "role_id": 1089, "is_primary": true}], "also_known_as": "", "date_of_birth": "", "date_of_death": "", "genders": [], "languages": [], "places_of_operation": [], "biography": "", "biography_author": null, "date_of_biography": "2023-05-09T18:49:15.551311+10:00", "external_links": [], "uuid": "1e6e6fb1-05c2-4fe7-a7d7-1de2afba5056", "source": {"name": "Vernon", "slug": "vernon"}, "source_identifier": "7224", "external_references": [{"id": 41955, "source": {"name": "Wikidata", "slug": "wikidata"}, "source_identifier": "Q121222538"}], "date_modified": "2023-09-05T18:47:22.902999+10:00"}, {"id": 21534, "name": "Richard Fawkes", "roles_in_work": [{"id": 2772051, "title": "Keating on Renoir", "work_id": 80249, "role": "director", "role_id": 938, "is_primary": true}, {"id": 2772011, "title": "Keating on Titian", "work_id": 80243, "role": "director", "role_id": 938, "is_primary": true}, {"id": 2772022, "title": "Keating on Rembrandt", "work_id": 80244, "role": "director", "role_id": 938, "is_primary": true}, {"id": 2772027, "title": "Keating on Impressionists", "work_id": 80245, "role": "director", "role_id": 938, "is_primary": true}, {"id": 2772033, "title": "Keating on Turner", "work_id": 80246, "role": "director", "role_id": 938, "is_primary": true}, {"id": 2772039, "title": "Keating on Cezanne", "work_id": 80247, "role": "director", "role_id": 938, "is_primary": true}, {"id": 2772046, "title": "Keating on Constable", "work_id": 80248, "role": "director", "role_id": 938, "is_primary": true}, {"id": 2772060, "title": "Keating on Manet", "work_id": 80250, "role": "director", "role_id": 938, "is_primary": true}, {"id": 2772071, "title": "Keating on Monet", "work_id": 80251, "role": "director", "role_id": 938, "is_primary": true}, {"id": 2772078, "title": "Keating on Van Gogh", "work_id": 80252, "role": "director", "role_id": 938, "is_primary": true}, {"id": 2771984, "title": "Keating on Degas", "work_id": 78754, "role": "director", "role_id": 938, "is_primary": true}, {"id": 2771989, "title": "Keating on Keating", "work_id": 80242, "role": "director", "role_id": 938, "is_primary": true}, {"id": 2772089, "title": "Keating on Restoration", "work_id": 98797, "role": "producer", "role_id": 1089, "is_primary": true}], "also_known_as": "", "date_of_birth": null, "date_of_death": null, "genders": [], "languages": [], "places_of_operation": [], "biography": "", "biography_author": null, "date_of_biography": null, "external_links": [], "uuid": "6368e4e1-f288-405f-87b0-1efc214bfb63", "source": {"name": "Vernon", "slug": "vernon"}, "source_identifier": "27379", "external_references": [], "date_modified": "2025-03-14T18:25:30.040585+11:00"}, {"id": 21533, "name": "Richard Beighton", "roles_in_work": [{"id": 2772092, "title": "Keating on Restoration", "work_id": 98797, "role": "director", "role_id": 938, "is_primary": true}, {"id": 2771988, "title": "Keating on Keating", "work_id": 80242, "role": "producer", "role_id": 1089, "is_primary": true}, {"id": 2772050, "title": "Keating on Renoir", "work_id": 80249, "role": "producer", "role_id": 1089, "is_primary": true}, {"id": 2771983, "title": "Keating on Degas", "work_id": 78754, "role": "producer", "role_id": 1089, "is_primary": true}, {"id": 2772077, "title": "Keating on Van Gogh", "work_id": 80252, "role": "producer", "role_id": 1089, "is_primary": true}, {"id": 2772068, "title": "Keating on Monet", "work_id": 80251, "role": "producer", "role_id": 1089, "is_primary": true}, {"id": 2772058, "title": "Keating on Manet", "work_id": 80250, "role": "producer", "role_id": 1089, "is_primary": true}, {"id": 2772045, "title": "Keating on Constable", "work_id": 80248, "role": "producer", "role_id": 1089, "is_primary": true}, {"id": 2772037, "title": "Keating on Cezanne", "work_id": 80247, "role": "producer", "role_id": 1089, "is_primary": true}, {"id": 2772032, "title": "Keating on Turner", "work_id": 80246, "role": "producer", "role_id": 1089, "is_primary": true}, {"id": 2772026, "title": "Keating on Impressionists", "work_id": 80245, "role": "producer", "role_id": 1089, "is_primary": true}, {"id": 2772020, "title": "Keating on Rembrandt", "work_id": 80244, "role": "producer", "role_id": 1089, "is_primary": true}, {"id": 2772005, "title": "Keating on Titian", "work_id": 80243, "role": "producer", "role_id": 1089, "is_primary": true}], "also_known_as": "", "date_of_birth": null, "date_of_death": null, "genders": [], "languages": [], "places_of_operation": [], "biography": "", "biography_author": null, "date_of_biography": null, "external_links": [], "uuid": "50aafb3f-70e9-41f4-85ed-986df5ff7c0c", "source": {"name": "Vernon", "slug": "vernon"}, "source_identifier": "27323", "external_references": [], "date_modified": "2025-03-14T18:25:30.753296+11:00"}]}