{"count": 28687, "next": "https://api.acmi.net.au/creators/?page=735", "previous": "https://api.acmi.net.au/creators/?page=733", "results": [{"id": 78243, "name": "Patrick Keiller", "roles_in_work": [{"id": 2251896, "title": "Robinson in space", "work_id": 87367, "role": "director", "role_id": 938, "is_primary": true}, {"id": 1427396, "title": "London", "work_id": 86354, "role": "director", "role_id": 938, "is_primary": true}], "also_known_as": "", "date_of_birth": "1950-01-01", "date_of_death": "", "genders": [{"id": 9, "name": "Male", "slug": "male"}], "languages": [{"id": 1, "name": "English", "slug": "english"}], "places_of_operation": [{"id": 10, "name": "United Kingdom", "slug": "united-kingdom"}], "biography": "Patrick Keiller (born 1950) is a British film-maker, writer and lecturer.", "biography_author": "Wikidata", "date_of_biography": "2023-08-01T16:28:14.432959+10:00", "external_links": [{"id": 4822, "uri": "https://en.wikipedia.org/wiki/Patrick_Keiller"}], "uuid": "ff7b6576-4419-4838-af62-a92e278a455e", "source": {"name": "Vernon", "slug": "vernon"}, "source_identifier": "26132", "external_references": [{"id": 26537, "source": {"name": "Wikidata", "slug": "wikidata"}, "source_identifier": "Q7146920"}, {"id": 30642, "source": {"name": "VIAF", "slug": "viaf"}, "source_identifier": "216391732"}, {"id": 30643, "source": {"name": "LOC Auth", "slug": "loc-auth"}, "source_identifier": "nb98053141"}, {"id": 30644, "source": {"name": "WorldCat", "slug": "worldcat"}, "source_identifier": "lccn-nb98053141"}], "date_modified": "2023-09-05T23:43:22.648963+10:00"}, {"id": 78242, "name": "Vicki Watson", "roles_in_work": [{"id": 2192404, "title": "Paws", "work_id": 86351, "role": "co-producer", "role_id": 915, "is_primary": true}], "also_known_as": "", "date_of_birth": "", "date_of_death": "", "genders": [], "languages": [], "places_of_operation": [], "biography": "", "biography_author": null, "date_of_biography": "2023-05-09T15:11:09.739629+10:00", "external_links": [], "uuid": "16946d05-3ed7-43f0-9fd8-8f57ea4c49f8", "source": {"name": "Vernon", "slug": "vernon"}, "source_identifier": "30091", "external_references": [{"id": 40417, "source": {"name": "Wikidata", "slug": "wikidata"}, "source_identifier": "Q121270743"}], "date_modified": "2023-09-06T02:04:29.175484+10:00"}, {"id": 78241, "name": "Alice Dewey", "roles_in_work": [{"id": 905708, "title": "Hercules (Disney)", "work_id": 86350, "role": "co-producer", "role_id": 915, "is_primary": true}], "also_known_as": "", "date_of_birth": null, "date_of_death": null, "genders": [], "languages": [], "places_of_operation": [], "biography": "", "biography_author": null, "date_of_biography": null, "external_links": [], "uuid": "09ce32fb-48a7-4051-a2bb-2edf22dfad13", "source": {"name": "Vernon", "slug": "vernon"}, "source_identifier": null, "external_references": [{"id": 42493, "source": {"name": "Wikidata", "slug": "wikidata"}, "source_identifier": "Q28855261"}], "date_modified": "2023-09-05T17:28:26.667961+10:00"}, {"id": 78240, "name": "Liccy Dahl", "roles_in_work": [{"id": 2165407, "title": "Matilda", "work_id": 86348, "role": "co-producer", "role_id": 915, "is_primary": true}], "also_known_as": "", "date_of_birth": "", "date_of_death": "", "genders": [], "languages": [], "places_of_operation": [], "biography": "", "biography_author": null, "date_of_biography": "2023-05-09T14:24:25.665906+10:00", "external_links": [], "uuid": "74d53890-9230-43c1-9ff3-999795523fa1", "source": {"name": "Vernon", "slug": "vernon"}, "source_identifier": "23837", "external_references": [{"id": 33338, "source": {"name": "Wikidata", "slug": "wikidata"}, "source_identifier": "Q121079415"}], "date_modified": "2023-09-05T22:24:32.409491+10:00"}, {"id": 78239, "name": "Stacey Sher", "roles_in_work": [{"id": 1998061, "title": "Man on the moon [DVD]", "work_id": 93598, "role": "co-producer", "role_id": 915, "is_primary": true}, {"id": 2219541, "title": "Erin Brockovich [DVD]", "work_id": 90493, "role": "co-producer", "role_id": 915, "is_primary": true}, {"id": 2165405, "title": "Matilda", "work_id": 86348, "role": "co-producer", "role_id": 915, "is_primary": true}, {"id": 1997513, "title": "Living out loud [Widescreen]", "work_id": 93337, "role": "co-producer", "role_id": 915, "is_primary": true}, {"id": 2181453, "title": "Out of sight [DVD]", "work_id": 91251, "role": "co-producer", "role_id": 915, "is_primary": true}, {"id": 1993739, "title": "Gattaca [DVD]", "work_id": 89498, "role": "co-producer", "role_id": 915, "is_primary": true}], "also_known_as": "", "date_of_birth": "1962-11-30", "date_of_death": "", "genders": [{"id": 5, "name": "Female", "slug": "female"}], "languages": [{"id": 1, "name": "English", "slug": "english"}], "places_of_operation": [{"id": 1, "name": "United States of America", "slug": "united-states-of-america"}], "biography": "Stacey Sher (born November 30, 1962) is an American film producer.", "biography_author": "Wikidata", "date_of_biography": "2023-08-01T17:08:38.649745+10:00", "external_links": [{"id": 5186, "uri": "https://en.wikipedia.org/wiki/Stacey_Sher"}], "uuid": "9b7656ae-7ffa-44e0-9d2d-10502bf59968", "source": {"name": "Vernon", "slug": "vernon"}, "source_identifier": "28921", "external_references": [{"id": 26203, "source": {"name": "Wikidata", "slug": "wikidata"}, "source_identifier": "Q2325642"}, {"id": 31589, "source": {"name": "VIAF", "slug": "viaf"}, "source_identifier": "41445998"}, {"id": 31590, "source": {"name": "LOC Auth", "slug": "loc-auth"}, "source_identifier": "no97046040"}, {"id": 31591, "source": {"name": "WorldCat", "slug": "worldcat"}, "source_identifier": "lccn-no97046040"}], "date_modified": "2023-09-06T01:25:40.309358+10:00"}, {"id": 78238, "name": "Guy Norris", "roles_in_work": [{"id": 2615899, "title": "Miracle at sea : the Tony Bullimore rescue", "work_id": 86347, "role": "director", "role_id": 938, "is_primary": true}], "also_known_as": "", "date_of_birth": null, "date_of_death": null, "genders": [], "languages": [], "places_of_operation": [], "biography": "", "biography_author": null, "date_of_biography": null, "external_links": [], "uuid": "c40e60bd-0af4-43a2-9e26-e843be47d63e", "source": {"name": "Vernon", "slug": "vernon"}, "source_identifier": "20146", "external_references": [{"id": 40195, "source": {"name": "Wikidata", "slug": "wikidata"}, "source_identifier": "Q121143927"}], "date_modified": "2025-02-26T20:31:17.150632+11:00"}, {"id": 78237, "name": "Moussa Bathily", "roles_in_work": [{"id": 905698, "title": "Three African shorts", "work_id": 86344, "role": "co-director", "role_id": 959, "is_primary": true}], "also_known_as": "", "date_of_birth": null, "date_of_death": null, "genders": [], "languages": [], "places_of_operation": [], "biography": "", "biography_author": null, "date_of_biography": null, "external_links": [], "uuid": "1e0207f8-001e-45df-9295-3bfc0acd273b", "source": {"name": "Vernon", "slug": "vernon"}, "source_identifier": null, "external_references": [{"id": 35391, "source": {"name": "Wikidata", "slug": "wikidata"}, "source_identifier": "Q121078779"}], "date_modified": "2023-09-05T23:22:15.382955+10:00"}, {"id": 78236, "name": "Sembene Ousmane", "roles_in_work": [{"id": 905697, "title": "Three African shorts", "work_id": 86344, "role": "co-director", "role_id": 959, "is_primary": true}], "also_known_as": "", "date_of_birth": "1923-01-01", "date_of_death": "2007-06-09", "genders": [{"id": 9, "name": "Male", "slug": "male"}], "languages": [{"id": 4, "name": "French", "slug": "french"}, {"id": 97, "name": "Wolof", "slug": "wolof"}], "places_of_operation": [{"id": 202, "name": "Senegal", "slug": "senegal"}], "biography": "Ousmane Sembène (French: [usman sɑ̃bɛn]; 1 January 1923 or 8 January 1923 – 9 June 2007), often credited in the French style as Sembène Ousmane which he seemed to favor as a way to underscore the \"colonial imposition\" of this naming ritual and subvert it, was a Senegalese film director, producer and writer. The Los Angeles Times considered him one of the greatest authors of Africa and he has often been called the \"father of African film\". Descended from a Serer family through his mother from the line of Matar Sène, Ousmane Sembène was particularly drawn to Serer religious festivals especially the Tuur festival.", "biography_author": "Wikidata", "date_of_biography": "2023-09-06T01:10:22+10:00", "external_links": [{"id": 4806, "uri": "https://en.wikipedia.org/wiki/Ousmane_Semb%C3%A8ne"}], "uuid": "65aa26c0-5318-47ef-b855-1805971fe374", "source": {"name": "Vernon", "slug": "vernon"}, "source_identifier": "28677", "external_references": [{"id": 51216, "source": {"name": "Wikidata", "slug": "wikidata"}, "source_identifier": "Q314966"}, {"id": 55788, "source": {"name": "VIAF", "slug": "viaf"}, "source_identifier": "7397012"}, {"id": 55789, "source": {"name": "LOC Auth", "slug": "loc-auth"}, "source_identifier": "n50049939"}, {"id": 55790, "source": {"name": "WorldCat", "slug": "worldcat"}, "source_identifier": "lccn-n50049939"}], "date_modified": "2024-09-10T16:17:38.923846+10:00"}, {"id": 78235, "name": "Mohamed Camara", "roles_in_work": [{"id": 905696, "title": "Three African shorts", "work_id": 86344, "role": "co-director", "role_id": 959, "is_primary": true}], "also_known_as": "", "date_of_birth": null, "date_of_death": null, "genders": [], "languages": [], "places_of_operation": [], "biography": "", "biography_author": null, "date_of_biography": null, "external_links": [], "uuid": "ce8f8e42-668b-46b2-9c2e-bd4cbc4ee7d7", "source": {"name": "Vernon", "slug": "vernon"}, "source_identifier": null, "external_references": [{"id": 42070, "source": {"name": "Wikidata", "slug": "wikidata"}, "source_identifier": "Q121091282"}], "date_modified": "2023-09-05T23:18:55.760233+10:00"}, {"id": 78234, "name": "Alison Gilby", "roles_in_work": [{"id": 2140826, "title": "Cold comfort farm", "work_id": 86337, "role": "producer", "role_id": 1089, "is_primary": true}], "also_known_as": "", "date_of_birth": "", "date_of_death": "", "genders": [], "languages": [], "places_of_operation": [], "biography": "", "biography_author": null, "date_of_biography": "2023-05-09T13:37:31.389255+10:00", "external_links": [], "uuid": "8710fb16-e97f-4b5f-839e-15d3a439669d", "source": {"name": "Vernon", "slug": "vernon"}, "source_identifier": "14981", "external_references": [{"id": 32426, "source": {"name": "Wikidata", "slug": "wikidata"}, "source_identifier": "Q121126886"}], "date_modified": "2023-09-05T17:28:51.797643+10:00"}]}