{"count": 28687, "next": "https://api.acmi.net.au/creators/?page=2041", "previous": "https://api.acmi.net.au/creators/?page=2039", "results": [{"id": 21714, "name": "Michael Carson", "roles_in_work": [{"id": 3108870, "title": "Errol Flynn", "work_id": 79637, "role": "director", "role_id": 938, "is_primary": true}, {"id": 3084075, "title": "Janus. Eps 17 and 18: Right to remain silent. My learned friend, Mr Hennessey", "work_id": 91618, "role": "co-director", "role_id": 959, "is_primary": true}, {"id": 3084168, "title": "Phoenix. Eps. 05-06", "work_id": 91583, "role": "co-director", "role_id": 959, "is_primary": true}, {"id": 3084184, "title": "Phoenix. Eps. 09-10", "work_id": 91585, "role": "co-director", "role_id": 959, "is_primary": true}, {"id": 3084100, "title": "Janus. Eps 09 and 10: A Mischievous offence. A Familiar utterance", "work_id": 91622, "role": "co-director", "role_id": 959, "is_primary": true}, {"id": 3084214, "title": "Phoenix. Eps. 17-18", "work_id": 91588, "role": "co-director", "role_id": 959, "is_primary": true}, {"id": 3084234, "title": "Phoenix. Eps. 21-22", "work_id": 91592, "role": "co-director", "role_id": 959, "is_primary": true}, {"id": 3084253, "title": "Phoenix. Eps. 25-26", "work_id": 91590, "role": "co-director", "role_id": 959, "is_primary": true}, {"id": 3084118, "title": "Janus. Eps 05 and 06: Judgement amongst short men. Reckless indifference", "work_id": 91632, "role": "co-director", "role_id": 959, "is_primary": true}, {"id": 2771728, "title": "The Numbers", "work_id": 80683, "role": "co-producer", "role_id": 915, "is_primary": true}, {"id": 2771721, "title": "The Game", "work_id": 80682, "role": "co-producer", "role_id": 915, "is_primary": true}, {"id": 2771735, "title": "The Job", "work_id": 80702, "role": "director", "role_id": 938, "is_primary": true}, {"id": 2265416, "title": "Seachange = Sea change. Series 1. Ep. 1-7", "work_id": 87076, "role": "director", "role_id": 938, "is_primary": true}, {"id": 2756053, "title": "Touch the Sun: Peter and Pompey", "work_id": 79177, "role": "director", "role_id": 938, "is_primary": true}, {"id": 3084200, "title": "Phoenix. Eps. 13-14", "work_id": 91586, "role": "director", "role_id": 938, "is_primary": true}, {"id": 3084135, "title": "Janus. Eps 01 and 02: Malice aforethought", "work_id": 91635, "role": "director", "role_id": 938, "is_primary": true}, {"id": 2755983, "title": "Touch the Sun : Peter and Pompey (Captioned)", "work_id": 79742, "role": "director", "role_id": 938, "is_primary": true}, {"id": 1812946, "title": "Mail Order Bride", "work_id": 79661, "role": "producer", "role_id": 1089, "is_primary": true}, {"id": 1807101, "title": "Mail Order Bride (Captioned)", "work_id": 79167, "role": "producer", "role_id": 1089, "is_primary": true}], "also_known_as": "", "date_of_birth": "14 JUN 1947", "date_of_death": "14 MAY 2005", "genders": [{"id": 9, "name": "Male", "slug": "male"}], "languages": [], "places_of_operation": [{"id": 3, "name": "Australia", "slug": "australia"}], "biography": "Michael Carson (14 June 1947 – 14 May 2005) was an Australian television director who was responsible for some of Australia's most significant series in the last decades of the twentieth century. His work as a director, producer and script editor was recognised with AFI Awards, Logie Awards, Penguin Awards and AWGIE Awards. Source: Wikidata; 01/08/2023", "biography_author": null, "date_of_biography": "2025-10-01T20:38:58.208671+10:00", "external_links": [{"id": 4679, "uri": "https://en.wikipedia.org/wiki/Michael_Carson_(television_director)"}], "uuid": "3737e11c-1073-4cd7-8bf7-3848b75f2f04", "source": {"name": "Vernon", "slug": "vernon"}, "source_identifier": "25006", "external_references": [{"id": 24957, "source": {"name": "Wikidata", "slug": "wikidata"}, "source_identifier": "Q2388845"}], "date_modified": "2025-10-01T20:38:58.208890+10:00"}, {"id": 21711, "name": "Ray Day", "roles_in_work": [{"id": 2349834, "title": "The Garden designers", "work_id": 79252, "role": "producer", "role_id": 1089, "is_primary": true}, {"id": 2349839, "title": "The Garden designers (Captioned)", "work_id": 79161, "role": "producer", "role_id": 1089, "is_primary": true}], "also_known_as": "", "date_of_birth": "", "date_of_death": "", "genders": [], "languages": [], "places_of_operation": [], "biography": "", "biography_author": null, "date_of_biography": "2023-05-09T19:54:15.680651+10:00", "external_links": [], "uuid": "12f019a1-12aa-412d-9839-2f5ff6747f6f", "source": {"name": "Vernon", "slug": "vernon"}, "source_identifier": "27150", "external_references": [{"id": 37622, "source": {"name": "Wikidata", "slug": "wikidata"}, "source_identifier": "Q121223489"}], "date_modified": "2023-09-06T00:22:17.417840+10:00"}, {"id": 21709, "name": "Denis Gartside", "roles_in_work": [{"id": 2336927, "title": "The Chelsea Flower Show (Captioned)", "work_id": 79158, "role": "producer", "role_id": 1089, "is_primary": true}, {"id": 2336904, "title": "The Chelsea Flower Show", "work_id": 79389, "role": "producer", "role_id": 1089, "is_primary": true}], "also_known_as": "", "date_of_birth": "", "date_of_death": "", "genders": [], "languages": [], "places_of_operation": [], "biography": "", "biography_author": null, "date_of_biography": "2023-05-09T19:33:25.065372+10:00", "external_links": [], "uuid": "21b744dd-e0e9-419d-90c2-ee76c7995d70", "source": {"name": "Vernon", "slug": "vernon"}, "source_identifier": "17954", "external_references": [{"id": 41258, "source": {"name": "Wikidata", "slug": "wikidata"}, "source_identifier": "Q121270813"}], "date_modified": "2023-09-05T19:07:33.066242+10:00"}, {"id": 21707, "name": "Haruo Asai", "roles_in_work": [{"id": 770692, "title": "Bacteria and Health", "work_id": 79818, "role": "director", "role_id": 938, "is_primary": true}, {"id": 2648431, "title": "Bacteria and Health (Captioned)", "work_id": 79154, "role": "director", "role_id": 938, "is_primary": true}], "also_known_as": "", "date_of_birth": null, "date_of_death": null, "genders": [], "languages": [], "places_of_operation": [], "biography": "", "biography_author": null, "date_of_biography": null, "external_links": [], "uuid": "0d0f6a88-f4ab-4848-bb93-b060ce031756", "source": {"name": "Vernon", "slug": "vernon"}, "source_identifier": "20359", "external_references": [], "date_modified": "2025-03-05T13:45:41.363217+11:00"}, {"id": 21706, "name": "Suzanne Campbell-Jones", "roles_in_work": [{"id": 2648429, "title": "Astronomy (Captioned)", "work_id": 79153, "role": "director", "role_id": 938, "is_primary": true}, {"id": 1845751, "title": "Astronomy", "work_id": 79819, "role": "director", "role_id": 938, "is_primary": true}], "also_known_as": "", "date_of_birth": null, "date_of_death": null, "genders": [], "languages": [], "places_of_operation": [], "biography": "", "biography_author": null, "date_of_biography": null, "external_links": [], "uuid": "a5301d18-1386-47d5-b03b-7bbc41689a8c", "source": {"name": "Vernon", "slug": "vernon"}, "source_identifier": "29385", "external_references": [{"id": 36716, "source": {"name": "Wikidata", "slug": "wikidata"}, "source_identifier": "Q120700489"}], "date_modified": "2025-03-05T13:45:39.964664+11:00"}, {"id": 21704, "name": "Aviva Ziegler", "roles_in_work": [{"id": 2293496, "title": "What is a Jew to you?", "work_id": 80239, "role": "director", "role_id": 938, "is_primary": true}, {"id": 776192, "title": "Every Inch of the Way", "work_id": 81629, "role": "director", "role_id": 938, "is_primary": true}, {"id": 2773300, "title": "Colin Thiele", "work_id": 79193, "role": "director", "role_id": 938, "is_primary": true}, {"id": 878942, "title": "Facing the demons", "work_id": 91462, "role": "director", "role_id": 938, "is_primary": true}, {"id": 2392671, "title": "Plagued. Episodes 3 & 4", "work_id": 82291, "role": "co-director", "role_id": 959, "is_primary": true}, {"id": 2649841, "title": "Plagued. Episodes 1 & 2", "work_id": 82290, "role": "co-director", "role_id": 959, "is_primary": true}, {"id": 1426358, "title": "Don't be the last to know", "work_id": 79438, "role": "co-producer", "role_id": 915, "is_primary": true}, {"id": 2328802, "title": "The Australian Royal Tours Collection 1901-1988", "work_id": 80225, "role": "co-producer", "role_id": 915, "is_primary": true}, {"id": 898787, "title": "Don't be the last to know (Captioned)", "work_id": 79147, "role": "co-producer", "role_id": 915, "is_primary": true}, {"id": 933134, "title": "You can do anything", "work_id": 81809, "role": "producer/director", "role_id": 31, "is_primary": true}], "also_known_as": "", "date_of_birth": "", "date_of_death": "", "genders": [], "languages": [], "places_of_operation": [], "biography": "", "biography_author": null, "date_of_biography": "2023-08-09T03:59:03.179619+10:00", "external_links": [], "uuid": "825440b1-01d6-40bf-9c3d-0ce31b76bee7", "source": {"name": "Vernon", "slug": "vernon"}, "source_identifier": "15607", "external_references": [{"id": 35778, "source": {"name": "Wikidata", "slug": "wikidata"}, "source_identifier": "Q121057812"}], "date_modified": "2025-03-14T18:27:10.368677+11:00"}, {"id": 21703, "name": "Dept of Immigration and Ethnic Affairs", "roles_in_work": [{"id": 2379703, "title": "Immigration: the waves that shaped Australia (Captioned)", "work_id": 79145, "role": "production company", "role_id": 941, "is_primary": true}], "also_known_as": "", "date_of_birth": "", "date_of_death": "", "genders": [], "languages": [], "places_of_operation": [], "biography": "", "biography_author": null, "date_of_biography": "2023-07-19T03:36:29.800078+10:00", "external_links": [], "uuid": "85afc68b-98c9-40ca-8651-c9911198b1dd", "source": {"name": "Vernon", "slug": "vernon"}, "source_identifier": "7504", "external_references": [{"id": 34524, "source": {"name": "Wikidata", "slug": "wikidata"}, "source_identifier": "Q121315218"}], "date_modified": "2023-09-05T19:09:30.227603+10:00"}, {"id": 21702, "name": "Mark Jean Productions", "roles_in_work": [{"id": 2223576, "title": "Expectations - a Story about Stress (Captioned)", "work_id": 79144, "role": "producer", "role_id": 1089, "is_primary": true}], "also_known_as": "", "date_of_birth": "", "date_of_death": "", "genders": [], "languages": [], "places_of_operation": [], "biography": "", "biography_author": null, "date_of_biography": "2023-05-09T16:23:04.037565+10:00", "external_links": [], "uuid": "76635805-63c6-4040-acd0-59b417c8326f", "source": {"name": "Vernon", "slug": "vernon"}, "source_identifier": "10308", "external_references": [{"id": 33221, "source": {"name": "Wikidata", "slug": "wikidata"}, "source_identifier": "Q121223312"}], "date_modified": "2023-09-05T22:46:04.120687+10:00"}, {"id": 21701, "name": "Lynn Hamrick", "roles_in_work": [{"id": 2110392, "title": "Before It's Too Late - Teenage Suicide (Captioned)", "work_id": 79140, "role": "director", "role_id": 938, "is_primary": true}], "also_known_as": "", "date_of_birth": "", "date_of_death": "", "genders": [], "languages": [], "places_of_operation": [], "biography": "", "biography_author": null, "date_of_biography": "2023-05-09T12:45:12.695410+10:00", "external_links": [], "uuid": "435d717a-3dd1-471e-be39-40fdeb0dec17", "source": {"name": "Vernon", "slug": "vernon"}, "source_identifier": "24134", "external_references": [{"id": 35666, "source": {"name": "Wikidata", "slug": "wikidata"}, "source_identifier": "Q121222784"}], "date_modified": "2023-09-05T22:35:15.338078+10:00"}, {"id": 21700, "name": "Nancy Israel", "roles_in_work": [{"id": 2110388, "title": "Before It's Too Late - Teenage Suicide (Captioned)", "work_id": 79140, "role": "producer", "role_id": 1089, "is_primary": true}], "also_known_as": "", "date_of_birth": "", "date_of_death": "", "genders": [], "languages": [], "places_of_operation": [], "biography": "", "biography_author": null, "date_of_biography": "2023-05-09T12:45:12.465101+10:00", "external_links": [], "uuid": "691ca2aa-e760-43ae-b244-8a824a62385a", "source": {"name": "Vernon", "slug": "vernon"}, "source_identifier": "25609", "external_references": [{"id": 41481, "source": {"name": "Wikidata", "slug": "wikidata"}, "source_identifier": "Q121035686"}], "date_modified": "2023-09-05T23:24:26.197781+10:00"}]}