{"count": 28687, "next": "https://api.acmi.net.au/creators/?page=1663", "previous": "https://api.acmi.net.au/creators/?page=1661", "results": [{"id": 29493, "name": "Kenji Mizoguchi", "roles_in_work": [{"id": 2650390, "title": "Utamaro o meguru gonin no onna = Utamaro and his five women", "work_id": 115670, "role": "director", "role_id": 938, "is_primary": true}, {"id": 2650474, "title": "Yoru no omnatachi = Women of the night", "work_id": 115703, "role": "director", "role_id": 938, "is_primary": true}, {"id": 2650524, "title": "Shin heike Monogatari = Tales of the Taira", "work_id": 115725, "role": "director", "role_id": 938, "is_primary": true}, {"id": 872310, "title": "Sisters of Gion = Gion no shimai [NTSC]", "work_id": 87541, "role": "director", "role_id": 938, "is_primary": true}, {"id": 2262708, "title": "Sansho Dayu = Sansho the bailiff", "work_id": 87498, "role": "director", "role_id": 938, "is_primary": true}, {"id": 2293765, "title": "Ugetsu Monogatari = Tales of the pale and silvery moon after the rain", "work_id": 87474, "role": "director", "role_id": 938, "is_primary": true}, {"id": 1992714, "title": "The Life of Oharu = Saikaku ichidai onna", "work_id": 88300, "role": "director", "role_id": 938, "is_primary": true}, {"id": 1993552, "title": "Tales of the Taira Clan = Shin heiki monogatari", "work_id": 89234, "role": "director", "role_id": 938, "is_primary": true}, {"id": 1991792, "title": "Street of shame = Akasen chitai [NTSC]", "work_id": 87480, "role": "director", "role_id": 938, "is_primary": true}, {"id": 889423, "title": "Yokihi = Princess Yang Kwei Fei", "work_id": 115677, "role": "director", "role_id": 938, "is_primary": true}], "also_known_as": "", "date_of_birth": "16 MAY 1898", "date_of_death": "24 AUG 1956", "genders": [{"id": 9, "name": "Male", "slug": "male"}], "languages": [{"id": 2, "name": "Japanese", "slug": "japanese"}], "places_of_operation": [{"id": 8, "name": "Japan", "slug": "japan"}], "biography": "Kenji Mizoguchi (溝口 健二, Mizoguchi Kenji, 16 May 1898 – 24 August 1956) was a Japanese filmmaker who directed roughly one hundred films during his career between 1923 and 1956. His most acclaimed works include The Story of the Last Chrysanthemums (1939), The Life of Oharu (1952), Ugetsu (1953), and Sansho the Bailiff (1954), with the latter three all being awarded at the Venice International Film Festival. A recurring theme of his films was the oppression of women in historical and contemporary Japan. Together with Akira Kurosawa and Yasujirō Ozu, Mizoguchi is seen as a representative of the \"golden age\" of Japanese cinema. Source: Wikidata; 01/08/2023", "biography_author": null, "date_of_biography": "2025-03-05T14:20:52.520181+11:00", "external_links": [{"id": 4479, "uri": "https://en.wikipedia.org/wiki/Kenji_Mizoguchi"}], "uuid": "20343bcd-2aa6-4bf9-a057-784f987743de", "source": {"name": "Vernon", "slug": "vernon"}, "source_identifier": "23232", "external_references": [{"id": 25969, "source": {"name": "Wikidata", "slug": "wikidata"}, "source_identifier": "Q55401"}, {"id": 29759, "source": {"name": "VIAF", "slug": "viaf"}, "source_identifier": "19686447"}, {"id": 29760, "source": {"name": "LOC Auth", "slug": "loc-auth"}, "source_identifier": "n81035400"}, {"id": 29761, "source": {"name": "WorldCat", "slug": "worldcat"}, "source_identifier": "lccn-n81035400"}], "date_modified": "2025-03-05T14:20:52.520395+11:00"}, {"id": 29492, "name": "Mohammad-Ali Talebi", "roles_in_work": [{"id": 2107094, "title": "Bag of rice = Kiseye berenj", "work_id": 87473, "role": "director", "role_id": 938, "is_primary": true}], "also_known_as": "", "date_of_birth": "1958-11-22", "date_of_death": "", "genders": [{"id": 9, "name": "Male", "slug": "male"}], "languages": [{"id": 26, "name": "Persian", "slug": "persian"}], "places_of_operation": [{"id": 258, "name": "Iran", "slug": "iran"}], "biography": "", "biography_author": null, "date_of_biography": "2023-05-09T12:40:16.675728+10:00", "external_links": [], "uuid": "993fe41f-f8ab-4308-8625-f1475bf4071e", "source": {"name": "Vernon", "slug": "vernon"}, "source_identifier": "25481", "external_references": [{"id": 34025, "source": {"name": "Wikidata", "slug": "wikidata"}, "source_identifier": "Q5955198"}], "date_modified": "2023-09-05T23:19:00.988589+10:00"}, {"id": 29489, "name": "Digital Media Lab, Inc", "roles_in_work": [{"id": 2107075, "title": "Bag of rice = Kiseye berenj", "work_id": 87473, "role": "production company", "role_id": 941, "is_primary": true}], "also_known_as": "", "date_of_birth": "", "date_of_death": "", "genders": [], "languages": [], "places_of_operation": [], "biography": "", "biography_author": null, "date_of_biography": "2023-05-09T12:40:15.958121+10:00", "external_links": [], "uuid": "f91c447f-4542-4bf6-8050-8af0e72d4801", "source": {"name": "Vernon", "slug": "vernon"}, "source_identifier": "7571", "external_references": [{"id": 36431, "source": {"name": "Wikidata", "slug": "wikidata"}, "source_identifier": "Q121035613"}], "date_modified": "2023-09-05T19:12:30.455827+10:00"}, {"id": 29488, "name": "Sacher Film", "roles_in_work": [{"id": 1999160, "title": "The Son's room = La Stanza Del Figlio", "work_id": 94307, "role": "production company", "role_id": 941, "is_primary": true}, {"id": 2098574, "title": "April = Aprile", "work_id": 90512, "role": "production company", "role_id": 941, "is_primary": true}, {"id": 2140041, "title": "Close-up", "work_id": 87472, "role": "production company", "role_id": 941, "is_primary": true}, {"id": 1993414, "title": "Dear diary = Caro diario", "work_id": 89107, "role": "production company", "role_id": 941, "is_primary": true}], "also_known_as": "", "date_of_birth": "", "date_of_death": "", "genders": [], "languages": [], "places_of_operation": [], "biography": "", "biography_author": null, "date_of_biography": "2023-05-09T13:36:07.585672+10:00", "external_links": [], "uuid": "0e9cfeca-d2eb-4b9f-9a3e-34fdc3e7731b", "source": {"name": "Vernon", "slug": "vernon"}, "source_identifier": "12226", "external_references": [{"id": 36986, "source": {"name": "Wikidata", "slug": "wikidata"}, "source_identifier": "Q3460921"}, {"id": 55738, "source": {"name": "VIAF", "slug": "viaf"}, "source_identifier": "133998749"}, {"id": 55739, "source": {"name": "LOC Auth", "slug": "loc-auth"}, "source_identifier": "no97011715"}, {"id": 55740, "source": {"name": "WorldCat", "slug": "worldcat"}, "source_identifier": "lccn-no97011715"}], "date_modified": "2023-09-06T01:01:07.435763+10:00"}, {"id": 29485, "name": "Ulli Lommel", "roles_in_work": [{"id": 796501, "title": "The Tenderness of wolves = Die Zartlichkeit der Wolfe", "work_id": 87470, "role": "director", "role_id": 938, "is_primary": true}], "also_known_as": "Ulrich Manfred Lommel", "date_of_birth": "1944-12-21", "date_of_death": "2017-12-02", "genders": [{"id": 9, "name": "Male", "slug": "male"}], "languages": [{"id": 5, "name": "German", "slug": "german"}], "places_of_operation": [{"id": 18, "name": "Germany", "slug": "germany"}], "biography": "Ulli Lommel (21 December 1944 – 2 December 2017) was a German actor and director, noted for his many collaborations with Rainer Werner Fassbinder and his association with the New German Cinema movement. Lommel spent time at The Factory and was a creative associate of Andy Warhol, with whom he made several films and works of art. He moved to the United States in 1977, where he wrote, directed and starred in over 50 movies.", "biography_author": "Wikidata", "date_of_biography": "2022-05-19T13:17:58.412592+10:00", "external_links": [{"id": 3241, "uri": "https://en.wikipedia.org/wiki/Ulli_Lommel"}], "uuid": "0e741d14-f81b-4aa6-8756-15cb808622e1", "source": {"name": "Vernon", "slug": "vernon"}, "source_identifier": "30020", "external_references": [{"id": 13718, "source": {"name": "Wikidata", "slug": "wikidata"}, "source_identifier": "Q66774"}, {"id": 13719, "source": {"name": "VIAF", "slug": "viaf"}, "source_identifier": "10059455"}, {"id": 13720, "source": {"name": "LOC Auth", "slug": "loc-auth"}, "source_identifier": "nr97034725"}, {"id": 13721, "source": {"name": "WorldCat", "slug": "worldcat"}, "source_identifier": "lccn-nr97034725"}], "date_modified": "2023-09-13T12:33:08.210936+10:00"}, {"id": 29482, "name": "Vingan", "roles_in_work": [{"id": 2147651, "title": "Cowboy and Maria in town", "work_id": 87467, "role": "production company", "role_id": 941, "is_primary": true}], "also_known_as": "", "date_of_birth": "", "date_of_death": "", "genders": [], "languages": [], "places_of_operation": [], "biography": "", "biography_author": null, "date_of_biography": "2023-05-09T13:48:06.353132+10:00", "external_links": [], "uuid": "4b207841-5f4c-47a8-ada4-d33e1bc273fe", "source": {"name": "Vernon", "slug": "vernon"}, "source_identifier": "3741", "external_references": [{"id": 38008, "source": {"name": "Wikidata", "slug": "wikidata"}, "source_identifier": "Q121315222"}], "date_modified": "2023-09-06T02:07:14.136086+10:00"}, {"id": 29478, "name": "David Mitchell", "roles_in_work": [{"id": 2108248, "title": "Barry Humphries' flashbacks [DVD]", "work_id": 94908, "role": "director", "role_id": 938, "is_primary": true}], "also_known_as": "", "date_of_birth": "", "date_of_death": "", "genders": [], "languages": [], "places_of_operation": [], "biography": "", "biography_author": null, "date_of_biography": "2023-05-09T12:41:45.382494+10:00", "external_links": [], "uuid": "79235b37-4c81-4b07-8cc0-39eb96ab8a68", "source": {"name": "Vernon", "slug": "vernon"}, "source_identifier": "17721", "external_references": [{"id": 41952, "source": {"name": "Wikidata", "slug": "wikidata"}, "source_identifier": "Q121091308"}], "date_modified": "2023-09-05T19:00:55.380965+10:00"}, {"id": 29477, "name": "Stanley Kwan", "roles_in_work": [{"id": 807340, "title": "Rouge [Widescreen]", "work_id": 91139, "role": "director", "role_id": 938, "is_primary": true}, {"id": 2134164, "title": "Centre stage = Yuen Ling Yuk", "work_id": 90409, "role": "director", "role_id": 938, "is_primary": true}, {"id": 2794741, "title": "Yang and yin: gender in Chinese cinema: a film to celebrate 100 years of cinema: by Stanley Kwan", "work_id": 87466, "role": "director", "role_id": 938, "is_primary": true}], "also_known_as": "", "date_of_birth": "09 OCT 1957", "date_of_death": "", "genders": [{"id": 9, "name": "Male", "slug": "male"}], "languages": [{"id": 1, "name": "English", "slug": "english"}], "places_of_operation": [{"id": 290, "name": "People's Republic of China", "slug": "peoples-republic-of-china"}], "biography": "Stanley Kwan (traditional Chinese: 關錦鵬; simplified Chinese: 关锦鹏); born 9 October 1957) is a Hong Kong film director and producer.\n\nKwan landed a job at TVB after receiving a mass communications degree at Hong Kong Baptist College. Kwan's first film was Women (1985), which starred Chow Yun-fat, and was a big box-office success.\n\nKwan's films often deal sympathetically with the plight of women and their struggles with romantic affairs of the heart.  Rouge (1987), Full Moon in New York (1989), Center Stage (1992; a.k.a. Actress), a biopic on silent film star Ruan Lingyu and Everlasting Regret (2005), are all such typical Kwan films. Red Rose White Rose (1994) is an adaptation of an Eileen Chang novel. The film was entered into the 45th Berlin International Film Festival. His 1998 film Hold You Tight won the Alfred Bauer Prize and Teddy Award at the 48th Berlin International Film Festival.Kwan came out as a gay man in 1996 in Yang ± Yin, his documentary looking at the history of Chinese-language film through the prism of gender roles and sexuality. He is one of the few openly gay directors in Asia and one of the very few to have worked on these themes. His Lan Yu (2001) adapts a gay love story originally published on the Internet.\n\nKwan is also an occasional lecturer at the City University of Hong Kong, where he teaches directing and writing to students. Source: Wikidata; 01/08/2023", "biography_author": null, "date_of_biography": "2025-03-14T20:27:45.790433+11:00", "external_links": [{"id": 5191, "uri": "https://en.wikipedia.org/wiki/Stanley_Kwan"}], "uuid": "5aeb6a25-d8e4-49cf-8e31-5e48036b0191", "source": {"name": "Vernon", "slug": "vernon"}, "source_identifier": "28969", "external_references": [{"id": 26388, "source": {"name": "Wikidata", "slug": "wikidata"}, "source_identifier": "Q705995"}, {"id": 31601, "source": {"name": "VIAF", "slug": "viaf"}, "source_identifier": "71035398"}, {"id": 31602, "source": {"name": "LOC Auth", "slug": "loc-auth"}, "source_identifier": "no2001009087"}, {"id": 31603, "source": {"name": "WorldCat", "slug": "worldcat"}, "source_identifier": "lccn-no2001009087"}], "date_modified": "2025-03-14T20:27:45.790672+11:00"}, {"id": 29475, "name": "Media Asia Distribution", "roles_in_work": [{"id": 2138543, "title": "City on fire", "work_id": 87637, "role": "production company", "role_id": 941, "is_primary": true}, {"id": 2794738, "title": "Yang and yin: gender in Chinese cinema: a film to celebrate 100 years of cinema: by Stanley Kwan", "work_id": 87466, "role": "production company", "role_id": 941, "is_primary": true}], "also_known_as": "", "date_of_birth": "", "date_of_death": "", "genders": [], "languages": [], "places_of_operation": [], "biography": "", "biography_author": null, "date_of_biography": "2023-05-09T19:33:44.206017+10:00", "external_links": [], "uuid": "e8a38bdf-325f-4d25-aca9-d37a97f90883", "source": {"name": "Vernon", "slug": "vernon"}, "source_identifier": "10407", "external_references": [], "date_modified": "2025-03-14T20:27:44.609942+11:00"}, {"id": 29473, "name": "Pierre-Olivier Bardet", "roles_in_work": [{"id": 2327946, "title": "The Art of piano", "work_id": 88801, "role": "co-producer", "role_id": 915, "is_primary": true}, {"id": 1997904, "title": "Madame Butterfly [Widescreen]", "work_id": 93537, "role": "co-producer", "role_id": 915, "is_primary": true}, {"id": 1817726, "title": "Yehudi Menuhin: the violin of the century", "work_id": 87464, "role": "producer", "role_id": 1089, "is_primary": true}], "also_known_as": "", "date_of_birth": "1953-10-19", "date_of_death": null, "genders": [{"id": 9, "name": "Male", "slug": "male"}], "languages": [], "places_of_operation": [], "biography": "", "biography_author": null, "date_of_biography": "2023-05-09T19:21:47+10:00", "external_links": [], "uuid": "d27723f1-9ece-43f9-8371-997aa979a953", "source": {"name": "Vernon", "slug": "vernon"}, "source_identifier": "26955", "external_references": [{"id": 50583, "source": {"name": "Wikidata", "slug": "wikidata"}, "source_identifier": "Q85624835"}, {"id": 55533, "source": {"name": "VIAF", "slug": "viaf"}, "source_identifier": "271439126"}], "date_modified": "2024-09-10T16:14:28.782235+10:00"}]}