{"count": 28687, "next": "https://api.acmi.net.au/creators/?page=1196", "previous": "https://api.acmi.net.au/creators/?page=1194", "results": [{"id": 73397, "name": "Griet Van Reeth", "roles_in_work": [{"id": 2748588, "title": "15' Zondergrond = 15' Metromania = 15 Metromania", "work_id": 108373, "role": "sound", "role_id": 952, "is_primary": false}], "also_known_as": "", "date_of_birth": "", "date_of_death": "", "genders": [], "languages": [], "places_of_operation": [], "biography": "", "biography_author": null, "date_of_biography": "2023-05-09T11:18:26.929880+10:00", "external_links": [], "uuid": "98140cdd-0ebe-44cf-b368-86b3a3676abc", "source": {"name": "Vernon", "slug": "vernon"}, "source_identifier": "1199", "external_references": [], "date_modified": "2025-03-12T23:02:17.078497+11:00"}, {"id": 73396, "name": "Lisa Daniel", "roles_in_work": [{"id": 2748593, "title": "15' Zondergrond = 15' Metromania = 15 Metromania", "work_id": 108373, "role": "project manager", "role_id": 498, "is_primary": false}, {"id": 2748571, "title": "Bare", "work_id": 108369, "role": "project manager", "role_id": 498, "is_primary": false}], "also_known_as": "", "date_of_birth": "", "date_of_death": "", "genders": [], "languages": [], "places_of_operation": [], "biography": "", "biography_author": null, "date_of_biography": "2023-05-09T12:41:25.378053+10:00", "external_links": [], "uuid": "e11895fa-2fac-464e-83e9-0d54b9c915db", "source": {"name": "Vernon", "slug": "vernon"}, "source_identifier": "1918", "external_references": [], "date_modified": "2025-03-12T23:02:24.552947+11:00"}, {"id": 73395, "name": "Cameron Parsons", "roles_in_work": [{"id": 2628650, "title": "Jawpan", "work_id": 108358, "role": "animator", "role_id": 497, "is_primary": false}], "also_known_as": "", "date_of_birth": "", "date_of_death": "", "genders": [], "languages": [], "places_of_operation": [], "biography": "", "biography_author": null, "date_of_biography": "2023-05-09T18:38:23.857106+10:00", "external_links": [], "uuid": "5ab1205e-a5c1-4c00-8658-01eab30a93cf", "source": {"name": "Vernon", "slug": "vernon"}, "source_identifier": "1541", "external_references": [], "date_modified": "2025-02-27T22:41:27.438762+11:00"}, {"id": 73394, "name": "Ringo Chan", "roles_in_work": [{"id": 2628706, "title": "Yum yum noodles", "work_id": 108357, "role": "voice", "role_id": 471, "is_primary": false}], "also_known_as": "", "date_of_birth": "", "date_of_death": "", "genders": [], "languages": [], "places_of_operation": [], "biography": "", "biography_author": null, "date_of_biography": "2023-05-09T18:38:15.312119+10:00", "external_links": [], "uuid": "da3b9c9f-9bb5-472d-92d4-e762ef3c601c", "source": {"name": "Vernon", "slug": "vernon"}, "source_identifier": "1266", "external_references": [], "date_modified": "2025-02-27T22:42:03.767674+11:00"}, {"id": 73393, "name": "Sarah Hook", "roles_in_work": [{"id": 2619281, "title": "Uncle Bill", "work_id": 108345, "role": "research manager", "role_id": 456, "is_primary": false}], "also_known_as": "", "date_of_birth": "", "date_of_death": "", "genders": [], "languages": [], "places_of_operation": [], "biography": "", "biography_author": null, "date_of_biography": "2023-08-16T03:35:11.335660+10:00", "external_links": [], "uuid": "ef436a0a-1187-49b0-b322-c435d27fd4f7", "source": {"name": "Vernon", "slug": "vernon"}, "source_identifier": "111589", "external_references": [], "date_modified": "2025-02-26T23:02:46.423837+11:00"}, {"id": 73392, "name": "The Sydney Front", "roles_in_work": [{"id": 2748524, "title": "Techno Dumb Show", "work_id": 108338, "role": "creator", "role_id": 968, "is_primary": true}], "also_known_as": "", "date_of_birth": "", "date_of_death": "", "genders": [], "languages": [], "places_of_operation": [], "biography": "Existed 1987-94, and was regarded by many as the most important performance group in Australia. The core members were, Andrea Eloise, John Baylis, Clare Grant, Nigel Kellaway and Christopher Ryan. Works included; Waltz, John Laws-Sade, The Pornography of Performance, Photocopies of God, Don Juan, First and Last Warning and Passion. They have toured Australia, Hong Kong and Europe.", "biography_author": null, "date_of_biography": "2025-03-12T23:01:02.419947+11:00", "external_links": [], "uuid": "1abb14cb-637b-47ab-8314-bd079234713f", "source": {"name": "Vernon", "slug": "vernon"}, "source_identifier": "111529", "external_references": [], "date_modified": "2025-03-12T23:01:02.420160+11:00"}, {"id": 73391, "name": "Rik Rue", "roles_in_work": [{"id": 2748523, "title": "Techno Dumb Show", "work_id": 108338, "role": "sound", "role_id": 952, "is_primary": false}], "also_known_as": "", "date_of_birth": "", "date_of_death": "", "genders": [], "languages": [], "places_of_operation": [], "biography": "", "biography_author": null, "date_of_biography": "2023-05-09T19:14:19.184683+10:00", "external_links": [], "uuid": "be7e3eb3-0326-4a51-be47-cff39374d62d", "source": {"name": "Vernon", "slug": "vernon"}, "source_identifier": "1601", "external_references": [], "date_modified": "2025-03-12T23:01:01.821214+11:00"}, {"id": 73390, "name": "Cassi Plate", "roles_in_work": [{"id": 2748522, "title": "Techno Dumb Show", "work_id": 108338, "role": "sound", "role_id": 952, "is_primary": false}], "also_known_as": "", "date_of_birth": "", "date_of_death": "", "genders": [], "languages": [], "places_of_operation": [], "biography": "", "biography_author": null, "date_of_biography": "2023-05-09T19:14:18.947026+10:00", "external_links": [], "uuid": "df950bd0-09f1-4555-977f-8c48e8443b35", "source": {"name": "Vernon", "slug": "vernon"}, "source_identifier": "1600", "external_references": [], "date_modified": "2025-03-12T23:01:01.224194+11:00"}, {"id": 73389, "name": "Stephen Harrop", "roles_in_work": [{"id": 2748521, "title": "Techno Dumb Show", "work_id": 108338, "role": "editor", "role_id": 918, "is_primary": true}], "also_known_as": "", "date_of_birth": "", "date_of_death": "", "genders": [], "languages": [], "places_of_operation": [], "biography": "", "biography_author": null, "date_of_biography": "2023-05-09T19:14:18.691626+10:00", "external_links": [], "uuid": "5955f08f-9bce-44e4-8464-9edf95a44030", "source": {"name": "Vernon", "slug": "vernon"}, "source_identifier": "1599", "external_references": [{"id": 40810, "source": {"name": "Wikidata", "slug": "wikidata"}, "source_identifier": "Q121078955"}], "date_modified": "2025-03-12T23:01:00.638114+11:00"}, {"id": 73388, "name": "Elise Ahamnos", "roles_in_work": [{"id": 2748520, "title": "Techno Dumb Show", "work_id": 108338, "role": "cast", "role_id": 33, "is_primary": false}], "also_known_as": "", "date_of_birth": "", "date_of_death": "", "genders": [], "languages": [], "places_of_operation": [], "biography": "", "biography_author": null, "date_of_biography": "2023-05-09T19:14:18.350349+10:00", "external_links": [], "uuid": "76a009a6-6cd5-4587-9442-5e9b3547652f", "source": {"name": "Vernon", "slug": "vernon"}, "source_identifier": "1598", "external_references": [{"id": 39757, "source": {"name": "Wikidata", "slug": "wikidata"}, "source_identifier": "Q121035832"}], "date_modified": "2025-03-12T23:00:59.936669+11:00"}]}