{"count": 28687, "next": "https://api.acmi.net.au/creators/?page=1234", "previous": "https://api.acmi.net.au/creators/?page=1232", "results": [{"id": 72986, "name": "Matthew Yuricich", "roles_in_work": [{"id": 2685616, "title": "Matte paintings", "work_id": 114480, "role": "creator", "role_id": 968, "is_primary": true}, {"id": 2685608, "title": "Bradbury Building exterior matte painting", "work_id": 100763, "role": "visual artist", "role_id": 493, "is_primary": false}, {"id": 2685610, "title": "Blade Runner building exterior matte painting", "work_id": 100764, "role": "visual artist", "role_id": 493, "is_primary": false}, {"id": 2685612, "title": "Blade Runner building matte painting", "work_id": 100766, "role": "visual artist", "role_id": 493, "is_primary": false}, {"id": 2685614, "title": "Tyrell's office matte painting", "work_id": 100765, "role": "visual artist", "role_id": 493, "is_primary": false}], "also_known_as": "", "date_of_birth": "", "date_of_death": "", "genders": [], "languages": [], "places_of_operation": [], "biography": "", "biography_author": null, "date_of_biography": "2023-05-09T18:47:54.665956+10:00", "external_links": [], "uuid": "d20f4000-e11d-4a67-afd0-0876ae4500fd", "source": {"name": "Vernon", "slug": "vernon"}, "source_identifier": "39498", "external_references": [], "date_modified": "2025-03-11T11:55:38.840303+11:00"}, {"id": 72985, "name": "Grant Freckleton", "roles_in_work": [{"id": 2685543, "title": "Developmental concept art for Emmett, Wyldstyle, Vitruvius and Metalbeard", "work_id": 112213, "role": "creator", "role_id": 968, "is_primary": true}, {"id": 2685545, "title": "Reference image and selected stages of applying CGI texture to LEGO surface", "work_id": 100762, "role": "production designer", "role_id": 966, "is_primary": true}], "also_known_as": "", "date_of_birth": "", "date_of_death": "", "genders": [], "languages": [], "places_of_operation": [], "biography": "", "biography_author": null, "date_of_biography": "2023-06-07T03:46:26.918948+10:00", "external_links": [], "uuid": "4ff4a99c-d5dd-4d95-9c83-931e6a0f97e6", "source": {"name": "Vernon", "slug": "vernon"}, "source_identifier": "39540", "external_references": [], "date_modified": "2025-03-11T11:50:55.060774+11:00"}, {"id": 72984, "name": "Mark Ackland", "roles_in_work": [{"id": 2685548, "title": "King Carl design development", "work_id": 100759, "role": "artist", "role_id": 505, "is_primary": true}], "also_known_as": "", "date_of_birth": "", "date_of_death": "", "genders": [], "languages": [], "places_of_operation": [], "biography": "", "biography_author": null, "date_of_biography": "2023-06-07T03:45:32.375967+10:00", "external_links": [], "uuid": "e57f6d09-9cd7-4b09-83a7-9d5c169fed5c", "source": {"name": "Vernon", "slug": "vernon"}, "source_identifier": "39539", "external_references": [], "date_modified": "2025-03-11T11:50:57.847382+11:00"}, {"id": 72983, "name": "Vivienne To", "roles_in_work": [{"id": 2685547, "title": "King Carl concept art", "work_id": 117912, "role": "artist", "role_id": 505, "is_primary": true}, {"id": 2685549, "title": "Unikitty concept art", "work_id": 100761, "role": "artist", "role_id": 505, "is_primary": true}], "also_known_as": "", "date_of_birth": "", "date_of_death": "", "genders": [], "languages": [], "places_of_operation": [], "biography": "", "biography_author": null, "date_of_biography": "2023-06-07T03:46:37.816230+10:00", "external_links": [], "uuid": "298d84d5-fa65-4e48-87f4-8ac15078cbb1", "source": {"name": "Vernon", "slug": "vernon"}, "source_identifier": "39538", "external_references": [], "date_modified": "2025-03-11T11:50:58.706025+11:00"}, {"id": 72982, "name": "Donald Walker", "roles_in_work": [{"id": 2685541, "title": "The Lego Movie developmental concept art for Emmet", "work_id": 100756, "role": "artist", "role_id": 505, "is_primary": true}], "also_known_as": "", "date_of_birth": "", "date_of_death": "", "genders": [], "languages": [], "places_of_operation": [], "biography": "", "biography_author": null, "date_of_biography": "2023-06-07T03:46:26.458173+10:00", "external_links": [], "uuid": "cfdd6bf9-644f-448d-8255-6d15f8d6eb85", "source": {"name": "Vernon", "slug": "vernon"}, "source_identifier": "39537", "external_references": [], "date_modified": "2025-03-11T11:50:53.485523+11:00"}, {"id": 72981, "name": "Carey Yost", "roles_in_work": [{"id": 2685540, "title": "The Lego Movie developmental concept art for Emmet", "work_id": 100756, "role": "artist", "role_id": 505, "is_primary": true}], "also_known_as": "", "date_of_birth": "", "date_of_death": "", "genders": [], "languages": [], "places_of_operation": [], "biography": "", "biography_author": null, "date_of_biography": "2023-06-07T03:46:26.245737+10:00", "external_links": [], "uuid": "45d06cab-7e5b-42ca-879e-acff38c7f36c", "source": {"name": "Vernon", "slug": "vernon"}, "source_identifier": "39536", "external_references": [], "date_modified": "2025-03-11T11:50:52.894248+11:00"}, {"id": 72980, "name": "Michael Hickox", "roles_in_work": [{"id": 2685538, "title": "Brickfilm reference images from Animal Logic Studio", "work_id": 112212, "role": "creator", "role_id": 968, "is_primary": true}, {"id": 2685546, "title": "Brickfilm reference images: Lego Pizza Delivery 5", "work_id": 100753, "role": "maker", "role_id": 657, "is_primary": false}], "also_known_as": "", "date_of_birth": "", "date_of_death": "", "genders": [], "languages": [], "places_of_operation": [], "biography": "", "biography_author": null, "date_of_biography": "2023-06-07T03:46:25.024599+10:00", "external_links": [], "uuid": "3c5f76d4-e045-4473-91b2-52ca8cea7114", "source": {"name": "Vernon", "slug": "vernon"}, "source_identifier": "39535", "external_references": [], "date_modified": "2025-03-11T11:50:55.938185+11:00"}, {"id": 72979, "name": "Jake Nash", "roles_in_work": [], "also_known_as": "", "date_of_birth": null, "date_of_death": null, "genders": [], "languages": [], "places_of_operation": [], "biography": "", "biography_author": null, "date_of_biography": null, "external_links": [], "uuid": "cbb9da81-51c0-4533-acfc-a54349716297", "source": {"name": "Vernon", "slug": "vernon"}, "source_identifier": null, "external_references": [], "date_modified": "2023-06-14T16:33:30.576250+10:00"}, {"id": 72978, "name": "Ali Sanderson", "roles_in_work": [], "also_known_as": "", "date_of_birth": null, "date_of_death": null, "genders": [], "languages": [], "places_of_operation": [], "biography": "", "biography_author": null, "date_of_biography": null, "external_links": [], "uuid": "09bfdb06-c2f2-4c1d-b454-b22fb8327b52", "source": {"name": "Vernon", "slug": "vernon"}, "source_identifier": null, "external_references": [], "date_modified": "2023-06-14T16:33:30.576250+10:00"}, {"id": 72977, "name": "Peripitus", "roles_in_work": [{"id": 2685457, "title": "Cleverman reference images: Dingo", "work_id": 100737, "role": "photographer", "role_id": 440, "is_primary": false}], "also_known_as": "", "date_of_birth": "", "date_of_death": "", "genders": [], "languages": [], "places_of_operation": [], "biography": "", "biography_author": null, "date_of_biography": "2023-08-14T13:07:43.832753+10:00", "external_links": [], "uuid": "707beb86-b5f5-4bca-8118-657d53368fc1", "source": {"name": "Vernon", "slug": "vernon"}, "source_identifier": "39530", "external_references": [], "date_modified": "2025-03-11T11:49:26.144435+11:00"}]}