{"count": 28682, "next": "https://api.acmi.net.au/creators/?page=2739", "previous": "https://api.acmi.net.au/creators/?page=2737", "results": [{"id": 10899, "name": "Bill Steller", "roles_in_work": [{"id": 2765535, "title": "Peach's Australia : Hahndorf", "work_id": 97449, "role": "director", "role_id": 938, "is_primary": true}, {"id": 918365, "title": "With the best of intentions", "work_id": 96320, "role": "director", "role_id": 938, "is_primary": true}, {"id": 2638001, "title": "My brown skin baby, they take 'im away", "work_id": 110017, "role": "director", "role_id": 938, "is_primary": true}, {"id": 2638003, "title": "Who am I...what am I", "work_id": 110019, "role": "director", "role_id": 938, "is_primary": true}, {"id": 2788077, "title": "The Meiji adventure", "work_id": 82323, "role": "director", "role_id": 938, "is_primary": true}, {"id": 2788103, "title": "The Other side of Japan", "work_id": 82326, "role": "director", "role_id": 938, "is_primary": true}, {"id": 2788113, "title": "A Simple good time", "work_id": 82327, "role": "director", "role_id": 938, "is_primary": true}, {"id": 918367, "title": "Something don't seem right", "work_id": 96321, "role": "co-producer", "role_id": 915, "is_primary": true}, {"id": 2762813, "title": "Rumtek Monastery", "work_id": 75257, "role": "co-producer", "role_id": 915, "is_primary": true}, {"id": 2762830, "title": "Ladakh: little Tibet", "work_id": 75264, "role": "co-producer", "role_id": 915, "is_primary": true}, {"id": 918364, "title": "With the best of intentions", "work_id": 96320, "role": "co-producer", "role_id": 915, "is_primary": true}, {"id": 918369, "title": "Something don't seem right", "work_id": 96321, "role": "director", "role_id": 938, "is_primary": true}, {"id": 3082409, "title": "Peach's gold", "work_id": 115562, "role": "producer/director", "role_id": 31, "is_primary": true}, {"id": 3082403, "title": "Life on the goldfields", "work_id": 91394, "role": "producer/director", "role_id": 31, "is_primary": true}, {"id": 3082380, "title": "Eureka", "work_id": 91393, "role": "producer/director", "role_id": 31, "is_primary": true}, {"id": 2347315, "title": "East to west", "work_id": 91395, "role": "producer/director", "role_id": 31, "is_primary": true}, {"id": 2347381, "title": "Across the Great Divide", "work_id": 91403, "role": "producer/director", "role_id": 31, "is_primary": true}, {"id": 2347407, "title": "Desert explorers", "work_id": 91401, "role": "producer/director", "role_id": 31, "is_primary": true}, {"id": 2347419, "title": "Overland to Port Phillip", "work_id": 91399, "role": "producer/director", "role_id": 31, "is_primary": true}, {"id": 2347437, "title": "Prison walls", "work_id": 91402, "role": "producer/director", "role_id": 31, "is_primary": true}, {"id": 2347459, "title": "Australia Felix", "work_id": 91397, "role": "producer/director", "role_id": 31, "is_primary": true}, {"id": 2347357, "title": "South to North", "work_id": 91400, "role": "producer/director", "role_id": 31, "is_primary": true}], "also_known_as": "", "date_of_birth": "", "date_of_death": "", "genders": [{"id": 9, "name": "Male", "slug": "male"}], "languages": [], "places_of_operation": [], "biography": "", "biography_author": null, "date_of_biography": "2023-05-09T19:49:50.593179+10:00", "external_links": [], "uuid": "f29b5b37-47bb-434d-b174-3ed42efe8122", "source": {"name": "Vernon", "slug": "vernon"}, "source_identifier": "2652", "external_references": [{"id": 37237, "source": {"name": "Wikidata", "slug": "wikidata"}, "source_identifier": "Q121078893"}], "date_modified": "2025-03-17T10:29:00.581278+11:00"}, {"id": 10898, "name": "Berni Searle", "roles_in_work": [{"id": 2638097, "title": "Vapour", "work_id": 110050, "role": "creator", "role_id": 968, "is_primary": true}, {"id": 2637999, "title": "About to forget", "work_id": 110016, "role": "creator", "role_id": 968, "is_primary": true}, {"id": 2638096, "title": "Home and away", "work_id": 110049, "role": "creator", "role_id": 968, "is_primary": true}], "also_known_as": "", "date_of_birth": "", "date_of_death": "", "genders": [{"id": 5, "name": "Female", "slug": "female"}], "languages": [], "places_of_operation": [], "biography": "", "biography_author": null, "date_of_biography": "2023-08-11T13:24:56.824280+10:00", "external_links": [], "uuid": "7ee92a91-f539-4c8b-a5b2-2a92a403ed6d", "source": {"name": "Vernon", "slug": "vernon"}, "source_identifier": "2651", "external_references": [], "date_modified": "2025-03-05T11:00:54.253009+11:00"}, {"id": 10896, "name": "Penny Hendy", "roles_in_work": [{"id": 2637988, "title": "Responding to change", "work_id": 110015, "role": "creator", "role_id": 968, "is_primary": true}], "also_known_as": "", "date_of_birth": "", "date_of_death": "", "genders": [], "languages": [], "places_of_operation": [], "biography": "", "biography_author": null, "date_of_biography": "2023-07-05T03:42:35.351727+10:00", "external_links": [], "uuid": "0c339f4d-0d19-43a8-908c-4f6c12e00c68", "source": {"name": "Vernon", "slug": "vernon"}, "source_identifier": "2648", "external_references": [], "date_modified": "2025-03-05T10:59:25.866664+11:00"}, {"id": 10895, "name": "Nickie Berrisford", "roles_in_work": [{"id": 2637972, "title": "Encouragement and growth", "work_id": 110014, "role": "creator", "role_id": 968, "is_primary": true}], "also_known_as": "", "date_of_birth": "", "date_of_death": "", "genders": [], "languages": [], "places_of_operation": [], "biography": "", "biography_author": null, "date_of_biography": "2023-07-05T03:42:32.742427+10:00", "external_links": [], "uuid": "f3c80fd9-223d-4d03-b555-2150282da047", "source": {"name": "Vernon", "slug": "vernon"}, "source_identifier": "2647", "external_references": [], "date_modified": "2025-03-05T10:59:13.546796+11:00"}, {"id": 10894, "name": "Maureen Barry", "roles_in_work": [{"id": 2637980, "title": "Mallee blossom", "work_id": 110012, "role": "creator", "role_id": 968, "is_primary": true}, {"id": 2637984, "title": "My Love", "work_id": 110013, "role": "creator", "role_id": 968, "is_primary": true}], "also_known_as": "", "date_of_birth": "", "date_of_death": "", "genders": [], "languages": [], "places_of_operation": [], "biography": "", "biography_author": null, "date_of_biography": "2023-07-05T03:42:30.799561+10:00", "external_links": [], "uuid": "531d0bdf-d2df-4e05-8cad-bf0b0552ad4d", "source": {"name": "Vernon", "slug": "vernon"}, "source_identifier": "2645", "external_references": [], "date_modified": "2025-03-05T10:59:22.774087+11:00"}, {"id": 10893, "name": "Jenny Grigg", "roles_in_work": [{"id": 2637968, "title": "Always a farmer", "work_id": 110011, "role": "creator", "role_id": 968, "is_primary": true}], "also_known_as": "", "date_of_birth": "", "date_of_death": "", "genders": [], "languages": [], "places_of_operation": [], "biography": "", "biography_author": null, "date_of_biography": "2023-05-09T19:10:47.946136+10:00", "external_links": [], "uuid": "78bc12f1-3554-4695-b42f-c2b50b9aa4c6", "source": {"name": "Vernon", "slug": "vernon"}, "source_identifier": "2644", "external_references": [], "date_modified": "2025-03-05T10:59:10.472927+11:00"}, {"id": 10892, "name": "Diana Anderson", "roles_in_work": [{"id": 2637964, "title": "All change please", "work_id": 110010, "role": "creator", "role_id": 968, "is_primary": true}], "also_known_as": "", "date_of_birth": "", "date_of_death": "", "genders": [], "languages": [], "places_of_operation": [], "biography": "", "biography_author": null, "date_of_biography": "2023-07-05T03:42:26.947392+10:00", "external_links": [], "uuid": "1082740a-8679-42b0-8697-a1e0b17200eb", "source": {"name": "Vernon", "slug": "vernon"}, "source_identifier": "2643", "external_references": [], "date_modified": "2025-03-05T10:59:07.402338+11:00"}, {"id": 10891, "name": "Althea Hunt", "roles_in_work": [{"id": 2637992, "title": "Sustainability", "work_id": 110009, "role": "creator", "role_id": 968, "is_primary": true}], "also_known_as": "", "date_of_birth": "", "date_of_death": "", "genders": [], "languages": [], "places_of_operation": [], "biography": "", "biography_author": null, "date_of_biography": "2023-07-05T03:42:24.949522+10:00", "external_links": [], "uuid": "006bfb00-0e37-446a-bc8c-4b65499fb77d", "source": {"name": "Vernon", "slug": "vernon"}, "source_identifier": "2641", "external_references": [], "date_modified": "2025-03-05T10:59:28.897359+11:00"}, {"id": 10889, "name": "Merna Curnow", "roles_in_work": [{"id": 2637976, "title": "Extending boundaries", "work_id": 110007, "role": "creator", "role_id": 968, "is_primary": true}], "also_known_as": "", "date_of_birth": "", "date_of_death": "", "genders": [], "languages": [], "places_of_operation": [], "biography": "", "biography_author": null, "date_of_biography": "2023-07-05T03:42:22.691947+10:00", "external_links": [], "uuid": "d4d82e90-b777-4871-bc58-e294abe2318b", "source": {"name": "Vernon", "slug": "vernon"}, "source_identifier": "2646", "external_references": [], "date_modified": "2025-03-05T10:59:16.600747+11:00"}, {"id": 10888, "name": "Linton Briggs", "roles_in_work": [{"id": 2640422, "title": "A Magic place", "work_id": 110006, "role": "producer", "role_id": 1089, "is_primary": true}], "also_known_as": "", "date_of_birth": "", "date_of_death": "", "genders": [], "languages": [], "places_of_operation": [], "biography": "", "biography_author": null, "date_of_biography": "2023-05-09T17:44:32.131443+10:00", "external_links": [], "uuid": "d1d3300e-01c7-4d13-8004-658a7f1ed75d", "source": {"name": "Vernon", "slug": "vernon"}, "source_identifier": "2678", "external_references": [{"id": 39180, "source": {"name": "Wikidata", "slug": "wikidata"}, "source_identifier": "Q121091241"}], "date_modified": "2025-03-05T11:27:56.481984+11:00"}]}