{"count": 28687, "next": "https://api.acmi.net.au/creators/?page=2523", "previous": "https://api.acmi.net.au/creators/?page=2521", "results": [{"id": 13621, "name": "Paul Fillinger", "roles_in_work": [{"id": 777460, "title": "The Eating feel good movie", "work_id": 82024, "role": "director", "role_id": 938, "is_primary": true}, {"id": 826946, "title": "Washing feel good movie", "work_id": 96580, "role": "director", "role_id": 938, "is_primary": true}, {"id": 2751250, "title": "Houses have history", "work_id": 97723, "role": "director", "role_id": 938, "is_primary": true}, {"id": 2748750, "title": "My world: water", "work_id": 96440, "role": "director", "role_id": 938, "is_primary": true}, {"id": 762318, "title": "Louis James hates school", "work_id": 76582, "role": "director", "role_id": 938, "is_primary": true}, {"id": 777470, "title": "Get help - give aid", "work_id": 82028, "role": "director", "role_id": 938, "is_primary": true}, {"id": 2781740, "title": "I am what I know", "work_id": 96785, "role": "co-producer", "role_id": 915, "is_primary": true}, {"id": 2748754, "title": "Growing, growing", "work_id": 96442, "role": "producer/director", "role_id": 31, "is_primary": true}, {"id": 2679414, "title": "Celebration of life: trees", "work_id": 65894, "role": "producer/director", "role_id": 31, "is_primary": true}], "also_known_as": "", "date_of_birth": "", "date_of_death": "", "genders": [], "languages": [], "places_of_operation": [], "biography": "", "biography_author": null, "date_of_biography": "2023-08-11T18:15:14.288429+10:00", "external_links": [], "uuid": "045263ba-51d7-4fcc-859f-d5266b398922", "source": {"name": "Vernon", "slug": "vernon"}, "source_identifier": "3816", "external_references": [], "date_modified": "2025-03-14T19:10:13.736229+11:00"}, {"id": 13620, "name": "Paul Fillinger Productions", "roles_in_work": [{"id": 2679413, "title": "Celebration of life: trees", "work_id": 65894, "role": "production company", "role_id": 941, "is_primary": true}], "also_known_as": "", "date_of_birth": "", "date_of_death": "", "genders": [], "languages": [], "places_of_operation": [], "biography": "", "biography_author": null, "date_of_biography": "2023-08-11T15:17:04.296622+10:00", "external_links": [], "uuid": "4d4e04da-2104-4a7e-93a8-189a1519d47d", "source": {"name": "Vernon", "slug": "vernon"}, "source_identifier": "11346", "external_references": [], "date_modified": "2025-03-07T00:12:25.440712+11:00"}, {"id": 13619, "name": "Topical Film Company", "roles_in_work": [{"id": 2757028, "title": "Cavity walls", "work_id": 65892, "role": "production company", "role_id": 941, "is_primary": true}, {"id": 2756628, "title": "Crossbanding and jointing veneers", "work_id": 66513, "role": "production company", "role_id": 941, "is_primary": true}, {"id": 2794879, "title": "Woodworking machinery series", "work_id": 115506, "role": "production company", "role_id": 941, "is_primary": true}, {"id": 2646766, "title": "Advanced science: vacuum practice", "work_id": 74266, "role": "production company", "role_id": 941, "is_primary": true}, {"id": 2645532, "title": "Making a car bumper", "work_id": 70027, "role": "production company", "role_id": 941, "is_primary": true}, {"id": 2766271, "title": "Repairing an upholstered chair", "work_id": 89957, "role": "production company", "role_id": 941, "is_primary": true}, {"id": 2766268, "title": "Repairing a window pane", "work_id": 72146, "role": "production company", "role_id": 941, "is_primary": true}, {"id": 2766267, "title": "Repairing a sashcord", "work_id": 72145, "role": "production company", "role_id": 941, "is_primary": true}, {"id": 2765887, "title": "Ceiling with scrapite finish", "work_id": 65893, "role": "production company", "role_id": 941, "is_primary": true}, {"id": 2757032, "title": "Bricks and mortar", "work_id": 85555, "role": "production company", "role_id": 941, "is_primary": true}], "also_known_as": "", "date_of_birth": "", "date_of_death": "", "genders": [], "languages": [], "places_of_operation": [], "biography": "", "biography_author": null, "date_of_biography": "2023-08-11T13:36:37.214890+10:00", "external_links": [], "uuid": "58e81eb9-1b34-453d-be0d-732dc5542899", "source": {"name": "Vernon", "slug": "vernon"}, "source_identifier": "13657", "external_references": [], "date_modified": "2025-03-14T20:28:35.825442+11:00"}, {"id": 13618, "name": "Film Associates of California", "roles_in_work": [{"id": 2644542, "title": "Discovering perspective", "work_id": 66808, "role": "production company", "role_id": 941, "is_primary": true}, {"id": 2644315, "title": "Caverns and geysers", "work_id": 65891, "role": "production company", "role_id": 941, "is_primary": true}, {"id": 2750481, "title": "Animals hear in many ways", "work_id": 97350, "role": "production company", "role_id": 941, "is_primary": true}, {"id": 2680888, "title": "Darwin's finches: clues to the origin of species", "work_id": 66608, "role": "production company", "role_id": 941, "is_primary": true}, {"id": 857773, "title": "The River: a first film", "work_id": 72259, "role": "production company", "role_id": 941, "is_primary": true}, {"id": 2748959, "title": "Gravity, weight & weightlessness", "work_id": 96566, "role": "production company", "role_id": 941, "is_primary": true}, {"id": 2748956, "title": "Asteroids, comets and meteorites", "work_id": 96564, "role": "production company", "role_id": 941, "is_primary": true}, {"id": 2285370, "title": "What's in a play: dramatic action", "work_id": 74652, "role": "production company", "role_id": 941, "is_primary": true}, {"id": 2712135, "title": "Discovering color", "work_id": 66801, "role": "production company", "role_id": 941, "is_primary": true}, {"id": 789128, "title": "Amphibians: frogs, toads and salamanders", "work_id": 85302, "role": "production company", "role_id": 941, "is_primary": true}, {"id": 750859, "title": "Plasma: the fourth state of matter", "work_id": 71644, "role": "production company", "role_id": 941, "is_primary": true}, {"id": 854439, "title": "Life in the ocean", "work_id": 69687, "role": "production company", "role_id": 941, "is_primary": true}, {"id": 2712111, "title": "The Dinosaur age", "work_id": 66786, "role": "production company", "role_id": 941, "is_primary": true}], "also_known_as": "", "date_of_birth": "", "date_of_death": "", "genders": [], "languages": [], "places_of_operation": [], "biography": "", "biography_author": null, "date_of_biography": "2023-05-09T18:08:44.635913+10:00", "external_links": [], "uuid": "f3698ec3-beab-4efd-8b88-de612b6fdfa0", "source": {"name": "Vernon", "slug": "vernon"}, "source_identifier": "8184", "external_references": [{"id": 36538, "source": {"name": "Wikidata", "slug": "wikidata"}, "source_identifier": "Q121034868"}], "date_modified": "2025-03-13T00:22:26.449334+11:00"}, {"id": 13617, "name": "Jagat Murari", "roles_in_work": [{"id": 857454, "title": "Railway Centenary Exhibition", "work_id": 72038, "role": "director", "role_id": 938, "is_primary": true}, {"id": 2644314, "title": "Cave temples of India", "work_id": 65890, "role": "director", "role_id": 938, "is_primary": true}, {"id": 875377, "title": "Bharata natyam", "work_id": 89483, "role": "director", "role_id": 938, "is_primary": true}, {"id": 2715602, "title": "A Holiday in South India", "work_id": 68516, "role": "director", "role_id": 938, "is_primary": true}, {"id": 2716376, "title": "Industrial Mysore. Series 1", "work_id": 68918, "role": "director", "role_id": 938, "is_primary": true}, {"id": 2716379, "title": "Industrial Mysore. Series 2", "work_id": 68919, "role": "director", "role_id": 938, "is_primary": true}, {"id": 747219, "title": "Madurai of the Naiks", "work_id": 69980, "role": "director", "role_id": 938, "is_primary": true}, {"id": 858053, "title": "Save our soil", "work_id": 72492, "role": "director", "role_id": 938, "is_primary": true}, {"id": 855860, "title": "The National library", "work_id": 70760, "role": "director", "role_id": 938, "is_primary": true}, {"id": 856512, "title": "Our original inhabitants", "work_id": 71255, "role": "director", "role_id": 938, "is_primary": true}], "also_known_as": "", "date_of_birth": null, "date_of_death": null, "genders": [], "languages": [], "places_of_operation": [], "biography": "", "biography_author": null, "date_of_biography": null, "external_links": [], "uuid": "d7393332-cb8e-4113-8fb5-154c264eaf57", "source": {"name": "Vernon", "slug": "vernon"}, "source_identifier": "21173", "external_references": [], "date_modified": "2025-03-12T01:55:54.264149+11:00"}, {"id": 13616, "name": "Sam Weiss", "roles_in_work": [{"id": 863479, "title": "Myra (K)", "work_id": 77232, "role": "director", "role_id": 938, "is_primary": true}, {"id": 2714253, "title": "Freedom river", "work_id": 67815, "role": "director", "role_id": 938, "is_primary": true}, {"id": 2751748, "title": "The Man who had no dream", "work_id": 97962, "role": "director", "role_id": 938, "is_primary": true}, {"id": 2645150, "title": "I told 'em exactly how to do it", "work_id": 68730, "role": "director", "role_id": 938, "is_primary": true}, {"id": 1846835, "title": "The Reluctant dragon. The Furious flycycle", "work_id": 83500, "role": "director", "role_id": 938, "is_primary": true}, {"id": 2751246, "title": "Fisherman & his wife: a Grimm's fairy tale", "work_id": 97719, "role": "director", "role_id": 938, "is_primary": true}, {"id": 2749278, "title": "The Legend of Sleepy Hollow", "work_id": 96723, "role": "director", "role_id": 938, "is_primary": true}, {"id": 2749160, "title": "Teenagers talk: getting through adolescence", "work_id": 96663, "role": "director", "role_id": 938, "is_primary": true}, {"id": 2751745, "title": "Hug me", "work_id": 97961, "role": "director", "role_id": 938, "is_primary": true}, {"id": 781777, "title": "The Practical princess", "work_id": 83253, "role": "director", "role_id": 938, "is_primary": true}, {"id": 2750088, "title": "The Pretty lady and the electronic musicians", "work_id": 97134, "role": "director", "role_id": 938, "is_primary": true}, {"id": 2524122, "title": "The Ghost in the shed", "work_id": 77227, "role": "director", "role_id": 938, "is_primary": true}, {"id": 2343071, "title": "The World's greatest freak show", "work_id": 74953, "role": "director", "role_id": 938, "is_primary": true}, {"id": 2750121, "title": "The Seventh mandarin", "work_id": 97153, "role": "director", "role_id": 938, "is_primary": true}, {"id": 763910, "title": "The Furious flycycle", "work_id": 77231, "role": "director", "role_id": 938, "is_primary": true}, {"id": 2343052, "title": "The Seventh mandarin", "work_id": 72696, "role": "director", "role_id": 938, "is_primary": true}, {"id": 2343161, "title": "The Desire to read", "work_id": 115034, "role": "director", "role_id": 938, "is_primary": true}, {"id": 2751484, "title": "Communication: getting in touch", "work_id": 97828, "role": "director", "role_id": 938, "is_primary": true}, {"id": 2679408, "title": "The Cave: a parable told by Orson Welles", "work_id": 65888, "role": "director", "role_id": 938, "is_primary": true}, {"id": 870937, "title": "Myra", "work_id": 86712, "role": "director", "role_id": 938, "is_primary": true}, {"id": 863476, "title": "The Practical princess (K)", "work_id": 77229, "role": "director", "role_id": 938, "is_primary": true}, {"id": 857299, "title": "Profit, you gotta be out of your cotton pickin' mind", "work_id": 71894, "role": "director", "role_id": 938, "is_primary": true}, {"id": 1905088, "title": "The Legend of John Henry: an American folk tale", "work_id": 94797, "role": "director", "role_id": 938, "is_primary": true}, {"id": 1905415, "title": "The Youth who wanted to shiver", "work_id": 97721, "role": "director", "role_id": 938, "is_primary": true}, {"id": 1845764, "title": "Hayley Mills Storybook", "work_id": 79922, "role": "co-director", "role_id": 959, "is_primary": true}, {"id": 1845576, "title": "Grimm's Fairy Tales", "work_id": 79204, "role": "co-director", "role_id": 959, "is_primary": true}], "also_known_as": "", "date_of_birth": "", "date_of_death": "", "genders": [], "languages": [], "places_of_operation": [], "biography": "", "biography_author": null, "date_of_biography": "2023-05-09T19:42:56.880126+10:00", "external_links": [], "uuid": "954944bd-0ee4-476e-bed0-316a1a2e6907", "source": {"name": "Vernon", "slug": "vernon"}, "source_identifier": "28499", "external_references": [], "date_modified": "2025-03-13T00:50:38.377452+11:00"}, {"id": 13614, "name": "John Freney-Mills", "roles_in_work": [{"id": 2679400, "title": "Caulfield: a Living City", "work_id": 65885, "role": "director", "role_id": 938, "is_primary": true}], "also_known_as": "", "date_of_birth": "", "date_of_death": "", "genders": [], "languages": [], "places_of_operation": [], "biography": "", "biography_author": null, "date_of_biography": "2023-05-09T13:23:31.069409+10:00", "external_links": [], "uuid": "94485eb3-2d78-47c3-aed2-88ec72e5b40c", "source": {"name": "Vernon", "slug": "vernon"}, "source_identifier": "22266", "external_references": [{"id": 33067, "source": {"name": "Wikidata", "slug": "wikidata"}, "source_identifier": "Q121086088"}], "date_modified": "2025-03-07T00:12:12.981979+11:00"}, {"id": 13613, "name": "Ewart Wade", "roles_in_work": [{"id": 2679399, "title": "Caulfield: a Living City", "work_id": 65885, "role": "producer", "role_id": 1089, "is_primary": true}, {"id": 2679401, "title": "Caulfield: a Living City", "work_id": 65885, "role": "script", "role_id": 962, "is_primary": false}], "also_known_as": "", "date_of_birth": "", "date_of_death": "2012", "genders": [], "languages": [], "places_of_operation": [], "biography": "", "biography_author": null, "date_of_biography": "2023-05-09T13:23:31.316569+10:00", "external_links": [], "uuid": "4f1615d2-1a37-4fa5-a329-7cc5c41ccc7c", "source": {"name": "Vernon", "slug": "vernon"}, "source_identifier": "18938", "external_references": [{"id": 42990, "source": {"name": "Wikidata", "slug": "wikidata"}, "source_identifier": "Q121222955"}], "date_modified": "2025-03-07T00:12:13.636160+11:00"}, {"id": 13612, "name": "Caulfield City Council", "roles_in_work": [{"id": 2679398, "title": "Caulfield: a Living City", "work_id": 65885, "role": "production company", "role_id": 941, "is_primary": true}], "also_known_as": "", "date_of_birth": "", "date_of_death": "", "genders": [], "languages": [], "places_of_operation": [], "biography": "", "biography_author": null, "date_of_biography": "2023-05-09T13:23:30.361185+10:00", "external_links": [], "uuid": "9e77a5b9-4dda-4c95-beb4-be74cf36274e", "source": {"name": "Vernon", "slug": "vernon"}, "source_identifier": "6359", "external_references": [{"id": 51015, "source": {"name": "Wikidata", "slug": "wikidata"}, "source_identifier": "Q121357496"}], "date_modified": "2025-03-07T00:12:11.699276+11:00"}, {"id": 13611, "name": "Caulfield Film Society", "roles_in_work": [{"id": 2679397, "title": "Caulfield: a Living City", "work_id": 65885, "role": "production company", "role_id": 941, "is_primary": true}], "also_known_as": "", "date_of_birth": "", "date_of_death": "", "genders": [], "languages": [], "places_of_operation": [], "biography": "", "biography_author": null, "date_of_biography": "2023-05-09T13:23:30.123793+10:00", "external_links": [], "uuid": "32ee265d-8a23-4a4a-800e-0fb890133c26", "source": {"name": "Vernon", "slug": "vernon"}, "source_identifier": "6360", "external_references": [{"id": 37110, "source": {"name": "Wikidata", "slug": "wikidata"}, "source_identifier": "Q121315420"}], "date_modified": "2025-03-07T00:12:11.113301+11:00"}]}