{"count": 28687, "next": "https://api.acmi.net.au/creators/?page=598", "previous": "https://api.acmi.net.au/creators/?page=596", "results": [{"id": 79613, "name": "Guy Butler", "roles_in_work": [{"id": 2411275, "title": "I.A.A.F. track and field events, Helsinki", "work_id": 91660, "role": "producer/director", "role_id": 31, "is_primary": true}], "also_known_as": "", "date_of_birth": "", "date_of_death": "", "genders": [], "languages": [], "places_of_operation": [], "biography": "", "biography_author": null, "date_of_biography": "2023-08-11T18:16:51.186791+10:00", "external_links": [], "uuid": "19da5323-7fa5-4c3b-9a35-1612c8f87973", "source": {"name": "Vernon", "slug": "vernon"}, "source_identifier": "20133", "external_references": [{"id": 51317, "source": {"name": "Wikidata", "slug": "wikidata"}, "source_identifier": "Q121360930"}], "date_modified": "2023-09-05T20:25:27.472855+10:00"}, {"id": 79612, "name": "David Warth", "roles_in_work": [{"id": 2322138, "title": "Tarkine: the forgotten wilderness", "work_id": 91655, "role": "producer/director", "role_id": 31, "is_primary": true}], "also_known_as": "", "date_of_birth": "", "date_of_death": "", "genders": [], "languages": [], "places_of_operation": [], "biography": "", "biography_author": null, "date_of_biography": "2023-05-09T19:13:40.331884+10:00", "external_links": [], "uuid": "6cb0f0bf-bc10-4b7c-b44a-bf6e9de2b967", "source": {"name": "Vernon", "slug": "vernon"}, "source_identifier": "17843", "external_references": [{"id": 51507, "source": {"name": "Wikidata", "slug": "wikidata"}, "source_identifier": "Q121360559"}], "date_modified": "2023-09-05T19:03:29.327674+10:00"}, {"id": 79611, "name": "Francoise Fombertaux", "roles_in_work": [{"id": 2760810, "title": "The Business of change", "work_id": 91654, "role": "producer", "role_id": 1089, "is_primary": true}], "also_known_as": "", "date_of_birth": "", "date_of_death": "", "genders": [], "languages": [], "places_of_operation": [], "biography": "", "biography_author": null, "date_of_biography": "2023-05-09T19:32:06.532549+10:00", "external_links": [], "uuid": "8408f881-953e-4224-bf01-2a6c0ae0ac46", "source": {"name": "Vernon", "slug": "vernon"}, "source_identifier": "19076", "external_references": [{"id": 50731, "source": {"name": "Wikidata", "slug": "wikidata"}, "source_identifier": "Q121357505"}], "date_modified": "2025-03-14T17:28:29.268981+11:00"}, {"id": 79610, "name": "Douglas Sharp", "roles_in_work": [{"id": 809112, "title": "I can jump puddles. Ep. 8", "work_id": 91652, "role": "director", "role_id": 938, "is_primary": true}, {"id": 809116, "title": "I can jump puddles. Ep. 9", "work_id": 91653, "role": "director", "role_id": 938, "is_primary": true}], "also_known_as": "", "date_of_birth": null, "date_of_death": null, "genders": [], "languages": [], "places_of_operation": [], "biography": "", "biography_author": null, "date_of_biography": null, "external_links": [], "uuid": "0c88db95-019d-4350-9afa-1bff87717b48", "source": {"name": "Vernon", "slug": "vernon"}, "source_identifier": null, "external_references": [{"id": 34977, "source": {"name": "Wikidata", "slug": "wikidata"}, "source_identifier": "Q121270946"}], "date_modified": "2023-09-05T19:20:46.951349+10:00"}, {"id": 79609, "name": "Dolores Soler", "roles_in_work": [{"id": 1995441, "title": "La Frontera", "work_id": 91644, "role": "co-producer", "role_id": 915, "is_primary": true}], "also_known_as": "", "date_of_birth": null, "date_of_death": null, "genders": [], "languages": [], "places_of_operation": [], "biography": "", "biography_author": null, "date_of_biography": null, "external_links": [], "uuid": "42a5f5f0-9802-4559-9050-68d76da5d3bf", "source": {"name": "Vernon", "slug": "vernon"}, "source_identifier": null, "external_references": [{"id": 38083, "source": {"name": "Wikidata", "slug": "wikidata"}, "source_identifier": "Q121036690"}], "date_modified": "2023-09-05T19:13:37.832673+10:00"}, {"id": 79608, "name": "Mara Sanchex", "roles_in_work": [{"id": 1995440, "title": "La Frontera", "work_id": 91644, "role": "co-producer", "role_id": 915, "is_primary": true}], "also_known_as": "", "date_of_birth": null, "date_of_death": null, "genders": [], "languages": [], "places_of_operation": [], "biography": "", "biography_author": null, "date_of_biography": null, "external_links": [], "uuid": "a355a16a-20d8-4628-9c1f-e0f70eefc2ae", "source": {"name": "Vernon", "slug": "vernon"}, "source_identifier": null, "external_references": [{"id": 40067, "source": {"name": "Wikidata", "slug": "wikidata"}, "source_identifier": "Q121223201"}], "date_modified": "2023-09-05T22:38:49.725488+10:00"}, {"id": 79607, "name": "Tom Holland", "roles_in_work": [{"id": 2136005, "title": "Child's play", "work_id": 91638, "role": "director", "role_id": 938, "is_primary": true}, {"id": 1998924, "title": "Fright night", "work_id": 94160, "role": "director", "role_id": 938, "is_primary": true}], "also_known_as": "Thomas Lee Holland", "date_of_birth": "1943-07-11", "date_of_death": "", "genders": [{"id": 9, "name": "Male", "slug": "male"}], "languages": [], "places_of_operation": [{"id": 1, "name": "United States of America", "slug": "united-states-of-america"}], "biography": "Thomas Lee Holland (born July 11, 1943) is an American screenwriter, actor, and director best known for his work in the horror film genre, penning the 1983 sequel to the classic Alfred Hitchcock film Psycho, directing and co-writing the first entry in the long-running Child's Play franchise, and writing and directing the cult vampire film Fright Night. He also directed the Stephen King adaptations The Langoliers and Thinner. He is a two-time Saturn Award recipient. Holland made the jump into children’s literature in 2018 when he co-wrote How to Scare a Monster with fellow writer Dustin Warburton.\n\n", "biography_author": "Wikidata", "date_of_biography": "2023-08-01T17:19:41.279633+10:00", "external_links": [{"id": 3217, "uri": "https://en.wikipedia.org/wiki/Tom_Holland_(filmmaker)"}], "uuid": "30320567-b6af-41ce-ae37-f2091053305c", "source": {"name": "Vernon", "slug": "vernon"}, "source_identifier": "13576", "external_references": [{"id": 13624, "source": {"name": "Wikidata", "slug": "wikidata"}, "source_identifier": "Q1340923"}, {"id": 13625, "source": {"name": "VIAF", "slug": "viaf"}, "source_identifier": "5132532"}, {"id": 13626, "source": {"name": "LOC Auth", "slug": "loc-auth"}, "source_identifier": "n88641618"}, {"id": 13627, "source": {"name": "WorldCat", "slug": "worldcat"}, "source_identifier": "lccn-n88641618"}], "date_modified": "2023-09-06T01:53:25.105235+10:00"}, {"id": 79606, "name": "Peter Charley", "roles_in_work": [{"id": 2328077, "title": "The Astronaut", "work_id": 91637, "role": "director", "role_id": 938, "is_primary": true}], "also_known_as": "", "date_of_birth": "", "date_of_death": "", "genders": [], "languages": [], "places_of_operation": [], "biography": "", "biography_author": null, "date_of_biography": "2023-05-09T19:21:58.186582+10:00", "external_links": [], "uuid": "9427e6f6-0fbf-4a86-b94e-9cfcfab04960", "source": {"name": "Vernon", "slug": "vernon"}, "source_identifier": "26492", "external_references": [{"id": 38079, "source": {"name": "Wikidata", "slug": "wikidata"}, "source_identifier": "Q121336973"}], "date_modified": "2023-09-05T23:54:36.241689+10:00"}, {"id": 79605, "name": "Alan Hall", "roles_in_work": [{"id": 2328075, "title": "The Astronaut", "work_id": 91637, "role": "producer", "role_id": 1089, "is_primary": true}], "also_known_as": "", "date_of_birth": "", "date_of_death": "", "genders": [], "languages": [], "places_of_operation": [], "biography": "", "biography_author": null, "date_of_biography": "2023-05-09T19:21:57.941110+10:00", "external_links": [], "uuid": "a83d19d7-248d-4d68-96cd-7ebfa1f02b6a", "source": {"name": "Vernon", "slug": "vernon"}, "source_identifier": "14759", "external_references": [{"id": 52162, "source": {"name": "Wikidata", "slug": "wikidata"}, "source_identifier": "Q121357628"}], "date_modified": "2023-09-05T17:20:25.135786+10:00"}, {"id": 79604, "name": "Keith Wilkes", "roles_in_work": [{"id": 2111890, "title": "Bellbird: Episode 205", "work_id": 116724, "role": "director", "role_id": 938, "is_primary": true}, {"id": 809005, "title": "I can jump puddles. Ep. 5", "work_id": 91625, "role": "director", "role_id": 938, "is_primary": true}, {"id": 809009, "title": "I can jump puddles. Ep. 7", "work_id": 91626, "role": "director", "role_id": 938, "is_primary": true}, {"id": 809013, "title": "I can jump puddles. Ep. 6", "work_id": 91627, "role": "director", "role_id": 938, "is_primary": true}], "also_known_as": "", "date_of_birth": "", "date_of_death": "", "genders": [], "languages": [], "places_of_operation": [], "biography": "", "biography_author": null, "date_of_biography": "2023-05-09T12:48:46.176378+10:00", "external_links": [], "uuid": "5a5fe640-cf35-44a0-8270-c7a2dbb93fde", "source": {"name": "Vernon", "slug": "vernon"}, "source_identifier": "23160", "external_references": [{"id": 41586, "source": {"name": "Wikidata", "slug": "wikidata"}, "source_identifier": "Q121034545"}], "date_modified": "2023-09-05T22:04:07.512610+10:00"}]}