{"count": 28681, "next": "https://api.acmi.net.au/creators/?page=1563", "previous": "https://api.acmi.net.au/creators/?page=1561", "results": [{"id": 31996, "name": "Lyle Disher", "roles_in_work": [{"id": 2406369, "title": "Do you know. Vol. 2", "work_id": 90183, "role": "producer", "role_id": 1089, "is_primary": true}], "also_known_as": "", "date_of_birth": "", "date_of_death": "", "genders": [], "languages": [], "places_of_operation": [], "biography": "", "biography_author": null, "date_of_biography": "2023-08-11T16:12:15.020781+10:00", "external_links": [], "uuid": "a76ce247-5ec4-4e9b-8a5b-eeaee5ed6e5a", "source": {"name": "Vernon", "slug": "vernon"}, "source_identifier": "34440", "external_references": [], "date_modified": "2023-08-11T16:12:15.021068+10:00"}, {"id": 31986, "name": "Returned Services League of Australia", "roles_in_work": [{"id": 876603, "title": "Fourteenth Biennial Conference - British Empire Service League", "work_id": 90172, "role": "production company", "role_id": 941, "is_primary": true}, {"id": 2728328, "title": "Convoy of life", "work_id": 116883, "role": "support", "role_id": 492, "is_primary": false}, {"id": 2728335, "title": "The Great escape", "work_id": 116884, "role": "support", "role_id": 492, "is_primary": false}, {"id": 2727625, "title": "Sounds of silence", "work_id": 116875, "role": "support", "role_id": 492, "is_primary": false}, {"id": 2728351, "title": "V160777 (Chocos)", "work_id": 116886, "role": "support", "role_id": 492, "is_primary": false}, {"id": 2728343, "title": "Time to fly", "work_id": 116885, "role": "support", "role_id": 492, "is_primary": false}, {"id": 2727636, "title": "When a job becomes a passion", "work_id": 116876, "role": "support", "role_id": 492, "is_primary": false}, {"id": 2727645, "title": "When the priest came", "work_id": 116877, "role": "support", "role_id": 492, "is_primary": false}, {"id": 2727657, "title": "When war came to Australia", "work_id": 116878, "role": "support", "role_id": 492, "is_primary": false}, {"id": 2727669, "title": "Why two numbers", "work_id": 116879, "role": "support", "role_id": 492, "is_primary": false}, {"id": 2727484, "title": "Dots and dashes", "work_id": 116864, "role": "support", "role_id": 492, "is_primary": false}, {"id": 2727495, "title": "Finding Will", "work_id": 116865, "role": "support", "role_id": 492, "is_primary": false}, {"id": 2727506, "title": "Hope", "work_id": 116866, "role": "support", "role_id": 492, "is_primary": false}, {"id": 2727515, "title": "An Interview with Alfred Maskell", "work_id": 116867, "role": "support", "role_id": 492, "is_primary": false}, {"id": 2727527, "title": "An Interview with Arthur Harridge", "work_id": 116868, "role": "support", "role_id": 492, "is_primary": false}, {"id": 2727540, "title": "An Interview with Harry Barkla", "work_id": 116869, "role": "support", "role_id": 492, "is_primary": false}, {"id": 2727555, "title": "An Interview with Valda Maskell and Alf", "work_id": 116870, "role": "support", "role_id": 492, "is_primary": false}, {"id": 2727577, "title": "An Interview with Warwick N. Johanson", "work_id": 116871, "role": "support", "role_id": 492, "is_primary": false}, {"id": 2727591, "title": "Monkey off my back", "work_id": 116872, "role": "support", "role_id": 492, "is_primary": false}, {"id": 2727603, "title": "Rwanda", "work_id": 116873, "role": "support", "role_id": 492, "is_primary": false}, {"id": 2727613, "title": "Sense of guilt", "work_id": 116874, "role": "support", "role_id": 492, "is_primary": false}, {"id": 2728321, "title": "Come on Bushy", "work_id": 116882, "role": "support", "role_id": 492, "is_primary": false}], "also_known_as": "", "date_of_birth": "", "date_of_death": "", "genders": [], "languages": [], "places_of_operation": [], "biography": "", "biography_author": null, "date_of_biography": "2023-08-30T04:29:58.507633+10:00", "external_links": [], "uuid": "036e4c94-b22f-4727-af31-a34e6a5af2dc", "source": {"name": "Vernon", "slug": "vernon"}, "source_identifier": "12165", "external_references": [], "date_modified": "2025-03-12T08:36:14.051576+11:00"}, {"id": 31985, "name": "Ted Waterford", "roles_in_work": [{"id": 2374103, "title": "A Floral pageant", "work_id": 90171, "role": "creator", "role_id": 968, "is_primary": true}], "also_known_as": "", "date_of_birth": "", "date_of_death": "", "genders": [], "languages": [], "places_of_operation": [], "biography": "", "biography_author": null, "date_of_biography": "2023-07-05T03:51:17.499758+10:00", "external_links": [], "uuid": "6bda3204-247a-4c9f-a4fa-53bab51071ec", "source": {"name": "Vernon", "slug": "vernon"}, "source_identifier": "39104", "external_references": [], "date_modified": "2023-07-05T03:51:17.500140+10:00"}, {"id": 31984, "name": "Ralph Baum", "roles_in_work": [{"id": 3105250, "title": "Montparnasse 19 = Modigliani of Montparnasse", "work_id": 116324, "role": "producer", "role_id": 1089, "is_primary": true}, {"id": 1807983, "title": "Lola Montes [Widescreen]", "work_id": 90169, "role": "producer", "role_id": 1089, "is_primary": true}, {"id": 3104509, "title": "Le Joueur = the Gambler", "work_id": 115947, "role": "producer", "role_id": 1089, "is_primary": true}, {"id": 3104723, "title": "Les Granges Brulees = the Burned Barns", "work_id": 116055, "role": "producer", "role_id": 1089, "is_primary": true}, {"id": 3105199, "title": "Max et les Ferrailleurs = Max and the Scrap Merchants", "work_id": 116296, "role": "producer", "role_id": 1089, "is_primary": true}], "also_known_as": "", "date_of_birth": "04 OCT 1908", "date_of_death": "01 OCT 1987", "genders": [{"id": 9, "name": "Male", "slug": "male"}], "languages": [{"id": 4, "name": "French", "slug": "french"}], "places_of_operation": [{"id": 17, "name": "France", "slug": "france"}], "biography": "Ralph Baum (4 October 1908 – 1987) was a French film producer and production manager particularly associated with Max Ophüls whose career spanned from 1930 to 1985 across more than 50 films. He also directed four films. Source: Wikidata; 01/08/2023", "biography_author": null, "date_of_biography": "2025-05-22T23:00:57.107639+10:00", "external_links": [{"id": 4941, "uri": "https://en.wikipedia.org/wiki/Ralph_Baum"}], "uuid": "9107eacf-3e91-4e31-a0d8-266b0a672e56", "source": {"name": "Vernon", "slug": "vernon"}, "source_identifier": "27072", "external_references": [{"id": 25115, "source": {"name": "Wikidata", "slug": "wikidata"}, "source_identifier": "Q3418230"}, {"id": 30955, "source": {"name": "VIAF", "slug": "viaf"}, "source_identifier": "87221632"}, {"id": 30956, "source": {"name": "LOC Auth", "slug": "loc-auth"}, "source_identifier": "no2006013184"}, {"id": 30957, "source": {"name": "WorldCat", "slug": "worldcat"}, "source_identifier": "lccn-no2006013184"}], "date_modified": "2025-05-22T23:00:57.107871+10:00"}, {"id": 31982, "name": "Mike Hodges", "roles_in_work": [{"id": 1997218, "title": "Croupier", "work_id": 93182, "role": "director", "role_id": 938, "is_primary": true}, {"id": 2243539, "title": "Flash Gordon [DVD]", "work_id": 93586, "role": "director", "role_id": 938, "is_primary": true}, {"id": 1994332, "title": "Get Carter", "work_id": 90168, "role": "director", "role_id": 938, "is_primary": true}], "also_known_as": "Michael Tommy Hodges", "date_of_birth": "1932-07-29", "date_of_death": "2022-12-17", "genders": [{"id": 9, "name": "Male", "slug": "male"}], "languages": [{"id": 1, "name": "English", "slug": "english"}], "places_of_operation": [{"id": 10, "name": "United Kingdom", "slug": "united-kingdom"}], "biography": "Michael Tommy Hodges (born 29 July 1932) is an English screenwriter, film director, playwright and novelist. His films as writer/director include Get Carter (1971), Pulp (1972), The Terminal Man (1974) and Black Rainbow (1989). As director, his films include Flash Gordon (1980), Croupier (1998) and I'll Sleep When I'm Dead (2003).\nHis theatre plays include Soft Shoe Shuffle (1985) and Shooting Stars and Other Heavenly Pursuits (2000), which was adapted for BBC radio. Other radio plays include King Trash (2004). His first novel, Watching The Wheels Come Off, was published first in French by Rivagse/Noir (Quand Tout Se Fait La Malle) in 2009 then in English  in 2010. In 2018 his trio of novellas ('Bait', 'Grist' & 'Security') was published by Unbound.\nRetrospectives of his work in television and cinema: NFT (London) 1980; MOMA (New York) 1990; American Cinematheque (LA) 1990; Munich (Germany)1999.  Another retrospective at the NFT (London) is planned for May, 2020. He was awarded the degree of 'Doctor of Letters\" by the University of the West of England Bristol in 2005.", "biography_author": "Wikidata", "date_of_biography": "2022-05-19T12:31:39.897660+10:00", "external_links": [{"id": 2741, "uri": "https://en.wikipedia.org/wiki/Mike_Hodges"}], "uuid": "55c60331-24a5-46b1-b6cc-25e3a0352f4b", "source": {"name": "Vernon", "slug": "vernon"}, "source_identifier": "25364", "external_references": [{"id": 11684, "source": {"name": "Wikidata", "slug": "wikidata"}, "source_identifier": "Q491809"}, {"id": 11685, "source": {"name": "VIAF", "slug": "viaf"}, "source_identifier": "85680866"}, {"id": 11686, "source": {"name": "LOC Auth", "slug": "loc-auth"}, "source_identifier": "no99072832"}, {"id": 11687, "source": {"name": "WorldCat", "slug": "worldcat"}, "source_identifier": "lccn-no99072832"}], "date_modified": "2023-09-13T12:31:30.640205+10:00"}, {"id": 31977, "name": "Martin McNamara", "roles_in_work": [{"id": 2467626, "title": "The Mountain", "work_id": 90162, "role": "director", "role_id": 938, "is_primary": true}], "also_known_as": "", "date_of_birth": "", "date_of_death": "", "genders": [], "languages": [], "places_of_operation": [], "biography": "", "biography_author": null, "date_of_biography": "2023-08-14T11:24:06.978692+10:00", "external_links": [], "uuid": "08f5e854-888a-4690-b527-bb51d2f992fb", "source": {"name": "Vernon", "slug": "vernon"}, "source_identifier": "24652", "external_references": [], "date_modified": "2023-08-14T11:24:06.978963+10:00"}, {"id": 31974, "name": "Faces West Productions", "roles_in_work": [{"id": 2467623, "title": "The Mountain", "work_id": 90162, "role": "production company", "role_id": 941, "is_primary": true}], "also_known_as": "", "date_of_birth": "", "date_of_death": "", "genders": [], "languages": [], "places_of_operation": [], "biography": "", "biography_author": null, "date_of_biography": "2023-08-14T11:24:05.137337+10:00", "external_links": [], "uuid": "3f2995fc-b7a7-4688-8cc1-4e869faf42e4", "source": {"name": "Vernon", "slug": "vernon"}, "source_identifier": "8073", "external_references": [], "date_modified": "2023-08-14T11:24:05.137562+10:00"}, {"id": 31973, "name": "Osmond", "roles_in_work": [{"id": 2467594, "title": "The Morning after = That extra effort", "work_id": 90159, "role": "production company", "role_id": 941, "is_primary": true}], "also_known_as": "", "date_of_birth": "", "date_of_death": "", "genders": [], "languages": [], "places_of_operation": [], "biography": "", "biography_author": null, "date_of_biography": "2023-08-14T11:23:34.652425+10:00", "external_links": [], "uuid": "4fd54a2a-8449-46d2-81c5-ee9a66cd3f1a", "source": {"name": "Vernon", "slug": "vernon"}, "source_identifier": "11189", "external_references": [], "date_modified": "2023-08-14T11:23:34.652666+10:00"}, {"id": 31972, "name": "Fannon", "roles_in_work": [{"id": 2467593, "title": "The Morning after = That extra effort", "work_id": 90159, "role": "production company", "role_id": 941, "is_primary": true}], "also_known_as": "", "date_of_birth": "", "date_of_death": "", "genders": [], "languages": [], "places_of_operation": [], "biography": "", "biography_author": null, "date_of_biography": "2023-08-14T11:23:34.024653+10:00", "external_links": [], "uuid": "844acc67-0c1b-4e40-b2d1-5727787fbb85", "source": {"name": "Vernon", "slug": "vernon"}, "source_identifier": "8104", "external_references": [], "date_modified": "2023-08-14T11:23:34.024898+10:00"}, {"id": 31966, "name": "Opal Films", "roles_in_work": [{"id": 2402523, "title": "Beef background", "work_id": 90989, "role": "production company", "role_id": 941, "is_primary": true}, {"id": 804652, "title": "Lamb story", "work_id": 90147, "role": "production company", "role_id": 941, "is_primary": true}], "also_known_as": "", "date_of_birth": "", "date_of_death": "", "genders": [], "languages": [], "places_of_operation": [], "biography": "", "biography_author": null, "date_of_biography": "2023-08-11T14:48:03.628920+10:00", "external_links": [], "uuid": "6ac6fede-8cf8-4d28-9d33-c82e64e86b80", "source": {"name": "Vernon", "slug": "vernon"}, "source_identifier": "11143", "external_references": [], "date_modified": "2023-08-11T14:48:03.629153+10:00"}]}