{"count": 28687, "next": "https://api.acmi.net.au/creators/?page=2650", "previous": "https://api.acmi.net.au/creators/?page=2648", "results": [{"id": 12065, "name": "Campus Film Productions", "roles_in_work": [{"id": 2643917, "title": "Activity group therapy: as developed at the Jewish Board of Guardians", "work_id": 111403, "role": "production company", "role_id": 941, "is_primary": true}, {"id": 2716401, "title": "Infant development in the kibbutz (TEFC)", "work_id": 68932, "role": "production company", "role_id": 941, "is_primary": true}, {"id": 2677222, "title": "And so they grow", "work_id": 64757, "role": "production company", "role_id": 941, "is_primary": true}, {"id": 859636, "title": "Three to make ready", "work_id": 73793, "role": "production company", "role_id": 941, "is_primary": true}, {"id": 2713267, "title": "Eyes that hear", "work_id": 67330, "role": "production company", "role_id": 941, "is_primary": true}], "also_known_as": "", "date_of_birth": "", "date_of_death": "", "genders": [], "languages": [], "places_of_operation": [], "biography": "", "biography_author": null, "date_of_biography": "2023-08-11T14:05:40.386732+10:00", "external_links": [], "uuid": "e61b47eb-61ee-4b78-b20f-323e37aae8a2", "source": {"name": "Vernon", "slug": "vernon"}, "source_identifier": "6234", "external_references": [], "date_modified": "2025-03-12T01:56:11.478960+11:00"}, {"id": 12064, "name": "Gil Brealey", "roles_in_work": [{"id": 3108923, "title": "John Norton", "work_id": 79879, "role": "director", "role_id": 938, "is_primary": true}, {"id": 858060, "title": "Say bow-wow", "work_id": 72498, "role": "director", "role_id": 938, "is_primary": true}, {"id": 2714874, "title": "Grampians wonderland", "work_id": 68154, "role": "director", "role_id": 938, "is_primary": true}, {"id": 1902999, "title": "Late Winter to Early Spring", "work_id": 69517, "role": "director", "role_id": 938, "is_primary": true}, {"id": 2645661, "title": "Millionaire for a pound", "work_id": 70389, "role": "director", "role_id": 938, "is_primary": true}, {"id": 2042964, "title": "Sunday in Melbourne", "work_id": 73369, "role": "director", "role_id": 938, "is_primary": true}, {"id": 2374086, "title": "Lease of life", "work_id": 88639, "role": "director", "role_id": 938, "is_primary": true}, {"id": 770244, "title": "Annie's coming out", "work_id": 79641, "role": "director", "role_id": 938, "is_primary": true}, {"id": 2676465, "title": "Action stations", "work_id": 111402, "role": "director", "role_id": 938, "is_primary": true}, {"id": 770459, "title": "Annie's Coming Out (Captioned)", "work_id": 79709, "role": "director", "role_id": 938, "is_primary": true}, {"id": 3105795, "title": "A Queen who returned [B/W]", "work_id": 86955, "role": "director", "role_id": 938, "is_primary": true}, {"id": 751565, "title": "A Queen who returned", "work_id": 71989, "role": "director", "role_id": 938, "is_primary": true}, {"id": 2212306, "title": "Dusty", "work_id": 80071, "role": "director", "role_id": 938, "is_primary": true}, {"id": 2212729, "title": "Dusty (Captioned)", "work_id": 80084, "role": "director", "role_id": 938, "is_primary": true}, {"id": 2648556, "title": "The Bruce Petty collection", "work_id": 79441, "role": "co-director", "role_id": 959, "is_primary": true}, {"id": 2317307, "title": "Sunday Too Far Away", "work_id": 79356, "role": "co-producer", "role_id": 915, "is_primary": true}, {"id": 2317345, "title": "Sunday Too Far Away [DVD]", "work_id": 92452, "role": "co-producer", "role_id": 915, "is_primary": true}, {"id": 1427494, "title": "The Players", "work_id": 86799, "role": "co-producer", "role_id": 915, "is_primary": true}, {"id": 2645009, "title": "The Greatest game on earth", "work_id": 68198, "role": "co-producers/directors", "role_id": 628, "is_primary": true}, {"id": 918247, "title": "Burwood Teachers' College", "work_id": 95665, "role": "co-producers/directors", "role_id": 628, "is_primary": true}, {"id": 746189, "title": "The Land that waited", "work_id": 69492, "role": "director", "role_id": 938, "is_primary": true}, {"id": 746388, "title": "The Legend of Damien Parer", "work_id": 69584, "role": "director", "role_id": 938, "is_primary": true}, {"id": 2761808, "title": "Tomorrow and yesterday", "work_id": 76968, "role": "producer", "role_id": 1089, "is_primary": true}, {"id": 2645966, "title": "Personnel or people?", "work_id": 71496, "role": "producer", "role_id": 1089, "is_primary": true}, {"id": 1812774, "title": "To run", "work_id": 73882, "role": "producer", "role_id": 1089, "is_primary": true}, {"id": 1816237, "title": "Stronger since the war?", "work_id": 75293, "role": "producer", "role_id": 1089, "is_primary": true}, {"id": 2181991, "title": "Outlook: the line", "work_id": 69746, "role": "producer", "role_id": 1089, "is_primary": true}, {"id": 2714141, "title": "Four in every thousand", "work_id": 67763, "role": "producer", "role_id": 1089, "is_primary": true}, {"id": 2713837, "title": "Flash point", "work_id": 67614, "role": "producer", "role_id": 1089, "is_primary": true}, {"id": 2679466, "title": "The Challenge", "work_id": 65918, "role": "producer", "role_id": 1089, "is_primary": true}, {"id": 2761813, "title": "Lifetime employment", "work_id": 76980, "role": "producer", "role_id": 1089, "is_primary": true}, {"id": 1820018, "title": "Where dead men lie", "work_id": 75163, "role": "producer", "role_id": 1089, "is_primary": true}, {"id": 2392196, "title": "Three To Go: Toula", "work_id": 73792, "role": "producer", "role_id": 1089, "is_primary": true}, {"id": 1804164, "title": "Single file", "work_id": 75520, "role": "producer", "role_id": 1089, "is_primary": true}, {"id": 2591899, "title": "Three to go: Michael", "work_id": 73791, "role": "producer", "role_id": 1089, "is_primary": true}, {"id": 2392188, "title": "Three to go: Judy", "work_id": 73790, "role": "producer", "role_id": 1089, "is_primary": true}, {"id": 2311179, "title": "Turnover", "work_id": 74096, "role": "producer", "role_id": 1089, "is_primary": true}, {"id": 2392315, "title": "A Man's life is his own affair", "work_id": 75094, "role": "producer", "role_id": 1089, "is_primary": true}, {"id": 2311161, "title": "Stirring the pool", "work_id": 73203, "role": "producer", "role_id": 1089, "is_primary": true}, {"id": 2392283, "title": "Where are we heading", "work_id": 74676, "role": "producer", "role_id": 1089, "is_primary": true}, {"id": 2761821, "title": "Raw fish and pickle", "work_id": 76983, "role": "producer", "role_id": 1089, "is_primary": true}, {"id": 2761827, "title": "A Working couple", "work_id": 76987, "role": "producer", "role_id": 1089, "is_primary": true}, {"id": 2761836, "title": "The Career escalator", "work_id": 76976, "role": "producer", "role_id": 1089, "is_primary": true}, {"id": 2677862, "title": "Australian [colour] diary. No. 037. Country jazz", "work_id": 65097, "role": "producer", "role_id": 1089, "is_primary": true}, {"id": 2677865, "title": "Australian [colour] diary. No. 039", "work_id": 65099, "role": "producer", "role_id": 1089, "is_primary": true}, {"id": 1809728, "title": "Choosing a theme and matching a style: 'The Gallery'", "work_id": 73324, "role": "producer", "role_id": 1089, "is_primary": true}, {"id": 3106007, "title": "Bullocky", "work_id": 75146, "role": "producer", "role_id": 1089, "is_primary": true}, {"id": 1808249, "title": "The Line", "work_id": 87935, "role": "producer", "role_id": 1089, "is_primary": true}, {"id": 2761802, "title": "The Rice ladle", "work_id": 76967, "role": "producer", "role_id": 1089, "is_primary": true}, {"id": 1811170, "title": "Case of the hidden factor", "work_id": 96107, "role": "producer", "role_id": 1089, "is_primary": true}, {"id": 2043038, "title": "The Gallery", "work_id": 75292, "role": "producer", "role_id": 1089, "is_primary": true}, {"id": 2767507, "title": "You'd have to be mad to like opera", "work_id": 75013, "role": "producer", "role_id": 1089, "is_primary": true}, {"id": 1811976, "title": "Suggest a better way", "work_id": 73351, "role": "producer", "role_id": 1089, "is_primary": true}, {"id": 2646642, "title": "Time and place", "work_id": 73830, "role": "producer", "role_id": 1089, "is_primary": true}, {"id": 750724, "title": "The Pipes of Para", "work_id": 71584, "role": "producer/director", "role_id": 31, "is_primary": true}, {"id": 860040, "title": "Two trumpets for St Andrew", "work_id": 74126, "role": "producer/director", "role_id": 31, "is_primary": true}, {"id": 853508, "title": "Interaction: music and painting", "work_id": 68988, "role": "producer/director", "role_id": 31, "is_primary": true}, {"id": 2760720, "title": "Russell Drysdale", "work_id": 96454, "role": "producer/director", "role_id": 31, "is_primary": true}, {"id": 2212301, "title": "Dusty", "work_id": 80071, "role": "production company", "role_id": 941, "is_primary": true}, {"id": 1903000, "title": "Late Winter to Early Spring", "work_id": 69517, "role": "script", "role_id": 962, "is_primary": false}], "also_known_as": "", "date_of_birth": "1932-04-09", "date_of_death": "2018-04-01", "genders": [{"id": 9, "name": "Male", "slug": "male"}], "languages": [], "places_of_operation": [{"id": 3, "name": "Australia", "slug": "australia"}], "biography": "Gilbert John Brealey  (9 April 1932 – 1 April 2018) was an Australian television and film director, producer and writer.\nBrealey was born in Melbourne, and studied at the University of Melbourne, where he made his first amateur films around the age of 20. He was a member of the Melbourne University film society and was a speaker at the Eisenstein Weekend organised by the WEA Film Study Group in October 1963. He began his directing career in television in the 1960s with the Australian Broadcasting Commission (later the Australian Broadcasting Corporation), where he worked for approximately eight years. His notable credits there include Australia's first science fiction TV series The Stranger (1964–65) and the 1965 TV miniseries adaptation of the George Johnston novel My Brother Jack.  He wrote and directed a satire Say Bow Wow. He directed three films for the Intertel series on Japan, Israel, and Malta.\nHe had a brief exchange visit with Universal Pictures in 1968, and in 1969 head of production Richard Mason approached him to join the Commonwealth Film Unit (later Film Australia, now Screen Australia) as a documentary film producer. His credits include the AFI Award-winning documentary short Bullocky and the three-part 'omnibus' film Three To Go (1971), which includes segments by emerging directors Peter Weir and Brian Hannett.In 1972 he was appointed founding director/chairman of the South Australian Film Corporation, a role he held until 1976. In this time Brealey co-produced the acclaimed  Sunday Too Far Away (1975), the film that launched the career of actor Jack Thompson.In 1976 Brealey was appointed Officer of the Order of Australia for his services to the Australian Film Industry.In 1977, he completed a report on film production by the Tasmanian government, and was appointed founding chair of the Tasmanian Film Corporation. In this role he co-produced the film Manganinnie.\nIn 1984, Brealey directed Annie's Coming Out (released in America as Test of Love) for Film Australia. The movie won the 1984 Australian Film Institute awards for best film, best female actor, and best adapted screenplay.In a career of 42 years in the Australian film industry he wrote, produced or directed one hundred productions and won the top prize at the AFI awards five times.\nBrealey died on 1 April 2018, aged 85.", "biography_author": "Wikidata", "date_of_biography": "2023-09-05T20:11:42.958888+10:00", "external_links": [{"id": 4067, "uri": "https://en.wikipedia.org/wiki/Gil_Brealey"}], "uuid": "b311d8dd-25d5-4677-94a3-fb604bc18f39", "source": {"name": "Vernon", "slug": "vernon"}, "source_identifier": "3860", "external_references": [{"id": 25387, "source": {"name": "Wikidata", "slug": "wikidata"}, "source_identifier": "Q5560473"}, {"id": 28671, "source": {"name": "VIAF", "slug": "viaf"}, "source_identifier": "94638613"}], "date_modified": "2025-10-01T20:39:26.888020+10:00"}, {"id": 12063, "name": "Kip Porteous", "roles_in_work": [{"id": 2755248, "title": "Bark canoe", "work_id": 65231, "role": "executive producer", "role_id": 916, "is_primary": false}, {"id": 2760717, "title": "Rupert Murdoch", "work_id": 67595, "role": "producer", "role_id": 1089, "is_primary": true}, {"id": 2760712, "title": "Five Australians: Richard Walsh", "work_id": 67594, "role": "producer", "role_id": 1089, "is_primary": true}, {"id": 2676462, "title": "Action stations", "work_id": 111402, "role": "producer", "role_id": 1089, "is_primary": true}, {"id": 2715999, "title": "I, the Aboriginal", "work_id": 68726, "role": "producer", "role_id": 1089, "is_primary": true}, {"id": 2646137, "title": "Remarkable Occurrences: being the life and journeys of Captain James Cook", "work_id": 72129, "role": "producer", "role_id": 1089, "is_primary": true}, {"id": 2679452, "title": "A Century or the sack", "work_id": 65910, "role": "producer", "role_id": 1089, "is_primary": true}, {"id": 1805299, "title": "Say bow-wow", "work_id": 72498, "role": "producer", "role_id": 1089, "is_primary": true}, {"id": 1806926, "title": "The Big fellow", "work_id": 96318, "role": "producer", "role_id": 1089, "is_primary": true}, {"id": 1803447, "title": "The Legend of Damien Parer", "work_id": 69584, "role": "producer", "role_id": 1089, "is_primary": true}], "also_known_as": "", "date_of_birth": "", "date_of_death": "", "genders": [], "languages": [], "places_of_operation": [], "biography": "", "biography_author": null, "date_of_biography": "2023-07-05T03:51:55.151752+10:00", "external_links": [], "uuid": "93a3e88c-7044-4761-bc05-9cd7086cbae4", "source": {"name": "Vernon", "slug": "vernon"}, "source_identifier": "23355", "external_references": [{"id": 34296, "source": {"name": "Wikidata", "slug": "wikidata"}, "source_identifier": "Q121271440"}], "date_modified": "2025-03-14T17:27:37.055522+11:00"}, {"id": 12062, "name": "Dudley Robinson", "roles_in_work": [{"id": 2676455, "title": "Action loop", "work_id": 111401, "role": "director", "role_id": 938, "is_primary": true}, {"id": 825541, "title": "Blueprint for the future: Melbourne 1985", "work_id": 95899, "role": "director", "role_id": 938, "is_primary": true}, {"id": 2677319, "title": "Another day of healing", "work_id": 64805, "role": "cinematographer", "role_id": 32, "is_primary": false}, {"id": 746685, "title": "Light the empty places", "work_id": 69730, "role": "cinematographer", "role_id": 32, "is_primary": false}], "also_known_as": "", "date_of_birth": "", "date_of_death": "", "genders": [], "languages": [], "places_of_operation": [], "biography": "", "biography_author": null, "date_of_biography": "2023-08-11T14:07:44.641918+10:00", "external_links": [], "uuid": "8c509950-9cee-4d00-b1d8-67a8b577f850", "source": {"name": "Vernon", "slug": "vernon"}, "source_identifier": "18453", "external_references": [], "date_modified": "2025-03-06T23:17:01.446649+11:00"}, {"id": 12061, "name": "Melbourne Underground Rail Loop Authority", "roles_in_work": [{"id": 2676451, "title": "Action loop", "work_id": 111401, "role": "production company", "role_id": 941, "is_primary": true}], "also_known_as": "", "date_of_birth": "", "date_of_death": "", "genders": [], "languages": [], "places_of_operation": [], "biography": "", "biography_author": null, "date_of_biography": "2023-08-11T13:27:38.122387+10:00", "external_links": [], "uuid": "e7064b6a-5358-431e-9465-7a3c0e66bfbb", "source": {"name": "Vernon", "slug": "vernon"}, "source_identifier": "10452", "external_references": [], "date_modified": "2025-03-06T23:05:31.019246+11:00"}, {"id": 12060, "name": "Filmpartnership", "roles_in_work": [{"id": 2647988, "title": "The Water waster", "work_id": 77965, "role": "production company", "role_id": 941, "is_primary": true}, {"id": 2678963, "title": "Building Sugarloaf Dam", "work_id": 65665, "role": "production company", "role_id": 941, "is_primary": true}, {"id": 754478, "title": "Streams of our city", "work_id": 73290, "role": "production company", "role_id": 941, "is_primary": true}, {"id": 854445, "title": "Life is for living", "work_id": 69694, "role": "production company", "role_id": 941, "is_primary": true}, {"id": 747377, "title": "Making sure-footed friends", "work_id": 70051, "role": "production company", "role_id": 941, "is_primary": true}, {"id": 856141, "title": "Not just a herd", "work_id": 70991, "role": "production company", "role_id": 941, "is_primary": true}, {"id": 863148, "title": "Their bridge again: restoration of the Tasman Bridge", "work_id": 76865, "role": "production company", "role_id": 941, "is_primary": true}, {"id": 1903868, "title": "Werribee: in harmony with nature", "work_id": 75864, "role": "production company", "role_id": 941, "is_primary": true}, {"id": 2676452, "title": "Action loop", "work_id": 111401, "role": "production company", "role_id": 941, "is_primary": true}, {"id": 2750511, "title": "Changes", "work_id": 97371, "role": "production company", "role_id": 941, "is_primary": true}, {"id": 2645142, "title": "I think I cry every day", "work_id": 68728, "role": "production company", "role_id": 941, "is_primary": true}, {"id": 2715350, "title": "Help me find myself", "work_id": 68394, "role": "production company", "role_id": 941, "is_primary": true}], "also_known_as": "", "date_of_birth": "", "date_of_death": "", "genders": [], "languages": [], "places_of_operation": [], "biography": "", "biography_author": null, "date_of_biography": "2023-08-11T13:27:37.495002+10:00", "external_links": [], "uuid": "9aba1a22-c524-4c91-9449-633a2a1d2464", "source": {"name": "Vernon", "slug": "vernon"}, "source_identifier": "8286", "external_references": [], "date_modified": "2025-03-13T00:25:03.529595+11:00"}, {"id": 12059, "name": "John Abbott", "roles_in_work": [{"id": 754049, "title": "Splendours of Britain", "work_id": 73107, "role": "director", "role_id": 938, "is_primary": true}, {"id": 3104282, "title": "Action in Vietnam", "work_id": 111400, "role": "director", "role_id": 938, "is_primary": true}, {"id": 1683693, "title": "People of the cities", "work_id": 71453, "role": "co-producer", "role_id": 915, "is_primary": true}, {"id": 1683688, "title": "The Russians", "work_id": 75976, "role": "co-producer", "role_id": 915, "is_primary": true}, {"id": 2768373, "title": "People of influence", "work_id": 71450, "role": "co-producer", "role_id": 915, "is_primary": true}, {"id": 2749331, "title": "The Pentridge experience. Part 1", "work_id": 96745, "role": "producer/director", "role_id": 31, "is_primary": true}, {"id": 2749333, "title": "The Pentridge experience. Part 2", "work_id": 96746, "role": "producer/director", "role_id": 31, "is_primary": true}], "also_known_as": "", "date_of_birth": "", "date_of_death": "", "genders": [], "languages": [], "places_of_operation": [], "biography": "", "biography_author": null, "date_of_biography": "2023-08-09T03:41:02.951437+10:00", "external_links": [], "uuid": "6829e958-b2bf-411f-8ed0-a11cfb3ed0c9", "source": {"name": "Vernon", "slug": "vernon"}, "source_identifier": "22091", "external_references": [{"id": 41165, "source": {"name": "Wikidata", "slug": "wikidata"}, "source_identifier": "Q121126863"}], "date_modified": "2025-05-22T22:35:06.088457+10:00"}, {"id": 12057, "name": "Department of the Army", "roles_in_work": [{"id": 3104280, "title": "Action in Vietnam", "work_id": 111400, "role": "production company", "role_id": 941, "is_primary": true}], "also_known_as": "", "date_of_birth": "", "date_of_death": "", "genders": [], "languages": [], "places_of_operation": [], "biography": "", "biography_author": null, "date_of_biography": "2023-08-09T03:41:01.677761+10:00", "external_links": [], "uuid": "d8c546b9-b0e6-47be-9f0c-c4d06b0a255d", "source": {"name": "Vernon", "slug": "vernon"}, "source_identifier": "7460", "external_references": [], "date_modified": "2025-05-22T22:35:04.851412+10:00"}, {"id": 12056, "name": "Greg Reading", "roles_in_work": [{"id": 2676632, "title": "Teaching english by the situational method: an advanced structure", "work_id": 64539, "role": "director", "role_id": 938, "is_primary": true}, {"id": 2676841, "title": "After the Flood", "work_id": 64587, "role": "director", "role_id": 938, "is_primary": true}, {"id": 2676431, "title": "Action in reserve", "work_id": 111399, "role": "director", "role_id": 938, "is_primary": true}, {"id": 2760645, "title": "Living together", "work_id": 79028, "role": "director", "role_id": 938, "is_primary": true}, {"id": 2760879, "title": "Sky bridges", "work_id": 72894, "role": "director", "role_id": 938, "is_primary": true}, {"id": 2392038, "title": "The Rail way", "work_id": 72036, "role": "director", "role_id": 938, "is_primary": true}, {"id": 758431, "title": "You don't have to be mad", "work_id": 75008, "role": "director", "role_id": 938, "is_primary": true}, {"id": 2392894, "title": "Taxi", "work_id": 96300, "role": "director", "role_id": 938, "is_primary": true}, {"id": 2392424, "title": "Drinking driving surviving", "work_id": 75391, "role": "director", "role_id": 938, "is_primary": true}, {"id": 2392494, "title": "Citizen soldier", "work_id": 76096, "role": "director", "role_id": 938, "is_primary": true}, {"id": 864131, "title": "Roadcraft", "work_id": 77748, "role": "director", "role_id": 938, "is_primary": true}, {"id": 2714142, "title": "Four in every thousand", "work_id": 67763, "role": "director", "role_id": 938, "is_primary": true}, {"id": 2680963, "title": "A Day in Perth", "work_id": 66637, "role": "director", "role_id": 938, "is_primary": true}, {"id": 751310, "title": "Probing the continental margin", "work_id": 71859, "role": "director", "role_id": 938, "is_primary": true}, {"id": 2391936, "title": "Not to lose you my language: bilingual education in the Northern Territory = Wangka walytjalampa titu ngaranytjaku", "work_id": 70994, "role": "director", "role_id": 938, "is_primary": true}, {"id": 2379636, "title": "A Voice to be heard", "work_id": 74418, "role": "director", "role_id": 938, "is_primary": true}, {"id": 2194179, "title": "Disasters: national preparedness", "work_id": 76781, "role": "director", "role_id": 938, "is_primary": true}, {"id": 776812, "title": "Settlers in a far, far land: Muslims in Australia", "work_id": 81810, "role": "director", "role_id": 938, "is_primary": true}, {"id": 2646228, "title": "SAS!", "work_id": 72483, "role": "director", "role_id": 938, "is_primary": true}, {"id": 2648207, "title": "Streets are for sharing", "work_id": 78547, "role": "director", "role_id": 938, "is_primary": true}, {"id": 2785037, "title": "Estuary", "work_id": 99195, "role": "director", "role_id": 938, "is_primary": true}, {"id": 2785025, "title": "Shore", "work_id": 99198, "role": "director", "role_id": 938, "is_primary": true}, {"id": 2760642, "title": "Learning about life", "work_id": 79027, "role": "director", "role_id": 938, "is_primary": true}, {"id": 2760655, "title": "Beliefs, values and customs", "work_id": 78719, "role": "director", "role_id": 938, "is_primary": true}, {"id": 2785106, "title": "The Little world of Dietmar Fill", "work_id": 115293, "role": "director", "role_id": 938, "is_primary": true}, {"id": 2785091, "title": "The Vision", "work_id": 99199, "role": "director", "role_id": 938, "is_primary": true}, {"id": 2785047, "title": "The Survivor", "work_id": 82764, "role": "director", "role_id": 938, "is_primary": true}, {"id": 2752758, "title": "Drink-driving education", "work_id": 98442, "role": "co-director", "role_id": 959, "is_primary": true}, {"id": 2785009, "title": "Coral reef", "work_id": 99194, "role": "director", "role_id": 938, "is_primary": true}], "also_known_as": "", "date_of_birth": "", "date_of_death": "", "genders": [], "languages": [], "places_of_operation": [], "biography": "", "biography_author": null, "date_of_biography": "2023-08-09T04:10:19.836023+10:00", "external_links": [], "uuid": "bc39eb60-3491-42b4-a50d-a07e076fff0b", "source": {"name": "Vernon", "slug": "vernon"}, "source_identifier": "20061", "external_references": [{"id": 37898, "source": {"name": "Wikidata", "slug": "wikidata"}, "source_identifier": "Q121035360"}], "date_modified": "2025-03-14T19:22:57.977981+11:00"}, {"id": 12054, "name": "Betty Edmonds", "roles_in_work": [{"id": 862247, "title": "Building a set", "work_id": 76129, "role": "director", "role_id": 938, "is_primary": true}, {"id": 2676426, "title": "Acting problems", "work_id": 111398, "role": "co-director", "role_id": 959, "is_primary": true}, {"id": 2712122, "title": "Directing a play", "work_id": 66791, "role": "co-director", "role_id": 959, "is_primary": true}, {"id": 895013, "title": "Managing a play", "work_id": 70115, "role": "co-producer", "role_id": 915, "is_primary": true}, {"id": 894993, "title": "Make-up for boys", "work_id": 70018, "role": "co-producer", "role_id": 915, "is_primary": true}, {"id": 2355157, "title": "The Hunchback of Notre-Dame = Notre Dame de Paris", "work_id": 93063, "role": "co-producer", "role_id": 915, "is_primary": true}, {"id": 2111920, "title": "Belle de Jour", "work_id": 84597, "role": "co-producer", "role_id": 915, "is_primary": true}, {"id": 894998, "title": "Make-up for girls", "work_id": 70019, "role": "co-producer", "role_id": 915, "is_primary": true}, {"id": 2644519, "title": "Designing a set", "work_id": 66730, "role": "co-producers/directors", "role_id": 628, "is_primary": true}], "also_known_as": "", "date_of_birth": "", "date_of_death": "", "genders": [], "languages": [], "places_of_operation": [], "biography": "", "biography_author": null, "date_of_biography": "2023-05-09T20:02:47.885239+10:00", "external_links": [], "uuid": "4492342c-6ecc-4a99-bb56-5be45a433499", "source": {"name": "Vernon", "slug": "vernon"}, "source_identifier": "3936", "external_references": [{"id": 32844, "source": {"name": "Wikidata", "slug": "wikidata"}, "source_identifier": "Q121159983"}], "date_modified": "2025-03-12T00:11:02.761652+11:00"}]}