{"count": 28682, "next": "https://api.acmi.net.au/creators/?page=626", "previous": "https://api.acmi.net.au/creators/?page=624", "results": [{"id": 79329, "name": "Johnnie To", "roles_in_work": [{"id": 914206, "title": "Full time killer = Fulltime killer = Chuen jik sat sau", "work_id": 93688, "role": "co-director", "role_id": 959, "is_primary": true}, {"id": 914204, "title": "Full time killer = Fulltime killer = Chuen jik sat sau", "work_id": 93688, "role": "co-producer", "role_id": 915, "is_primary": true}, {"id": 2258921, "title": "Running out of time", "work_id": 90397, "role": "producer/director", "role_id": 31, "is_primary": true}], "also_known_as": "", "date_of_birth": "1955-04-22", "date_of_death": "", "genders": [{"id": 9, "name": "Male", "slug": "male"}], "languages": [{"id": 14, "name": "Chinese", "slug": "chinese"}], "places_of_operation": [{"id": 28, "name": "Hong Kong", "slug": "hong-kong"}], "biography": "Johnnie To Kei-fung (born 22 April 1955) is a Hong Kong film director, screenwriter and film producer. Popular in his native Hong Kong, To has also found acclaim overseas. Intensely prolific, To has made films in a variety of genres, though in the West he is best known for his action and crime movies, which have earned him critical respect and a cult following, which includes American filmmaker Quentin Tarantino.To's biggest international successes include Breaking News, Election, Election 2 (a.k.a. Triad Election), Exiled, Mad Detective and Drug War; these films have appeared in a number of international film festivals, been distributed theatrically in France and the United States, and been widely sold to foreign countries.\nHis films, often made in collaboration with the same group of actors, screenwriters and cinematographers, frequently explore themes of friendship, fate and the changing face of Hong Kong society. Sometimes described as \"multifaceted and chameleonic\" due to his ability to switch tones and genres between movies, To is nonetheless seen as having a consistent style, which involves mixing subdued realism and social observation with highly stylised visual and acting elements. To has cited King Hu as the director who has influenced his work the most.To heads the Hong Kong-based production company Milkyway Image with his frequent co-director Wai Ka-Fai.", "biography_author": "Wikidata", "date_of_biography": "2023-08-01T15:40:24.745981+10:00", "external_links": [{"id": 4420, "uri": "https://en.wikipedia.org/wiki/Johnnie_To"}], "uuid": "08ba810f-6253-4637-a87e-01da8e6b6daa", "source": {"name": "Vernon", "slug": "vernon"}, "source_identifier": "22596", "external_references": [{"id": 26359, "source": {"name": "Wikidata", "slug": "wikidata"}, "source_identifier": "Q470104"}, {"id": 29605, "source": {"name": "VIAF", "slug": "viaf"}, "source_identifier": "85765295"}, {"id": 29606, "source": {"name": "LOC Auth", "slug": "loc-auth"}, "source_identifier": "no2001058584"}, {"id": 29607, "source": {"name": "WorldCat", "slug": "worldcat"}, "source_identifier": "lccn-no2001058584"}], "date_modified": "2023-09-05T21:46:42.770433+10:00"}, {"id": 79328, "name": "Jason Patric", "roles_in_work": [{"id": 2281510, "title": "Your friends and neighbors", "work_id": 90394, "role": "co-producer", "role_id": 915, "is_primary": true}], "also_known_as": "Jason Patric Miller Jr.", "date_of_birth": "1966-06-17", "date_of_death": "", "genders": [{"id": 9, "name": "Male", "slug": "male"}], "languages": [{"id": 1, "name": "English", "slug": "english"}], "places_of_operation": [{"id": 1, "name": "United States of America", "slug": "united-states-of-america"}], "biography": "Jason Patric (born June 17, 1966) is an American film, television and stage actor. He is known for his roles in films such as The Lost Boys, Rush,  Sleepers, Geronimo: An American Legend, Your Friends & Neighbors, Narc, The Losers, The Alamo, and Speed 2: Cruise Control. His father was actor/playwright Jason Miller and his maternal grandfather was actor Jackie Gleason.", "biography_author": "Wikidata", "date_of_biography": "2023-08-01T15:24:49.266235+10:00", "external_links": [{"id": 4278, "uri": "https://en.wikipedia.org/wiki/Jason_Patric"}], "uuid": "c62ca9ae-b003-44e9-8fe6-f4eb749f4c61", "source": {"name": "Vernon", "slug": "vernon"}, "source_identifier": "21496", "external_references": [{"id": 26560, "source": {"name": "Wikidata", "slug": "wikidata"}, "source_identifier": "Q361412"}, {"id": 29241, "source": {"name": "VIAF", "slug": "viaf"}, "source_identifier": "80818221"}, {"id": 29242, "source": {"name": "LOC Auth", "slug": "loc-auth"}, "source_identifier": "nr97024823"}, {"id": 29243, "source": {"name": "WorldCat", "slug": "worldcat"}, "source_identifier": "lccn-nr97024823"}], "date_modified": "2023-09-05T21:09:42.137910+10:00"}, {"id": 79327, "name": "Hugh Wallace", "roles_in_work": [{"id": 2757262, "title": "White safari", "work_id": 90390, "role": "director", "role_id": 938, "is_primary": true}], "also_known_as": "", "date_of_birth": "", "date_of_death": "", "genders": [], "languages": [], "places_of_operation": [], "biography": "", "biography_author": null, "date_of_biography": "2023-05-09T19:33:52.305239+10:00", "external_links": [], "uuid": "8b40ac59-4abe-4caa-9298-381e2bea8155", "source": {"name": "Vernon", "slug": "vernon"}, "source_identifier": "20696", "external_references": [{"id": 36748, "source": {"name": "Wikidata", "slug": "wikidata"}, "source_identifier": "Q121143820"}], "date_modified": "2025-03-13T14:44:22.340551+11:00"}, {"id": 79326, "name": "David McLeod", "roles_in_work": [{"id": 876970, "title": "Tregatay Tracadie: river through time", "work_id": 90386, "role": "director", "role_id": 938, "is_primary": true}], "also_known_as": "", "date_of_birth": null, "date_of_death": null, "genders": [], "languages": [], "places_of_operation": [], "biography": "", "biography_author": null, "date_of_biography": null, "external_links": [], "uuid": "546d7844-b550-4f38-aa3f-571eecfd5ee0", "source": {"name": "Vernon", "slug": "vernon"}, "source_identifier": null, "external_references": [{"id": 37627, "source": {"name": "Wikidata", "slug": "wikidata"}, "source_identifier": "Q121035767"}], "date_modified": "2023-09-05T19:00:21.189162+10:00"}, {"id": 79325, "name": "James Rottboll", "roles_in_work": [{"id": 2210688, "title": "Porter's magic dreams", "work_id": 90381, "role": "director", "role_id": 938, "is_primary": true}], "also_known_as": "", "date_of_birth": "", "date_of_death": "", "genders": [], "languages": [], "places_of_operation": [], "biography": "", "biography_author": null, "date_of_biography": "2023-05-09T15:44:50.450521+10:00", "external_links": [], "uuid": "afee55c3-a345-4373-a05a-eacd3fbad7a5", "source": {"name": "Vernon", "slug": "vernon"}, "source_identifier": "21317", "external_references": [{"id": 38418, "source": {"name": "Wikidata", "slug": "wikidata"}, "source_identifier": "Q121035742"}], "date_modified": "2023-09-05T21:04:59.717413+10:00"}, {"id": 79324, "name": "Allan Kroeker", "roles_in_work": [{"id": 2474849, "title": "The Pedlar", "work_id": 90380, "role": "director", "role_id": 938, "is_primary": true}], "also_known_as": "", "date_of_birth": "1951-04-10", "date_of_death": "", "genders": [{"id": 9, "name": "Male", "slug": "male"}], "languages": [{"id": 1, "name": "English", "slug": "english"}], "places_of_operation": [{"id": 36, "name": "Canada", "slug": "canada"}], "biography": "Allan Kroeker (born April 10, 1951, in Winnipeg, Manitoba) is a Canadian film and television director, cinematographer, screenwriter, film editor and film producer. He has the distinction of directing the series finales for Star Trek: Deep Space Nine, Star Trek: Voyager and Star Trek: Enterprise. He has also directed TV movies and episodic television.\nKroeker grew up in Winnipeg where he began his career producing films for the Mennonite Brethren Church and the Mennonite Central Committee.", "biography_author": "Wikidata", "date_of_biography": "2023-09-05T17:29:26.370948+10:00", "external_links": [{"id": 3531, "uri": "https://en.wikipedia.org/wiki/Allan_Kroeker"}], "uuid": "0eddb73e-c3d5-40ad-8b69-3bd5947261d6", "source": {"name": "Vernon", "slug": "vernon"}, "source_identifier": "15012", "external_references": [{"id": 26616, "source": {"name": "Wikidata", "slug": "wikidata"}, "source_identifier": "Q2837732"}, {"id": 27205, "source": {"name": "VIAF", "slug": "viaf"}, "source_identifier": "92877728"}, {"id": 27206, "source": {"name": "LOC Auth", "slug": "loc-auth"}, "source_identifier": "no2009114616"}, {"id": 27207, "source": {"name": "WorldCat", "slug": "worldcat"}, "source_identifier": "lccn-no2009114616"}], "date_modified": "2023-09-05T17:29:26.381519+10:00"}, {"id": 79323, "name": "E. Dean Parmelee", "roles_in_work": [{"id": 2410081, "title": "How you see; How the telephone talks", "work_id": 90357, "role": "co-producer", "role_id": 915, "is_primary": true}], "also_known_as": "", "date_of_birth": "", "date_of_death": "", "genders": [], "languages": [], "places_of_operation": [], "biography": "", "biography_author": null, "date_of_biography": "2023-08-11T17:35:21.563638+10:00", "external_links": [], "uuid": "62a828ce-87c7-4535-9c4d-4748b2f349b1", "source": {"name": "Vernon", "slug": "vernon"}, "source_identifier": "18486", "external_references": [{"id": 42078, "source": {"name": "Wikidata", "slug": "wikidata"}, "source_identifier": "Q121270934"}], "date_modified": "2023-09-05T19:22:29.915012+10:00"}, {"id": 79322, "name": "F. Lyle Goldman", "roles_in_work": [{"id": 2410080, "title": "How you see; How the telephone talks", "work_id": 90357, "role": "co-producer", "role_id": 915, "is_primary": true}], "also_known_as": "", "date_of_birth": "", "date_of_death": "", "genders": [], "languages": [], "places_of_operation": [], "biography": "", "biography_author": null, "date_of_biography": "2023-08-11T17:35:20.937491+10:00", "external_links": [], "uuid": "b4c99023-ae1d-4c35-a4d2-d2a04bc48d92", "source": {"name": "Vernon", "slug": "vernon"}, "source_identifier": "18946", "external_references": [{"id": 39854, "source": {"name": "Wikidata", "slug": "wikidata"}, "source_identifier": "Q121299370"}], "date_modified": "2023-09-05T19:39:09.798887+10:00"}, {"id": 79321, "name": "Hugo Riesenfeld", "roles_in_work": [{"id": 909638, "title": "Hungarian Rhapsody", "work_id": 90351, "role": "co-producer", "role_id": 915, "is_primary": true}], "also_known_as": "", "date_of_birth": "1879-01-26", "date_of_death": "1939-09-10", "genders": [{"id": 9, "name": "Male", "slug": "male"}], "languages": [{"id": 5, "name": "German", "slug": "german"}], "places_of_operation": [{"id": 39, "name": "Austria", "slug": "austria"}], "biography": "Hugo Riesenfeld (January 26, 1879 – September 10, 1939) was an Austrian-American composer. As a film director, he began to write his own orchestral compositions for silent films in 1917, and co-created modern production techniques where film scoring serves an integral part of the action. Riesenfeld composed about 100 film scores in his career.\nHis most successful compositions were for Cecil B. DeMille's Joan the Woman (1917), The Ten Commandments (1923) and The King of Kings (1927); D. W. Griffith's Abraham Lincoln (1930); and the original scores to F. W. Murnau's Sunrise: A Song of Two Humans (1927) and Tabu (1931).", "biography_author": "Wikidata", "date_of_biography": "2023-08-01T15:13:45.685550+10:00", "external_links": [{"id": 4179, "uri": "https://en.wikipedia.org/wiki/Hugo_Riesenfeld"}], "uuid": "d6917556-fe03-4793-944b-2d225a02d92c", "source": {"name": "Vernon", "slug": "vernon"}, "source_identifier": "20702", "external_references": [{"id": 25234, "source": {"name": "Wikidata", "slug": "wikidata"}, "source_identifier": "Q79043"}, {"id": 28974, "source": {"name": "VIAF", "slug": "viaf"}, "source_identifier": "15065823"}, {"id": 28975, "source": {"name": "LOC Auth", "slug": "loc-auth"}, "source_identifier": "n87847049"}, {"id": 28976, "source": {"name": "WorldCat", "slug": "worldcat"}, "source_identifier": "lccn-n87847049"}], "date_modified": "2023-09-05T20:44:11.910179+10:00"}, {"id": 79320, "name": "Kristin Weingartner", "roles_in_work": [{"id": 909632, "title": "What teacher expects...the self fulfilling prophecy", "work_id": 90334, "role": "co-director", "role_id": 959, "is_primary": true}], "also_known_as": "", "date_of_birth": null, "date_of_death": null, "genders": [], "languages": [], "places_of_operation": [], "biography": "", "biography_author": null, "date_of_biography": null, "external_links": [], "uuid": "331961ed-03a2-45cc-801f-9d2c4f835e60", "source": {"name": "Vernon", "slug": "vernon"}, "source_identifier": null, "external_references": [{"id": 33869, "source": {"name": "Wikidata", "slug": "wikidata"}, "source_identifier": "Q121223230"}], "date_modified": "2023-09-05T22:12:07.071136+10:00"}]}