{"count": 28687, "next": "https://api.acmi.net.au/creators/?page=861", "previous": "https://api.acmi.net.au/creators/?page=859", "results": [{"id": 76982, "name": "Graham Cavanagh", "roles_in_work": [{"id": 2774557, "title": "Still on the same way", "work_id": 82191, "role": "producer/director", "role_id": 31, "is_primary": true}, {"id": 2774553, "title": "A Long time dream", "work_id": 82112, "role": "producer/director", "role_id": 31, "is_primary": true}, {"id": 2774516, "title": "Nothing in writing from Captain Cook", "work_id": 81765, "role": "producer/director", "role_id": 31, "is_primary": true}], "also_known_as": "", "date_of_birth": "", "date_of_death": "", "genders": [], "languages": [], "places_of_operation": [], "biography": "", "biography_author": null, "date_of_biography": "2023-07-26T03:35:19.126689+10:00", "external_links": [], "uuid": "a58fcf7c-f426-4089-8306-b8dc253008a2", "source": {"name": "Vernon", "slug": "vernon"}, "source_identifier": "19987", "external_references": [{"id": 51679, "source": {"name": "Wikidata", "slug": "wikidata"}, "source_identifier": "Q121361268"}], "date_modified": "2025-03-14T18:37:53.362380+11:00"}, {"id": 76981, "name": "Leon Ericksen", "roles_in_work": [{"id": 2649568, "title": "M*A*S*H* = Mash (Captioned)", "work_id": 81764, "role": "co-producer", "role_id": 915, "is_primary": true}, {"id": 1998584, "title": "M*A*S*H = Mash (Special edition) [DVD]", "work_id": 93940, "role": "co-producer", "role_id": 915, "is_primary": true}], "also_known_as": "", "date_of_birth": null, "date_of_death": null, "genders": [], "languages": [], "places_of_operation": [], "biography": "", "biography_author": null, "date_of_biography": null, "external_links": [], "uuid": "95a80c69-0405-42c9-961a-eebada0d3913", "source": {"name": "Vernon", "slug": "vernon"}, "source_identifier": "23701", "external_references": [{"id": 33945, "source": {"name": "Wikidata", "slug": "wikidata"}, "source_identifier": "Q121315398"}], "date_modified": "2025-03-05T14:02:55.135943+11:00"}, {"id": 76980, "name": "Ingo Preminger", "roles_in_work": [{"id": 2649567, "title": "M*A*S*H* = Mash (Captioned)", "work_id": 81764, "role": "co-producer", "role_id": 915, "is_primary": true}, {"id": 1998583, "title": "M*A*S*H = Mash (Special edition) [DVD]", "work_id": 93940, "role": "co-producer", "role_id": 915, "is_primary": true}], "also_known_as": "", "date_of_birth": "25 FEB 1911", "date_of_death": "07 JUN 2006", "genders": [{"id": 9, "name": "Male", "slug": "male"}], "languages": [], "places_of_operation": [{"id": 1, "name": "United States of America", "slug": "united-states-of-america"}], "biography": "Ingwald \"Ingo\" Preminger (25 February 1911 – 7 June 2006) was a film producer. He was also the literary agent for several writers, including Dalton Trumbo and Ring Lardner Jr., both of whom were blacklisted in the McCarthy era. He was the brother of actor-director-producer Otto Preminger. Source: Wikidata; 01/08/2023", "biography_author": null, "date_of_biography": "2025-03-05T14:02:54.547061+11:00", "external_links": [{"id": 4197, "uri": "https://en.wikipedia.org/wiki/Ingo_Preminger"}], "uuid": "8977308e-cde5-4c1f-b564-af5317ddc48a", "source": {"name": "Vernon", "slug": "vernon"}, "source_identifier": "20835", "external_references": [{"id": 25254, "source": {"name": "Wikidata", "slug": "wikidata"}, "source_identifier": "Q84719"}, {"id": 29021, "source": {"name": "VIAF", "slug": "viaf"}, "source_identifier": "1823910"}, {"id": 29022, "source": {"name": "LOC Auth", "slug": "loc-auth"}, "source_identifier": "n2001120507"}, {"id": 29023, "source": {"name": "WorldCat", "slug": "worldcat"}, "source_identifier": "lccn-n2001120507"}], "date_modified": "2025-03-05T14:02:54.547368+11:00"}, {"id": 76979, "name": "Marian Redmond", "roles_in_work": [{"id": 2774513, "title": "Lost wax memory", "work_id": 81762, "role": "producer/director", "role_id": 31, "is_primary": true}], "also_known_as": "", "date_of_birth": "", "date_of_death": "", "genders": [], "languages": [], "places_of_operation": [], "biography": "", "biography_author": null, "date_of_biography": "2023-05-09T19:30:00.767507+10:00", "external_links": [], "uuid": "84f730de-8c85-4790-a715-f7dc31afd75b", "source": {"name": "Vernon", "slug": "vernon"}, "source_identifier": "24400", "external_references": [{"id": 51627, "source": {"name": "Wikidata", "slug": "wikidata"}, "source_identifier": "Q121360567"}], "date_modified": "2025-03-14T18:37:24.820366+11:00"}, {"id": 76978, "name": "Peter Hort", "roles_in_work": [{"id": 2776684, "title": "George Orwell: journalist and novelist, 1903-1950", "work_id": 82058, "role": "producer/director", "role_id": 31, "is_primary": true}, {"id": 2776679, "title": "The Bronte sisters", "work_id": 81761, "role": "producer/director", "role_id": 31, "is_primary": true}, {"id": 2776712, "title": "Famous authors", "work_id": 115209, "role": "producer/director", "role_id": 31, "is_primary": true}, {"id": 2650219, "title": "D. H. Lawrence: poet and novelist, 1885-1930", "work_id": 82974, "role": "producer/director", "role_id": 31, "is_primary": true}], "also_known_as": "", "date_of_birth": "", "date_of_death": "", "genders": [], "languages": [], "places_of_operation": [], "biography": "", "biography_author": null, "date_of_biography": "2023-05-09T19:30:31.186640+10:00", "external_links": [], "uuid": "c1ae212b-7963-4fad-9163-268f0e66fc16", "source": {"name": "Vernon", "slug": "vernon"}, "source_identifier": "26582", "external_references": [{"id": 50571, "source": {"name": "Wikidata", "slug": "wikidata"}, "source_identifier": "Q121360562"}], "date_modified": "2025-03-14T18:50:52.355284+11:00"}, {"id": 76977, "name": "Mark Pritchard", "roles_in_work": [{"id": 2649560, "title": "How to paint like a professional: a complete guide to interior painting.", "work_id": 81757, "role": "producer/director", "role_id": 31, "is_primary": true}], "also_known_as": "", "date_of_birth": null, "date_of_death": null, "genders": [], "languages": [], "places_of_operation": [], "biography": "", "biography_author": null, "date_of_biography": null, "external_links": [], "uuid": "59d064db-1baf-4950-8a3d-e3a88fb3ad7c", "source": {"name": "Vernon", "slug": "vernon"}, "source_identifier": "24535", "external_references": [{"id": 51527, "source": {"name": "Wikidata", "slug": "wikidata"}, "source_identifier": "Q121360548"}], "date_modified": "2025-03-05T14:02:50.509868+11:00"}, {"id": 76976, "name": "Herbert Marshall", "roles_in_work": [{"id": 1986050, "title": "The Letter", "work_id": 81731, "role": "cast", "role_id": 33, "is_primary": false}, {"id": 1988474, "title": "The Little foxes", "work_id": 84620, "role": "cast", "role_id": 33, "is_primary": false}], "also_known_as": "", "date_of_birth": "1890-05-23", "date_of_death": "1966-01-22", "genders": [{"id": 9, "name": "Male", "slug": "male"}], "languages": [{"id": 1, "name": "English", "slug": "english"}], "places_of_operation": [{"id": 10, "name": "United Kingdom", "slug": "united-kingdom"}], "biography": "Herbert Brough Falcon Marshall (23 May 1890 – 22 January 1966) was an English stage, screen, and radio actor who starred in many popular and well-regarded Hollywood films in the 1930s and 1940s. After a successful theatrical career in the United Kingdom and North America, he became an in-demand Hollywood leading man, frequently appearing in romantic melodramas and occasional comedies. In his later years, he turned to character acting.\nThe son of actors, Marshall is best remembered for roles in Ernst Lubitsch's Trouble in Paradise (1932), Alfred Hitchcock's Murder! (1930) and Foreign Correspondent (1940), William Wyler's The Letter (1940) and The Little Foxes (1941), Albert Lewin's The Moon and Sixpence (1942), Edmund Goulding's The Razor's Edge (1946), and Kurt Neumann's The Fly (1958). He appeared onscreen with many of the most prominent leading ladies of Hollywood's Golden Age, including Greta Garbo, Marlene Dietrich, Joan Crawford and Bette Davis.\nFrom 1944 to 1952, Marshall starred in his own radio series The Man Called 'X'. Often praised for the quality of his voice, he made numerous radio guest appearances and hosted several shows. He performed on television as well. The actor, known for his charm, married five times and periodically appeared in gossip columns because of his sometimes turbulent private life. A leg amputee due to injuries sustained during the First World War, he worked for the rehabilitation of injured troops, especially aiding amputees like himself, during the Second World War. Marshall received a star on the Hollywood Walk of Fame in 1960.", "biography_author": "Wikidata", "date_of_biography": "2023-08-01T15:11:01.961371+10:00", "external_links": [{"id": 4156, "uri": "https://en.wikipedia.org/wiki/Herbert_Marshall"}], "uuid": "ea74d307-4f3c-4feb-bf61-2cc2c0dee02f", "source": {"name": "Vernon", "slug": "vernon"}, "source_identifier": "857", "external_references": [{"id": 27056, "source": {"name": "Wikidata", "slug": "wikidata"}, "source_identifier": "Q1273317"}, {"id": 28909, "source": {"name": "VIAF", "slug": "viaf"}, "source_identifier": "34652264"}, {"id": 28910, "source": {"name": "LOC Auth", "slug": "loc-auth"}, "source_identifier": "n85262634"}, {"id": 28911, "source": {"name": "WorldCat", "slug": "worldcat"}, "source_identifier": "lccn-n85262634"}], "date_modified": "2023-09-05T20:38:06.434198+10:00"}, {"id": 76975, "name": "Carl O Lofman", "roles_in_work": [{"id": 900914, "title": "The Miracle of life (Captioned)", "work_id": 81730, "role": "co-producers/directors", "role_id": 628, "is_primary": true}, {"id": 902564, "title": "The Miracle of life", "work_id": 83336, "role": "co-producers/directors", "role_id": 628, "is_primary": true}], "also_known_as": "", "date_of_birth": null, "date_of_death": null, "genders": [], "languages": [], "places_of_operation": [], "biography": "", "biography_author": null, "date_of_biography": null, "external_links": [], "uuid": "5dcf40b2-3517-45f2-a0fa-657218ffc434", "source": {"name": "Vernon", "slug": "vernon"}, "source_identifier": null, "external_references": [], "date_modified": "2023-06-14T16:33:30.576250+10:00"}, {"id": 76974, "name": "Bo G. Erikson", "roles_in_work": [{"id": 900913, "title": "The Miracle of life (Captioned)", "work_id": 81730, "role": "co-producers/directors", "role_id": 628, "is_primary": true}, {"id": 902563, "title": "The Miracle of life", "work_id": 83336, "role": "co-producers/directors", "role_id": 628, "is_primary": true}], "also_known_as": "", "date_of_birth": null, "date_of_death": null, "genders": [], "languages": [], "places_of_operation": [], "biography": "", "biography_author": null, "date_of_biography": null, "external_links": [], "uuid": "3a29c4bb-78b9-4d43-9252-b4d0e7a9c8b0", "source": {"name": "Vernon", "slug": "vernon"}, "source_identifier": null, "external_references": [], "date_modified": "2023-06-14T16:33:30.576250+10:00"}, {"id": 76973, "name": "Katherine Gilday", "roles_in_work": [{"id": 2347811, "title": "The Famine within", "work_id": 81726, "role": "producer/director", "role_id": 31, "is_primary": true}], "also_known_as": "", "date_of_birth": "", "date_of_death": "", "genders": [], "languages": [], "places_of_operation": [], "biography": "", "biography_author": null, "date_of_biography": "2023-05-09T19:50:32.648064+10:00", "external_links": [], "uuid": "6785c795-87e4-4c51-a428-aaf758b404a0", "source": {"name": "Vernon", "slug": "vernon"}, "source_identifier": "23072", "external_references": [{"id": 51439, "source": {"name": "Wikidata", "slug": "wikidata"}, "source_identifier": "Q121360663"}], "date_modified": "2023-09-05T22:01:57.790069+10:00"}]}