{"count": 28687, "next": "https://api.acmi.net.au/creators/?page=254", "previous": "https://api.acmi.net.au/creators/?page=252", "results": [{"id": 83077, "name": "Pierre Granier-Deferre", "roles_in_work": [{"id": 3104614, "title": "Le Grand Dadais = the Big Ninny", "work_id": 115999, "role": "director", "role_id": 938, "is_primary": true}, {"id": 3105169, "title": "Les Aventures de Salavin = the Adventures of Salavin", "work_id": 116280, "role": "director", "role_id": 938, "is_primary": true}, {"id": 3105146, "title": "L'etoile du Nord = the North Star", "work_id": 116268, "role": "director", "role_id": 938, "is_primary": true}], "also_known_as": "", "date_of_birth": "1927-07-27", "date_of_death": "2007-11-16", "genders": [{"id": 9, "name": "Male", "slug": "male"}], "languages": [{"id": 4, "name": "French", "slug": "french"}], "places_of_operation": [{"id": 17, "name": "France", "slug": "france"}], "biography": "Pierre Granier-Deferre (27 July 1927 – 16 November 2007) was a French film director and screenwriter\n\nHis 1971 film Le Chat (The Cat) won the Best Actor and Best Actress awards at the 21st Berlin International Film Festival. His 1964 film The Adventures of Salavin won the Silver Shell for Best Actor at the 12th San Sebastian International Film Festival.; 11/08/2023", "biography_author": null, "date_of_biography": "2025-05-22T22:57:19.940464+10:00", "external_links": [{"id": 4921, "uri": "https://en.wikipedia.org/wiki/Pierre_Granier-Deferre"}], "uuid": "b6b1f50f-6b7c-4100-8a2d-05deb86ca879", "source": {"name": "Vernon", "slug": "vernon"}, "source_identifier": "30963", "external_references": [{"id": 24937, "source": {"name": "Wikidata", "slug": "wikidata"}, "source_identifier": "Q533866"}, {"id": 30900, "source": {"name": "VIAF", "slug": "viaf"}, "source_identifier": "118004348"}, {"id": 30901, "source": {"name": "LOC Auth", "slug": "loc-auth"}, "source_identifier": "nr97036604"}, {"id": 30902, "source": {"name": "WorldCat", "slug": "worldcat"}, "source_identifier": "lccn-nr97036604"}], "date_modified": "2025-05-22T22:57:19.940690+10:00"}, {"id": 83076, "name": "Michel Cousin", "roles_in_work": [{"id": 3104613, "title": "Le Grand Dadais = the Big Ninny", "work_id": 115999, "role": "producer", "role_id": 1089, "is_primary": true}], "also_known_as": "", "date_of_birth": "", "date_of_death": "", "genders": [], "languages": [], "places_of_operation": [], "biography": "", "biography_author": null, "date_of_biography": "2023-08-11T19:20:24.164695+10:00", "external_links": [], "uuid": "92aa97aa-15ec-4b86-b8be-a78c2228762d", "source": {"name": "Vernon", "slug": "vernon"}, "source_identifier": "31108", "external_references": [{"id": 33335, "source": {"name": "Wikidata", "slug": "wikidata"}, "source_identifier": "Q121035301"}], "date_modified": "2025-05-22T22:45:25.772198+10:00"}, {"id": 83075, "name": "Georges de la Giraudiere", "roles_in_work": [{"id": 3104609, "title": "Surcouf", "work_id": 115997, "role": "producer", "role_id": 1089, "is_primary": true}], "also_known_as": "", "date_of_birth": "", "date_of_death": "", "genders": [], "languages": [], "places_of_operation": [], "biography": "", "biography_author": null, "date_of_biography": "2023-05-09T19:08:48.764017+10:00", "external_links": [], "uuid": "fd9825cf-dfd0-4a17-8c80-bd99a86813ba", "source": {"name": "Vernon", "slug": "vernon"}, "source_identifier": "31107", "external_references": [{"id": 40360, "source": {"name": "Wikidata", "slug": "wikidata"}, "source_identifier": "Q121126469"}], "date_modified": "2025-05-22T22:45:23.393552+10:00"}, {"id": 83074, "name": "Jean-Pierre Mahot", "roles_in_work": [{"id": 3104779, "title": "Adieu Bonaparte = Al-Wedaa Ya Bonaparte", "work_id": 116078, "role": "producer", "role_id": 1089, "is_primary": true}, {"id": 3104749, "title": "Baton Rouge", "work_id": 116064, "role": "producer", "role_id": 1089, "is_primary": true}, {"id": 3104607, "title": "Le Pont du Nord = North Bridge", "work_id": 115996, "role": "producer", "role_id": 1089, "is_primary": true}], "also_known_as": "", "date_of_birth": "", "date_of_death": "", "genders": [], "languages": [], "places_of_operation": [], "biography": "", "biography_author": null, "date_of_biography": "2023-05-09T12:42:37.475893+10:00", "external_links": [], "uuid": "fd93d2aa-ed27-41b0-9923-6e8b9b4d14f5", "source": {"name": "Vernon", "slug": "vernon"}, "source_identifier": "31106", "external_references": [{"id": 41066, "source": {"name": "Wikidata", "slug": "wikidata"}, "source_identifier": "Q121337041"}], "date_modified": "2025-05-22T22:47:18.647359+10:00"}, {"id": 83073, "name": "Gerard Blain", "roles_in_work": [{"id": 3104603, "title": "Un Enfant Dans la Foule = a Child in the Crowd", "work_id": 115994, "role": "director", "role_id": 938, "is_primary": true}, {"id": 3105105, "title": "Le Pelican = the Pelican", "work_id": 116249, "role": "director", "role_id": 938, "is_primary": true}], "also_known_as": "", "date_of_birth": "1930-10-23", "date_of_death": "2000-12-17", "genders": [{"id": 9, "name": "Male", "slug": "male"}], "languages": [{"id": 4, "name": "French", "slug": "french"}], "places_of_operation": [{"id": 17, "name": "France", "slug": "france"}], "biography": "Gérard Blain (23 October 1930 – 17 December 2000) was a French actor and film director.\n\n", "biography_author": "Wikidata", "date_of_biography": "2023-08-15T11:03:10.086125+10:00", "external_links": [{"id": 2137, "uri": "https://en.wikipedia.org/wiki/G%C3%A9rard_Blain"}], "uuid": "d03e7647-882f-412f-bc8e-4d25e0b590a3", "source": {"name": "Vernon", "slug": "vernon"}, "source_identifier": "31105", "external_references": [{"id": 9203, "source": {"name": "Wikidata", "slug": "wikidata"}, "source_identifier": "Q710654"}, {"id": 9204, "source": {"name": "VIAF", "slug": "viaf"}, "source_identifier": "46949104"}, {"id": 9205, "source": {"name": "LOC Auth", "slug": "loc-auth"}, "source_identifier": "no96064187"}, {"id": 9206, "source": {"name": "WorldCat", "slug": "worldcat"}, "source_identifier": "lccn-no96064187"}], "date_modified": "2025-05-22T22:56:34.196473+10:00"}, {"id": 83072, "name": "R.L. Bruckberger", "roles_in_work": [{"id": 3104601, "title": "Le Dialogue des Carmelites = the Carmelites", "work_id": 115993, "role": "director", "role_id": 938, "is_primary": true}], "also_known_as": "", "date_of_birth": "1907-04-10", "date_of_death": "1998-01-04", "genders": [{"id": 9, "name": "Male", "slug": "male"}], "languages": [{"id": 4, "name": "French", "slug": "french"}], "places_of_operation": [{"id": 17, "name": "France", "slug": "france"}], "biography": "Raymond Léopold Bruckberger (10 April 1907, in Murat, Cantal – 4 January 1998, in Fribourg), was a French Dominican priest, Résistance member, writer, translator, screenwriter and director of Austrian heritage.\nHe was elected member of the Académie des Sciences Morales et Politiques in 1985.", "biography_author": "Wikidata", "date_of_biography": "2023-09-06T00:17:26.781250+10:00", "external_links": [{"id": 2896, "uri": "https://en.wikipedia.org/wiki/Raymond_L%C3%A9opold_Bruckberger"}], "uuid": "ec03aa27-eb50-4d5a-910e-b87ea12942b2", "source": {"name": "Vernon", "slug": "vernon"}, "source_identifier": "31104", "external_references": [{"id": 12316, "source": {"name": "Wikidata", "slug": "wikidata"}, "source_identifier": "Q731141"}, {"id": 12317, "source": {"name": "VIAF", "slug": "viaf"}, "source_identifier": "24598788"}, {"id": 12318, "source": {"name": "LOC Auth", "slug": "loc-auth"}, "source_identifier": "n50041058"}, {"id": 12319, "source": {"name": "WorldCat", "slug": "worldcat"}, "source_identifier": "lccn-n50041058"}], "date_modified": "2025-05-22T22:45:17.482219+10:00"}, {"id": 83071, "name": "Philippe Agostini", "roles_in_work": [{"id": 3105566, "title": "Le Tresor des Hollandais", "work_id": 116512, "role": "director", "role_id": 938, "is_primary": true}, {"id": 3104600, "title": "Le Dialogue des Carmelites = the Carmelites", "work_id": 115993, "role": "director", "role_id": 938, "is_primary": true}, {"id": 3105555, "title": "Dernier Carat", "work_id": 116342, "role": "director", "role_id": 938, "is_primary": true}, {"id": 3105556, "title": "La Fille Aux Yeux D'email", "work_id": 116331, "role": "director", "role_id": 938, "is_primary": true}, {"id": 3105557, "title": "La Substitution", "work_id": 116330, "role": "director", "role_id": 938, "is_primary": true}, {"id": 3105558, "title": "Le 5eme Dessous", "work_id": 116341, "role": "director", "role_id": 938, "is_primary": true}, {"id": 3105559, "title": "Le Dernier Scalp", "work_id": 116337, "role": "director", "role_id": 938, "is_primary": true}, {"id": 3105560, "title": "Le Nouveau Monde", "work_id": 116336, "role": "director", "role_id": 938, "is_primary": true}, {"id": 3105561, "title": "Le Sac a Malices", "work_id": 116340, "role": "director", "role_id": 938, "is_primary": true}, {"id": 3105562, "title": "Les Anges de la Route", "work_id": 116334, "role": "director", "role_id": 938, "is_primary": true}, {"id": 3105563, "title": "Sur les Bords du Saint-Laurent", "work_id": 116339, "role": "director", "role_id": 938, "is_primary": true}, {"id": 3105564, "title": "Un 'diam' Pour Jacinthe", "work_id": 116338, "role": "director", "role_id": 938, "is_primary": true}, {"id": 3105565, "title": "Une Nuit a L'opera", "work_id": 116332, "role": "director", "role_id": 938, "is_primary": true}, {"id": 3104967, "title": "L'age En Fleur = the Blossoming Years", "work_id": 116174, "role": "director", "role_id": 938, "is_primary": true}, {"id": 3105553, "title": "C'est Jeudi, Jacinthe!", "work_id": 116333, "role": "director", "role_id": 938, "is_primary": true}, {"id": 3105554, "title": "C'est Parti!", "work_id": 116335, "role": "director", "role_id": 938, "is_primary": true}], "also_known_as": "", "date_of_birth": "1910-08-11", "date_of_death": "2001-10-20", "genders": [{"id": 9, "name": "Male", "slug": "male"}], "languages": [{"id": 4, "name": "French", "slug": "french"}], "places_of_operation": [{"id": 17, "name": "France", "slug": "france"}], "biography": "Philippe Agostini was a French cinematographer, director and screenwriter born 11 August 1910 in Paris (France), died 20 October 2001. He was married to Odette Joyeux until the end of her life.; 17/08/2023", "biography_author": null, "date_of_biography": "2025-05-22T23:11:12.969910+10:00", "external_links": [{"id": 4914, "uri": "https://en.wikipedia.org/wiki/Philippe_Agostini"}], "uuid": "de89ec47-d3af-47c8-b345-d390e1eed3b0", "source": {"name": "Vernon", "slug": "vernon"}, "source_identifier": "31103", "external_references": [{"id": 25992, "source": {"name": "Wikidata", "slug": "wikidata"}, "source_identifier": "Q126367"}, {"id": 30882, "source": {"name": "VIAF", "slug": "viaf"}, "source_identifier": "7647848"}, {"id": 30883, "source": {"name": "LOC Auth", "slug": "loc-auth"}, "source_identifier": "no93005358"}, {"id": 30884, "source": {"name": "WorldCat", "slug": "worldcat"}, "source_identifier": "lccn-no93005358"}], "date_modified": "2025-05-22T23:11:12.970193+10:00"}, {"id": 83070, "name": "Michel Safre", "roles_in_work": [{"id": 3104595, "title": "Casque D'or = Golden Marie", "work_id": 115991, "role": "producer", "role_id": 1089, "is_primary": true}], "also_known_as": "", "date_of_birth": "", "date_of_death": "", "genders": [], "languages": [], "places_of_operation": [], "biography": "", "biography_author": null, "date_of_biography": "2023-05-09T13:20:48.417405+10:00", "external_links": [], "uuid": "7c5f9d47-6dd5-428a-b755-e6e504753db3", "source": {"name": "Vernon", "slug": "vernon"}, "source_identifier": "31102", "external_references": [{"id": 33128, "source": {"name": "Wikidata", "slug": "wikidata"}, "source_identifier": "Q121270859"}], "date_modified": "2025-05-22T22:45:13.388508+10:00"}, {"id": 83069, "name": "Jason Regina", "roles_in_work": [{"id": 3104591, "title": "Le Bossu = the Hunchback", "work_id": 115990, "role": "producer", "role_id": 1089, "is_primary": true}], "also_known_as": "", "date_of_birth": null, "date_of_death": null, "genders": [], "languages": [], "places_of_operation": [], "biography": "", "biography_author": null, "date_of_biography": null, "external_links": [], "uuid": "12b55d2d-166b-49f8-a648-3998d2441b0f", "source": {"name": "Vernon", "slug": "vernon"}, "source_identifier": "31101", "external_references": [{"id": 37867, "source": {"name": "Wikidata", "slug": "wikidata"}, "source_identifier": "Q121337451"}], "date_modified": "2025-05-22T22:45:10.496866+10:00"}, {"id": 83068, "name": "Mehdi Charef", "roles_in_work": [{"id": 3104588, "title": "The Au Harem D'archimede = Tea in the harem", "work_id": 115988, "role": "director", "role_id": 938, "is_primary": true}], "also_known_as": "", "date_of_birth": "21 OCT 1952", "date_of_death": "", "genders": [{"id": 9, "name": "Male", "slug": "male"}], "languages": [{"id": 4, "name": "French", "slug": "french"}], "places_of_operation": [{"id": 17, "name": "France", "slug": "france"}], "biography": "Mehdi Charef (born 21 October 1952) is a French film director and screenwriter of Algerian descent. He has worked on eleven films between 1985 and 2007. His film Le thé au harem d'Archimède was screened in the Un Certain Regard section at the 1985 Cannes Film Festival. Seven years later, his film Au pays des Juliets competed for the Palme d'Or at the 1992 festival. Source: Wikidata; 01/08/2023", "biography_author": null, "date_of_biography": "2025-05-22T22:45:07.965367+10:00", "external_links": [{"id": 4668, "uri": "https://en.wikipedia.org/wiki/Mehdi_Charef"}], "uuid": "866f89e6-7ed8-4f87-bd8d-f1b872e31457", "source": {"name": "Vernon", "slug": "vernon"}, "source_identifier": "31100", "external_references": [{"id": 25344, "source": {"name": "Wikidata", "slug": "wikidata"}, "source_identifier": "Q1372360"}, {"id": 30257, "source": {"name": "VIAF", "slug": "viaf"}, "source_identifier": "31994370"}, {"id": 30258, "source": {"name": "LOC Auth", "slug": "loc-auth"}, "source_identifier": "n85355995"}, {"id": 30259, "source": {"name": "WorldCat", "slug": "worldcat"}, "source_identifier": "lccn-n85355995"}], "date_modified": "2025-05-22T22:45:07.965614+10:00"}]}