{"count": 28687, "next": "https://api.acmi.net.au/creators/?page=2375", "previous": "https://api.acmi.net.au/creators/?page=2373", "results": [{"id": 15512, "name": "George Dixon", "roles_in_work": [{"id": 2616084, "title": "Step by step", "work_id": 86796, "role": "director", "role_id": 938, "is_primary": true}, {"id": 2616081, "title": "Step by step [B&W]", "work_id": 86795, "role": "director", "role_id": 938, "is_primary": true}, {"id": 2715278, "title": "Heads", "work_id": 68357, "role": "co-director", "role_id": 959, "is_primary": true}], "also_known_as": "", "date_of_birth": "09 SEP 1924", "date_of_death": "12 DEC 2017", "genders": [], "languages": [], "places_of_operation": [], "biography": "Actor, war veteran and long-time CBD resident George Dixon dies ...\nwww.heraldsun.com.au/.../actor...george-dixon.../c850b8ecdb6c3a5b7da33bed4356ee6...\nDec 14, 2017 - ONE of the CBD's most colourful characters has died before the house he shared with his wife could be renovated. Actor, teacher and war veteran George Dixon lived in an 1850s shop and home in 330 King St that was in danger of falling down due to major structural faults. In July, Mr Dixon eloquently ...\n\nDIXON George Ware\n9.9.1924 – 12.12.2017\nPassed peacefully\n\nLoved and adored husband\nof Ellen Lola Russell.\nBrother of Henry and Helen and favorite uncle\nto eight nieces and nephews.\nAdmired and respected Actor and Teacher and a\nwonderful friend to all ages.\nIn God's loving care\n\nPublished in The Age on Dec. 18, 2017", "biography_author": null, "date_of_biography": "2025-03-12T01:31:21.551863+11:00", "external_links": [], "uuid": "2026fdd4-c49d-4428-b400-6cb900a1614d", "source": {"name": "Vernon", "slug": "vernon"}, "source_identifier": "19583", "external_references": [{"id": 43284, "source": {"name": "Wikidata", "slug": "wikidata"}, "source_identifier": "Q120695374"}], "date_modified": "2025-03-12T01:31:21.552118+11:00"}, {"id": 15511, "name": "Leigh Tilson and Associates", "roles_in_work": [{"id": 752722, "title": "Scabies: the unwelcome itch mite", "work_id": 72501, "role": "production company", "role_id": 941, "is_primary": true}, {"id": 2715263, "title": "Head lice: they can catch anyone", "work_id": 68353, "role": "production company", "role_id": 941, "is_primary": true}, {"id": 2647120, "title": "Safe food handling", "work_id": 75397, "role": "production company", "role_id": 941, "is_primary": true}, {"id": 896495, "title": "Scabies headlice", "work_id": 75395, "role": "production company", "role_id": 941, "is_primary": true}], "also_known_as": "", "date_of_birth": "", "date_of_death": "", "genders": [], "languages": [], "places_of_operation": [], "biography": "", "biography_author": null, "date_of_biography": "2023-07-05T03:48:08.757153+10:00", "external_links": [], "uuid": "4fbc1ec2-a1a9-452e-940c-a541b71ae3cb", "source": {"name": "Vernon", "slug": "vernon"}, "source_identifier": "9968", "external_references": [{"id": 37090, "source": {"name": "Wikidata", "slug": "wikidata"}, "source_identifier": "Q121057892"}], "date_modified": "2025-03-12T01:31:09.829518+11:00"}, {"id": 15510, "name": "Interfilm Productions", "roles_in_work": [{"id": 2715258, "title": "Hazard", "work_id": 68351, "role": "production company", "role_id": 941, "is_primary": true}], "also_known_as": "", "date_of_birth": null, "date_of_death": null, "genders": [], "languages": [], "places_of_operation": [], "biography": "", "biography_author": null, "date_of_biography": null, "external_links": [], "uuid": "194c2d58-1ea2-445f-9068-616d4b1f9361", "source": {"name": "Vernon", "slug": "vernon"}, "source_identifier": "9351", "external_references": [], "date_modified": "2025-03-12T01:31:06.357369+11:00"}, {"id": 15507, "name": "Daniel Ruffini", "roles_in_work": [{"id": 2764847, "title": "Hayes Jones", "work_id": 68350, "role": "producer", "role_id": 1089, "is_primary": true}], "also_known_as": "", "date_of_birth": "", "date_of_death": "", "genders": [], "languages": [], "places_of_operation": [], "biography": "", "biography_author": null, "date_of_biography": "2023-05-09T12:58:24.007068+10:00", "external_links": [], "uuid": "18025164-754d-49d9-bf0b-a9c171100d17", "source": {"name": "Vernon", "slug": "vernon"}, "source_identifier": "17406", "external_references": [{"id": 42080, "source": {"name": "Wikidata", "slug": "wikidata"}, "source_identifier": "Q121159958"}], "date_modified": "2025-03-14T17:47:44.552151+11:00"}, {"id": 15506, "name": "Allegro Film Productions", "roles_in_work": [{"id": 2764844, "title": "Hayes Jones", "work_id": 68350, "role": "production company", "role_id": 941, "is_primary": true}, {"id": 861753, "title": "Man in Ethiopia", "work_id": 75765, "role": "production company", "role_id": 941, "is_primary": true}], "also_known_as": "", "date_of_birth": "", "date_of_death": "", "genders": [], "languages": [], "places_of_operation": [], "biography": "", "biography_author": null, "date_of_biography": "2023-05-09T12:58:23.779231+10:00", "external_links": [], "uuid": "411dcf19-da22-41f7-b073-e1c3f89f5bb4", "source": {"name": "Vernon", "slug": "vernon"}, "source_identifier": "5132", "external_references": [{"id": 41097, "source": {"name": "Wikidata", "slug": "wikidata"}, "source_identifier": "Q121086218"}], "date_modified": "2025-03-14T17:47:43.969263+11:00"}, {"id": 15505, "name": "New South Wales. Milk Board", "roles_in_work": [{"id": 2715252, "title": "Hawkesbury diploma in dairy technology", "work_id": 68349, "role": "production company", "role_id": 941, "is_primary": true}, {"id": 860530, "title": "Water Harvesting", "work_id": 74504, "role": "production company", "role_id": 941, "is_primary": true}, {"id": 858956, "title": "The Story of water harvesting", "work_id": 73271, "role": "production company", "role_id": 941, "is_primary": true}], "also_known_as": "", "date_of_birth": null, "date_of_death": null, "genders": [], "languages": [], "places_of_operation": [], "biography": "", "biography_author": null, "date_of_biography": null, "external_links": [], "uuid": "5e7ce799-a51f-42df-b07d-1fa0f32b07ef", "source": {"name": "Vernon", "slug": "vernon"}, "source_identifier": "4449", "external_references": [], "date_modified": "2025-03-12T01:31:02.253324+11:00"}, {"id": 15503, "name": "T.W. Cate", "roles_in_work": [{"id": 2715247, "title": "Hawaii calls", "work_id": 68346, "role": "director", "role_id": 938, "is_primary": true}], "also_known_as": "", "date_of_birth": "", "date_of_death": "", "genders": [], "languages": [], "places_of_operation": [], "biography": "", "biography_author": null, "date_of_biography": "2023-08-11T17:15:53.629393+10:00", "external_links": [], "uuid": "542a0fd8-6730-4293-9829-d1f03f229790", "source": {"name": "Vernon", "slug": "vernon"}, "source_identifier": "29449", "external_references": [], "date_modified": "2025-03-12T01:30:57.074297+11:00"}, {"id": 15502, "name": "Cate and McGlone Films", "roles_in_work": [{"id": 2715246, "title": "Hawaii calls", "work_id": 68346, "role": "production company", "role_id": 941, "is_primary": true}, {"id": 2715249, "title": "Hawaii: the possible dream", "work_id": 68348, "role": "production company", "role_id": 941, "is_primary": true}], "also_known_as": "", "date_of_birth": "", "date_of_death": "", "genders": [], "languages": [], "places_of_operation": [], "biography": "", "biography_author": null, "date_of_biography": "2023-08-11T17:15:58.731708+10:00", "external_links": [], "uuid": "b3d0859e-a049-4643-849e-3e6f7af8ad06", "source": {"name": "Vernon", "slug": "vernon"}, "source_identifier": "6352", "external_references": [], "date_modified": "2025-03-12T01:30:58.729723+11:00"}, {"id": 15501, "name": "Spencer Peel", "roles_in_work": [{"id": 2715245, "title": "Have a healthy baby", "work_id": 68344, "role": "producer", "role_id": 1089, "is_primary": true}, {"id": 1819317, "title": "Have a healthy baby: pregnancy. - Rev. ed. (TEFC)", "work_id": 76652, "role": "producer", "role_id": 1089, "is_primary": true}], "also_known_as": "", "date_of_birth": null, "date_of_death": null, "genders": [], "languages": [], "places_of_operation": [], "biography": "", "biography_author": null, "date_of_biography": null, "external_links": [], "uuid": "52bb2b1f-d02d-4a25-8da5-8dd5643f8af6", "source": {"name": "Vernon", "slug": "vernon"}, "source_identifier": "28912", "external_references": [], "date_modified": "2025-03-12T01:30:55.656682+11:00"}, {"id": 15500, "name": "Ron Tanner", "roles_in_work": [{"id": 2322082, "title": "Talking of safety", "work_id": 77365, "role": "director", "role_id": 938, "is_primary": true}, {"id": 2766998, "title": "Dreams of success", "work_id": 78019, "role": "director", "role_id": 938, "is_primary": true}, {"id": 863535, "title": "Managing creatively", "work_id": 77286, "role": "director", "role_id": 938, "is_primary": true}, {"id": 2715243, "title": "Have a good day, dear", "work_id": 68343, "role": "director", "role_id": 938, "is_primary": true}, {"id": 864484, "title": "The Awakening", "work_id": 78017, "role": "director", "role_id": 938, "is_primary": true}, {"id": 2144536, "title": "Coping with conflict", "work_id": 77221, "role": "director", "role_id": 938, "is_primary": true}, {"id": 864856, "title": "Who gets hurt?", "work_id": 78349, "role": "director", "role_id": 938, "is_primary": true}, {"id": 860773, "title": "Who cares anyway?", "work_id": 74712, "role": "director", "role_id": 938, "is_primary": true}, {"id": 767228, "title": "Starting your own business. Parts. 1-3", "work_id": 78449, "role": "producer/director", "role_id": 31, "is_primary": true}, {"id": 2180122, "title": "Days of reckoning", "work_id": 78018, "role": "producer/director", "role_id": 31, "is_primary": true}], "also_known_as": "", "date_of_birth": "", "date_of_death": "", "genders": [], "languages": [], "places_of_operation": [], "biography": "", "biography_author": null, "date_of_biography": "2023-05-09T19:13:36.713261+10:00", "external_links": [], "uuid": "871ca75f-cf19-4f11-a213-65db78e19eca", "source": {"name": "Vernon", "slug": "vernon"}, "source_identifier": "28175", "external_references": [{"id": 37091, "source": {"name": "Wikidata", "slug": "wikidata"}, "source_identifier": "Q121079001"}], "date_modified": "2025-03-14T18:01:15.774835+11:00"}]}