{"count": 28683, "next": "https://api.acmi.net.au/creators/?page=1969", "previous": "https://api.acmi.net.au/creators/?page=1967", "results": [{"id": 23177, "name": "Jerome Hellman", "roles_in_work": [{"id": 2649153, "title": "The Mosquito coast", "work_id": 80967, "role": "producer", "role_id": 1089, "is_primary": true}, {"id": 2614082, "title": "Midnight cowboy", "work_id": 83132, "role": "producer", "role_id": 1089, "is_primary": true}, {"id": 2342507, "title": "The Day of the locust", "work_id": 94834, "role": "producer", "role_id": 1089, "is_primary": true}, {"id": 2142009, "title": "Coming home", "work_id": 81579, "role": "producer", "role_id": 1089, "is_primary": true}, {"id": 2649152, "title": "The Mosquito coast", "work_id": 80967, "role": "production company", "role_id": 941, "is_primary": true}], "also_known_as": "", "date_of_birth": "1928-09-04", "date_of_death": "2021-05-26", "genders": [{"id": 9, "name": "Male", "slug": "male"}], "languages": [{"id": 1, "name": "English", "slug": "english"}], "places_of_operation": [{"id": 1, "name": "United States of America", "slug": "united-states-of-america"}], "biography": "Jerome Hellman (September 4, 1928 – May 26, 2021) was an American film producer. He is best known for being the 42nd recipient of the Academy Award for Best Picture for Midnight Cowboy (1969). His 1978 film Coming Home was nominated for the same award.", "biography_author": "Wikidata", "date_of_biography": "2022-05-19T11:57:25+10:00", "external_links": [{"id": 2371, "uri": "https://en.wikipedia.org/wiki/Jerome_Hellman"}], "uuid": "8c84c1f4-315b-4432-9364-7c754336a301", "source": {"name": "Vernon", "slug": "vernon"}, "source_identifier": "21770", "external_references": [{"id": 10159, "source": {"name": "Wikidata", "slug": "wikidata"}, "source_identifier": "Q6182734"}, {"id": 10160, "source": {"name": "VIAF", "slug": "viaf"}, "source_identifier": "31562623"}, {"id": 10161, "source": {"name": "LOC Auth", "slug": "loc-auth"}, "source_identifier": "no92009116"}, {"id": 10162, "source": {"name": "WorldCat", "slug": "worldcat"}, "source_identifier": "lccn-no92009116"}], "date_modified": "2025-03-05T13:56:50.245722+11:00"}, {"id": 23176, "name": "Saul Zaentz", "roles_in_work": [{"id": 2168103, "title": "One flew over the cuckoo's nest [DVD]", "work_id": 92457, "role": "co-producer", "role_id": 915, "is_primary": true}, {"id": 2752495, "title": "Lord of the rings", "work_id": 98319, "role": "producer", "role_id": 1089, "is_primary": true}, {"id": 1995546, "title": "The English patient [DVD]", "work_id": 91707, "role": "producer", "role_id": 1089, "is_primary": true}, {"id": 1986098, "title": "The Unbearable lightness of being", "work_id": 81855, "role": "producer", "role_id": 1089, "is_primary": true}, {"id": 2614966, "title": "At play in the fields of the Lord", "work_id": 84587, "role": "producer", "role_id": 1089, "is_primary": true}, {"id": 1985206, "title": "Amadeus", "work_id": 81092, "role": "producer", "role_id": 1089, "is_primary": true}, {"id": 2346842, "title": "The English patient (Captioned)", "work_id": 87325, "role": "producer", "role_id": 1089, "is_primary": true}, {"id": 1986097, "title": "The Unbearable lightness of being", "work_id": 81855, "role": "production company", "role_id": 941, "is_primary": true}, {"id": 2649151, "title": "The Mosquito coast", "work_id": 80967, "role": "production company", "role_id": 941, "is_primary": true}], "also_known_as": "", "date_of_birth": "28 FEB 1921", "date_of_death": "03 JAN 2014", "genders": [{"id": 9, "name": "Male", "slug": "male"}], "languages": [], "places_of_operation": [{"id": 1, "name": "United States of America", "slug": "united-states-of-america"}], "biography": "Saul Zaentz (; February 28, 1921 – January 3, 2014) was an American film producer and record company executive. He won the Academy Award for Best Picture three times and, in 1996, was awarded the Irving G. Thalberg Memorial Award.\n\nZaentz's film production career, primarily financed by the profits from Creedence Clearwater Revival, was marked by a dedication to the adaptation of novels. A prolific reader, Zaentz typically did not produce original screenplays.  His final production, Goya's Ghosts, was an exception, being an original story by Jean-Claude Carrière and Miloš Forman. Source: Wikidata; 01/08/2023", "biography_author": null, "date_of_biography": "2025-03-13T01:06:25.991704+11:00", "external_links": [{"id": 3075, "uri": "https://en.wikipedia.org/wiki/Saul_Zaentz"}], "uuid": "98b18fee-c1d5-47a2-ac20-49d58025244c", "source": {"name": "Vernon", "slug": "vernon"}, "source_identifier": "28618", "external_references": [{"id": 25051, "source": {"name": "Wikidata", "slug": "wikidata"}, "source_identifier": "Q736466"}, {"id": 31435, "source": {"name": "VIAF", "slug": "viaf"}, "source_identifier": "85731470"}, {"id": 31436, "source": {"name": "LOC Auth", "slug": "loc-auth"}, "source_identifier": "nr93000368"}, {"id": 31437, "source": {"name": "WorldCat", "slug": "worldcat"}, "source_identifier": "lccn-nr93000368"}], "date_modified": "2025-03-13T01:06:25.992077+11:00"}, {"id": 23175, "name": "Sonoma Video Productions", "roles_in_work": [{"id": 2781136, "title": "Bali: A Window on Paradise", "work_id": 82106, "role": "production company", "role_id": 941, "is_primary": true}, {"id": 2781087, "title": "Islands of the Caribbean", "work_id": 80966, "role": "production company", "role_id": 941, "is_primary": true}], "also_known_as": "", "date_of_birth": "", "date_of_death": "", "genders": [], "languages": [], "places_of_operation": [], "biography": "", "biography_author": null, "date_of_biography": "2023-05-09T19:13:24.092079+10:00", "external_links": [], "uuid": "dea678c9-a758-4b62-9f21-903953d71c06", "source": {"name": "Vernon", "slug": "vernon"}, "source_identifier": "12746", "external_references": [{"id": 41885, "source": {"name": "Wikidata", "slug": "wikidata"}, "source_identifier": "Q121299133"}], "date_modified": "2025-03-14T19:08:19.052734+11:00"}, {"id": 23173, "name": "Ross Dimsey", "roles_in_work": [{"id": 1985015, "title": "Warm nights on a slow moving train", "work_id": 80965, "role": "co-producer", "role_id": 915, "is_primary": true}, {"id": 2614086, "title": "Kangaroo", "work_id": 83139, "role": "producer", "role_id": 1089, "is_primary": true}, {"id": 1985876, "title": "The Naked Country", "work_id": 81502, "role": "producer", "role_id": 1089, "is_primary": true}], "also_known_as": "", "date_of_birth": "1943-10-16", "date_of_death": null, "genders": [{"id": 9, "name": "Male", "slug": "male"}], "languages": [], "places_of_operation": [{"id": 3, "name": "Australia", "slug": "australia"}], "biography": "Ross Dimsey (born 16th October 1943) is an Australian writer, producer, director and film executive.\nHe was born in Melbourne and worked in Britain and America from 1969–69. He worked in a variety of capacities on a number of films.\nFrom 1969–1969 he was head of the Victorian Film Corporation. In the 1969s he was the director of Film Queensland.\n\n", "biography_author": "Wikidata", "date_of_biography": "2022-05-19T12:58:36.127626+10:00", "external_links": [{"id": 3032, "uri": "https://en.wikipedia.org/wiki/Ross_Dimsey"}], "uuid": "42578ec2-e18c-4499-a79d-6e48974a682c", "source": {"name": "Vernon", "slug": "vernon"}, "source_identifier": "28264", "external_references": [{"id": 12870, "source": {"name": "Wikidata", "slug": "wikidata"}, "source_identifier": "Q7369286"}, {"id": 12871, "source": {"name": "VIAF", "slug": "viaf"}, "source_identifier": "87000824"}, {"id": 12872, "source": {"name": "LOC Auth", "slug": "loc-auth"}, "source_identifier": "no2011087980"}, {"id": 12873, "source": {"name": "WorldCat", "slug": "worldcat"}, "source_identifier": "lccn-no2011087980"}], "date_modified": "2025-02-26T20:06:27.503093+11:00"}, {"id": 23171, "name": "Edward Pressman", "roles_in_work": [{"id": 2341422, "title": "The Crow: City of angels", "work_id": 86868, "role": "co-producer", "role_id": 915, "is_primary": true}, {"id": 2341370, "title": "The Crow", "work_id": 86869, "role": "co-producer", "role_id": 915, "is_primary": true}, {"id": 2341478, "title": "The Crow: salvation", "work_id": 94283, "role": "co-producer", "role_id": 915, "is_primary": true}, {"id": 2321985, "title": "Talk radio", "work_id": 87003, "role": "co-producer", "role_id": 915, "is_primary": true}, {"id": 1992377, "title": "Legionnaire", "work_id": 87981, "role": "co-producer", "role_id": 915, "is_primary": true}, {"id": 1998468, "title": "Bad lieutenant (D)", "work_id": 93830, "role": "co-producer", "role_id": 915, "is_primary": true}, {"id": 1995078, "title": "Blue steel", "work_id": 91093, "role": "co-producer", "role_id": 915, "is_primary": true}, {"id": 1985012, "title": "Plenty", "work_id": 80964, "role": "producer", "role_id": 1089, "is_primary": true}, {"id": 2088477, "title": "American psycho [DVD]", "work_id": 91446, "role": "producer", "role_id": 1089, "is_primary": true}, {"id": 1805866, "title": "The Island of Dr Moreau", "work_id": 95043, "role": "producer", "role_id": 1089, "is_primary": true}, {"id": 1815529, "title": "Sisters [NTSC] [Widescreen]", "work_id": 93186, "role": "producer", "role_id": 1089, "is_primary": true}, {"id": 1815530, "title": "Phantom of the paradise [NTSC]", "work_id": 93188, "role": "producer", "role_id": 1089, "is_primary": true}, {"id": 1998043, "title": "Wall Street", "work_id": 93595, "role": "producer", "role_id": 1089, "is_primary": true}], "also_known_as": "", "date_of_birth": "1943-04-11", "date_of_death": "2023-01-17", "genders": [{"id": 9, "name": "Male", "slug": "male"}], "languages": [{"id": 1, "name": "English", "slug": "english"}], "places_of_operation": [{"id": 1, "name": "United States of America", "slug": "united-states-of-america"}], "biography": "Edward R. Pressman (born April 11, 1943) is an American film producer and founder of the production company Edward R. Pressman Film Corporation.\nPressman was born to a Jewish family in New York City, the son of Lynn and Jack Pressman, known as the \"King of Marbles\", who founded the Pressman Toy Corporation.In 1987, his own production company Edward R. Pressman Film Corporation had received a three-feature pact with International Video Entertainment to handle theatrical and home video distribution rights with a dual option to extend into a fourth feature.The Academy Film Archive houses the Edward R. Pressman Collection. The film collection contains over 250 items, including theatrical prints, printing elements and videotapes related to the films produced by Pressman or his production company, as well as films acquired by Pressman Films for reference purposes. The Pressman Collection is complemented by paper materials held at the Academy's Margaret Herrick Library.", "biography_author": "Wikidata", "date_of_biography": "2022-05-19T11:22:02.911939+10:00", "external_links": [{"id": 1980, "uri": "https://en.wikipedia.org/wiki/Edward_R._Pressman"}], "uuid": "c40e8346-326e-455e-a00e-e8c7ffc91828", "source": {"name": "Vernon", "slug": "vernon"}, "source_identifier": "4827", "external_references": [{"id": 8564, "source": {"name": "Wikidata", "slug": "wikidata"}, "source_identifier": "Q357726"}, {"id": 8565, "source": {"name": "VIAF", "slug": "viaf"}, "source_identifier": "87022825"}, {"id": 8566, "source": {"name": "LOC Auth", "slug": "loc-auth"}, "source_identifier": "no96020290"}, {"id": 8567, "source": {"name": "WorldCat", "slug": "worldcat"}, "source_identifier": "lccn-no96020290"}], "date_modified": "2023-09-13T12:29:13.776629+10:00"}, {"id": 23167, "name": "Eli Adler", "roles_in_work": [{"id": 2781085, "title": "Rome: the eternal city", "work_id": 80963, "role": "director", "role_id": 938, "is_primary": true}, {"id": 2781082, "title": "Rome: the eternal city", "work_id": 80963, "role": "co-producer", "role_id": 915, "is_primary": true}], "also_known_as": "", "date_of_birth": "", "date_of_death": "", "genders": [], "languages": [], "places_of_operation": [], "biography": "", "biography_author": null, "date_of_biography": "2023-05-09T19:13:08.578672+10:00", "external_links": [], "uuid": "19e25822-51db-49c8-884e-a917cbfbeea0", "source": {"name": "Vernon", "slug": "vernon"}, "source_identifier": "18675", "external_references": [], "date_modified": "2025-03-14T19:08:07.634384+11:00"}, {"id": 23166, "name": "Chris Valentini", "roles_in_work": [{"id": 2781079, "title": "Rome: the eternal city", "work_id": 80963, "role": "co-producer", "role_id": 915, "is_primary": true}, {"id": 2781182, "title": "Poland: a proud heritage", "work_id": 82234, "role": "co-producer", "role_id": 915, "is_primary": true}, {"id": 2781097, "title": "Ireland's Emerald Treasures", "work_id": 80968, "role": "producer", "role_id": 1089, "is_primary": true}, {"id": 2795770, "title": "Wonders of nature", "work_id": 88548, "role": "producer/director", "role_id": 31, "is_primary": true}, {"id": 2795764, "title": "Wonders of man's creations", "work_id": 88547, "role": "producer/director", "role_id": 31, "is_primary": true}], "also_known_as": "", "date_of_birth": "", "date_of_death": "", "genders": [], "languages": [], "places_of_operation": [], "biography": "", "biography_author": null, "date_of_biography": "2023-08-14T12:51:17.000638+10:00", "external_links": [], "uuid": "76ae0347-599b-44bc-9d77-1fd561d3daa5", "source": {"name": "Vernon", "slug": "vernon"}, "source_identifier": "16884", "external_references": [{"id": 33951, "source": {"name": "Wikidata", "slug": "wikidata"}, "source_identifier": "Q121078841"}], "date_modified": "2025-03-14T20:33:17.156540+11:00"}, {"id": 23165, "name": "Clean State Productions", "roles_in_work": [{"id": 2781076, "title": "Rome: the eternal city", "work_id": 80963, "role": "production company", "role_id": 941, "is_primary": true}], "also_known_as": "", "date_of_birth": "", "date_of_death": "", "genders": [], "languages": [], "places_of_operation": [], "biography": "", "biography_author": null, "date_of_biography": "2023-05-09T19:13:07.711182+10:00", "external_links": [], "uuid": "ab71e1c7-82b3-47a9-b535-05180132a96f", "source": {"name": "Vernon", "slug": "vernon"}, "source_identifier": "6813", "external_references": [], "date_modified": "2025-03-14T19:08:05.869274+11:00"}, {"id": 23164, "name": "Andrew K Slodkowski", "roles_in_work": [{"id": 2781189, "title": "Poland: a proud heritage", "work_id": 82234, "role": "director", "role_id": 938, "is_primary": true}, {"id": 2781186, "title": "Poland: a proud heritage", "work_id": 82234, "role": "co-producer", "role_id": 915, "is_primary": true}, {"id": 2781072, "title": "Moscow and Leningrad: The Crown Jewels of Russia", "work_id": 80962, "role": "producer/director", "role_id": 31, "is_primary": true}], "also_known_as": "", "date_of_birth": "", "date_of_death": "", "genders": [], "languages": [], "places_of_operation": [], "biography": "", "biography_author": null, "date_of_biography": "2023-05-09T19:12:57.341242+10:00", "external_links": [], "uuid": "de46be56-72a9-43e5-b616-d64f4dc89feb", "source": {"name": "Vernon", "slug": "vernon"}, "source_identifier": "15179", "external_references": [{"id": 43493, "source": {"name": "Wikidata", "slug": "wikidata"}, "source_identifier": "Q121079543"}], "date_modified": "2025-03-14T19:08:30.298235+11:00"}, {"id": 23163, "name": "William Fayman", "roles_in_work": [{"id": 2303715, "title": "Snapshot = Day after Halloween = Day before Halloween [DVD]", "work_id": 93971, "role": "co-producer", "role_id": 915, "is_primary": true}, {"id": 2190371, "title": "Patrick", "work_id": 84011, "role": "executive producer", "role_id": 916, "is_primary": false}, {"id": 1985008, "title": "Turkey shoot", "work_id": 80961, "role": "producer", "role_id": 1089, "is_primary": true}, {"id": 2304218, "title": "Snapshot = Day after Halloween = Day before Halloween  [DVD]", "work_id": 95107, "role": "production company", "role_id": 941, "is_primary": true}], "also_known_as": "", "date_of_birth": "", "date_of_death": "", "genders": [], "languages": [], "places_of_operation": [], "biography": "", "biography_author": null, "date_of_biography": "2023-05-09T18:42:27.178731+10:00", "external_links": [], "uuid": "ead29519-0fad-4a0e-8f39-44b5f94533c5", "source": {"name": "Vernon", "slug": "vernon"}, "source_identifier": "30417", "external_references": [], "date_modified": "2023-06-14T16:33:30.576250+10:00"}]}