{"count": 28687, "next": "https://api.acmi.net.au/creators/?page=508", "previous": "https://api.acmi.net.au/creators/?page=506", "results": [{"id": 80513, "name": "Des McAnuff", "roles_in_work": [{"id": 2326524, "title": "The Adventures of Rocky & Bullwinkle", "work_id": 93839, "role": "director", "role_id": 938, "is_primary": true}, {"id": 2356670, "title": "The Iron giant", "work_id": 94025, "role": "co-producer", "role_id": 915, "is_primary": true}], "also_known_as": "", "date_of_birth": "1952-06-19", "date_of_death": "", "genders": [{"id": 9, "name": "Male", "slug": "male"}], "languages": [], "places_of_operation": [{"id": 1, "name": "United States of America", "slug": "united-states-of-america"}], "biography": "Desmond Steven McAnuff  (born June 19, 1952) is the American-Canadian former artistic director of Canada's Stratford Festival and director of such Broadway musical theatre productions as Big River, The Who's Tommy and Jersey Boys.", "biography_author": "Wikidata", "date_of_biography": "2023-08-01T14:38:55.515536+10:00", "external_links": [{"id": 3876, "uri": "https://en.wikipedia.org/wiki/Des_McAnuff"}], "uuid": "32203151-00c6-4e78-b6b9-0c3abdcf8025", "source": {"name": "Vernon", "slug": "vernon"}, "source_identifier": "18054", "external_references": [{"id": 25199, "source": {"name": "Wikidata", "slug": "wikidata"}, "source_identifier": "Q3705901"}, {"id": 28152, "source": {"name": "VIAF", "slug": "viaf"}, "source_identifier": "66664291"}, {"id": 28153, "source": {"name": "LOC Auth", "slug": "loc-auth"}, "source_identifier": "n85829332"}, {"id": 28154, "source": {"name": "WorldCat", "slug": "worldcat"}, "source_identifier": "lccn-n85829332"}], "date_modified": "2023-09-05T19:10:25.506392+10:00"}, {"id": 80512, "name": "Dritte Beteiligung KC Median AG and Co", "roles_in_work": [{"id": 2326521, "title": "The Adventures of Rocky & Bullwinkle", "work_id": 93839, "role": "production company", "role_id": 941, "is_primary": true}], "also_known_as": "", "date_of_birth": "", "date_of_death": "", "genders": [], "languages": [], "places_of_operation": [], "biography": "", "biography_author": null, "date_of_biography": "2023-05-09T19:19:55.428036+10:00", "external_links": [], "uuid": "2a67ba50-4332-4df2-8cd2-4cfce29a5508", "source": {"name": "Vernon", "slug": "vernon"}, "source_identifier": "7670", "external_references": [{"id": 43477, "source": {"name": "Wikidata", "slug": "wikidata"}, "source_identifier": "Q121299091"}], "date_modified": "2023-09-05T19:21:29.340887+10:00"}, {"id": 80511, "name": "Kinka Usher", "roles_in_work": [{"id": 1998485, "title": "Mystery men", "work_id": 93835, "role": "director", "role_id": 938, "is_primary": true}], "also_known_as": "", "date_of_birth": "1960-01-01", "date_of_death": null, "genders": [{"id": 9, "name": "Male", "slug": "male"}], "languages": [{"id": 4, "name": "French", "slug": "french"}], "places_of_operation": [{"id": 17, "name": "France", "slug": "france"}], "biography": "Kinka Usher is a director of television commercials. He also directed the 1999 feature film Mystery Men.", "biography_author": "Wikidata", "date_of_biography": "2022-05-19T12:12:06.025841+10:00", "external_links": [{"id": 2536, "uri": "https://en.wikipedia.org/wiki/Kinka_Usher"}], "uuid": "66e0449c-d0ce-48cc-af6e-417e26c9bcad", "source": {"name": "Vernon", "slug": "vernon"}, "source_identifier": "23351", "external_references": [{"id": 10839, "source": {"name": "Wikidata", "slug": "wikidata"}, "source_identifier": "Q6413901"}], "date_modified": "2023-09-05T22:09:48.786084+10:00"}, {"id": 80510, "name": "Golar", "roles_in_work": [{"id": 1998480, "title": "Mystery men", "work_id": 93835, "role": "production company", "role_id": 941, "is_primary": true}], "also_known_as": "", "date_of_birth": null, "date_of_death": null, "genders": [], "languages": [], "places_of_operation": [], "biography": "", "biography_author": null, "date_of_biography": null, "external_links": [], "uuid": "98636b9e-8cfe-45e9-827f-da94062b75cb", "source": {"name": "Vernon", "slug": "vernon"}, "source_identifier": null, "external_references": [{"id": 35191, "source": {"name": "Wikidata", "slug": "wikidata"}, "source_identifier": "Q121035843"}], "date_modified": "2023-09-05T20:16:11.847700+10:00"}, {"id": 80509, "name": "Andre Gladu", "roles_in_work": [{"id": 1816658, "title": "Hubert Reeves: star teller [Widescreen]", "work_id": 93825, "role": "producer", "role_id": 1089, "is_primary": true}], "also_known_as": "", "date_of_birth": null, "date_of_death": null, "genders": [], "languages": [], "places_of_operation": [], "biography": "", "biography_author": null, "date_of_biography": null, "external_links": [], "uuid": "cd98b006-966d-4cf4-b222-5eb0b9a7e9ca", "source": {"name": "Vernon", "slug": "vernon"}, "source_identifier": null, "external_references": [{"id": 39856, "source": {"name": "Wikidata", "slug": "wikidata"}, "source_identifier": "Q2847852"}], "date_modified": "2023-09-05T17:33:52.535647+10:00"}, {"id": 80508, "name": "David S. Vadiveloo", "roles_in_work": [{"id": 2321853, "title": "Tales from a suitcase 3", "work_id": 93817, "role": "co-director", "role_id": 959, "is_primary": true}, {"id": 2321572, "title": "Tales from a suitcase 4", "work_id": 93818, "role": "co-director", "role_id": 959, "is_primary": true}], "also_known_as": "", "date_of_birth": "", "date_of_death": "", "genders": [], "languages": [], "places_of_operation": [], "biography": "", "biography_author": null, "date_of_biography": "2023-05-09T19:13:14.927309+10:00", "external_links": [], "uuid": "63c14a75-78ec-4a53-8c86-8c8692b19ac0", "source": {"name": "Vernon", "slug": "vernon"}, "source_identifier": "17780", "external_references": [{"id": 40307, "source": {"name": "Wikidata", "slug": "wikidata"}, "source_identifier": "Q121270775"}], "date_modified": "2023-09-05T19:02:38.669934+10:00"}, {"id": 80507, "name": "Andrea Dal Bosco", "roles_in_work": [{"id": 2321526, "title": "Tales from a suitcase 1", "work_id": 93815, "role": "co-director", "role_id": 959, "is_primary": true}, {"id": 2321850, "title": "Tales from a suitcase 3", "work_id": 93817, "role": "co-director", "role_id": 959, "is_primary": true}, {"id": 2321570, "title": "Tales from a suitcase 4", "work_id": 93818, "role": "co-director", "role_id": 959, "is_primary": true}, {"id": 2321587, "title": "Tales from a suitcase: the Afghan experience [Widescreen]", "work_id": 93824, "role": "director", "role_id": 938, "is_primary": true}], "also_known_as": "", "date_of_birth": "", "date_of_death": "", "genders": [], "languages": [], "places_of_operation": [], "biography": "", "biography_author": null, "date_of_biography": "2023-05-09T19:13:14.520805+10:00", "external_links": [], "uuid": "1aaf9b2b-b8de-4c85-9ffc-fbcc03d9ee7a", "source": {"name": "Vernon", "slug": "vernon"}, "source_identifier": "15121", "external_references": [{"id": 39915, "source": {"name": "Wikidata", "slug": "wikidata"}, "source_identifier": "Q121144040"}], "date_modified": "2023-09-05T17:34:27.273747+10:00"}, {"id": 80506, "name": "Mata Yamamoto", "roles_in_work": [{"id": 1999144, "title": "Vampire hunter D: bloodlust [DVD]", "work_id": 94305, "role": "co-producer", "role_id": 915, "is_primary": true}, {"id": 2154849, "title": "Mishima: a life in four chapters", "work_id": 93814, "role": "co-producer", "role_id": 915, "is_primary": true}], "also_known_as": "", "date_of_birth": "", "date_of_death": "", "genders": [], "languages": [], "places_of_operation": [], "biography": "", "biography_author": null, "date_of_biography": "2023-05-09T14:01:29.221982+10:00", "external_links": [], "uuid": "45a477a7-1263-43e2-bc99-65b3bbcc5263", "source": {"name": "Vernon", "slug": "vernon"}, "source_identifier": "24773", "external_references": [{"id": 41993, "source": {"name": "Wikidata", "slug": "wikidata"}, "source_identifier": "Q121270976"}], "date_modified": "2023-09-05T22:53:38.156784+10:00"}, {"id": 80505, "name": "Rochelle Weisberg", "roles_in_work": [{"id": 2202084, "title": "Driller killer [DVD]", "work_id": 93805, "role": "co-producer", "role_id": 915, "is_primary": true}], "also_known_as": "", "date_of_birth": "", "date_of_death": "", "genders": [], "languages": [], "places_of_operation": [], "biography": "", "biography_author": null, "date_of_biography": "2023-05-09T15:28:06.391917+10:00", "external_links": [], "uuid": "fa4da97a-9ef7-4f54-bda2-a95672186e99", "source": {"name": "Vernon", "slug": "vernon"}, "source_identifier": "27987", "external_references": [{"id": 35113, "source": {"name": "Wikidata", "slug": "wikidata"}, "source_identifier": "Q121143630"}], "date_modified": "2023-09-06T00:50:12.071929+10:00"}, {"id": 80504, "name": "D Metrov", "roles_in_work": [{"id": 2202082, "title": "Driller killer [DVD]", "work_id": 93805, "role": "co-producer", "role_id": 915, "is_primary": true}], "also_known_as": "", "date_of_birth": "", "date_of_death": "", "genders": [], "languages": [], "places_of_operation": [], "biography": "", "biography_author": null, "date_of_biography": "2023-05-09T15:28:06.143754+10:00", "external_links": [], "uuid": "b65f01fd-691e-4d1c-9fff-be6ed26170bc", "source": {"name": "Vernon", "slug": "vernon"}, "source_identifier": "17288", "external_references": [{"id": 35658, "source": {"name": "Wikidata", "slug": "wikidata"}, "source_identifier": "Q121271214"}], "date_modified": "2023-09-05T18:48:26.056728+10:00"}]}