{"count": 28687, "next": "https://api.acmi.net.au/creators/?page=965", "previous": "https://api.acmi.net.au/creators/?page=963", "results": [{"id": 75942, "name": "George Mully", "roles_in_work": [{"id": 2079329, "title": "Acid from heaven", "work_id": 77364, "role": "producer/director", "role_id": 31, "is_primary": true}], "also_known_as": "", "date_of_birth": "", "date_of_death": "", "genders": [], "languages": [], "places_of_operation": [], "biography": "", "biography_author": null, "date_of_biography": "2023-05-09T11:45:42.754742+10:00", "external_links": [], "uuid": "ecaa373d-7a3c-467a-93c5-7c29362bd681", "source": {"name": "Vernon", "slug": "vernon"}, "source_identifier": "19648", "external_references": [{"id": 51624, "source": {"name": "Wikidata", "slug": "wikidata"}, "source_identifier": "Q121360751"}], "date_modified": "2023-09-05T20:06:06.193630+10:00"}, {"id": 75941, "name": "Niev Ghira", "roles_in_work": [{"id": 2144153, "title": "Conspiracy of silence", "work_id": 77363, "role": "director", "role_id": 938, "is_primary": true}], "also_known_as": "", "date_of_birth": "", "date_of_death": "", "genders": [], "languages": [], "places_of_operation": [], "biography": "", "biography_author": null, "date_of_biography": "2023-05-09T13:43:12.833833+10:00", "external_links": [], "uuid": "4a769fd7-9914-45f0-9337-8d09dd5ff2b2", "source": {"name": "Vernon", "slug": "vernon"}, "source_identifier": "25802", "external_references": [{"id": 35480, "source": {"name": "Wikidata", "slug": "wikidata"}, "source_identifier": "Q121223044"}], "date_modified": "2023-09-05T23:31:17.230794+10:00"}, {"id": 75940, "name": "Vera Neubauer", "roles_in_work": [{"id": 2343257, "title": "The Decision", "work_id": 77357, "role": "director", "role_id": 938, "is_primary": true}], "also_known_as": "", "date_of_birth": "1948-01-01", "date_of_death": "", "genders": [{"id": 5, "name": "Female", "slug": "female"}], "languages": [{"id": 20, "name": "Czech", "slug": "czech"}], "places_of_operation": [{"id": 49, "name": "Czech Republic", "slug": "czech-republic"}], "biography": "Vera Neubauer is a Czech born British experimental filmmaker, animator, feminist activist and educator. She is known for her jarring, provocative and anti establishment approach. Her life's work spans genres, from cinematic short film to television series for children. Neubauer has received two BAFTA Cymru awards.", "biography_author": "Wikidata", "date_of_biography": "2023-08-01T17:22:44.440872+10:00", "external_links": [{"id": 5311, "uri": "https://en.wikipedia.org/wiki/Vera_Neubauer"}], "uuid": "18c14fd0-cc7e-4480-8f8a-ae1f18566b09", "source": {"name": "Vernon", "slug": "vernon"}, "source_identifier": "30070", "external_references": [{"id": 27041, "source": {"name": "Wikidata", "slug": "wikidata"}, "source_identifier": "Q96581185"}], "date_modified": "2023-09-06T02:03:36.392995+10:00"}, {"id": 75939, "name": "Jane Weinstock", "roles_in_work": [{"id": 2299320, "title": "Sigmund Freud's Dora (E)", "work_id": 77340, "role": "co-producers/directors", "role_id": 628, "is_primary": true}], "also_known_as": "", "date_of_birth": "", "date_of_death": "", "genders": [], "languages": [], "places_of_operation": [], "biography": "", "biography_author": null, "date_of_biography": "2023-05-09T18:34:03.181818+10:00", "external_links": [], "uuid": "762ff2cc-d270-4399-a627-1588590edab6", "source": {"name": "Vernon", "slug": "vernon"}, "source_identifier": "21435", "external_references": [], "date_modified": "2023-06-14T16:33:30.576250+10:00"}, {"id": 75938, "name": "Andrew Tyndall", "roles_in_work": [{"id": 2299318, "title": "Sigmund Freud's Dora (E)", "work_id": 77340, "role": "co-producers/directors", "role_id": 628, "is_primary": true}], "also_known_as": "", "date_of_birth": "", "date_of_death": "", "genders": [], "languages": [], "places_of_operation": [], "biography": "", "biography_author": null, "date_of_biography": "2023-05-09T18:34:02.942514+10:00", "external_links": [], "uuid": "0f908eac-e91b-4581-927d-38157749cfcf", "source": {"name": "Vernon", "slug": "vernon"}, "source_identifier": "15227", "external_references": [], "date_modified": "2023-06-14T16:33:30.576250+10:00"}, {"id": 75937, "name": "Claire Pajaczkowska", "roles_in_work": [{"id": 2299315, "title": "Sigmund Freud's Dora (E)", "work_id": 77340, "role": "co-producers/directors", "role_id": 628, "is_primary": true}], "also_known_as": "", "date_of_birth": "", "date_of_death": "", "genders": [], "languages": [], "places_of_operation": [], "biography": "", "biography_author": null, "date_of_biography": "2023-05-09T18:34:02.709351+10:00", "external_links": [], "uuid": "0eeb4e47-beb7-4c89-beee-a8e779added7", "source": {"name": "Vernon", "slug": "vernon"}, "source_identifier": "17045", "external_references": [], "date_modified": "2023-06-14T16:33:30.576250+10:00"}, {"id": 75936, "name": "Anthony McCall", "roles_in_work": [{"id": 2299314, "title": "Sigmund Freud's Dora (E)", "work_id": 77340, "role": "co-producers/directors", "role_id": 628, "is_primary": true}, {"id": 2653442, "title": "You and I, Horizontal II", "work_id": 114486, "role": "creator", "role_id": 968, "is_primary": true}], "also_known_as": "", "date_of_birth": "1946", "date_of_death": "", "genders": [{"id": 9, "name": "Male", "slug": "male"}], "languages": [], "places_of_operation": [], "biography": "", "biography_author": null, "date_of_biography": "2023-08-09T04:10:57.961894+10:00", "external_links": [], "uuid": "99b186ea-76bf-4c3d-a726-f26aeabf92b6", "source": {"name": "Vernon", "slug": "vernon"}, "source_identifier": "3089", "external_references": [], "date_modified": "2025-03-05T14:55:23.027061+11:00"}, {"id": 75935, "name": "Lois Ellis", "roles_in_work": [{"id": 2647798, "title": "Women climbing mountains", "work_id": 77337, "role": "producer/director", "role_id": 31, "is_primary": true}], "also_known_as": "", "date_of_birth": null, "date_of_death": null, "genders": [], "languages": [], "places_of_operation": [], "biography": "", "biography_author": null, "date_of_biography": null, "external_links": [], "uuid": "9336f0a1-c2ed-4d79-bc09-710502855abb", "source": {"name": "Vernon", "slug": "vernon"}, "source_identifier": "23977", "external_references": [{"id": 51444, "source": {"name": "Wikidata", "slug": "wikidata"}, "source_identifier": "Q121361297"}], "date_modified": "2025-03-05T13:32:22.273828+11:00"}, {"id": 75934, "name": "Bob Carmichael", "roles_in_work": [{"id": 2647795, "title": "Fall line", "work_id": 77336, "role": "co-producers/directors", "role_id": 628, "is_primary": true}], "also_known_as": "", "date_of_birth": "", "date_of_death": "", "genders": [], "languages": [], "places_of_operation": [], "biography": "", "biography_author": null, "date_of_biography": "2023-05-09T16:25:57.943968+10:00", "external_links": [], "uuid": "4c43bb9e-ac5a-4534-965d-08a3d50b8885", "source": {"name": "Vernon", "slug": "vernon"}, "source_identifier": "16053", "external_references": [], "date_modified": "2025-03-05T13:32:20.274573+11:00"}, {"id": 75933, "name": "John Twitchin", "roles_in_work": [{"id": 2148668, "title": "Crosstalk (TEFC)", "work_id": 77322, "role": "producer", "role_id": 1089, "is_primary": true}], "also_known_as": "", "date_of_birth": "", "date_of_death": "", "genders": [], "languages": [], "places_of_operation": [], "biography": "", "biography_author": null, "date_of_biography": "2023-05-09T13:49:20.176633+10:00", "external_links": [], "uuid": "c5d95d72-37ba-4c19-810b-5b3bc2555f24", "source": {"name": "Vernon", "slug": "vernon"}, "source_identifier": "22561", "external_references": [{"id": 42823, "source": {"name": "Wikidata", "slug": "wikidata"}, "source_identifier": "Q121315368"}], "date_modified": "2023-09-05T21:45:27.911720+10:00"}]}