{"count": 28687, "next": "https://api.acmi.net.au/creators/?page=1180", "previous": "https://api.acmi.net.au/creators/?page=1178", "results": [{"id": 73573, "name": "Lou Slafer", "roles_in_work": [{"id": 2711366, "title": "Warrior women", "work_id": 109162, "role": "photographer", "role_id": 440, "is_primary": false}], "also_known_as": "", "date_of_birth": null, "date_of_death": null, "genders": [], "languages": [], "places_of_operation": [], "biography": "", "biography_author": null, "date_of_biography": null, "external_links": [], "uuid": "c17ad6f3-81e7-49da-9baa-17d8c4af8463", "source": {"name": "Vernon", "slug": "vernon"}, "source_identifier": "112309", "external_references": [], "date_modified": "2025-03-11T23:50:58.939346+11:00"}, {"id": 73572, "name": "Christine Gillespie", "roles_in_work": [{"id": 2711365, "title": "Warrior women", "work_id": 109162, "role": "writer", "role_id": 939, "is_primary": true}], "also_known_as": "", "date_of_birth": null, "date_of_death": null, "genders": [], "languages": [], "places_of_operation": [], "biography": "", "biography_author": null, "date_of_biography": null, "external_links": [], "uuid": "b4d94514-0954-45c9-8254-75b2939f6cbd", "source": {"name": "Vernon", "slug": "vernon"}, "source_identifier": "112308", "external_references": [{"id": 38539, "source": {"name": "Wikidata", "slug": "wikidata"}, "source_identifier": "Q121036843"}], "date_modified": "2025-03-11T23:50:58.353142+11:00"}, {"id": 73571, "name": "Jacqui Ward", "roles_in_work": [{"id": 2711363, "title": "Warrior women", "work_id": 109162, "role": "creator", "role_id": 968, "is_primary": true}], "also_known_as": "", "date_of_birth": null, "date_of_death": null, "genders": [], "languages": [], "places_of_operation": [], "biography": "", "biography_author": null, "date_of_biography": null, "external_links": [], "uuid": "59ded902-21e4-4661-bb38-411532a8dc7b", "source": {"name": "Vernon", "slug": "vernon"}, "source_identifier": "112201", "external_references": [], "date_modified": "2025-03-11T23:50:57.173817+11:00"}, {"id": 73570, "name": "Damien Jenkins", "roles_in_work": [{"id": 2675501, "title": "Tales from two schools", "work_id": 109155, "role": "principal", "role_id": 461, "is_primary": false}], "also_known_as": "", "date_of_birth": "", "date_of_death": "", "genders": [], "languages": [], "places_of_operation": [], "biography": "", "biography_author": null, "date_of_biography": "2023-05-09T19:13:33.978179+10:00", "external_links": [], "uuid": "6a13c837-7930-4ba4-be0f-65c3e85f908f", "source": {"name": "Vernon", "slug": "vernon"}, "source_identifier": "111897", "external_references": [], "date_modified": "2025-03-06T22:45:20.603898+11:00"}, {"id": 73568, "name": "Stuart Bunt", "roles_in_work": [{"id": 2711321, "title": "MEART", "work_id": 109143, "role": "founder & scientific director", "role_id": 612, "is_primary": false}], "also_known_as": "", "date_of_birth": "", "date_of_death": "", "genders": [], "languages": [], "places_of_operation": [], "biography": "", "biography_author": null, "date_of_biography": "2023-05-09T14:43:40.087176+10:00", "external_links": [], "uuid": "9a3f6fc4-64c8-4e79-b846-993cbdbd95ae", "source": {"name": "Vernon", "slug": "vernon"}, "source_identifier": "1760", "external_references": [], "date_modified": "2025-03-11T23:49:44.822017+11:00"}, {"id": 73567, "name": "Guy Ben-Ary", "roles_in_work": [{"id": 2711320, "title": "MEART", "work_id": 109143, "role": "biological artist", "role_id": 611, "is_primary": false}], "also_known_as": "", "date_of_birth": "", "date_of_death": "", "genders": [{"id": 9, "name": "Male", "slug": "male"}], "languages": [], "places_of_operation": [], "biography": "", "biography_author": null, "date_of_biography": "2023-05-09T14:43:40.327938+10:00", "external_links": [], "uuid": "d6b8ed4b-956c-420d-9a91-8648aa4e984c", "source": {"name": "Vernon", "slug": "vernon"}, "source_identifier": "112245", "external_references": [], "date_modified": "2025-03-11T23:49:46.556286+11:00"}, {"id": 73566, "name": "Ionat Zurr", "roles_in_work": [{"id": 2711318, "title": "MEART", "work_id": 109143, "role": "new media", "role_id": 610, "is_primary": false}], "also_known_as": "", "date_of_birth": "", "date_of_death": "", "genders": [], "languages": [], "places_of_operation": [], "biography": "", "biography_author": null, "date_of_biography": "2023-05-09T14:43:39.628624+10:00", "external_links": [], "uuid": "239c3619-7f35-42aa-911f-38a26728c9ad", "source": {"name": "Vernon", "slug": "vernon"}, "source_identifier": "1759", "external_references": [], "date_modified": "2025-03-11T23:49:43.616784+11:00"}, {"id": 73565, "name": "Oran Catts", "roles_in_work": [{"id": 2711316, "title": "MEART", "work_id": 109143, "role": "research manager", "role_id": 456, "is_primary": false}], "also_known_as": "", "date_of_birth": "", "date_of_death": "", "genders": [], "languages": [], "places_of_operation": [], "biography": "", "biography_author": null, "date_of_biography": "2023-05-09T14:43:39.365827+10:00", "external_links": [], "uuid": "11f720dc-bc4b-49e5-b1ab-699d0cc4db93", "source": {"name": "Vernon", "slug": "vernon"}, "source_identifier": "1758", "external_references": [], "date_modified": "2025-03-11T23:49:43.006342+11:00"}, {"id": 73564, "name": "Rachel Roberts", "roles_in_work": [{"id": 2246678, "title": "Redfern Beach (D)", "work_id": 92835, "role": "co-producer", "role_id": 915, "is_primary": true}, {"id": 1766250, "title": "Harvey", "work_id": 92832, "role": "co-producer", "role_id": 915, "is_primary": true}, {"id": 2641144, "title": "Redfern Beach", "work_id": 114260, "role": "producer", "role_id": 1089, "is_primary": true}, {"id": 2640259, "title": "The Other son", "work_id": 110152, "role": "producer", "role_id": 1089, "is_primary": true}, {"id": 2640371, "title": "Harvey", "work_id": 110374, "role": "producer", "role_id": 1089, "is_primary": true}, {"id": 2711815, "title": "Binary", "work_id": 109411, "role": "producer", "role_id": 1089, "is_primary": true}, {"id": 2619603, "title": "Harvey", "work_id": 109141, "role": "producer", "role_id": 1089, "is_primary": true}], "also_known_as": "", "date_of_birth": "", "date_of_death": "", "genders": [], "languages": [], "places_of_operation": [], "biography": "", "biography_author": null, "date_of_biography": "2023-05-09T17:05:36.006486+10:00", "external_links": [], "uuid": "b938ac89-296f-49cd-b1b9-4761328e0767", "source": {"name": "Vernon", "slug": "vernon"}, "source_identifier": "2875", "external_references": [{"id": 37874, "source": {"name": "Wikidata", "slug": "wikidata"}, "source_identifier": "Q121143771"}], "date_modified": "2025-03-12T00:04:59.074107+11:00"}, {"id": 73563, "name": "Alzheimer's Australia Vic", "roles_in_work": [{"id": 2711800, "title": "Memories for mum", "work_id": 109389, "role": "funding", "role_id": 609, "is_primary": false}, {"id": 2711722, "title": "Carmel: storyteller", "work_id": 109134, "role": "funding", "role_id": 609, "is_primary": false}, {"id": 2711732, "title": "Max and Noel Oliver's story", "work_id": 109132, "role": "funding", "role_id": 609, "is_primary": false}, {"id": 2711739, "title": "Passionate pursuits", "work_id": 109139, "role": "funding", "role_id": 609, "is_primary": false}, {"id": 2711745, "title": "Ron's story", "work_id": 109631, "role": "funding", "role_id": 609, "is_primary": false}, {"id": 2711748, "title": "Simmo, the man I love", "work_id": 109390, "role": "funding", "role_id": 609, "is_primary": false}, {"id": 2711752, "title": "Memory's voice: capturing stories of courage", "work_id": 119773, "role": "funding", "role_id": 609, "is_primary": false}, {"id": 2711803, "title": "You've changed", "work_id": 109391, "role": "funding", "role_id": 609, "is_primary": false}, {"id": 2711806, "title": "A Letter for Marie", "work_id": 109392, "role": "funding", "role_id": 609, "is_primary": false}, {"id": 2711809, "title": "Keith's story", "work_id": 109393, "role": "funding", "role_id": 609, "is_primary": false}, {"id": 2711812, "title": "Peg: a life to remember", "work_id": 109394, "role": "funding", "role_id": 609, "is_primary": false}], "also_known_as": "", "date_of_birth": "", "date_of_death": "", "genders": [], "languages": [], "places_of_operation": [], "biography": "", "biography_author": null, "date_of_biography": "2023-07-05T03:41:44.002455+10:00", "external_links": [], "uuid": "d825a02b-9fda-4390-ba0e-b6ce3b7d611a", "source": {"name": "Vernon", "slug": "vernon"}, "source_identifier": "1916", "external_references": [], "date_modified": "2025-03-12T00:04:52.721929+11:00"}]}