{"count": 28687, "next": "https://api.acmi.net.au/creators/?page=1191", "previous": "https://api.acmi.net.au/creators/?page=1189", "results": [{"id": 73449, "name": "David Nixon", "roles_in_work": [{"id": 2633013, "title": "Bush mechanics", "work_id": 108648, "role": "editor", "role_id": 918, "is_primary": true}], "also_known_as": "", "date_of_birth": "", "date_of_death": "", "genders": [], "languages": [], "places_of_operation": [], "biography": "", "biography_author": null, "date_of_biography": "2023-05-09T13:14:41.249483+10:00", "external_links": [], "uuid": "d78a105d-0cd6-460a-a32c-d52adf0f8971", "source": {"name": "Vernon", "slug": "vernon"}, "source_identifier": "111580", "external_references": [{"id": 43089, "source": {"name": "Wikidata", "slug": "wikidata"}, "source_identifier": "Q121036461"}], "date_modified": "2025-02-28T22:40:07.047999+11:00"}, {"id": 73448, "name": "Francis Kelly", "roles_in_work": [{"id": 2633012, "title": "Bush mechanics", "work_id": 108648, "role": "director", "role_id": 938, "is_primary": true}, {"id": 2127925, "title": "Bush mechanics", "work_id": 91390, "role": "co-director", "role_id": 959, "is_primary": true}], "also_known_as": "", "date_of_birth": "", "date_of_death": "", "genders": [], "languages": [], "places_of_operation": [], "biography": "", "biography_author": null, "date_of_biography": "2023-05-09T13:14:40.984732+10:00", "external_links": [], "uuid": "4245485d-b1c1-43cf-a0cf-4fd54297be2f", "source": {"name": "Vernon", "slug": "vernon"}, "source_identifier": "111010", "external_references": [{"id": 43365, "source": {"name": "Wikidata", "slug": "wikidata"}, "source_identifier": "Q121337252"}], "date_modified": "2025-02-28T22:40:06.440002+11:00"}, {"id": 73447, "name": "David Batty", "roles_in_work": [{"id": 2633010, "title": "Bush mechanics", "work_id": 108648, "role": "director", "role_id": 938, "is_primary": true}, {"id": 2127923, "title": "Bush mechanics", "work_id": 91390, "role": "co-director", "role_id": 959, "is_primary": true}, {"id": 2793782, "title": "Manyu-Wana 4", "work_id": 85985, "role": "co-director", "role_id": 959, "is_primary": true}, {"id": 2793785, "title": "Manyu-Wana 5", "work_id": 85984, "role": "co-director", "role_id": 959, "is_primary": true}, {"id": 2793788, "title": "Manyu-Wana 6", "work_id": 85983, "role": "co-director", "role_id": 959, "is_primary": true}, {"id": 2793795, "title": "Manyu-Wana 8", "work_id": 85981, "role": "co-director", "role_id": 959, "is_primary": true}, {"id": 2793799, "title": "Manyu-Wana 9", "work_id": 85980, "role": "co-director", "role_id": 959, "is_primary": true}, {"id": 2793802, "title": "Manyu-Wana 10", "work_id": 85979, "role": "co-director", "role_id": 959, "is_primary": true}, {"id": 2128007, "title": "Bush Mechanics: Episode 4: The Rainmakers", "work_id": 116754, "role": "co-director", "role_id": 959, "is_primary": true}, {"id": 2127968, "title": "Bush Mechanics", "work_id": 92997, "role": "co-director", "role_id": 959, "is_primary": true}, {"id": 2291118, "title": "Settle down country", "work_id": 82178, "role": "co-producer", "role_id": 915, "is_primary": true}, {"id": 2793777, "title": "Manyu-Wana 3", "work_id": 85986, "role": "co-producers/directors", "role_id": 628, "is_primary": true}, {"id": 2793792, "title": "Manyu-Wana 7", "work_id": 85982, "role": "co-producers/directors", "role_id": 628, "is_primary": true}, {"id": 2793769, "title": "Manyu-Wana 1", "work_id": 85988, "role": "co-producers/directors", "role_id": 628, "is_primary": true}, {"id": 2793772, "title": "Manyu-Wana 2", "work_id": 85987, "role": "co-producers/directors", "role_id": 628, "is_primary": true}, {"id": 2633011, "title": "Bush mechanics", "work_id": 108648, "role": "photographer", "role_id": 440, "is_primary": false}], "also_known_as": "", "date_of_birth": "", "date_of_death": "", "genders": [], "languages": [], "places_of_operation": [], "biography": "", "biography_author": null, "date_of_biography": "2023-05-09T18:19:29.326264+10:00", "external_links": [], "uuid": "3d05b322-6dd1-4071-a986-b02b0ab5f4c9", "source": {"name": "Vernon", "slug": "vernon"}, "source_identifier": "111008", "external_references": [{"id": 37915, "source": {"name": "Wikidata", "slug": "wikidata"}, "source_identifier": "Q121315323"}], "date_modified": "2025-03-14T20:20:39.428480+11:00"}, {"id": 73446, "name": "Duke Ellington", "roles_in_work": [{"id": 2633004, "title": "Daybreak Express", "work_id": 108644, "role": "music", "role_id": 949, "is_primary": false}], "also_known_as": "Edward Kennedy Ellington", "date_of_birth": "1899", "date_of_death": "1974", "genders": [{"id": 9, "name": "Male", "slug": "male"}], "languages": [{"id": 1, "name": "English", "slug": "english"}], "places_of_operation": [{"id": 1, "name": "United States of America", "slug": "united-states-of-america"}], "biography": "Edward Kennedy \"Duke\" Ellington (April 29, 1899 – May 24, 1974) was an American jazz pianist, composer, and leader of his eponymous jazz orchestra from 1923 through the rest of his life.Born and raised in Washington, D.C., Ellington was based in New York City from the mid-1920s and gained a national profile through his orchestra's appearances at the Cotton Club in Harlem. A master at writing miniatures for the three-minute 78 rpm recording format, Ellington wrote or collaborated on more than one thousand compositions; his extensive body of work is the largest recorded personal jazz legacy, and many of his pieces have become standards. He also recorded songs written by his bandsmen, such as Juan Tizol's \"Caravan\", which brought a Spanish tinge to big band jazz.\nAt the end of the 1930s, Ellington began a nearly thirty-year collaboration with composer-arranger-pianist Billy Strayhorn, whom he called his writing and arranging companion. With Strayhorn, he composed multiple extended compositions, or suites, as well as many short pieces. For a few years at the beginning of Strayhorn's involvement, Ellington's orchestra featured bassist Jimmy Blanton and tenor saxophonist Ben Webster and reached a creative peak. Some years later following a low-profile period, an appearance by Ellington and his orchestra at the Newport Jazz Festival in July 1956 led to a major revival and regular world tours. Ellington recorded for most American record companies of his era, performed in and scored several films, and composed a handful of stage musicals.\nAlthough a pivotal figure in the history of jazz, in the opinion of Gunther Schuller and Barry Kernfeld, \"the most significant composer of the genre\", Ellington himself embraced the phrase \"beyond category\", considering it a liberating principle, and referring to his music as part of the more general category of American Music. Ellington was known for his inventive use of the orchestra, or big band, as well as for his eloquence and charisma. He was awarded a posthumous Pulitzer Prize Special Award for music in 1999.", "biography_author": "Wikidata", "date_of_biography": "2023-09-05T19:21:40.962745+10:00", "external_links": [{"id": 5786, "uri": "https://en.wikipedia.org/wiki/Duke_Ellington"}], "uuid": "0395e35e-004a-4929-96e7-1344eb33d796", "source": {"name": "Vernon", "slug": "vernon"}, "source_identifier": "111556", "external_references": [{"id": 36866, "source": {"name": "Wikidata", "slug": "wikidata"}, "source_identifier": "Q4030"}, {"id": 54343, "source": {"name": "VIAF", "slug": "viaf"}, "source_identifier": "66651610"}, {"id": 54344, "source": {"name": "LOC Auth", "slug": "loc-auth"}, "source_identifier": "n50080187"}, {"id": 54345, "source": {"name": "WorldCat", "slug": "worldcat"}, "source_identifier": "lccn-n50080187"}], "date_modified": "2025-02-28T22:40:00.637036+11:00"}, {"id": 73445, "name": "Beth Frey", "roles_in_work": [{"id": 2076429, "title": "A Telephone call for Genevieve Snow", "work_id": 92938, "role": "producer", "role_id": 1089, "is_primary": true}, {"id": 2629962, "title": "A Telephone call for Genevieve Snow", "work_id": 108631, "role": "producer", "role_id": 1089, "is_primary": true}, {"id": 2320633, "title": "Swimming in the backyard", "work_id": 92936, "role": "producer", "role_id": 1089, "is_primary": true}], "also_known_as": "", "date_of_birth": "", "date_of_death": "", "genders": [], "languages": [], "places_of_operation": [], "biography": "", "biography_author": null, "date_of_biography": "2023-05-09T19:11:23.482718+10:00", "external_links": [], "uuid": "c1caedff-6d5d-4cc9-a8fa-25067cb0726c", "source": {"name": "Vernon", "slug": "vernon"}, "source_identifier": "111520", "external_references": [{"id": 36404, "source": {"name": "Wikidata", "slug": "wikidata"}, "source_identifier": "Q121159886"}], "date_modified": "2025-02-27T22:57:52.266789+11:00"}, {"id": 73444, "name": "Murray Lui", "roles_in_work": [{"id": 2640183, "title": "A Simple song", "work_id": 110521, "role": "cinematographer", "role_id": 32, "is_primary": false}, {"id": 2640429, "title": "Midas", "work_id": 110146, "role": "director of photography", "role_id": 925, "is_primary": false}, {"id": 2640053, "title": "Figures in motion", "work_id": 108616, "role": "director of photography", "role_id": 925, "is_primary": false}, {"id": 2640036, "title": "Dressing dad", "work_id": 110507, "role": "director of photography", "role_id": 925, "is_primary": false}, {"id": 2640119, "title": "Grace", "work_id": 110511, "role": "director of photography", "role_id": 925, "is_primary": false}, {"id": 2640147, "title": "Left lane ends", "work_id": 110513, "role": "director of photography", "role_id": 925, "is_primary": false}, {"id": 2640139, "title": "The Lama of Greystanes", "work_id": 110506, "role": "director of photography", "role_id": 925, "is_primary": false}], "also_known_as": "", "date_of_birth": "", "date_of_death": "", "genders": [], "languages": [], "places_of_operation": [], "biography": "", "biography_author": null, "date_of_biography": "2023-05-09T20:10:22.751490+10:00", "external_links": [], "uuid": "956cbe07-19a9-4185-85f4-98c74fb8228d", "source": {"name": "Vernon", "slug": "vernon"}, "source_identifier": "3167", "external_references": [], "date_modified": "2025-03-05T11:27:58.942431+11:00"}, {"id": 73443, "name": "Michael James Rowland", "roles_in_work": [{"id": 2629921, "title": "Flying over mother", "work_id": 108614, "role": "director", "role_id": 938, "is_primary": true}, {"id": 2640358, "title": "Flying over mother", "work_id": 110375, "role": "director", "role_id": 938, "is_primary": true}, {"id": 2629920, "title": "Flying over mother", "work_id": 108614, "role": "creator", "role_id": 968, "is_primary": true}, {"id": 2640360, "title": "Flying over mother", "work_id": 110375, "role": "writer", "role_id": 939, "is_primary": true}], "also_known_as": "", "date_of_birth": "15 JAN 1964", "date_of_death": "", "genders": [{"id": 9, "name": "Male", "slug": "male"}], "languages": [], "places_of_operation": [{"id": 3, "name": "Australia", "slug": "australia"}], "biography": "Michael James Rowland (born 15 January 1964) is an Australian film director. Source: Wikidata; 01/08/2023", "biography_author": null, "date_of_biography": "2025-03-05T11:27:32.017786+11:00", "external_links": [{"id": 4695, "uri": "https://en.wikipedia.org/wiki/Michael_James_Rowland"}], "uuid": "fb11cac6-7672-4108-a190-a6ac91bf95a3", "source": {"name": "Vernon", "slug": "vernon"}, "source_identifier": "111500", "external_references": [{"id": 26533, "source": {"name": "Wikidata", "slug": "wikidata"}, "source_identifier": "Q6831596"}, {"id": 30322, "source": {"name": "VIAF", "slug": "viaf"}, "source_identifier": "313410412"}, {"id": 30323, "source": {"name": "WorldCat", "slug": "worldcat"}, "source_identifier": "viaf-313410412"}], "date_modified": "2025-03-05T11:27:32.018102+11:00"}, {"id": 73442, "name": "Nicole Mitchell", "roles_in_work": [{"id": 2641011, "title": "Egg", "work_id": 110290, "role": "director", "role_id": 938, "is_primary": true}, {"id": 2629901, "title": "Spring ball", "work_id": 108608, "role": "director", "role_id": 938, "is_primary": true}, {"id": 2308188, "title": "Spring ball [Widescreen]", "work_id": 92162, "role": "director", "role_id": 938, "is_primary": true}, {"id": 2640840, "title": "Spring ball", "work_id": 110385, "role": "director", "role_id": 938, "is_primary": true}, {"id": 2642444, "title": "Ciliated thought", "work_id": 110894, "role": "creator", "role_id": 968, "is_primary": true}, {"id": 2629902, "title": "Spring ball", "work_id": 108608, "role": "writer", "role_id": 939, "is_primary": true}, {"id": 2640842, "title": "Spring ball", "work_id": 110385, "role": "writer", "role_id": 939, "is_primary": true}], "also_known_as": "", "date_of_birth": "", "date_of_death": "", "genders": [], "languages": [], "places_of_operation": [], "biography": "", "biography_author": null, "date_of_biography": "2023-05-09T19:45:56.573097+10:00", "external_links": [], "uuid": "4923f8d8-fa45-473f-8c54-01a904c8181e", "source": {"name": "Vernon", "slug": "vernon"}, "source_identifier": "111492", "external_references": [{"id": 39886, "source": {"name": "Wikidata", "slug": "wikidata"}, "source_identifier": "Q120307731"}], "date_modified": "2025-03-05T11:46:39.086196+11:00"}, {"id": 73441, "name": "Sophie Lee", "roles_in_work": [{"id": 2629881, "title": "Titsiana Booberini", "work_id": 108600, "role": "cast", "role_id": 33, "is_primary": false}], "also_known_as": "", "date_of_birth": "07 AUG 1968", "date_of_death": "", "genders": [{"id": 5, "name": "Female", "slug": "female"}], "languages": [], "places_of_operation": [{"id": 3, "name": "Australia", "slug": "australia"}], "biography": "Sophie Lee (born 7 August 1968) is an Australian film, stage and television actress and author. Source: Wikidata; 01/08/2023", "biography_author": null, "date_of_biography": "2025-02-27T22:57:03.616981+11:00", "external_links": [{"id": 5181, "uri": "https://en.wikipedia.org/wiki/Sophie_Lee"}], "uuid": "f4b8e27e-3142-4aea-996b-caa71448ee7c", "source": {"name": "Vernon", "slug": "vernon"}, "source_identifier": "34522", "external_references": [{"id": 25247, "source": {"name": "Wikidata", "slug": "wikidata"}, "source_identifier": "Q959879"}, {"id": 31577, "source": {"name": "VIAF", "slug": "viaf"}, "source_identifier": "49433872"}, {"id": 31578, "source": {"name": "LOC Auth", "slug": "loc-auth"}, "source_identifier": "no00091621"}, {"id": 31579, "source": {"name": "WorldCat", "slug": "worldcat"}, "source_identifier": "lccn-no00091621"}], "date_modified": "2025-02-27T22:57:03.617211+11:00"}, {"id": 73440, "name": "Tania Lacy", "roles_in_work": [{"id": 2629880, "title": "Titsiana Booberini", "work_id": 108600, "role": "cast", "role_id": 33, "is_primary": false}, {"id": 2651788, "title": "TV50 Celebrity Interviews", "work_id": 116800, "role": "interviewee", "role_id": 496, "is_primary": false}], "also_known_as": "", "date_of_birth": "30 JUL 1965", "date_of_death": "", "genders": [{"id": 5, "name": "Female", "slug": "female"}], "languages": [], "places_of_operation": [{"id": 3, "name": "Australia", "slug": "australia"}], "biography": "Tania Jane Lacy is an Australian comedian. Source: Wikidata; 01/08/2023", "biography_author": null, "date_of_biography": "2025-03-05T14:37:57.738136+11:00", "external_links": [{"id": 5240, "uri": "https://en.wikipedia.org/wiki/Tania_Lacy"}], "uuid": "e41d8dc0-e9d8-4f11-8976-cc74bf709aac", "source": {"name": "Vernon", "slug": "vernon"}, "source_identifier": "34521", "external_references": [{"id": 25281, "source": {"name": "Wikidata", "slug": "wikidata"}, "source_identifier": "Q7683246"}], "date_modified": "2025-03-05T14:37:57.738403+11:00"}]}