{"count": 28687, "next": "https://api.acmi.net.au/creators/?page=1387", "previous": "https://api.acmi.net.au/creators/?page=1385", "results": [{"id": 37408, "name": "Paul Annett", "roles_in_work": [{"id": 2330054, "title": "The Beast must die", "work_id": 95214, "role": "director", "role_id": 938, "is_primary": true}], "also_known_as": "", "date_of_birth": "1937-02-18", "date_of_death": "2017-12-11", "genders": [{"id": 9, "name": "Male", "slug": "male"}], "languages": [{"id": 1, "name": "English", "slug": "english"}], "places_of_operation": [{"id": 10, "name": "United Kingdom", "slug": "united-kingdom"}], "biography": "Paul Anthony Annett (18 February 1937 - 11 December 2017) was an English film and television director who directed numerous television programmes including Poldark and EastEnders.\nHis daughter is actress Chloë Annett.", "biography_author": "Wikidata", "date_of_biography": "2022-05-19T12:38:56.383487+10:00", "external_links": [{"id": 2821, "uri": "https://en.wikipedia.org/wiki/Paul_Annett"}], "uuid": "1d92054b-6120-4e9d-b9ac-a4174756341d", "source": {"name": "Vernon", "slug": "vernon"}, "source_identifier": "26161", "external_references": [{"id": 12016, "source": {"name": "Wikidata", "slug": "wikidata"}, "source_identifier": "Q36842946"}, {"id": 12017, "source": {"name": "VIAF", "slug": "viaf"}, "source_identifier": "87041994"}, {"id": 12018, "source": {"name": "WorldCat", "slug": "worldcat"}, "source_identifier": "lccn-no99042671"}], "date_modified": "2023-09-13T12:31:44.989459+10:00"}, {"id": 37399, "name": "Freddy Frances", "roles_in_work": [{"id": 2200040, "title": "Dr Terror's house of horror", "work_id": 95198, "role": "director", "role_id": 938, "is_primary": true}], "also_known_as": "", "date_of_birth": "", "date_of_death": "", "genders": [], "languages": [], "places_of_operation": [], "biography": "", "biography_author": null, "date_of_biography": "2023-05-09T15:24:41.035108+10:00", "external_links": [], "uuid": "4ad62d09-d7ec-49de-a4e8-f18a7d1ca7b4", "source": {"name": "Vernon", "slug": "vernon"}, "source_identifier": "19259", "external_references": [{"id": 33829, "source": {"name": "Wikidata", "slug": "wikidata"}, "source_identifier": "Q121079133"}], "date_modified": "2023-09-05T19:53:01.513959+10:00"}, {"id": 37397, "name": "Canadian Television Fund License Fee Program", "roles_in_work": [{"id": 2102873, "title": "Atanarjuat the fast runner", "work_id": 95196, "role": "production company", "role_id": 941, "is_primary": true}], "also_known_as": "", "date_of_birth": "", "date_of_death": "", "genders": [], "languages": [], "places_of_operation": [], "biography": "", "biography_author": null, "date_of_biography": "2023-05-09T12:34:02.065479+10:00", "external_links": [], "uuid": "32abd856-69a6-4754-9ec7-684da8d452f7", "source": {"name": "Vernon", "slug": "vernon"}, "source_identifier": "6254", "external_references": [{"id": 41406, "source": {"name": "Wikidata", "slug": "wikidata"}, "source_identifier": "Q121270661"}], "date_modified": "2023-09-05T18:18:09.651387+10:00"}, {"id": 37396, "name": "Canadian Television Fund", "roles_in_work": [{"id": 2102867, "title": "Atanarjuat the fast runner", "work_id": 95196, "role": "production company", "role_id": 941, "is_primary": true}], "also_known_as": "", "date_of_birth": "", "date_of_death": "", "genders": [], "languages": [], "places_of_operation": [], "biography": "", "biography_author": null, "date_of_biography": "2023-05-09T12:34:01.792372+10:00", "external_links": [], "uuid": "b2b8ab18-d134-4b04-a3ef-3421845544f1", "source": {"name": "Vernon", "slug": "vernon"}, "source_identifier": "6253", "external_references": [{"id": 34564, "source": {"name": "Wikidata", "slug": "wikidata"}, "source_identifier": "Q121078919"}], "date_modified": "2023-09-05T18:18:09.012915+10:00"}, {"id": 37394, "name": "Medow Films", "roles_in_work": [{"id": 3086749, "title": "Philadelphia, here I come!", "work_id": 95193, "role": "production company", "role_id": 941, "is_primary": true}], "also_known_as": "", "date_of_birth": "", "date_of_death": "", "genders": [], "languages": [], "places_of_operation": [], "biography": "", "biography_author": null, "date_of_biography": "2023-05-09T20:02:32.613010+10:00", "external_links": [], "uuid": "693ba466-c78e-40a7-984d-031c9f97b300", "source": {"name": "Vernon", "slug": "vernon"}, "source_identifier": "10439", "external_references": [{"id": 41061, "source": {"name": "Wikidata", "slug": "wikidata"}, "source_identifier": "Q121298871"}], "date_modified": "2025-03-17T10:45:50.624178+11:00"}, {"id": 37393, "name": "Almo", "roles_in_work": [{"id": 3086741, "title": "In celebration", "work_id": 95192, "role": "production company", "role_id": 941, "is_primary": true}], "also_known_as": "", "date_of_birth": "", "date_of_death": "", "genders": [], "languages": [], "places_of_operation": [], "biography": "", "biography_author": null, "date_of_biography": "2023-05-09T20:02:31.197514+10:00", "external_links": [], "uuid": "4c978b87-4a18-4f22-b300-fd105ce6ff46", "source": {"name": "Vernon", "slug": "vernon"}, "source_identifier": "5156", "external_references": [{"id": 50702, "source": {"name": "Wikidata", "slug": "wikidata"}, "source_identifier": "Q121357912"}], "date_modified": "2025-03-17T10:45:47.686209+11:00"}, {"id": 37391, "name": "Charles Burnett", "roles_in_work": [{"id": 3086114, "title": "Warming by the devil's fire", "work_id": 95183, "role": "director", "role_id": 938, "is_primary": true}], "also_known_as": "", "date_of_birth": "1944", "date_of_death": null, "genders": [{"id": 9, "name": "Male", "slug": "male"}], "languages": [{"id": 1, "name": "English", "slug": "english"}], "places_of_operation": [{"id": 1, "name": "United States of America", "slug": "united-states-of-america"}], "biography": "Charles Burnett (; born April 13, 1944) is an American film director, film producer, writer, editor, actor, photographer, and cinematographer. His most popular films include Killer of Sheep (1978), My Brother's Wedding (1983), To Sleep with Anger (1990), The Glass Shield (1994), and Namibia: The Struggle for Liberation (2007). He has been involved in other types of motion pictures including shorts, documentaries, and a TV series.\nCalled \"one of America's very best filmmakers\" by the Chicago Tribune and \"the nation's least-known great filmmaker and most gifted black director\" by The New York Times, Burnett has had a long, diverse career.", "biography_author": "Wikidata", "date_of_biography": "2022-05-19T11:02:41.782667+10:00", "external_links": [{"id": 1789, "uri": "https://en.wikipedia.org/wiki/Charles_Burnett_(director)"}], "uuid": "f3a2beba-dccf-4f90-a053-69cfd0ed2c83", "source": {"name": "Vernon", "slug": "vernon"}, "source_identifier": "16658", "external_references": [{"id": 7792, "source": {"name": "Wikidata", "slug": "wikidata"}, "source_identifier": "Q1063846"}, {"id": 7793, "source": {"name": "VIAF", "slug": "viaf"}, "source_identifier": "79175111"}, {"id": 7794, "source": {"name": "LOC Auth", "slug": "loc-auth"}, "source_identifier": "n91054790"}, {"id": 7795, "source": {"name": "WorldCat", "slug": "worldcat"}, "source_identifier": "lccn-n91054790"}], "date_modified": "2025-03-17T10:42:32.843674+11:00"}, {"id": 37389, "name": "Reverse Angle International", "roles_in_work": [{"id": 3086194, "title": "Feel like going home", "work_id": 95188, "role": "production company", "role_id": 941, "is_primary": true}, {"id": 3086139, "title": "The Road to Memphis", "work_id": 95185, "role": "production company", "role_id": 941, "is_primary": true}, {"id": 3086158, "title": "Red, white and blues = Red, white & blues", "work_id": 95186, "role": "production company", "role_id": 941, "is_primary": true}, {"id": 3086089, "title": "Piano blues", "work_id": 95182, "role": "production company", "role_id": 941, "is_primary": true}, {"id": 3086174, "title": "Godfathers and sons", "work_id": 95187, "role": "production company", "role_id": 941, "is_primary": true}, {"id": 3086121, "title": "The Soul of a man", "work_id": 95184, "role": "production company", "role_id": 941, "is_primary": true}, {"id": 3086106, "title": "Warming by the devil's fire", "work_id": 95183, "role": "production company", "role_id": 941, "is_primary": true}], "also_known_as": "", "date_of_birth": "", "date_of_death": "", "genders": [], "languages": [], "places_of_operation": [], "biography": "", "biography_author": null, "date_of_biography": "2023-05-09T19:29:48.059132+10:00", "external_links": [], "uuid": "4d1146ef-f0bf-4dd4-ac1a-3d2312b38b9e", "source": {"name": "Vernon", "slug": "vernon"}, "source_identifier": "11986", "external_references": [{"id": 36840, "source": {"name": "Wikidata", "slug": "wikidata"}, "source_identifier": "Q121035259"}], "date_modified": "2025-03-17T10:42:50.167343+11:00"}, {"id": 37388, "name": "Vulcan (US)", "roles_in_work": [{"id": 3086171, "title": "Godfathers and sons", "work_id": 95187, "role": "production company", "role_id": 941, "is_primary": true}, {"id": 3086103, "title": "Warming by the devil's fire", "work_id": 95183, "role": "production company", "role_id": 941, "is_primary": true}, {"id": 3086119, "title": "The Soul of a man", "work_id": 95184, "role": "production company", "role_id": 941, "is_primary": true}, {"id": 3086137, "title": "The Road to Memphis", "work_id": 95185, "role": "production company", "role_id": 941, "is_primary": true}, {"id": 3086156, "title": "Red, white and blues = Red, white & blues", "work_id": 95186, "role": "production company", "role_id": 941, "is_primary": true}, {"id": 3086086, "title": "Piano blues", "work_id": 95182, "role": "production company", "role_id": 941, "is_primary": true}, {"id": 3086191, "title": "Feel like going home", "work_id": 95188, "role": "production company", "role_id": 941, "is_primary": true}, {"id": 3086207, "title": "The Blues Collection = Martin Scorsese presents The Blues a musical journey", "work_id": 115621, "role": "production company", "role_id": 941, "is_primary": true}], "also_known_as": "", "date_of_birth": "", "date_of_death": "", "genders": [], "languages": [], "places_of_operation": [], "biography": "", "biography_author": null, "date_of_biography": "2023-05-09T19:29:49.104392+10:00", "external_links": [], "uuid": "df55f697-c4a9-4ba7-8ecd-e8855a0424a7", "source": {"name": "Vernon", "slug": "vernon"}, "source_identifier": "14206", "external_references": [], "date_modified": "2025-03-17T10:42:52.645758+11:00"}, {"id": 37379, "name": "Media Factory", "roles_in_work": [{"id": 2105472, "title": "Avalon", "work_id": 95178, "role": "production company", "role_id": 941, "is_primary": true}], "also_known_as": "", "date_of_birth": "", "date_of_death": "", "genders": [], "languages": [], "places_of_operation": [], "biography": "Media Factory (メディアファクトリー, Mediafakutorī), formerly known as Media Factory, Inc. (株式会社メディアファクトリー, Kabushiki gaisha Mediafakutorī), doing business as Media Factory, is a Japanese publisher and brand company of Kadokawa Future Publishing.", "biography_author": "Wikidata", "date_of_biography": "2023-08-01T16:11:13.092632+10:00", "external_links": [{"id": 4667, "uri": "https://en.wikipedia.org/wiki/Media_Factory"}], "uuid": "c9f519d8-8658-4d10-bd5a-8f80da63a174", "source": {"name": "Vernon", "slug": "vernon"}, "source_identifier": "10413", "external_references": [{"id": 25218, "source": {"name": "Wikidata", "slug": "wikidata"}, "source_identifier": "Q520454"}, {"id": 30255, "source": {"name": "VIAF", "slug": "viaf"}, "source_identifier": "154979643"}, {"id": 30256, "source": {"name": "WorldCat", "slug": "worldcat"}, "source_identifier": "viaf-154979643"}], "date_modified": "2023-09-05T22:58:43.132465+10:00"}]}