{"count": 28683, "next": "https://api.acmi.net.au/creators/?page=2388", "previous": "https://api.acmi.net.au/creators/?page=2386", "results": [{"id": 15328, "name": "National Association for Maternal and Child Welfare", "roles_in_work": [{"id": 2714748, "title": "God bless mummy and make her good", "work_id": 68097, "role": "production company", "role_id": 941, "is_primary": true}], "also_known_as": "", "date_of_birth": null, "date_of_death": null, "genders": [], "languages": [], "places_of_operation": [], "biography": "", "biography_author": null, "date_of_biography": null, "external_links": [], "uuid": "b26c144d-c9c8-48de-b298-2dcc980c0071", "source": {"name": "Vernon", "slug": "vernon"}, "source_identifier": "10773", "external_references": [], "date_modified": "2025-03-12T01:20:14.729837+11:00"}, {"id": 15327, "name": "Earl Deems", "roles_in_work": [{"id": 2714744, "title": "Go, sober and safe", "work_id": 68094, "role": "producer", "role_id": 1089, "is_primary": true}], "also_known_as": "", "date_of_birth": "", "date_of_death": "", "genders": [], "languages": [], "places_of_operation": [], "biography": "", "biography_author": null, "date_of_biography": "2023-08-11T17:03:29.490588+10:00", "external_links": [], "uuid": "3615a3c7-30d7-418c-84ea-83c1f7323a91", "source": {"name": "Vernon", "slug": "vernon"}, "source_identifier": "18513", "external_references": [], "date_modified": "2025-03-12T01:20:11.601821+11:00"}, {"id": 15326, "name": "Highway Safety Films", "roles_in_work": [{"id": 2714743, "title": "Go, sober and safe", "work_id": 68094, "role": "production company", "role_id": 941, "is_primary": true}], "also_known_as": "", "date_of_birth": "", "date_of_death": "", "genders": [], "languages": [], "places_of_operation": [], "biography": "", "biography_author": null, "date_of_biography": "2023-08-11T17:03:28.866128+10:00", "external_links": [], "uuid": "6d011fc1-8720-4c5d-be35-abd24b630128", "source": {"name": "Vernon", "slug": "vernon"}, "source_identifier": "9105", "external_references": [], "date_modified": "2025-03-12T01:20:11.008704+11:00"}, {"id": 15325, "name": "Praha Loutkovy Film", "roles_in_work": [{"id": 2714730, "title": "A Glittering song", "work_id": 68087, "role": "production company", "role_id": 941, "is_primary": true}], "also_known_as": "", "date_of_birth": "", "date_of_death": "", "genders": [], "languages": [], "places_of_operation": [], "biography": "", "biography_author": null, "date_of_biography": "2023-08-11T13:02:37.119848+10:00", "external_links": [], "uuid": "e437fcf4-c0b7-4e1b-b66e-08cd9665216c", "source": {"name": "Vernon", "slug": "vernon"}, "source_identifier": "11604", "external_references": [], "date_modified": "2025-03-12T01:20:00.771083+11:00"}, {"id": 15324, "name": "Kern Films Basle", "roles_in_work": [{"id": 2714729, "title": "Glissando", "work_id": 68086, "role": "production company", "role_id": 941, "is_primary": true}], "also_known_as": "", "date_of_birth": "", "date_of_death": "", "genders": [], "languages": [], "places_of_operation": [], "biography": "", "biography_author": null, "date_of_biography": "2023-08-11T17:03:17.246779+10:00", "external_links": [], "uuid": "a1bf3017-b340-4ba3-bebe-b1902c90e267", "source": {"name": "Vernon", "slug": "vernon"}, "source_identifier": "9737", "external_references": [], "date_modified": "2025-03-12T01:17:43.284275+11:00"}, {"id": 15323, "name": "S.N.S Sastry", "roles_in_work": [{"id": 2714728, "title": "Glimpses of Western India", "work_id": 68085, "role": "director", "role_id": 938, "is_primary": true}], "also_known_as": "", "date_of_birth": null, "date_of_death": null, "genders": [], "languages": [], "places_of_operation": [], "biography": "", "biography_author": null, "date_of_biography": null, "external_links": [], "uuid": "07649df1-2eb4-4e2f-9579-4082039ecf69", "source": {"name": "Vernon", "slug": "vernon"}, "source_identifier": "28409", "external_references": [], "date_modified": "2025-03-12T01:17:42.421588+11:00"}, {"id": 15322, "name": "N.K. Paralkar", "roles_in_work": [{"id": 2714725, "title": "Glimpses of Gandhiji = Glimpses of Ghandhi", "work_id": 68084, "role": "director", "role_id": 938, "is_primary": true}], "also_known_as": "", "date_of_birth": null, "date_of_death": null, "genders": [], "languages": [], "places_of_operation": [], "biography": "", "biography_author": null, "date_of_biography": null, "external_links": [], "uuid": "93fbeee5-98d5-43d6-ae1d-3c6c7295f0af", "source": {"name": "Vernon", "slug": "vernon"}, "source_identifier": "25582", "external_references": [], "date_modified": "2025-03-12T01:17:40.372122+11:00"}, {"id": 15321, "name": "Shu Taguchi Productions", "roles_in_work": [{"id": 875142, "title": "Ryokan: a Japanese-style hotel", "work_id": 89334, "role": "production company", "role_id": 941, "is_primary": true}, {"id": 2714723, "title": "Glimpses of enchanting Japan", "work_id": 68083, "role": "production company", "role_id": 941, "is_primary": true}, {"id": 874818, "title": "Sojourn in rural Japan: a youth hostel trip", "work_id": 89116, "role": "production company", "role_id": 941, "is_primary": true}, {"id": 855839, "title": "Nara: a stroll through history", "work_id": 70747, "role": "production company", "role_id": 941, "is_primary": true}, {"id": 2615867, "title": "Japan in winter", "work_id": 86301, "role": "production company", "role_id": 941, "is_primary": true}], "also_known_as": "", "date_of_birth": "", "date_of_death": "", "genders": [], "languages": [], "places_of_operation": [], "biography": "", "biography_author": null, "date_of_biography": "2023-08-11T18:46:00.184855+10:00", "external_links": [], "uuid": "3bd6f02a-c2ce-4f74-a286-3c664c7138bc", "source": {"name": "Vernon", "slug": "vernon"}, "source_identifier": "12558", "external_references": [], "date_modified": "2025-03-12T01:17:38.903814+11:00"}, {"id": 15320, "name": "Egpm Tornow", "roles_in_work": [{"id": 2714722, "title": "A Glimpse at a thousand points", "work_id": 68082, "role": "producer", "role_id": 1089, "is_primary": true}], "also_known_as": "", "date_of_birth": null, "date_of_death": null, "genders": [], "languages": [], "places_of_operation": [], "biography": "", "biography_author": null, "date_of_biography": null, "external_links": [], "uuid": "aaea824c-5967-4bb3-9c0f-e9307c53062a", "source": {"name": "Vernon", "slug": "vernon"}, "source_identifier": "18652", "external_references": [], "date_modified": "2025-03-12T01:17:38.052247+11:00"}, {"id": 15319, "name": "Bob Lomax", "roles_in_work": [{"id": 2714718, "title": "Glider in the sky", "work_id": 68080, "role": "director", "role_id": 938, "is_primary": true}], "also_known_as": "", "date_of_birth": "", "date_of_death": "", "genders": [], "languages": [], "places_of_operation": [], "biography": "", "biography_author": null, "date_of_biography": "2023-08-11T17:03:10.926383+10:00", "external_links": [], "uuid": "e0a5b563-a3b7-45be-9c8d-8b2735e8def7", "source": {"name": "Vernon", "slug": "vernon"}, "source_identifier": "16083", "external_references": [], "date_modified": "2025-03-12T01:17:35.150259+11:00"}]}