{"count": 28683, "next": "https://api.acmi.net.au/creators/?page=2564", "previous": "https://api.acmi.net.au/creators/?page=2562", "results": [{"id": 13123, "name": "Cygnet Films", "roles_in_work": [{"id": 856558, "title": "Over the top", "work_id": 71287, "role": "production company", "role_id": 941, "is_primary": true}, {"id": 2644423, "title": "Colour today", "work_id": 66247, "role": "production company", "role_id": 941, "is_primary": true}, {"id": 2678483, "title": "Big John Surtees", "work_id": 65409, "role": "production company", "role_id": 941, "is_primary": true}, {"id": 863274, "title": "Home and dry (TEFC)", "work_id": 76993, "role": "production company", "role_id": 941, "is_primary": true}, {"id": 857034, "title": "Please can I come tomorrow? (TEFC)", "work_id": 71664, "role": "production company", "role_id": 941, "is_primary": true}, {"id": 853716, "title": "It's in your power", "work_id": 69157, "role": "production company", "role_id": 941, "is_primary": true}, {"id": 2713425, "title": "Farmers in business", "work_id": 67408, "role": "production company", "role_id": 941, "is_primary": true}, {"id": 2644612, "title": "Earnings in conflict", "work_id": 66990, "role": "production company", "role_id": 941, "is_primary": true}, {"id": 856421, "title": "Operative training", "work_id": 71194, "role": "production company", "role_id": 941, "is_primary": true}], "also_known_as": "", "date_of_birth": "", "date_of_death": "", "genders": [], "languages": [], "places_of_operation": [], "biography": "", "biography_author": null, "date_of_biography": "2023-08-11T14:50:53.595597+10:00", "external_links": [], "uuid": "74f7955f-313e-4272-9d4c-a4bc3b4d8a2e", "source": {"name": "Vernon", "slug": "vernon"}, "source_identifier": "7261", "external_references": [], "date_modified": "2025-03-12T00:45:08.917033+11:00"}, {"id": 13121, "name": "Michel Pearce", "roles_in_work": [{"id": 826371, "title": "The Big fellow", "work_id": 96318, "role": "director", "role_id": 938, "is_primary": true}, {"id": 2678477, "title": "A Big hand for everyone", "work_id": 65407, "role": "producer/director", "role_id": 31, "is_primary": true}], "also_known_as": "", "date_of_birth": "", "date_of_death": "", "genders": [], "languages": [], "places_of_operation": [], "biography": "", "biography_author": null, "date_of_biography": "2023-08-11T12:52:16.693999+10:00", "external_links": [], "uuid": "b50c511f-8898-4361-95f0-61febac4e887", "source": {"name": "Vernon", "slug": "vernon"}, "source_identifier": "25288", "external_references": [], "date_modified": "2025-03-06T23:51:44.272424+11:00"}, {"id": 13120, "name": "Grant Foster", "roles_in_work": [{"id": 871688, "title": "Strategy for survival [TEFC]", "work_id": 87200, "role": "director", "role_id": 938, "is_primary": true}, {"id": 2678475, "title": "The Big gull: Karoro: New Zealand's black-backed gull", "work_id": 65406, "role": "director", "role_id": 938, "is_primary": true}, {"id": 2646343, "title": "Snofari", "work_id": 72929, "role": "director", "role_id": 938, "is_primary": true}, {"id": 858976, "title": "Strategy for survival", "work_id": 73284, "role": "director", "role_id": 938, "is_primary": true}], "also_known_as": "", "date_of_birth": null, "date_of_death": null, "genders": [], "languages": [], "places_of_operation": [], "biography": "", "biography_author": null, "date_of_biography": null, "external_links": [], "uuid": "0cfb0a22-d5ea-4e06-891d-e192f61aa88f", "source": {"name": "Vernon", "slug": "vernon"}, "source_identifier": "20027", "external_references": [], "date_modified": "2025-03-06T23:51:42.811539+11:00"}, {"id": 13119, "name": "Derek Wright", "roles_in_work": [{"id": 2646991, "title": "The Young protectors", "work_id": 75021, "role": "director", "role_id": 938, "is_primary": true}, {"id": 2713931, "title": "Natural Glass", "work_id": 67666, "role": "producer", "role_id": 1089, "is_primary": true}, {"id": 2678474, "title": "The Big gull: Karoro: New Zealand's black-backed gull", "work_id": 65406, "role": "producer", "role_id": 1089, "is_primary": true}, {"id": 2680077, "title": "Coal valley", "work_id": 66204, "role": "producer", "role_id": 1089, "is_primary": true}, {"id": 1810093, "title": "Jean's fugue", "work_id": 69232, "role": "producer", "role_id": 1089, "is_primary": true}, {"id": 1818281, "title": "Keeling over", "work_id": 75926, "role": "producer", "role_id": 1089, "is_primary": true}, {"id": 1817067, "title": "Beyond the roaring forties", "work_id": 86723, "role": "producer", "role_id": 1089, "is_primary": true}, {"id": 1818336, "title": "The Kauri", "work_id": 76082, "role": "producer", "role_id": 1089, "is_primary": true}, {"id": 1819520, "title": "Golden oldies", "work_id": 77000, "role": "producer", "role_id": 1089, "is_primary": true}, {"id": 1903897, "title": "Score", "work_id": 76049, "role": "producer", "role_id": 1089, "is_primary": true}, {"id": 1820213, "title": "Crayfish coast", "work_id": 77787, "role": "producer", "role_id": 1089, "is_primary": true}, {"id": 2349649, "title": "The Fun gap", "work_id": 77553, "role": "producer", "role_id": 1089, "is_primary": true}], "also_known_as": "", "date_of_birth": "", "date_of_death": "", "genders": [], "languages": [], "places_of_operation": [], "biography": "", "biography_author": null, "date_of_biography": "2023-05-09T19:53:57.717405+10:00", "external_links": [], "uuid": "c16c76d6-43cb-401c-a8c5-386a9b02e799", "source": {"name": "Vernon", "slug": "vernon"}, "source_identifier": "18049", "external_references": [], "date_modified": "2025-03-12T00:56:47.044555+11:00"}, {"id": 13118, "name": "Dennis Films", "roles_in_work": [{"id": 2678469, "title": "Big game fishing in Australia (Italian Version)", "work_id": 65405, "role": "production company", "role_id": 941, "is_primary": true}], "also_known_as": "", "date_of_birth": null, "date_of_death": null, "genders": [], "languages": [], "places_of_operation": [], "biography": "", "biography_author": null, "date_of_biography": null, "external_links": [], "uuid": "7ab0b633-0995-4dfa-948b-f85dfea924ab", "source": {"name": "Vernon", "slug": "vernon"}, "source_identifier": "17997", "external_references": [], "date_modified": "2025-03-06T23:51:38.995555+11:00"}, {"id": 13116, "name": "Dennis Hill Productions", "roles_in_work": [{"id": 2712940, "title": "Energy highway", "work_id": 67166, "role": "director", "role_id": 938, "is_primary": true}, {"id": 859420, "title": "Tertiary training in the RAAF", "work_id": 73628, "role": "director", "role_id": 938, "is_primary": true}, {"id": 749954, "title": "Our daily bread", "work_id": 71240, "role": "director", "role_id": 938, "is_primary": true}, {"id": 753885, "title": "Around Australia. No. 2. South of the Stirlings", "work_id": 73032, "role": "director", "role_id": 938, "is_primary": true}, {"id": 2678467, "title": "Big game fishing in Australia", "work_id": 65404, "role": "director", "role_id": 938, "is_primary": true}, {"id": 2208161, "title": "Play safe", "work_id": 75421, "role": "director", "role_id": 938, "is_primary": true}, {"id": 2678472, "title": "Big game fishing in Australia (Italian Version)", "work_id": 65405, "role": "director", "role_id": 938, "is_primary": true}, {"id": 873484, "title": "Our daily bread [B&W]", "work_id": 88218, "role": "director", "role_id": 938, "is_primary": true}, {"id": 754339, "title": "Story in sand", "work_id": 73223, "role": "director", "role_id": 938, "is_primary": true}, {"id": 1782841, "title": "The Magnetic north", "work_id": 70003, "role": "director", "role_id": 938, "is_primary": true}, {"id": 2392114, "title": "Around Australia. No. 1. South-west corner", "work_id": 73041, "role": "director", "role_id": 938, "is_primary": true}, {"id": 2645230, "title": "International swimmer '76: diving: Montreal Olympics", "work_id": 68997, "role": "producer", "role_id": 1089, "is_primary": true}, {"id": 1811892, "title": "The Story of making the film 'They're a weird mob'", "work_id": 73261, "role": "producer", "role_id": 1089, "is_primary": true}, {"id": 879505, "title": "Olympic prelude: Montreal 1976", "work_id": 91836, "role": "producer/director", "role_id": 31, "is_primary": true}, {"id": 879593, "title": "International swimmer '76", "work_id": 91917, "role": "producer/director", "role_id": 31, "is_primary": true}, {"id": 1782838, "title": "The Magnetic north", "work_id": 70003, "role": "production company", "role_id": 941, "is_primary": true}, {"id": 879504, "title": "Olympic prelude: Montreal 1976", "work_id": 91836, "role": "production company", "role_id": 941, "is_primary": true}, {"id": 879592, "title": "International swimmer '76", "work_id": 91917, "role": "production company", "role_id": 941, "is_primary": true}, {"id": 2679556, "title": "The Changing hills", "work_id": 65954, "role": "production company", "role_id": 941, "is_primary": true}, {"id": 2645229, "title": "International swimmer '76: diving: Montreal Olympics", "work_id": 68997, "role": "production company", "role_id": 941, "is_primary": true}, {"id": 2678464, "title": "Big game fishing in Australia", "work_id": 65404, "role": "production company", "role_id": 941, "is_primary": true}, {"id": 858945, "title": "The Story of making the film 'They're a weird mob'", "work_id": 73261, "role": "production company", "role_id": 941, "is_primary": true}, {"id": 879499, "title": "Water polo: Montreal Olympics", "work_id": 91833, "role": "production company", "role_id": 941, "is_primary": true}], "also_known_as": "", "date_of_birth": "", "date_of_death": "", "genders": [], "languages": [], "places_of_operation": [], "biography": "", "biography_author": null, "date_of_biography": "2023-08-09T03:52:17.164510+10:00", "external_links": [], "uuid": "23bbd951-9c42-4def-9851-4bc854042d8e", "source": {"name": "Vernon", "slug": "vernon"}, "source_identifier": "7404", "external_references": [{"id": 38006, "source": {"name": "Wikidata", "slug": "wikidata"}, "source_identifier": "Q121034298"}], "date_modified": "2025-03-12T00:33:40.413005+11:00"}, {"id": 13115, "name": "Audio Visual Workshop", "roles_in_work": [{"id": 2644151, "title": "The Big day", "work_id": 65401, "role": "production company", "role_id": 941, "is_primary": true}], "also_known_as": "", "date_of_birth": null, "date_of_death": null, "genders": [], "languages": [], "places_of_operation": [], "biography": "", "biography_author": null, "date_of_biography": null, "external_links": [], "uuid": "7c327fe8-d88b-4c47-afcf-ec0746bea74a", "source": {"name": "Vernon", "slug": "vernon"}, "source_identifier": "5532", "external_references": [], "date_modified": "2025-03-05T12:11:42.356875+11:00"}, {"id": 13114, "name": "CBS Television", "roles_in_work": [{"id": 2711923, "title": "The Delinquent, the hipster and the square", "work_id": 66689, "role": "production company", "role_id": 941, "is_primary": true}, {"id": 857083, "title": "The Population explosion", "work_id": 71706, "role": "production company", "role_id": 941, "is_primary": true}, {"id": 895984, "title": "Tomorrow: the thinking machine", "work_id": 73700, "role": "production company", "role_id": 941, "is_primary": true}, {"id": 2315656, "title": "Streisand: my name is Barbra", "work_id": 87914, "role": "production company", "role_id": 941, "is_primary": true}, {"id": 2768442, "title": "New York University: physical rehabilitation", "work_id": 70878, "role": "production company", "role_id": 941, "is_primary": true}, {"id": 2768445, "title": "[Marriage counselling]", "work_id": 74215, "role": "production company", "role_id": 941, "is_primary": true}, {"id": 2644148, "title": "Big city 1980", "work_id": 65399, "role": "production company", "role_id": 941, "is_primary": true}], "also_known_as": "", "date_of_birth": "", "date_of_death": "", "genders": [], "languages": [], "places_of_operation": [], "biography": "", "biography_author": null, "date_of_biography": "2023-05-09T19:03:48.518887+10:00", "external_links": [], "uuid": "4946232f-ce93-43a0-9853-c319c963b2df", "source": {"name": "Vernon", "slug": "vernon"}, "source_identifier": "6376", "external_references": [{"id": 35447, "source": {"name": "Wikidata", "slug": "wikidata"}, "source_identifier": "Q121315085"}], "date_modified": "2025-03-12T00:06:17.689134+11:00"}, {"id": 13113, "name": "Charles Sutton", "roles_in_work": [{"id": 2678462, "title": "The Big cats: endangered predators", "work_id": 65398, "role": "producer", "role_id": 1089, "is_primary": true}, {"id": 1812598, "title": "Television: behind the scenes", "work_id": 73589, "role": "producer", "role_id": 1089, "is_primary": true}], "also_known_as": "", "date_of_birth": null, "date_of_death": null, "genders": [], "languages": [], "places_of_operation": [], "biography": "", "biography_author": null, "date_of_biography": null, "external_links": [], "uuid": "e950e49f-c435-4b23-8e9a-eaf0eaaa759e", "source": {"name": "Vernon", "slug": "vernon"}, "source_identifier": "16732", "external_references": [], "date_modified": "2025-03-06T23:51:33.901191+11:00"}, {"id": 13112, "name": "Bob Talbot Productions", "roles_in_work": [{"id": 2678457, "title": "Big brown beastie, big brown face", "work_id": 65396, "role": "production company", "role_id": 941, "is_primary": true}, {"id": 2644977, "title": "Gold is forever", "work_id": 68110, "role": "production company", "role_id": 941, "is_primary": true}], "also_known_as": "", "date_of_birth": "", "date_of_death": "", "genders": [], "languages": [], "places_of_operation": [], "biography": "", "biography_author": null, "date_of_biography": "2023-08-11T14:50:36.474456+10:00", "external_links": [], "uuid": "b99fc96f-571b-4aea-8001-8f7d50fff6f2", "source": {"name": "Vernon", "slug": "vernon"}, "source_identifier": "5931", "external_references": [], "date_modified": "2025-03-06T23:51:30.271577+11:00"}]}