{"count": 28687, "next": "https://api.acmi.net.au/creators/?page=973", "previous": "https://api.acmi.net.au/creators/?page=971", "results": [{"id": 75862, "name": "Michael Spewak", "roles_in_work": [{"id": 897170, "title": "The Whole truth (1976)", "work_id": 76986, "role": "co-producer", "role_id": 915, "is_primary": true}], "also_known_as": "", "date_of_birth": null, "date_of_death": null, "genders": [], "languages": [], "places_of_operation": [], "biography": "", "biography_author": null, "date_of_biography": null, "external_links": [], "uuid": "50fd5e88-738e-4ece-96ab-abe40e496b95", "source": {"name": "Vernon", "slug": "vernon"}, "source_identifier": null, "external_references": [{"id": 34459, "source": {"name": "Wikidata", "slug": "wikidata"}, "source_identifier": "Q121299022"}], "date_modified": "2023-09-05T23:09:24.180002+10:00"}, {"id": 75861, "name": "Australia Japan Foundation", "roles_in_work": [{"id": 2761833, "title": "The Career escalator", "work_id": 76976, "role": "production company", "role_id": 941, "is_primary": true}, {"id": 2761819, "title": "Raw fish and pickle", "work_id": 76983, "role": "production company", "role_id": 941, "is_primary": true}], "also_known_as": "", "date_of_birth": "", "date_of_death": "", "genders": [], "languages": [], "places_of_operation": [], "biography": "", "biography_author": null, "date_of_biography": "2023-05-09T19:32:04.006341+10:00", "external_links": [], "uuid": "26dfb864-330f-4804-a8ac-b8547e7571b8", "source": {"name": "Vernon", "slug": "vernon"}, "source_identifier": "5555", "external_references": [{"id": 33876, "source": {"name": "Wikidata", "slug": "wikidata"}, "source_identifier": "Q121126674"}], "date_modified": "2025-03-14T17:35:40.565256+11:00"}, {"id": 75860, "name": "Martin Curtis", "roles_in_work": [{"id": 2259258, "title": "S.O.S", "work_id": 76965, "role": "co-producer", "role_id": 915, "is_primary": true}], "also_known_as": "", "date_of_birth": "", "date_of_death": "", "genders": [], "languages": [], "places_of_operation": [], "biography": "", "biography_author": null, "date_of_biography": "2023-05-09T17:25:17.186095+10:00", "external_links": [], "uuid": "4432324b-2970-4fc5-a1ba-f7467bc95e1d", "source": {"name": "Vernon", "slug": "vernon"}, "source_identifier": "24625", "external_references": [{"id": 42307, "source": {"name": "Wikidata", "slug": "wikidata"}, "source_identifier": "Q121222923"}], "date_modified": "2023-09-05T22:49:15.477026+10:00"}, {"id": 75859, "name": "Terry Walker", "roles_in_work": [{"id": 2297077, "title": "Sharking", "work_id": 76944, "role": "co-producer", "role_id": 915, "is_primary": true}], "also_known_as": "", "date_of_birth": "", "date_of_death": "", "genders": [], "languages": [], "places_of_operation": [], "biography": "", "biography_author": null, "date_of_biography": "2023-05-09T18:29:31.796735+10:00", "external_links": [], "uuid": "16a3fec4-59b7-4d18-9c1e-eda0d41c5f80", "source": {"name": "Vernon", "slug": "vernon"}, "source_identifier": "29618", "external_references": [{"id": 41622, "source": {"name": "Wikidata", "slug": "wikidata"}, "source_identifier": "Q121036730"}], "date_modified": "2023-09-06T01:46:45.477800+10:00"}, {"id": 75858, "name": "Andy Walker", "roles_in_work": [{"id": 2755341, "title": "Filling time", "work_id": 76942, "role": "director", "role_id": 938, "is_primary": true}], "also_known_as": "", "date_of_birth": "", "date_of_death": "", "genders": [], "languages": [], "places_of_operation": [], "biography": "", "biography_author": null, "date_of_biography": "2023-05-09T16:51:47.335069+10:00", "external_links": [], "uuid": "8c99b6a5-43de-4e78-bc27-954bb4add4e8", "source": {"name": "Vernon", "slug": "vernon"}, "source_identifier": "15250", "external_references": [{"id": 33437, "source": {"name": "Wikidata", "slug": "wikidata"}, "source_identifier": "Q121299430"}], "date_modified": "2025-03-13T14:32:16.281736+11:00"}, {"id": 75857, "name": "Joan D. Owens", "roles_in_work": [{"id": 2230580, "title": "Productivity and the self-fulfilling prophecy the pygmalion", "work_id": 76935, "role": "producer/director", "role_id": 31, "is_primary": true}, {"id": 763209, "title": "Transactional analysis", "work_id": 76936, "role": "producer/director", "role_id": 31, "is_primary": true}], "also_known_as": "", "date_of_birth": "", "date_of_death": "", "genders": [], "languages": [], "places_of_operation": [], "biography": "", "biography_author": null, "date_of_biography": "2023-05-09T16:36:09.623145+10:00", "external_links": [], "uuid": "1359701e-687f-44f8-8648-6d5da8de4dee", "source": {"name": "Vernon", "slug": "vernon"}, "source_identifier": "21968", "external_references": [{"id": 52067, "source": {"name": "Wikidata", "slug": "wikidata"}, "source_identifier": "Q121361242"}], "date_modified": "2023-09-05T21:27:37.049979+10:00"}, {"id": 75856, "name": "David Grotenstein", "roles_in_work": [{"id": 2068686, "title": "A Director talks about his film", "work_id": 76926, "role": "director", "role_id": 938, "is_primary": true}, {"id": 2068682, "title": "A Director talks about his film", "work_id": 76926, "role": "co-producer", "role_id": 915, "is_primary": true}], "also_known_as": "", "date_of_birth": "", "date_of_death": "", "genders": [], "languages": [], "places_of_operation": [], "biography": "", "biography_author": null, "date_of_biography": "2023-05-09T11:28:26.776869+10:00", "external_links": [], "uuid": "96b8da13-fd22-41f6-bde7-889c93a715dd", "source": {"name": "Vernon", "slug": "vernon"}, "source_identifier": "17610", "external_references": [{"id": 34726, "source": {"name": "Wikidata", "slug": "wikidata"}, "source_identifier": "Q121034741"}], "date_modified": "2023-09-05T18:58:01.123239+10:00"}, {"id": 75855, "name": "Peter Riegert", "roles_in_work": [{"id": 2068678, "title": "A Director talks about his film", "work_id": 76926, "role": "co-producer", "role_id": 915, "is_primary": true}], "also_known_as": "", "date_of_birth": "", "date_of_death": "", "genders": [], "languages": [], "places_of_operation": [], "biography": "", "biography_author": null, "date_of_biography": "2023-05-09T11:28:26.072295+10:00", "external_links": [], "uuid": "9aaea4da-27ab-4802-8595-4d45801b665a", "source": {"name": "Vernon", "slug": "vernon"}, "source_identifier": "26686", "external_references": [{"id": 36444, "source": {"name": "Wikidata", "slug": "wikidata"}, "source_identifier": "Q1339019"}], "date_modified": "2023-09-06T00:00:05.552097+10:00"}, {"id": 75854, "name": "Susan Krebs", "roles_in_work": [{"id": 2068673, "title": "A Director talks about his film", "work_id": 76926, "role": "co-producer", "role_id": 915, "is_primary": true}], "also_known_as": "", "date_of_birth": "", "date_of_death": "", "genders": [], "languages": [], "places_of_operation": [], "biography": "", "biography_author": null, "date_of_biography": "2023-05-09T11:28:25.821363+10:00", "external_links": [], "uuid": "fde759fd-93cb-4752-8ced-360f2fb610ed", "source": {"name": "Vernon", "slug": "vernon"}, "source_identifier": "29343", "external_references": [{"id": 33046, "source": {"name": "Wikidata", "slug": "wikidata"}, "source_identifier": "Q121337000"}], "date_modified": "2023-09-06T01:36:42.712936+10:00"}, {"id": 75853, "name": "Gus Howard", "roles_in_work": [{"id": 2198252, "title": "Don't just stand there coughing", "work_id": 76919, "role": "producer", "role_id": 1089, "is_primary": true}, {"id": 2330038, "title": "The Battlers", "work_id": 90575, "role": "producer", "role_id": 1089, "is_primary": true}, {"id": 2752880, "title": "Running high: a story of pain and joy ...", "work_id": 98499, "role": "producer/director", "role_id": 31, "is_primary": true}], "also_known_as": "", "date_of_birth": "", "date_of_death": "", "genders": [], "languages": [], "places_of_operation": [], "biography": "", "biography_author": null, "date_of_biography": "2023-05-09T19:24:22.909205+10:00", "external_links": [], "uuid": "56f4020d-eab0-486f-b231-c347866a3140", "source": {"name": "Vernon", "slug": "vernon"}, "source_identifier": "20122", "external_references": [{"id": 33464, "source": {"name": "Wikidata", "slug": "wikidata"}, "source_identifier": "Q121223413"}], "date_modified": "2025-03-13T01:13:23.242550+11:00"}]}