{"count": 28687, "next": "https://api.acmi.net.au/creators/?page=2063", "previous": "https://api.acmi.net.au/creators/?page=2061", "results": [{"id": 21313, "name": "Edward Bennett", "roles_in_work": [{"id": 2101823, "title": "Ascendancy", "work_id": 84780, "role": "director", "role_id": 938, "is_primary": true}, {"id": 864917, "title": "Four questions about art", "work_id": 78415, "role": "director", "role_id": 938, "is_primary": true}, {"id": 906817, "title": "The Scarlet pimpernel [Grant]", "work_id": 87433, "role": "co-director", "role_id": 959, "is_primary": true}], "also_known_as": "", "date_of_birth": "1950-11-28", "date_of_death": "", "genders": [{"id": 9, "name": "Male", "slug": "male"}], "languages": [{"id": 1, "name": "English", "slug": "english"}], "places_of_operation": [{"id": 10, "name": "United Kingdom", "slug": "united-kingdom"}], "biography": "Edward Bennett (born 1950) is a British film and TV director. He was educated at Eton College. His most notable film is Ascendancy (1982), for which he won the Golden Bear at the 33rd Berlin International Film Festival. The following year he was a member of the jury at the 34th Berlin International Film Festival.He has also directed episodes of Bergerac, C.A.T.S. Eyes and Inspector Morse.", "biography_author": "Wikidata", "date_of_biography": "2023-08-01T14:44:45.376653+10:00", "external_links": [{"id": 3931, "uri": "https://en.wikipedia.org/wiki/Edward_Bennett_(director)"}], "uuid": "c964aa70-50eb-4f1a-941c-33528ecb3cb0", "source": {"name": "Vernon", "slug": "vernon"}, "source_identifier": "18578", "external_references": [{"id": 25687, "source": {"name": "Wikidata", "slug": "wikidata"}, "source_identifier": "Q3048459"}, {"id": 28299, "source": {"name": "VIAF", "slug": "viaf"}, "source_identifier": "120002396"}, {"id": 28300, "source": {"name": "LOC Auth", "slug": "loc-auth"}, "source_identifier": "nb2010020580"}, {"id": 28301, "source": {"name": "WorldCat", "slug": "worldcat"}, "source_identifier": "lccn-nb2010020580"}], "date_modified": "2023-09-05T19:25:28.907900+10:00"}, {"id": 21312, "name": "Cactus Films", "roles_in_work": [{"id": 2476395, "title": "Yol", "work_id": 93371, "role": "production company", "role_id": 941, "is_primary": true}, {"id": 864916, "title": "Four questions about art", "work_id": 78415, "role": "production company", "role_id": 941, "is_primary": true}], "also_known_as": "", "date_of_birth": "", "date_of_death": "", "genders": [], "languages": [], "places_of_operation": [], "biography": "", "biography_author": null, "date_of_biography": "2023-08-17T15:36:09.015793+10:00", "external_links": [], "uuid": "2220c33d-1418-4f85-b07b-d33ab0e64e13", "source": {"name": "Vernon", "slug": "vernon"}, "source_identifier": "6183", "external_references": [], "date_modified": "2023-08-17T15:36:09.016002+10:00"}, {"id": 21306, "name": "John Pettman", "roles_in_work": [{"id": 2648154, "title": "The Lost babies", "work_id": 78408, "role": "director", "role_id": 938, "is_primary": true}], "also_known_as": "", "date_of_birth": null, "date_of_death": null, "genders": [], "languages": [], "places_of_operation": [], "biography": "", "biography_author": null, "date_of_biography": null, "external_links": [], "uuid": "64094b35-d7e8-48d7-98af-ebc3b590642d", "source": {"name": "Vernon", "slug": "vernon"}, "source_identifier": "22466", "external_references": [], "date_modified": "2025-03-05T13:40:30.438103+11:00"}, {"id": 21305, "name": "Esther Rantzen", "roles_in_work": [{"id": 2648153, "title": "The Lost babies", "work_id": 78408, "role": "producer", "role_id": 1089, "is_primary": true}], "also_known_as": "", "date_of_birth": null, "date_of_death": null, "genders": [], "languages": [], "places_of_operation": [], "biography": "", "biography_author": null, "date_of_biography": null, "external_links": [], "uuid": "6cd632a7-5ffe-412c-af9b-f567992da8c4", "source": {"name": "Vernon", "slug": "vernon"}, "source_identifier": "18892", "external_references": [], "date_modified": "2025-03-05T13:40:29.851462+11:00"}, {"id": 21304, "name": "John Kiley", "roles_in_work": [{"id": 767103, "title": "Personal Best", "work_id": 78407, "role": "director", "role_id": 938, "is_primary": true}, {"id": 2754850, "title": "I like myself, we're friends", "work_id": 99398, "role": "producer/director", "role_id": 31, "is_primary": true}], "also_known_as": "", "date_of_birth": "", "date_of_death": "", "genders": [], "languages": [], "places_of_operation": [], "biography": "", "biography_author": null, "date_of_biography": "2023-08-11T18:16:19.444562+10:00", "external_links": [], "uuid": "e96bddd9-6871-4ad4-a227-af3874ea928c", "source": {"name": "Vernon", "slug": "vernon"}, "source_identifier": "22350", "external_references": [], "date_modified": "2025-03-13T01:52:20.699170+11:00"}, {"id": 21303, "name": "Capricorn Films", "roles_in_work": [{"id": 1805767, "title": "Personal Best", "work_id": 78407, "role": "producer", "role_id": 1089, "is_primary": true}, {"id": 2754849, "title": "I like myself, we're friends", "work_id": 99398, "role": "production company", "role_id": 941, "is_primary": true}], "also_known_as": "", "date_of_birth": "", "date_of_death": "", "genders": [], "languages": [], "places_of_operation": [], "biography": "", "biography_author": null, "date_of_biography": "2023-08-11T18:16:18.809016+10:00", "external_links": [], "uuid": "70f711f3-80ef-4474-b28d-1f2f32811acf", "source": {"name": "Vernon", "slug": "vernon"}, "source_identifier": "6283", "external_references": [], "date_modified": "2025-03-13T01:52:17.164204+11:00"}, {"id": 21301, "name": "Sylvie Le Clezio", "roles_in_work": [{"id": 2340442, "title": "The Coca-Cola Kid", "work_id": 80023, "role": "co-producer", "role_id": 915, "is_primary": true}, {"id": 1983911, "title": "Allies", "work_id": 78406, "role": "producer", "role_id": 1089, "is_primary": true}], "also_known_as": "", "date_of_birth": "", "date_of_death": "", "genders": [], "languages": [], "places_of_operation": [], "biography": "", "biography_author": null, "date_of_biography": "2023-05-09T19:38:46.400726+10:00", "external_links": [], "uuid": "ec9fd347-526a-4589-b398-0ba862996f4f", "source": {"name": "Vernon", "slug": "vernon"}, "source_identifier": "29434", "external_references": [{"id": 51874, "source": {"name": "Wikidata", "slug": "wikidata"}, "source_identifier": "Q121357813"}], "date_modified": "2023-09-06T01:39:35.857278+10:00"}, {"id": 21300, "name": "Sorel Productions", "roles_in_work": [{"id": 2466220, "title": "Stop that Fire", "work_id": 78405, "role": "production company", "role_id": 941, "is_primary": true}], "also_known_as": "", "date_of_birth": "", "date_of_death": "", "genders": [], "languages": [], "places_of_operation": [], "biography": "", "biography_author": null, "date_of_biography": "2023-08-14T10:52:27.148177+10:00", "external_links": [], "uuid": "c135bd9d-53c0-4c1e-ad55-68e195181dec", "source": {"name": "Vernon", "slug": "vernon"}, "source_identifier": "12756", "external_references": [], "date_modified": "2023-08-14T10:52:27.148765+10:00"}, {"id": 21297, "name": "Arbeitsgruppe Medienverband", "roles_in_work": [{"id": 2185918, "title": "Panama", "work_id": 82706, "role": "production company", "role_id": 941, "is_primary": true}, {"id": 2185941, "title": "Panama", "work_id": 78402, "role": "production company", "role_id": 941, "is_primary": true}], "also_known_as": "", "date_of_birth": "", "date_of_death": "", "genders": [], "languages": [], "places_of_operation": [], "biography": "", "biography_author": null, "date_of_biography": "2023-05-09T15:00:59.608379+10:00", "external_links": [], "uuid": "4d55661e-19f4-4233-b994-9bd46b59bffe", "source": {"name": "Vernon", "slug": "vernon"}, "source_identifier": "15445", "external_references": [{"id": 34260, "source": {"name": "Wikidata", "slug": "wikidata"}, "source_identifier": "Q121314960"}], "date_modified": "2023-09-05T17:43:27.697809+10:00"}, {"id": 21296, "name": "Gary McGivney", "roles_in_work": [{"id": 898365, "title": "The Clown of God", "work_id": 78397, "role": "director", "role_id": 938, "is_primary": true}, {"id": 905564, "title": "The Clown of God (K)", "work_id": 86190, "role": "director", "role_id": 938, "is_primary": true}, {"id": 2614138, "title": "Max's Christmas and 3 other Christmas stories", "work_id": 83182, "role": "co-director", "role_id": 959, "is_primary": true}], "also_known_as": "", "date_of_birth": "", "date_of_death": "", "genders": [], "languages": [], "places_of_operation": [], "biography": "", "biography_author": null, "date_of_biography": "2023-05-09T14:29:46.870603+10:00", "external_links": [], "uuid": "50b604ed-1e9a-4c05-9d65-a2101d6c5c76", "source": {"name": "Vernon", "slug": "vernon"}, "source_identifier": "19424", "external_references": [{"id": 40159, "source": {"name": "Wikidata", "slug": "wikidata"}, "source_identifier": "Q121035432"}], "date_modified": "2025-02-26T20:07:09.568487+11:00"}]}