{"count": 28687, "next": "https://api.acmi.net.au/creators/?page=2302", "previous": "https://api.acmi.net.au/creators/?page=2300", "results": [{"id": 16733, "name": "Charles Guggenheim", "roles_in_work": [{"id": 855588, "title": "Monument to the dream", "work_id": 70558, "role": "director", "role_id": 938, "is_primary": true}, {"id": 856159, "title": "Now 'airport'", "work_id": 71003, "role": "director", "role_id": 938, "is_primary": true}, {"id": 856046, "title": "Nine from Little Rock", "work_id": 70909, "role": "director", "role_id": 938, "is_primary": true}], "also_known_as": "", "date_of_birth": "1924-03-31", "date_of_death": "2002-10-09", "genders": [{"id": 9, "name": "Male", "slug": "male"}], "languages": [], "places_of_operation": [{"id": 1, "name": "United States of America", "slug": "united-states-of-america"}], "biography": "Charles Eli Guggenheim (March 31, 1924 – October 9, 2002) was an American documentary film director, producer, and screenwriter. He was the most honored documentary filmmaker in the academy history, winning four Oscars from twelve nominations.", "biography_author": "Wikidata", "date_of_biography": "2023-08-01T14:22:46.476578+10:00", "external_links": [{"id": 3735, "uri": "https://en.wikipedia.org/wiki/Charles_Guggenheim"}], "uuid": "fe0a00f6-b638-4ada-bf32-ea917a523fea", "source": {"name": "Vernon", "slug": "vernon"}, "source_identifier": "16679", "external_references": [{"id": 25567, "source": {"name": "Wikidata", "slug": "wikidata"}, "source_identifier": "Q1064629"}, {"id": 27749, "source": {"name": "VIAF", "slug": "viaf"}, "source_identifier": "2748255"}, {"id": 27750, "source": {"name": "LOC Auth", "slug": "loc-auth"}, "source_identifier": "n84229139"}, {"id": 27751, "source": {"name": "WorldCat", "slug": "worldcat"}, "source_identifier": "lccn-n84229139"}], "date_modified": "2023-09-13T12:28:40.716126+10:00"}, {"id": 16730, "name": "Montana Highway Commission", "roles_in_work": [{"id": 2463552, "title": "Montana: big sky, big snow", "work_id": 70556, "role": "production company", "role_id": 941, "is_primary": true}], "also_known_as": "", "date_of_birth": "", "date_of_death": "", "genders": [], "languages": [], "places_of_operation": [], "biography": "", "biography_author": null, "date_of_biography": "2023-08-14T09:53:00.664526+10:00", "external_links": [], "uuid": "5463a502-7649-4cb3-b9de-a5368e8a9486", "source": {"name": "Vernon", "slug": "vernon"}, "source_identifier": "10625", "external_references": [], "date_modified": "2023-08-14T09:53:00.664822+10:00"}, {"id": 16729, "name": "Brian Moser", "roles_in_work": [{"id": 2770536, "title": "Mongolia. Ep. 2. The City on the Steppes", "work_id": 70550, "role": "producer", "role_id": 1089, "is_primary": true}], "also_known_as": "", "date_of_birth": "", "date_of_death": "", "genders": [], "languages": [], "places_of_operation": [], "biography": "", "biography_author": null, "date_of_biography": "2023-08-14T12:08:44.058671+10:00", "external_links": [], "uuid": "622b05cf-d67b-4542-afaf-8931218131b5", "source": {"name": "Vernon", "slug": "vernon"}, "source_identifier": "16242", "external_references": [], "date_modified": "2025-03-14T18:19:41.786696+11:00"}, {"id": 16728, "name": "Mongolian Television", "roles_in_work": [{"id": 2770533, "title": "Mongolia. Ep. 2. The City on the Steppes", "work_id": 70550, "role": "production company", "role_id": 941, "is_primary": true}], "also_known_as": "", "date_of_birth": "", "date_of_death": "", "genders": [], "languages": [], "places_of_operation": [], "biography": "", "biography_author": null, "date_of_biography": "2023-08-14T12:08:43.425833+10:00", "external_links": [], "uuid": "a6f3b9bc-be08-411e-a691-5c900bacdcc9", "source": {"name": "Vernon", "slug": "vernon"}, "source_identifier": "10614", "external_references": [], "date_modified": "2025-03-14T18:19:41.207943+11:00"}, {"id": 16727, "name": "Alvin Rakoff", "roles_in_work": [{"id": 855570, "title": "Money-go-round", "work_id": 70549, "role": "director", "role_id": 938, "is_primary": true}, {"id": 2755546, "title": "Romeo and Juliet", "work_id": 79399, "role": "director", "role_id": 938, "is_primary": true}, {"id": 917916, "title": "Mr. Halpern and Mr. Johnson", "work_id": 95390, "role": "director", "role_id": 938, "is_primary": true}, {"id": 2077628, "title": "A Voyage round my father", "work_id": 82507, "role": "producer/director", "role_id": 31, "is_primary": true}], "also_known_as": "", "date_of_birth": "18 FEB 1927", "date_of_death": "", "genders": [{"id": 9, "name": "Male", "slug": "male"}], "languages": [{"id": 1, "name": "English", "slug": "english"}], "places_of_operation": [{"id": 36, "name": "Canada", "slug": "canada"}], "biography": "Alvin Rakoff (born Abraham Rakoff; February 6, 1927) is a Canadian director of film, television and theatre productions. He has worked with actors including Laurence Olivier, Peter Sellers, Sean Connery, Judi Dench, Rex Harrison, Rod Steiger, Henry Fonda and Ava Gardner.He gave Sean Connery his first leading role when he was an unknown extra, and gave Alan Rickman his first job when he was a drama student. Other actors he worked with early in their careers include Michael Crawford, Jeremy Irons, and Michael Caine. Source: Wikidata; 01/08/2023", "biography_author": null, "date_of_biography": "2025-03-13T14:33:53.263239+11:00", "external_links": [{"id": 3536, "uri": "https://en.wikipedia.org/wiki/Alvin_Rakoff"}], "uuid": "12c8a67f-5023-4545-816e-a2db30e559e7", "source": {"name": "Vernon", "slug": "vernon"}, "source_identifier": "15042", "external_references": [{"id": 26001, "source": {"name": "Wikidata", "slug": "wikidata"}, "source_identifier": "Q2840603"}, {"id": 27215, "source": {"name": "VIAF", "slug": "viaf"}, "source_identifier": "74682259"}, {"id": 27216, "source": {"name": "LOC Auth", "slug": "loc-auth"}, "source_identifier": "no95030047"}, {"id": 27217, "source": {"name": "WorldCat", "slug": "worldcat"}, "source_identifier": "lccn-no95030047"}], "date_modified": "2025-03-13T14:33:53.263609+11:00"}, {"id": 16726, "name": "Margaret K Johns", "roles_in_work": [{"id": 2465742, "title": "Shapes of progress", "work_id": 72732, "role": "producer", "role_id": 1089, "is_primary": true}, {"id": 1814307, "title": "Right for the job", "work_id": 89902, "role": "producer", "role_id": 1089, "is_primary": true}, {"id": 1818979, "title": "Money-go-round", "work_id": 70549, "role": "producer", "role_id": 1089, "is_primary": true}], "also_known_as": "", "date_of_birth": "", "date_of_death": "", "genders": [], "languages": [], "places_of_operation": [], "biography": "", "biography_author": null, "date_of_biography": "2023-08-14T10:41:15.291586+10:00", "external_links": [], "uuid": "5f9168a9-0ce9-4df9-a26e-53ec2f601f62", "source": {"name": "Vernon", "slug": "vernon"}, "source_identifier": "24344", "external_references": [], "date_modified": "2023-08-14T10:41:15.291862+10:00"}, {"id": 16725, "name": "Liberatas Films", "roles_in_work": [{"id": 855568, "title": "Money-go-round", "work_id": 70549, "role": "production company", "role_id": 941, "is_primary": true}, {"id": 876169, "title": "Right for the job", "work_id": 89902, "role": "production company", "role_id": 941, "is_primary": true}, {"id": 2465741, "title": "Shapes of progress", "work_id": 72732, "role": "production company", "role_id": 941, "is_primary": true}], "also_known_as": "", "date_of_birth": "", "date_of_death": "", "genders": [], "languages": [], "places_of_operation": [], "biography": "", "biography_author": null, "date_of_biography": "2023-08-14T10:41:14.601904+10:00", "external_links": [], "uuid": "2db15994-eeb8-44c0-b5e9-cde1189341d6", "source": {"name": "Vernon", "slug": "vernon"}, "source_identifier": "10037", "external_references": [], "date_modified": "2023-08-14T10:41:14.602247+10:00"}, {"id": 16724, "name": "Durrell R. Crays", "roles_in_work": [{"id": 2646320, "title": "Silk screen techniques", "work_id": 72824, "role": "director", "role_id": 938, "is_primary": true}, {"id": 753406, "title": "Silk screen fundamentals", "work_id": 72822, "role": "director", "role_id": 938, "is_primary": true}, {"id": 855567, "title": "The Money tree", "work_id": 70548, "role": "director", "role_id": 938, "is_primary": true}, {"id": 857106, "title": "Poster", "work_id": 71729, "role": "director", "role_id": 938, "is_primary": true}], "also_known_as": "", "date_of_birth": null, "date_of_death": null, "genders": [], "languages": [], "places_of_operation": [], "biography": "", "biography_author": null, "date_of_biography": null, "external_links": [], "uuid": "65d3e7af-0a3a-4f33-8cba-9e05da2279a5", "source": {"name": "Vernon", "slug": "vernon"}, "source_identifier": "18468", "external_references": [], "date_modified": "2025-03-05T13:01:21.508048+11:00"}, {"id": 16723, "name": "Justin M. Purchin", "roles_in_work": [{"id": 1818976, "title": "The Money tree", "work_id": 70548, "role": "producer", "role_id": 1089, "is_primary": true}, {"id": 2748780, "title": "Meeting strangers: red light, green light", "work_id": 96463, "role": "producer", "role_id": 1089, "is_primary": true}], "also_known_as": "", "date_of_birth": null, "date_of_death": null, "genders": [], "languages": [], "places_of_operation": [], "biography": "", "biography_author": null, "date_of_biography": null, "external_links": [], "uuid": "a44ab0ad-6d9d-4ab3-9b9a-282f25d21436", "source": {"name": "Vernon", "slug": "vernon"}, "source_identifier": "22942", "external_references": [], "date_modified": "2025-03-12T23:45:34.912190+11:00"}, {"id": 16722, "name": "Geoffrey Nethercott", "roles_in_work": [{"id": 855564, "title": "Money in the bank", "work_id": 70547, "role": "director", "role_id": 938, "is_primary": true}], "also_known_as": "", "date_of_birth": "1926-05-01", "date_of_death": "2005-12-02", "genders": [{"id": 9, "name": "Male", "slug": "male"}], "languages": [{"id": 1, "name": "English", "slug": "english"}], "places_of_operation": [{"id": 10, "name": "United Kingdom", "slug": "united-kingdom"}], "biography": "", "biography_author": null, "date_of_biography": null, "external_links": [], "uuid": "42af16cb-5ae8-4998-a299-b124e09ead55", "source": {"name": "Vernon", "slug": "vernon"}, "source_identifier": "19540", "external_references": [{"id": 38630, "source": {"name": "Wikidata", "slug": "wikidata"}, "source_identifier": "Q22023330"}], "date_modified": "2023-09-13T12:29:34.104665+10:00"}]}