{"count": 28687, "next": "https://api.acmi.net.au/creators/?page=2283", "previous": "https://api.acmi.net.au/creators/?page=2281", "results": [{"id": 17097, "name": "Guido Manuli", "roles_in_work": [{"id": 863352, "title": "Fantabiblical", "work_id": 77093, "role": "director", "role_id": 938, "is_primary": true}, {"id": 895339, "title": "Opera", "work_id": 71177, "role": "co-director", "role_id": 959, "is_primary": true}, {"id": 1998384, "title": "Volere volare", "work_id": 93753, "role": "co-director", "role_id": 959, "is_primary": true}], "also_known_as": "", "date_of_birth": "1939-06-11", "date_of_death": null, "genders": [{"id": 9, "name": "Male", "slug": "male"}], "languages": [{"id": 6, "name": "Italian", "slug": "italian"}], "places_of_operation": [{"id": 19, "name": "Italy", "slug": "italy"}], "biography": "Guido Manuli (born 11 June 1939) is an Italian cartoon animator, screenwriter and director.", "biography_author": "Wikidata", "date_of_biography": "2023-08-01T15:06:18.119141+10:00", "external_links": [{"id": 4114, "uri": "https://en.wikipedia.org/wiki/Guido_Manuli"}], "uuid": "16597fc1-f77d-4105-bf03-340f666de37e", "source": {"name": "Vernon", "slug": "vernon"}, "source_identifier": "20106", "external_references": [{"id": 26496, "source": {"name": "Wikidata", "slug": "wikidata"}, "source_identifier": "Q3779367"}, {"id": 28789, "source": {"name": "VIAF", "slug": "viaf"}, "source_identifier": "1039147871992075170007"}, {"id": 28790, "source": {"name": "WorldCat", "slug": "worldcat"}, "source_identifier": "viaf-1039147871992075170007"}], "date_modified": "2023-09-13T12:29:44.604521+10:00"}, {"id": 17096, "name": "Development and Migration Commission", "roles_in_work": [{"id": 2391960, "title": "The Opening of Canberra, Australia's capital city", "work_id": 71174, "role": "production company", "role_id": 941, "is_primary": true}], "also_known_as": "", "date_of_birth": "", "date_of_death": "", "genders": [], "languages": [], "places_of_operation": [], "biography": "", "biography_author": null, "date_of_biography": "2023-08-09T03:48:25.193113+10:00", "external_links": [], "uuid": "124949cb-746c-43c4-8610-10d97fda88c4", "source": {"name": "Vernon", "slug": "vernon"}, "source_identifier": "7545", "external_references": [], "date_modified": "2023-08-09T03:48:25.193414+10:00"}, {"id": 17092, "name": "Christopher Mylne", "roles_in_work": [{"id": 861414, "title": "The Isle of Rhum", "work_id": 75289, "role": "director", "role_id": 938, "is_primary": true}, {"id": 2646403, "title": "St Kilda: the lonely islands", "work_id": 73143, "role": "director", "role_id": 938, "is_primary": true}, {"id": 2464630, "title": "Open today", "work_id": 71170, "role": "producer", "role_id": 1089, "is_primary": true}], "also_known_as": "", "date_of_birth": "", "date_of_death": "", "genders": [], "languages": [], "places_of_operation": [], "biography": "", "biography_author": null, "date_of_biography": "2023-08-14T10:15:42.410401+10:00", "external_links": [], "uuid": "3c52ce8b-7bfc-462d-80c5-3da10140a057", "source": {"name": "Vernon", "slug": "vernon"}, "source_identifier": "16983", "external_references": [], "date_modified": "2025-03-05T13:02:18.947417+11:00"}, {"id": 17091, "name": "Scottish Tourist Board", "roles_in_work": [{"id": 2464629, "title": "Open today", "work_id": 71170, "role": "production company", "role_id": 941, "is_primary": true}], "also_known_as": "", "date_of_birth": "", "date_of_death": "", "genders": [], "languages": [], "places_of_operation": [], "biography": "", "biography_author": null, "date_of_biography": "2023-08-14T10:15:41.784281+10:00", "external_links": [], "uuid": "35c3af23-3ff1-40eb-a8dc-f5b4b9f202ae", "source": {"name": "Vernon", "slug": "vernon"}, "source_identifier": "12321", "external_references": [], "date_modified": "2023-08-14T10:15:41.784593+10:00"}, {"id": 17090, "name": "Gwynn Pritchard", "roles_in_work": [{"id": 2765606, "title": "Steel (TEFC)", "work_id": 77310, "role": "producer", "role_id": 1089, "is_primary": true}, {"id": 2751813, "title": "The Event of the political party", "work_id": 97993, "role": "producer", "role_id": 1089, "is_primary": true}, {"id": 2753330, "title": "O.D.1. - We have consensus", "work_id": 98713, "role": "producer", "role_id": 1089, "is_primary": true}, {"id": 2753332, "title": "O.D.2. - I cannot negotiate", "work_id": 98714, "role": "producer", "role_id": 1089, "is_primary": true}, {"id": 1819289, "title": "Open school (TEFC)", "work_id": 71167, "role": "producer", "role_id": 1089, "is_primary": true}], "also_known_as": "", "date_of_birth": null, "date_of_death": null, "genders": [], "languages": [], "places_of_operation": [], "biography": "", "biography_author": null, "date_of_biography": null, "external_links": [], "uuid": "303e98df-ec47-4a00-914e-bbf88871af64", "source": {"name": "Vernon", "slug": "vernon"}, "source_identifier": "20158", "external_references": [], "date_modified": "2025-03-13T01:22:23.456086+11:00"}, {"id": 17089, "name": "CBS News Production", "roles_in_work": [{"id": 2409183, "title": "Heart attack", "work_id": 86264, "role": "production company", "role_id": 941, "is_primary": true}, {"id": 856364, "title": "Open heart surgery", "work_id": 71161, "role": "production company", "role_id": 941, "is_primary": true}], "also_known_as": "", "date_of_birth": "", "date_of_death": "", "genders": [], "languages": [], "places_of_operation": [], "biography": "", "biography_author": null, "date_of_biography": "2023-08-11T17:17:16.524648+10:00", "external_links": [], "uuid": "47cfc017-14e6-40a7-9fdb-0f108aa2abf6", "source": {"name": "Vernon", "slug": "vernon"}, "source_identifier": "6371", "external_references": [], "date_modified": "2023-08-11T17:17:16.524880+10:00"}, {"id": 17088, "name": "Grahame Jennings", "roles_in_work": [{"id": 2645876, "title": "Junior road safety: only one way", "work_id": 71155, "role": "director", "role_id": 938, "is_primary": true}, {"id": 755568, "title": "This way, that way, which way?", "work_id": 73751, "role": "producer/director", "role_id": 31, "is_primary": true}], "also_known_as": "", "date_of_birth": null, "date_of_death": null, "genders": [], "languages": [], "places_of_operation": [], "biography": "", "biography_author": null, "date_of_biography": null, "external_links": [], "uuid": "1f663312-24e5-49f2-8455-aaae71dcf4e4", "source": {"name": "Vernon", "slug": "vernon"}, "source_identifier": "20014", "external_references": [], "date_modified": "2025-03-05T12:50:56.635838+11:00"}, {"id": 17086, "name": "Dept of Theater Arts, University of California", "roles_in_work": [{"id": 2645874, "title": "One way to build a flat", "work_id": 71153, "role": "production company", "role_id": 941, "is_primary": true}], "also_known_as": "", "date_of_birth": "", "date_of_death": "", "genders": [], "languages": [], "places_of_operation": [], "biography": "", "biography_author": null, "date_of_biography": "2023-08-14T10:15:36.947792+10:00", "external_links": [], "uuid": "6b455564-25d8-4bc0-9ed3-dad11102c1d7", "source": {"name": "Vernon", "slug": "vernon"}, "source_identifier": "7520", "external_references": [], "date_modified": "2025-03-05T12:50:55.177782+11:00"}, {"id": 17085, "name": "Edmund Marshal", "roles_in_work": [{"id": 2464625, "title": "One way ticket: a film about the abuse of drugs", "work_id": 71151, "role": "director", "role_id": 938, "is_primary": true}], "also_known_as": "", "date_of_birth": "", "date_of_death": "", "genders": [], "languages": [], "places_of_operation": [], "biography": "", "biography_author": null, "date_of_biography": "2023-08-14T10:15:34.921373+10:00", "external_links": [], "uuid": "5366ff51-4e8a-4cb4-9fa6-ae67b163d88f", "source": {"name": "Vernon", "slug": "vernon"}, "source_identifier": "18569", "external_references": [], "date_modified": "2023-08-14T10:15:34.921689+10:00"}, {"id": 17084, "name": "Denham Wright", "roles_in_work": [{"id": 2464624, "title": "One way ticket: a film about the abuse of drugs", "work_id": 71151, "role": "producer", "role_id": 1089, "is_primary": true}], "also_known_as": "", "date_of_birth": "", "date_of_death": "", "genders": [], "languages": [], "places_of_operation": [], "biography": "", "biography_author": null, "date_of_biography": "2023-08-14T10:15:34.300393+10:00", "external_links": [], "uuid": "0b5aee64-bbb4-47c8-bf5e-f546d05f6862", "source": {"name": "Vernon", "slug": "vernon"}, "source_identifier": "17949", "external_references": [], "date_modified": "2023-08-14T10:15:34.300856+10:00"}]}