{"count": 28687, "next": "https://api.acmi.net.au/creators/?page=1024", "previous": "https://api.acmi.net.au/creators/?page=1022", "results": [{"id": 75352, "name": "Peter Sculthorpe", "roles_in_work": [{"id": 2392123, "title": "The Splendour and the Peaks", "work_id": 73105, "role": "music", "role_id": 949, "is_primary": false}, {"id": 2043425, "title": "Manganinnie", "work_id": 83199, "role": "music", "role_id": 949, "is_primary": false}, {"id": 2127735, "title": "Burke and Wills", "work_id": 81113, "role": "music", "role_id": 949, "is_primary": false}], "also_known_as": "", "date_of_birth": "1929-04-29", "date_of_death": "2014-08-08", "genders": [{"id": 9, "name": "Male", "slug": "male"}], "languages": [{"id": 1, "name": "English", "slug": "english"}], "places_of_operation": [{"id": 3, "name": "Australia", "slug": "australia"}], "biography": "Peter Joshua Sculthorpe  (29 April 1929 – 8 August 2014) was an Australian composer. Much of his music resulted from an interest in the music of countries neighboring Australia as well as from the impulse to bring together aspects of Aboriginal Australian music with that of the heritage of the West. He was known primarily for his orchestral and chamber music, such as Kakadu (1988) and Earth Cry (1986), which evoke the sounds and feeling of the Australian bushland and outback. He also wrote 18 string quartets, using unusual timbral effects, works for piano, and two operas. He stated that he wanted his music to make people feel better and happier for having listened to it. He typically avoided the dense, atonal techniques of many of his contemporary composers. His work was often distinguished by its distinctive use of percussion.", "biography_author": "Wikidata", "date_of_biography": "2023-09-06T00:00:44.093432+10:00", "external_links": [{"id": 4895, "uri": "https://en.wikipedia.org/wiki/Peter_Sculthorpe"}], "uuid": "34b8aaad-ce74-4375-bca9-956465ff7d10", "source": {"name": "Vernon", "slug": "vernon"}, "source_identifier": "34617", "external_references": [{"id": 27034, "source": {"name": "Wikidata", "slug": "wikidata"}, "source_identifier": "Q924162"}, {"id": 30833, "source": {"name": "VIAF", "slug": "viaf"}, "source_identifier": "112624318"}, {"id": 30834, "source": {"name": "LOC Auth", "slug": "loc-auth"}, "source_identifier": "n83021212"}, {"id": 30835, "source": {"name": "WorldCat", "slug": "worldcat"}, "source_identifier": "lccn-n83021212"}], "date_modified": "2023-09-06T00:00:44.103237+10:00"}, {"id": 75351, "name": "Carol Q Schreder", "roles_in_work": [{"id": 2074597, "title": "A Special report with Robert Bantor", "work_id": 73076, "role": "co-director", "role_id": 959, "is_primary": true}], "also_known_as": "", "date_of_birth": "", "date_of_death": "", "genders": [], "languages": [], "places_of_operation": [], "biography": "", "biography_author": null, "date_of_biography": "2023-05-09T11:39:02.813121+10:00", "external_links": [], "uuid": "08c0a6d7-f60c-40ac-bf95-8350088a64e8", "source": {"name": "Vernon", "slug": "vernon"}, "source_identifier": "16525", "external_references": [{"id": 38278, "source": {"name": "Wikidata", "slug": "wikidata"}, "source_identifier": "Q121091248"}], "date_modified": "2023-09-05T18:20:18.467521+10:00"}, {"id": 75350, "name": "W. D. Richter", "roles_in_work": [{"id": 2074593, "title": "A Special report with Robert Bantor", "work_id": 73076, "role": "co-director", "role_id": 959, "is_primary": true}], "also_known_as": "", "date_of_birth": "", "date_of_death": "", "genders": [], "languages": [], "places_of_operation": [], "biography": "", "biography_author": null, "date_of_biography": "2023-05-09T11:39:02.559709+10:00", "external_links": [], "uuid": "84ed87d4-1b21-4288-9a51-ca7b3257dbe4", "source": {"name": "Vernon", "slug": "vernon"}, "source_identifier": "30191", "external_references": [{"id": 39588, "source": {"name": "Wikidata", "slug": "wikidata"}, "source_identifier": "Q121271291"}], "date_modified": "2023-09-06T02:09:30.144198+10:00"}, {"id": 75349, "name": "John Boccardo", "roles_in_work": [{"id": 2074591, "title": "A Special report with Robert Bantor", "work_id": 73076, "role": "co-director", "role_id": 959, "is_primary": true}], "also_known_as": "", "date_of_birth": "", "date_of_death": "", "genders": [], "languages": [], "places_of_operation": [], "biography": "", "biography_author": null, "date_of_biography": "2023-05-09T11:39:02.320285+10:00", "external_links": [], "uuid": "fb5a99ac-a70c-4935-83b9-15902cebb471", "source": {"name": "Vernon", "slug": "vernon"}, "source_identifier": "22137", "external_references": [{"id": 43444, "source": {"name": "Wikidata", "slug": "wikidata"}, "source_identifier": "Q121222949"}], "date_modified": "2023-09-05T21:33:01.600458+10:00"}, {"id": 75348, "name": "Bill Pettigrew", "roles_in_work": [{"id": 2063285, "title": "180 is max", "work_id": 90652, "role": "director", "role_id": 938, "is_primary": true}, {"id": 2334627, "title": "The Buildings already begun", "work_id": 89283, "role": "director", "role_id": 938, "is_primary": true}, {"id": 2074567, "title": "A Special place", "work_id": 73075, "role": "director", "role_id": 938, "is_primary": true}, {"id": 2329293, "title": "The Balgonie birdman", "work_id": 88172, "role": "co-producer", "role_id": 915, "is_primary": true}, {"id": 2333492, "title": "The Blue dog safety video", "work_id": 92399, "role": "producer", "role_id": 1089, "is_primary": true}, {"id": 1816573, "title": "Minoru: memory of exile", "work_id": 93683, "role": "producer", "role_id": 1089, "is_primary": true}, {"id": 2648825, "title": "The Dingles", "work_id": 80101, "role": "producer", "role_id": 1089, "is_primary": true}], "also_known_as": "", "date_of_birth": "", "date_of_death": "", "genders": [], "languages": [], "places_of_operation": [], "biography": "", "biography_author": null, "date_of_biography": "2023-05-09T19:43:22.888350+10:00", "external_links": [], "uuid": "33dcb557-aedf-45bf-be77-17f6f281cc46", "source": {"name": "Vernon", "slug": "vernon"}, "source_identifier": "15992", "external_references": [{"id": 33991, "source": {"name": "Wikidata", "slug": "wikidata"}, "source_identifier": "Q121144062"}], "date_modified": "2025-03-05T13:51:29.174666+11:00"}, {"id": 75347, "name": "Barry Cockcroft", "roles_in_work": [{"id": 858715, "title": "The Special brain of Karl Kroyer. Parts 1 & 2", "work_id": 73074, "role": "producer/director", "role_id": 31, "is_primary": true}], "also_known_as": "", "date_of_birth": null, "date_of_death": null, "genders": [], "languages": [], "places_of_operation": [], "biography": "", "biography_author": null, "date_of_biography": null, "external_links": [], "uuid": "be5dc55d-f46b-4f18-b7b1-d9a0081e1ef4", "source": {"name": "Vernon", "slug": "vernon"}, "source_identifier": null, "external_references": [{"id": 51378, "source": {"name": "Wikidata", "slug": "wikidata"}, "source_identifier": "Q121360698"}], "date_modified": "2023-09-05T17:54:36.569789+10:00"}, {"id": 75346, "name": "Pat Wilhite", "roles_in_work": [{"id": 2646379, "title": "Sorry no vacancy", "work_id": 73015, "role": "co-producer", "role_id": 915, "is_primary": true}], "also_known_as": "", "date_of_birth": "", "date_of_death": "", "genders": [], "languages": [], "places_of_operation": [], "biography": "", "biography_author": null, "date_of_biography": "2023-05-09T18:44:35.317899+10:00", "external_links": [], "uuid": "698367fc-ef1e-4faf-8c0b-1f6d4c5c092d", "source": {"name": "Vernon", "slug": "vernon"}, "source_identifier": "26090", "external_references": [{"id": 34660, "source": {"name": "Wikidata", "slug": "wikidata"}, "source_identifier": "Q121036750"}], "date_modified": "2025-03-05T13:02:01.864142+11:00"}, {"id": 75345, "name": "Lawrence Schiller", "roles_in_work": [{"id": 2305678, "title": "Soon there will be no more me", "work_id": 73013, "role": "producer/director", "role_id": 31, "is_primary": true}], "also_known_as": "", "date_of_birth": "1936-12-28", "date_of_death": "", "genders": [{"id": 9, "name": "Male", "slug": "male"}], "languages": [{"id": 1, "name": "English", "slug": "english"}], "places_of_operation": [{"id": 1, "name": "United States of America", "slug": "united-states-of-america"}], "biography": "Lawrence Julian Schiller (born December 28, 1936) is an American photojournalist, film producer, director and screenwriter.", "biography_author": "Wikidata", "date_of_biography": "2023-09-05T22:17:33.784842+10:00", "external_links": [{"id": 5971, "uri": "https://en.wikipedia.org/wiki/Lawrence_Schiller"}], "uuid": "e257842b-5d2a-4922-8321-e6c4ad55f86a", "source": {"name": "Vernon", "slug": "vernon"}, "source_identifier": "23600", "external_references": [{"id": 51592, "source": {"name": "Wikidata", "slug": "wikidata"}, "source_identifier": "Q933453"}, {"id": 55039, "source": {"name": "VIAF", "slug": "viaf"}, "source_identifier": "27270418"}, {"id": 55040, "source": {"name": "LOC Auth", "slug": "loc-auth"}, "source_identifier": "n90653631"}, {"id": 55041, "source": {"name": "WorldCat", "slug": "worldcat"}, "source_identifier": "lccn-n90653631"}], "date_modified": "2023-09-05T22:17:33.805757+10:00"}, {"id": 75344, "name": "Marrin Canell", "roles_in_work": [{"id": 904559, "title": "Whistling Smith", "work_id": 85434, "role": "co-director", "role_id": 959, "is_primary": true}, {"id": 904733, "title": "His worship, Mr Montreal", "work_id": 85554, "role": "co-director", "role_id": 959, "is_primary": true}, {"id": 897335, "title": "The Sweater", "work_id": 77396, "role": "co-producer", "role_id": 915, "is_primary": true}, {"id": 2122612, "title": "Bow and arrow", "work_id": 76899, "role": "co-producer", "role_id": 915, "is_primary": true}, {"id": 2186577, "title": "Paperland: the bureaucrat observed", "work_id": 85453, "role": "co-producer", "role_id": 915, "is_primary": true}, {"id": 2647960, "title": "Bookmaker's progress", "work_id": 77867, "role": "co-producer", "role_id": 915, "is_primary": true}, {"id": 2646375, "title": "Song of the paddle", "work_id": 73004, "role": "co-producer", "role_id": 915, "is_primary": true}], "also_known_as": "", "date_of_birth": "", "date_of_death": "", "genders": [], "languages": [], "places_of_operation": [], "biography": "", "biography_author": null, "date_of_biography": "2023-05-09T18:44:17.725814+10:00", "external_links": [], "uuid": "3c28a498-4b92-4881-abcc-8b033166585e", "source": {"name": "Vernon", "slug": "vernon"}, "source_identifier": "24589", "external_references": [{"id": 35057, "source": {"name": "Wikidata", "slug": "wikidata"}, "source_identifier": "Q117860653"}], "date_modified": "2025-03-05T13:36:26.772790+11:00"}, {"id": 75343, "name": "Bill Brand", "roles_in_work": [{"id": 2646374, "title": "Song of the paddle", "work_id": 73004, "role": "co-producer", "role_id": 915, "is_primary": true}, {"id": 906103, "title": "The Late Show presents: 'The devil at your heels'", "work_id": 86831, "role": "co-producer", "role_id": 915, "is_primary": true}, {"id": 906104, "title": "The Late Show presents: 'The devil at your heels'", "work_id": 86831, "role": "director", "role_id": 938, "is_primary": true}], "also_known_as": "", "date_of_birth": "", "date_of_death": "", "genders": [], "languages": [], "places_of_operation": [], "biography": "", "biography_author": null, "date_of_biography": "2023-05-09T18:44:17.492501+10:00", "external_links": [], "uuid": "a3e6c660-3a26-4f01-8282-2bf00d171340", "source": {"name": "Vernon", "slug": "vernon"}, "source_identifier": "15939", "external_references": [], "date_modified": "2025-03-05T13:01:58.672242+11:00"}]}