{"count": 28681, "next": "https://api.acmi.net.au/creators/?page=2012", "previous": "https://api.acmi.net.au/creators/?page=2010", "results": [{"id": 22350, "name": "Toho Kabushiki Kaisha", "roles_in_work": [{"id": 1998947, "title": "Stray dog = Nora Inu", "work_id": 94181, "role": "production company", "role_id": 941, "is_primary": true}, {"id": 2353967, "title": "The Hidden Fortress = Kakushi toride no san akunin [DVD]", "work_id": 95208, "role": "production company", "role_id": 941, "is_primary": true}, {"id": 2166617, "title": "Kakushi Toride No San Akunin = The Hidden Fortress (Cinemascope Print)", "work_id": 115706, "role": "production company", "role_id": 941, "is_primary": true}, {"id": 1996073, "title": "Tokyo Olympiad [Widescreen]", "work_id": 92474, "role": "production company", "role_id": 941, "is_primary": true}, {"id": 924481, "title": "Metropolis", "work_id": 93799, "role": "production company", "role_id": 941, "is_primary": true}, {"id": 2166358, "title": "Kagemusha", "work_id": 80857, "role": "production company", "role_id": 941, "is_primary": true}, {"id": 1986703, "title": "The Lower depths", "work_id": 83015, "role": "production company", "role_id": 941, "is_primary": true}, {"id": 1991777, "title": "High and low = Tengoku to jigoku [Widescreen]", "work_id": 87475, "role": "production company", "role_id": 941, "is_primary": true}, {"id": 881045, "title": "Ghidrah: the three headed monster [Dubbed]", "work_id": 92685, "role": "production company", "role_id": 941, "is_primary": true}, {"id": 2650507, "title": "Kumonosu-Jo = Throne of blood", "work_id": 115718, "role": "production company", "role_id": 941, "is_primary": true}, {"id": 2650475, "title": "Shichinin no Samurai = Seven Samurai", "work_id": 115704, "role": "production company", "role_id": 941, "is_primary": true}, {"id": 2650468, "title": "Donzoko = The Lower depths", "work_id": 115702, "role": "production company", "role_id": 941, "is_primary": true}, {"id": 2650463, "title": "Ikiru = To live = Living", "work_id": 115700, "role": "production company", "role_id": 941, "is_primary": true}, {"id": 2650459, "title": "Sugata Sanshiro = Judo Saga", "work_id": 115698, "role": "production company", "role_id": 941, "is_primary": true}, {"id": 2650453, "title": "Akahige = Red beard (Cinemascope Print)", "work_id": 115697, "role": "production company", "role_id": 941, "is_primary": true}, {"id": 1991911, "title": "I live in fear = record of a living being = Ikimono no kiroku", "work_id": 87622, "role": "production company", "role_id": 941, "is_primary": true}, {"id": 2294166, "title": "Seven Samurai = Shichinin no samurai [DVD]", "work_id": 95206, "role": "production company", "role_id": 941, "is_primary": true}, {"id": 2246515, "title": "Red Beard = Akahige", "work_id": 95155, "role": "production company", "role_id": 941, "is_primary": true}, {"id": 2354689, "title": "The Hole = Onibaba [Widescreen]", "work_id": 88223, "role": "production company", "role_id": 941, "is_primary": true}, {"id": 2650405, "title": "Joi-Uchi = Rebellion (Cinemascope print)", "work_id": 115676, "role": "production company", "role_id": 941, "is_primary": true}, {"id": 2262207, "title": "Samurai banners [Widescreen]", "work_id": 87618, "role": "production company", "role_id": 941, "is_primary": true}, {"id": 2262685, "title": "Sanjuro = Tsubaki Sanjuro [DVD]", "work_id": 95205, "role": "production company", "role_id": 941, "is_primary": true}, {"id": 1984458, "title": "Throne of blood", "work_id": 80033, "role": "production company", "role_id": 941, "is_primary": true}, {"id": 2000820, "title": "Yojimbo [DVD]", "work_id": 95207, "role": "production company", "role_id": 941, "is_primary": true}, {"id": 2106101, "title": "Azumi", "work_id": 95177, "role": "production company", "role_id": 941, "is_primary": true}, {"id": 2161725, "title": "Ninja scroll (D)", "work_id": 85538, "role": "production company", "role_id": 941, "is_primary": true}, {"id": 2212173, "title": "Drunken angel", "work_id": 83024, "role": "production company", "role_id": 941, "is_primary": true}], "also_known_as": "", "date_of_birth": "", "date_of_death": "", "genders": [], "languages": [], "places_of_operation": [], "biography": "", "biography_author": null, "date_of_biography": "2023-05-09T20:01:57.122134+10:00", "external_links": [], "uuid": "fa6af91c-cf4c-4e8b-af32-f87756bef655", "source": {"name": "Vernon", "slug": "vernon"}, "source_identifier": "13566", "external_references": [], "date_modified": "2025-03-05T14:20:43.042674+11:00"}, {"id": 22349, "name": "Smart Street Films", "roles_in_work": [{"id": 771264, "title": "27 A", "work_id": 80025, "role": "distributor", "role_id": 437, "is_primary": false}, {"id": 791233, "title": "Media project: a film about media coverage of the Gulf War and memory", "work_id": 85867, "role": "distributor", "role_id": 437, "is_primary": false}, {"id": 1984444, "title": "Going Down", "work_id": 80024, "role": "distributor", "role_id": 437, "is_primary": false}, {"id": 2048474, "title": "Jedda [DVD]", "work_id": 95170, "role": "distributor", "role_id": 437, "is_primary": false}, {"id": 3106938, "title": "Pandemonium", "work_id": 94189, "role": "production company", "role_id": 941, "is_primary": true}], "also_known_as": "", "date_of_birth": "", "date_of_death": "", "genders": [], "languages": [], "places_of_operation": [], "biography": "", "biography_author": null, "date_of_biography": "2023-05-09T15:02:16.841696+10:00", "external_links": [], "uuid": "3dc0c461-b74c-45c2-b74b-614bc29a9cdd", "source": {"name": "Vernon", "slug": "vernon"}, "source_identifier": "12662", "external_references": [{"id": 51691, "source": {"name": "Wikidata", "slug": "wikidata"}, "source_identifier": "Q121357849"}], "date_modified": "2025-08-20T15:09:01.447126+10:00"}, {"id": 22347, "name": "Dusan Makavejev", "roles_in_work": [{"id": 2340450, "title": "The Coca-Cola Kid", "work_id": 80023, "role": "director", "role_id": 938, "is_primary": true}, {"id": 1993560, "title": "Innocence unprotected = Nevinost bez zastite", "work_id": 89247, "role": "director", "role_id": 938, "is_primary": true}, {"id": 802192, "title": "WR. Mysteries of the organism (E)", "work_id": 89265, "role": "director", "role_id": 938, "is_primary": true}, {"id": 802167, "title": "The Switchboard operator = Ljubavni Slucaj, trafedija sluzbenice PTT", "work_id": 89257, "role": "director", "role_id": 938, "is_primary": true}], "also_known_as": "", "date_of_birth": "", "date_of_death": "", "genders": [], "languages": [], "places_of_operation": [], "biography": "", "biography_author": null, "date_of_biography": "2023-05-09T19:38:46.887796+10:00", "external_links": [], "uuid": "b518d0c0-81b5-4320-95c1-8b6e326ee572", "source": {"name": "Vernon", "slug": "vernon"}, "source_identifier": "18469", "external_references": [], "date_modified": "2023-06-14T16:33:30.576250+10:00"}, {"id": 22342, "name": "Yasushi Tamaoki", "roles_in_work": [{"id": 2321906, "title": "Tampopo", "work_id": 80020, "role": "co-producer", "role_id": 915, "is_primary": true}, {"id": 2349678, "title": "The Funeral", "work_id": 80021, "role": "co-producer", "role_id": 915, "is_primary": true}, {"id": 2076370, "title": "A Taxing woman", "work_id": 80026, "role": "co-producer", "role_id": 915, "is_primary": true}, {"id": 2076409, "title": "A Taxing woman's return", "work_id": 83869, "role": "producer", "role_id": 1089, "is_primary": true}], "also_known_as": "", "date_of_birth": "", "date_of_death": "", "genders": [], "languages": [], "places_of_operation": [], "biography": "", "biography_author": null, "date_of_biography": "2023-05-09T19:53:59.995438+10:00", "external_links": [], "uuid": "5f6ca1a6-073b-4cb7-9309-aafcab0ab9be", "source": {"name": "Vernon", "slug": "vernon"}, "source_identifier": "30576", "external_references": [{"id": 35579, "source": {"name": "Wikidata", "slug": "wikidata"}, "source_identifier": "Q121337726"}], "date_modified": "2023-09-06T02:22:21.733505+10:00"}, {"id": 22341, "name": "Juzo Itami", "roles_in_work": [{"id": 2321904, "title": "Tampopo", "work_id": 80020, "role": "director", "role_id": 938, "is_primary": true}, {"id": 2076378, "title": "A Taxing woman", "work_id": 80026, "role": "director", "role_id": 938, "is_primary": true}, {"id": 2076411, "title": "A Taxing woman's return", "work_id": 83869, "role": "director", "role_id": 938, "is_primary": true}, {"id": 2349685, "title": "The Funeral", "work_id": 80021, "role": "director", "role_id": 938, "is_primary": true}, {"id": 2321905, "title": "Tampopo", "work_id": 80020, "role": "co-producer", "role_id": 915, "is_primary": true}], "also_known_as": "池内 義弘", "date_of_birth": "1933-05-15", "date_of_death": "1997-12-20", "genders": [{"id": 9, "name": "Male", "slug": "male"}], "languages": [{"id": 2, "name": "Japanese", "slug": "japanese"}], "places_of_operation": [{"id": 8, "name": "Japan", "slug": "japan"}], "biography": "Juzo Itami (伊丹 十三, Itami Jūzō), born Yoshihiro Ikeuchi (池内 義弘, Ikeuchi Yoshihiro, May 15, 1933 – December 20, 1997), was a Japanese actor, screenwriter and film director. He directed eleven films, all of which he wrote himself.\n\n", "biography_author": "Wikidata", "date_of_biography": "2022-05-19T12:08:40.400023+10:00", "external_links": [{"id": 2498, "uri": "https://en.wikipedia.org/wiki/Juzo_Itami"}], "uuid": "5c7674da-dafc-46ee-a7ab-63cc202bdc8b", "source": {"name": "Vernon", "slug": "vernon"}, "source_identifier": "22951", "external_references": [{"id": 10684, "source": {"name": "Wikidata", "slug": "wikidata"}, "source_identifier": "Q1325171"}, {"id": 10685, "source": {"name": "VIAF", "slug": "viaf"}, "source_identifier": "14969724"}, {"id": 10686, "source": {"name": "LOC Auth", "slug": "loc-auth"}, "source_identifier": "n84083848"}, {"id": 10687, "source": {"name": "WorldCat", "slug": "worldcat"}, "source_identifier": "lccn-n84083848"}], "date_modified": "2023-09-13T12:30:46.277450+10:00"}, {"id": 22340, "name": "New Century", "roles_in_work": [{"id": 2273023, "title": "To Live and die in L.A.", "work_id": 94752, "role": "production company", "role_id": 941, "is_primary": true}, {"id": 2321903, "title": "Tampopo", "work_id": 80020, "role": "production company", "role_id": 941, "is_primary": true}], "also_known_as": "", "date_of_birth": "", "date_of_death": "", "genders": [], "languages": [], "places_of_operation": [], "biography": "", "biography_author": null, "date_of_biography": "2023-05-09T19:13:20.299529+10:00", "external_links": [], "uuid": "f77b15b2-88e1-44c9-a486-ce51882be747", "source": {"name": "Vernon", "slug": "vernon"}, "source_identifier": "10890", "external_references": [{"id": 39611, "source": {"name": "Wikidata", "slug": "wikidata"}, "source_identifier": "Q121271399"}], "date_modified": "2023-09-05T23:28:24.141198+10:00"}, {"id": 22339, "name": "Itami Productions", "roles_in_work": [{"id": 2076405, "title": "A Taxing woman's return", "work_id": 83869, "role": "production company", "role_id": 941, "is_primary": true}, {"id": 2321899, "title": "Tampopo", "work_id": 80020, "role": "production company", "role_id": 941, "is_primary": true}], "also_known_as": "", "date_of_birth": "", "date_of_death": "", "genders": [], "languages": [], "places_of_operation": [], "biography": "", "biography_author": null, "date_of_biography": "2023-05-09T19:13:19.892895+10:00", "external_links": [], "uuid": "dbe043a7-441c-4fd1-a0a0-8c86be81ecdb", "source": {"name": "Vernon", "slug": "vernon"}, "source_identifier": "9477", "external_references": [{"id": 39484, "source": {"name": "Wikidata", "slug": "wikidata"}, "source_identifier": "Q121222963"}], "date_modified": "2023-09-05T20:52:19.205889+10:00"}, {"id": 22338, "name": "Alma-Ata Studios", "roles_in_work": [{"id": 2650376, "title": "Ivan Groznyi = Ivan the Terrible. Parts 1 and 2", "work_id": 115665, "role": "production company", "role_id": 941, "is_primary": true}, {"id": 2159275, "title": "Ivan the Terrible: part 2 [DVD]", "work_id": 93399, "role": "production company", "role_id": 941, "is_primary": true}, {"id": 2159251, "title": "Ivan the Terrible: part 1 [DVD]", "work_id": 93398, "role": "production company", "role_id": 941, "is_primary": true}], "also_known_as": "", "date_of_birth": "", "date_of_death": "", "genders": [], "languages": [], "places_of_operation": [], "biography": "", "biography_author": null, "date_of_biography": "2023-05-09T14:13:09.941851+10:00", "external_links": [], "uuid": "b78f9392-fa3d-4be8-8997-a497e818680e", "source": {"name": "Vernon", "slug": "vernon"}, "source_identifier": "5154", "external_references": [{"id": 37837, "source": {"name": "Wikidata", "slug": "wikidata"}, "source_identifier": "Q121315003"}], "date_modified": "2025-03-05T14:15:41.646725+11:00"}, {"id": 22337, "name": "Marin Karmitz", "roles_in_work": [{"id": 3105047, "title": "Sept Jours Ailleurs", "work_id": 116218, "role": "director", "role_id": 938, "is_primary": true}, {"id": 1997416, "title": "The Piano teacher = La Pianiste [DVD] (E)", "work_id": 93313, "role": "co-producer", "role_id": 915, "is_primary": true}, {"id": 1995868, "title": "The Wind will carry us = Le Vent nous emportera", "work_id": 92356, "role": "co-producer", "role_id": 915, "is_primary": true}, {"id": 1996129, "title": "Code unknown: incomplete tales of several journeys", "work_id": 92490, "role": "co-producer", "role_id": 915, "is_primary": true}, {"id": 2063269, "title": "10 = Ten", "work_id": 95109, "role": "co-producer", "role_id": 915, "is_primary": true}, {"id": 2615650, "title": "A Story of women = Une Affaire de femmes", "work_id": 85873, "role": "producer", "role_id": 1089, "is_primary": true}, {"id": 1997188, "title": "Three colours red = Trois couleurs rouge [DVD]", "work_id": 93156, "role": "producer", "role_id": 1089, "is_primary": true}, {"id": 1997846, "title": "Madame Bovary [DVD]", "work_id": 93504, "role": "producer", "role_id": 1089, "is_primary": true}, {"id": 1998013, "title": "La Ceremonie", "work_id": 93584, "role": "producer", "role_id": 1089, "is_primary": true}, {"id": 1996659, "title": "Three colours blue = Trois couleurs bleu [DVD]", "work_id": 92789, "role": "producer", "role_id": 1089, "is_primary": true}, {"id": 2293145, "title": "Torment = L' Enfer", "work_id": 86863, "role": "producer", "role_id": 1089, "is_primary": true}, {"id": 1996700, "title": "Three colours white = Trois coleurs blanc (DVD)", "work_id": 92796, "role": "producer", "role_id": 1089, "is_primary": true}, {"id": 1984427, "title": "Melo", "work_id": 80019, "role": "producer", "role_id": 1089, "is_primary": true}, {"id": 3104317, "title": "Poulet Au Vinaigre = Cop Au Vin", "work_id": 115860, "role": "producer", "role_id": 1089, "is_primary": true}, {"id": 3104527, "title": "L'ombre Rouge = the Red Shadow", "work_id": 115957, "role": "producer", "role_id": 1089, "is_primary": true}, {"id": 3105015, "title": "Voyage En Grande Tartarie = Trip Through Purgatory", "work_id": 116204, "role": "producer", "role_id": 1089, "is_primary": true}], "also_known_as": "", "date_of_birth": "07 OCT 1938", "date_of_death": "", "genders": [{"id": 9, "name": "Male", "slug": "male"}], "languages": [{"id": 4, "name": "French", "slug": "french"}], "places_of_operation": [{"id": 17, "name": "France", "slug": "france"}], "biography": "Marin Karmitz (born 7 October 1938) is a Romanian-French businessman whose career has spanned the French film industry, including director, producer, film distributor, and operator of a chain of cinemas.Karmitz attended film school at IDHEC (renamed La Fémis) and worked as a director of photography after graduating.\n\nKarmitz founded MK2, a production company and movie theater chain, which has specialized in creating, distributing, and screening independent or \"auteurist\" cinema, including short films.\n\nIn 2005, he turned over leadership of the MK2 company and its theaters to his son, Nathanaël. Source: Wikidata; 01/08/2023", "biography_author": null, "date_of_biography": "2025-05-22T22:55:52.588162+10:00", "external_links": [{"id": 4611, "uri": "https://en.wikipedia.org/wiki/Marin_Karmitz"}], "uuid": "de83aa00-eedf-4a67-a829-b8fbe83cef5f", "source": {"name": "Vernon", "slug": "vernon"}, "source_identifier": "24424", "external_references": [{"id": 25343, "source": {"name": "Wikidata", "slug": "wikidata"}, "source_identifier": "Q1383621"}, {"id": 30107, "source": {"name": "VIAF", "slug": "viaf"}, "source_identifier": "56675263"}, {"id": 30108, "source": {"name": "LOC Auth", "slug": "loc-auth"}, "source_identifier": "n94007553"}, {"id": 30109, "source": {"name": "WorldCat", "slug": "worldcat"}, "source_identifier": "lccn-n94007553"}], "date_modified": "2025-05-22T22:55:52.588436+10:00"}, {"id": 22334, "name": "Alain Corneau", "roles_in_work": [{"id": 1984420, "title": "Le Choix des Armes", "work_id": 80014, "role": "director", "role_id": 938, "is_primary": true}, {"id": 3104472, "title": "Serie Noire", "work_id": 115929, "role": "director", "role_id": 938, "is_primary": true}, {"id": 2086087, "title": "All the mornings of the world = Tous les matins du monde", "work_id": 85008, "role": "director", "role_id": 938, "is_primary": true}], "also_known_as": "", "date_of_birth": "1943-08-07", "date_of_death": "2010-08-30", "genders": [{"id": 9, "name": "Male", "slug": "male"}], "languages": [{"id": 4, "name": "French", "slug": "french"}], "places_of_operation": [{"id": 17, "name": "France", "slug": "france"}], "biography": "Alain Corneau (7 August 1943 – 30 August 2010) was a French film director and writer.\nCorneau was born in Meung-sur-Loire, Loiret. Originally a musician, he worked with Costa-Gavras as an assistant, which was also his first opportunity to work with the actor Yves Montand, with whom he would collaborate three times later in his career, including Police Python 357 (1976) and La Menace (1977). He directed Gérard Depardieu in the screen adaptation of Tous les matins du monde in 1991.\nCorneau died in Paris on 30 August 2010 from cancer, aged 67 and was interred at Père Lachaise Cemetery.\n\n", "biography_author": "Wikidata", "date_of_biography": "2022-05-19T10:42:04.613831+10:00", "external_links": [{"id": 1567, "uri": "https://en.wikipedia.org/wiki/Alain_Corneau"}], "uuid": "85790d50-ad7e-477c-b34c-4f7ef050ead6", "source": {"name": "Vernon", "slug": "vernon"}, "source_identifier": "14715", "external_references": [{"id": 6871, "source": {"name": "Wikidata", "slug": "wikidata"}, "source_identifier": "Q312280"}, {"id": 6872, "source": {"name": "VIAF", "slug": "viaf"}, "source_identifier": "43044212"}, {"id": 6873, "source": {"name": "LOC Auth", "slug": "loc-auth"}, "source_identifier": "no97055634"}, {"id": 6874, "source": {"name": "WorldCat", "slug": "worldcat"}, "source_identifier": "lccn-no97055634"}], "date_modified": "2025-05-22T22:41:14.263563+10:00"}]}