{"count": 28687, "next": "https://api.acmi.net.au/creators/?page=2427", "previous": "https://api.acmi.net.au/creators/?page=2425", "results": [{"id": 14831, "name": "Leslie Midgley", "roles_in_work": [{"id": 2713308, "title": "The Face of Red China", "work_id": 67351, "role": "producer", "role_id": 1089, "is_primary": true}], "also_known_as": "", "date_of_birth": null, "date_of_death": null, "genders": [], "languages": [], "places_of_operation": [], "biography": "", "biography_author": null, "date_of_biography": null, "external_links": [], "uuid": "d16024f5-d465-4490-aec3-a311849513d8", "source": {"name": "Vernon", "slug": "vernon"}, "source_identifier": "23779", "external_references": [], "date_modified": "2025-03-12T00:41:42.701166+11:00"}, {"id": 14830, "name": "Edward Freed", "roles_in_work": [{"id": 2644719, "title": "The Face of Lincoln", "work_id": 67349, "role": "director", "role_id": 938, "is_primary": true}], "also_known_as": "", "date_of_birth": null, "date_of_death": null, "genders": [], "languages": [], "places_of_operation": [], "biography": "", "biography_author": null, "date_of_biography": null, "external_links": [], "uuid": "5ddd9e1d-d183-414b-90f8-af08ecbe4ab2", "source": {"name": "Vernon", "slug": "vernon"}, "source_identifier": "18593", "external_references": [], "date_modified": "2025-03-05T12:25:27.805481+11:00"}, {"id": 14829, "name": "Wilbur T. Blume", "roles_in_work": [{"id": 2714843, "title": "Good speech for Gary", "work_id": 68140, "role": "producer", "role_id": 1089, "is_primary": true}, {"id": 2644718, "title": "The Face of Lincoln", "work_id": 67349, "role": "producer", "role_id": 1089, "is_primary": true}], "also_known_as": "", "date_of_birth": "1920-05-04", "date_of_death": "1989-12-25", "genders": [{"id": 9, "name": "Male", "slug": "male"}], "languages": [], "places_of_operation": [{"id": 1, "name": "United States of America", "slug": "united-states-of-america"}], "biography": "", "biography_author": null, "date_of_biography": null, "external_links": [], "uuid": "bbbe83fd-de52-4f60-a15f-c403589fe2c7", "source": {"name": "Vernon", "slug": "vernon"}, "source_identifier": "30341", "external_references": [{"id": 34136, "source": {"name": "Wikidata", "slug": "wikidata"}, "source_identifier": "Q15854394"}, {"id": 56055, "source": {"name": "VIAF", "slug": "viaf"}, "source_identifier": "109858650"}, {"id": 56056, "source": {"name": "LOC Auth", "slug": "loc-auth"}, "source_identifier": "n82237907"}], "date_modified": "2025-03-12T01:21:27.176402+11:00"}, {"id": 14828, "name": "John Colquhoun", "roles_in_work": [{"id": 2644716, "title": "The Only way out", "work_id": 67348, "role": "director", "role_id": 938, "is_primary": true}, {"id": 2753822, "title": "Cornflakes for tea", "work_id": 98944, "role": "director", "role_id": 938, "is_primary": true}], "also_known_as": "", "date_of_birth": null, "date_of_death": null, "genders": [], "languages": [], "places_of_operation": [], "biography": "", "biography_author": null, "date_of_biography": null, "external_links": [], "uuid": "a7841c98-9487-4e5c-b4f8-315fa49432fc", "source": {"name": "Vernon", "slug": "vernon"}, "source_identifier": "22181", "external_references": [], "date_modified": "2025-03-13T01:32:44.177138+11:00"}, {"id": 14827, "name": "Ron Iddon", "roles_in_work": [{"id": 2776145, "title": "Steve", "work_id": 81628, "role": "director", "role_id": 938, "is_primary": true}, {"id": 2756943, "title": "Two faces of Gove", "work_id": 74120, "role": "director", "role_id": 938, "is_primary": true}, {"id": 2776132, "title": "George", "work_id": 81808, "role": "director", "role_id": 938, "is_primary": true}, {"id": 2756829, "title": "Be it ever so humble", "work_id": 97049, "role": "director", "role_id": 938, "is_primary": true}, {"id": 2776114, "title": "Guido", "work_id": 83479, "role": "director", "role_id": 938, "is_primary": true}, {"id": 2776120, "title": "Elisabeth", "work_id": 82259, "role": "director", "role_id": 938, "is_primary": true}, {"id": 2760596, "title": "A Lesson to us all", "work_id": 67347, "role": "director", "role_id": 938, "is_primary": true}, {"id": 2194949, "title": "Peppimenarti", "work_id": 81893, "role": "producer/director", "role_id": 31, "is_primary": true}], "also_known_as": "", "date_of_birth": "1940", "date_of_death": "", "genders": [], "languages": [], "places_of_operation": [], "biography": "", "biography_author": null, "date_of_biography": "2023-07-19T03:35:38.055030+10:00", "external_links": [], "uuid": "ae56e8e5-ad1b-4845-bd6c-996694d2c142", "source": {"name": "Vernon", "slug": "vernon"}, "source_identifier": "28147", "external_references": [], "date_modified": "2025-03-14T18:46:01.211461+11:00"}, {"id": 14826, "name": "Jiri Trnka", "roles_in_work": [{"id": 2650516, "title": "Good soldier Swejk", "work_id": 115722, "role": "director", "role_id": 938, "is_primary": true}, {"id": 753824, "title": "Song of the prairie", "work_id": 73005, "role": "director", "role_id": 938, "is_primary": true}, {"id": 2749727, "title": "Two little frosts", "work_id": 96945, "role": "director", "role_id": 938, "is_primary": true}, {"id": 2713297, "title": "A Fable for friendship", "work_id": 67344, "role": "producer", "role_id": 1089, "is_primary": true}], "also_known_as": "", "date_of_birth": "", "date_of_death": "", "genders": [], "languages": [], "places_of_operation": [], "biography": "", "biography_author": null, "date_of_biography": "2023-08-11T17:06:39.842508+10:00", "external_links": [], "uuid": "71467cff-f2cd-406c-a69b-42383bb1b790", "source": {"name": "Vernon", "slug": "vernon"}, "source_identifier": "21945", "external_references": [], "date_modified": "2025-03-13T00:06:06.358399+11:00"}, {"id": 14824, "name": "Rolf W. Brandis", "roles_in_work": [{"id": 2713289, "title": "A Fable", "work_id": 67342, "role": "director", "role_id": 938, "is_primary": true}], "also_known_as": "", "date_of_birth": "", "date_of_death": "", "genders": [], "languages": [], "places_of_operation": [], "biography": "", "biography_author": null, "date_of_biography": "2023-05-09T11:27:25.046768+10:00", "external_links": [], "uuid": "59f86658-4675-4e34-8a83-60c4c209aea1", "source": {"name": "Vernon", "slug": "vernon"}, "source_identifier": "28113", "external_references": [{"id": 36459, "source": {"name": "Wikidata", "slug": "wikidata"}, "source_identifier": "Q121035763"}], "date_modified": "2025-03-12T00:41:21.746584+11:00"}, {"id": 14821, "name": "Xerox", "roles_in_work": [{"id": 2713286, "title": "A Fable", "work_id": 67342, "role": "production company", "role_id": 941, "is_primary": true}], "also_known_as": "", "date_of_birth": "", "date_of_death": "", "genders": [], "languages": [], "places_of_operation": [], "biography": "", "biography_author": null, "date_of_biography": "2023-05-09T11:27:24.329668+10:00", "external_links": [], "uuid": "094a8098-92cc-4195-88d7-18f313c8490e", "source": {"name": "Vernon", "slug": "vernon"}, "source_identifier": "14478", "external_references": [{"id": 40389, "source": {"name": "Wikidata", "slug": "wikidata"}, "source_identifier": "Q121126637"}], "date_modified": "2025-03-12T00:41:18.877509+11:00"}, {"id": 14819, "name": "Australia. Royal Australian Air Force", "roles_in_work": [{"id": 873603, "title": "Operation Bala Lagin", "work_id": 88308, "role": "production company", "role_id": 941, "is_primary": true}, {"id": 2713278, "title": "The F-111 story", "work_id": 67334, "role": "production company", "role_id": 941, "is_primary": true}, {"id": 2645878, "title": "Operation eastbound", "work_id": 71186, "role": "production company", "role_id": 941, "is_primary": true}, {"id": 878565, "title": "Young airmen: new strength for the RAAF", "work_id": 91287, "role": "production company", "role_id": 941, "is_primary": true}, {"id": 2374098, "title": "RAAF Newsreel. No. 9. Operation sabre ferry", "work_id": 89465, "role": "production company", "role_id": 941, "is_primary": true}, {"id": 857431, "title": "The Royal Australian Airforce College", "work_id": 72012, "role": "production company", "role_id": 941, "is_primary": true}, {"id": 857428, "title": "RAAF Base Butterworth", "work_id": 72011, "role": "production company", "role_id": 941, "is_primary": true}, {"id": 857426, "title": "The RAAF aircraft apprentice scheme", "work_id": 72010, "role": "production company", "role_id": 941, "is_primary": true}, {"id": 875370, "title": "RAAF Somers: a few glimpses", "work_id": 89477, "role": "production company", "role_id": 941, "is_primary": true}], "also_known_as": "", "date_of_birth": "", "date_of_death": "", "genders": [], "languages": [], "places_of_operation": [], "biography": "", "biography_author": null, "date_of_biography": "2023-07-05T03:51:11.146661+10:00", "external_links": [], "uuid": "6778b940-2827-4ca2-8a6b-7be872ae1a13", "source": {"name": "Vernon", "slug": "vernon"}, "source_identifier": "11808", "external_references": [{"id": 41623, "source": {"name": "Wikidata", "slug": "wikidata"}, "source_identifier": "Q121091142"}], "date_modified": "2025-03-12T00:41:09.002793+11:00"}, {"id": 14817, "name": "Lexington School for the Deaf", "roles_in_work": [{"id": 2713268, "title": "Eyes that hear", "work_id": 67330, "role": "production company", "role_id": 941, "is_primary": true}], "also_known_as": "", "date_of_birth": null, "date_of_death": null, "genders": [], "languages": [], "places_of_operation": [], "biography": "", "biography_author": null, "date_of_biography": null, "external_links": [], "uuid": "7e7a3a37-bc55-4e56-a2b9-ea398c18a404", "source": {"name": "Vernon", "slug": "vernon"}, "source_identifier": "10033", "external_references": [], "date_modified": "2025-03-12T00:40:57.479702+11:00"}]}