{"count": 28683, "next": "https://api.acmi.net.au/creators/?page=2563", "previous": "https://api.acmi.net.au/creators/?page=2561", "results": [{"id": 13134, "name": "Brigham Young University", "roles_in_work": [{"id": 855409, "title": "On the way to growing up: the miracle of birth", "work_id": 70417, "role": "production company", "role_id": 941, "is_primary": true}, {"id": 2678498, "title": "Bigger, faster, stronger", "work_id": 65416, "role": "production company", "role_id": 941, "is_primary": true}, {"id": 2713452, "title": "The Fat fighters", "work_id": 67421, "role": "production company", "role_id": 941, "is_primary": true}, {"id": 2679860, "title": "Cipher in the snow", "work_id": 66109, "role": "production company", "role_id": 941, "is_primary": true}, {"id": 2645453, "title": "Listening beyond words", "work_id": 69767, "role": "production company", "role_id": 941, "is_primary": true}, {"id": 752485, "title": "Run Dick, run Jane", "work_id": 72393, "role": "production company", "role_id": 941, "is_primary": true}, {"id": 2270157, "title": "William Primrose: a violist's legacy", "work_id": 95311, "role": "production company", "role_id": 941, "is_primary": true}], "also_known_as": "", "date_of_birth": "", "date_of_death": "", "genders": [], "languages": [], "places_of_operation": [], "biography": "", "biography_author": null, "date_of_biography": "2023-05-09T17:43:58.574724+10:00", "external_links": [], "uuid": "5f9c3e2b-f289-4e4e-85f6-65c28dad042a", "source": {"name": "Vernon", "slug": "vernon"}, "source_identifier": "5990", "external_references": [{"id": 42608, "source": {"name": "Wikidata", "slug": "wikidata"}, "source_identifier": "Q332498"}], "date_modified": "2025-03-12T00:45:26.653250+11:00"}, {"id": 13133, "name": "Robert Newton", "roles_in_work": [{"id": 2471062, "title": "Vision in mathematics: relations", "work_id": 95916, "role": "director", "role_id": 938, "is_primary": true}, {"id": 766251, "title": "Thomastown (TEFC)", "work_id": 78097, "role": "director", "role_id": 938, "is_primary": true}, {"id": 918577, "title": "150 to the acre", "work_id": 96883, "role": "co-director", "role_id": 959, "is_primary": true}, {"id": 1905185, "title": "Living here and there: in a timber town", "work_id": 96025, "role": "co-producer", "role_id": 915, "is_primary": true}, {"id": 2749149, "title": "Digging up ancestors", "work_id": 96656, "role": "producer", "role_id": 1089, "is_primary": true}, {"id": 1810331, "title": "Vision in mathematics: isosceles triangles", "work_id": 95913, "role": "producer", "role_id": 1089, "is_primary": true}, {"id": 2678497, "title": "The Big river: a River Murray story", "work_id": 65415, "role": "producer/director", "role_id": 31, "is_primary": true}], "also_known_as": "", "date_of_birth": "", "date_of_death": "", "genders": [], "languages": [], "places_of_operation": [], "biography": "", "biography_author": null, "date_of_biography": "2023-08-14T12:32:43.845154+10:00", "external_links": [], "uuid": "136e8e94-9cc7-4a04-8dcf-c752f973961d", "source": {"name": "Vernon", "slug": "vernon"}, "source_identifier": "27840", "external_references": [], "date_modified": "2025-03-12T23:53:07.852424+11:00"}, {"id": 13132, "name": "Michael Bortman", "roles_in_work": [{"id": 2678495, "title": "Big people, little people", "work_id": 65414, "role": "director", "role_id": 938, "is_primary": true}, {"id": 897554, "title": "Big town (TEFC)", "work_id": 77652, "role": "co-director", "role_id": 959, "is_primary": true}], "also_known_as": "", "date_of_birth": null, "date_of_death": null, "genders": [], "languages": [], "places_of_operation": [], "biography": "", "biography_author": null, "date_of_biography": null, "external_links": [], "uuid": "fa5574b1-8b6d-4945-97bf-ef558ea011a1", "source": {"name": "Vernon", "slug": "vernon"}, "source_identifier": "24989", "external_references": [], "date_modified": "2025-03-06T23:51:57.362575+11:00"}, {"id": 13131, "name": "Korty Films", "roles_in_work": [{"id": 2678811, "title": "Breaking the habit", "work_id": 65590, "role": "production company", "role_id": 941, "is_primary": true}, {"id": 2678494, "title": "Big people, little people", "work_id": 65414, "role": "production company", "role_id": 941, "is_primary": true}, {"id": 873767, "title": "Imogen Cunningham, photographer", "work_id": 88389, "role": "production company", "role_id": 941, "is_primary": true}], "also_known_as": "", "date_of_birth": "", "date_of_death": "", "genders": [], "languages": [], "places_of_operation": [], "biography": "", "biography_author": null, "date_of_biography": "2023-05-09T13:08:21.678515+10:00", "external_links": [], "uuid": "3d6b910e-6394-4bc6-9e03-bb4bc15424b2", "source": {"name": "Vernon", "slug": "vernon"}, "source_identifier": "9835", "external_references": [{"id": 39933, "source": {"name": "Wikidata", "slug": "wikidata"}, "source_identifier": "Q121223387"}], "date_modified": "2025-03-07T00:00:18.347993+11:00"}, {"id": 13130, "name": "Peter Drummond", "roles_in_work": [{"id": 748332, "title": "Moment of brightness", "work_id": 70541, "role": "director", "role_id": 938, "is_primary": true}, {"id": 765262, "title": "Being in touch", "work_id": 77781, "role": "director", "role_id": 938, "is_primary": true}, {"id": 826596, "title": "Making up your mind", "work_id": 96408, "role": "director", "role_id": 938, "is_primary": true}, {"id": 2678493, "title": "Big nose: Takeshi Hoshino with the Tasmanian Puppet Theatre", "work_id": 65413, "role": "director", "role_id": 938, "is_primary": true}, {"id": 798123, "title": "No love for Luigi", "work_id": 87937, "role": "director", "role_id": 938, "is_primary": true}, {"id": 861156, "title": "The Young directors", "work_id": 75017, "role": "director", "role_id": 938, "is_primary": true}, {"id": 2678908, "title": "The Broken silence", "work_id": 65636, "role": "director", "role_id": 938, "is_primary": true}, {"id": 1864561, "title": "Woodcraftsman: Stephen Hogbin", "work_id": 74858, "role": "cinematographer", "role_id": 32, "is_primary": false}, {"id": 2374040, "title": "Museum: a living memory", "work_id": 78217, "role": "co-producer", "role_id": 915, "is_primary": true}, {"id": 1864562, "title": "Woodcraftsman: Stephen Hogbin", "work_id": 74858, "role": "editor", "role_id": 918, "is_primary": true}, {"id": 2646753, "title": "Untitled: five Australian artists", "work_id": 74232, "role": "producer", "role_id": 1089, "is_primary": true}, {"id": 1819993, "title": "Sovereign Hill: goldmining township, Ballarat", "work_id": 77439, "role": "producer", "role_id": 1089, "is_primary": true}, {"id": 2751706, "title": "Strike on Main Street", "work_id": 97941, "role": "producer/director", "role_id": 31, "is_primary": true}, {"id": 2377726, "title": "Sit down one place", "work_id": 72859, "role": "producer/director", "role_id": 31, "is_primary": true}, {"id": 1864560, "title": "Woodcraftsman: Stephen Hogbin", "work_id": 74858, "role": "producer/director", "role_id": 31, "is_primary": true}, {"id": 2716355, "title": "Indonesia: time of transition", "work_id": 68906, "role": "producer/director", "role_id": 31, "is_primary": true}, {"id": 761107, "title": "Inner city, by West Coast artist Michael McMillen: a film", "work_id": 76083, "role": "producer/director", "role_id": 31, "is_primary": true}, {"id": 2645790, "title": "New leaders of Papua New Guinea", "work_id": 70852, "role": "producer/director", "role_id": 31, "is_primary": true}, {"id": 887149, "title": "The Art of the Japanese package", "work_id": 97335, "role": "producer/director", "role_id": 31, "is_primary": true}, {"id": 764415, "title": "Search for identity", "work_id": 77443, "role": "producer/director", "role_id": 31, "is_primary": true}, {"id": 761681, "title": "TAFE: many different things", "work_id": 76333, "role": "producer/director", "role_id": 31, "is_primary": true}, {"id": 1864558, "title": "Woodcraftsman: Stephen Hogbin", "work_id": 74858, "role": "production company", "role_id": 941, "is_primary": true}, {"id": 2749888, "title": "The Last to discover water", "work_id": 97026, "role": "production company", "role_id": 941, "is_primary": true}], "also_known_as": "", "date_of_birth": "", "date_of_death": "", "genders": [], "languages": [], "places_of_operation": [], "biography": "", "biography_author": null, "date_of_biography": "2023-07-12T03:35:38.611723+10:00", "external_links": [], "uuid": "53bf614c-c8a3-4057-8117-2683acb2392d", "source": {"name": "Vernon", "slug": "vernon"}, "source_identifier": "26522", "external_references": [{"id": 42398, "source": {"name": "Wikidata", "slug": "wikidata"}, "source_identifier": "Q121223269"}], "date_modified": "2025-03-13T00:50:08.859753+11:00"}, {"id": 13129, "name": "Patricia Sabine", "roles_in_work": [{"id": 2678492, "title": "Big nose: Takeshi Hoshino with the Tasmanian Puppet Theatre", "work_id": 65413, "role": "producer", "role_id": 1089, "is_primary": true}], "also_known_as": "", "date_of_birth": null, "date_of_death": null, "genders": [], "languages": [], "places_of_operation": [], "biography": "", "biography_author": null, "date_of_biography": null, "external_links": [], "uuid": "1b3fe2bb-d667-4069-b410-caf7fea37304", "source": {"name": "Vernon", "slug": "vernon"}, "source_identifier": "26117", "external_references": [], "date_modified": "2025-03-06T23:51:55.346399+11:00"}, {"id": 13127, "name": "A M P Society", "roles_in_work": [{"id": 2678488, "title": "The Big muster", "work_id": 65412, "role": "production company", "role_id": 941, "is_primary": true}], "also_known_as": "", "date_of_birth": "", "date_of_death": "", "genders": [], "languages": [], "places_of_operation": [], "biography": "", "biography_author": null, "date_of_biography": "2023-05-09T19:26:46.191938+10:00", "external_links": [], "uuid": "363ad392-bfb3-41cd-8344-df2e90071418", "source": {"name": "Vernon", "slug": "vernon"}, "source_identifier": "4947", "external_references": [{"id": 34741, "source": {"name": "Wikidata", "slug": "wikidata"}, "source_identifier": "Q121091332"}], "date_modified": "2025-03-06T23:51:52.679546+11:00"}, {"id": 13126, "name": "Laurence Henson", "roles_in_work": [{"id": 2678487, "title": "The Big mill", "work_id": 65411, "role": "director", "role_id": 938, "is_primary": true}, {"id": 746854, "title": "Living in Scotland = The Smiths in Scotland", "work_id": 69804, "role": "director", "role_id": 938, "is_primary": true}, {"id": 2645495, "title": "Loch Lomond", "work_id": 69856, "role": "director", "role_id": 938, "is_primary": true}, {"id": 1809927, "title": "Introducingt 2C,L: a language for numerically controlled tools", "work_id": 69015, "role": "producer", "role_id": 1089, "is_primary": true}, {"id": 858642, "title": "Songs of Scotland", "work_id": 73011, "role": "producer/director", "role_id": 31, "is_primary": true}], "also_known_as": "", "date_of_birth": null, "date_of_death": null, "genders": [], "languages": [], "places_of_operation": [], "biography": "", "biography_author": null, "date_of_biography": null, "external_links": [], "uuid": "bd7711b9-22b1-4562-bbdf-a0c45e87c7b7", "source": {"name": "Vernon", "slug": "vernon"}, "source_identifier": "23544", "external_references": [], "date_modified": "2025-03-06T23:51:51.828946+11:00"}, {"id": 13125, "name": "Jack Holmes", "roles_in_work": [{"id": 2678486, "title": "The Big mill", "work_id": 65411, "role": "producer", "role_id": 1089, "is_primary": true}, {"id": 2715086, "title": "Hallmarking", "work_id": 68273, "role": "producer", "role_id": 1089, "is_primary": true}], "also_known_as": "", "date_of_birth": "", "date_of_death": "", "genders": [], "languages": [], "places_of_operation": [], "biography": "", "biography_author": null, "date_of_biography": "2023-08-11T17:12:01.416681+10:00", "external_links": [], "uuid": "d084644c-cf06-4fa8-8825-791e4d6055dd", "source": {"name": "Vernon", "slug": "vernon"}, "source_identifier": "21057", "external_references": [], "date_modified": "2025-03-12T01:26:46.411771+11:00"}, {"id": 13124, "name": "Templar Film Studios", "roles_in_work": [{"id": 2644327, "title": "Champions in the sun", "work_id": 65935, "role": "production company", "role_id": 941, "is_primary": true}, {"id": 759080, "title": "Weave me a rainbow", "work_id": 75284, "role": "production company", "role_id": 941, "is_primary": true}, {"id": 752932, "title": "Seawards: the great ships", "work_id": 72596, "role": "production company", "role_id": 941, "is_primary": true}, {"id": 2678485, "title": "The Big mill", "work_id": 65411, "role": "production company", "role_id": 941, "is_primary": true}, {"id": 857399, "title": "The Queen in Scotland", "work_id": 71985, "role": "production company", "role_id": 941, "is_primary": true}], "also_known_as": "", "date_of_birth": null, "date_of_death": null, "genders": [], "languages": [], "places_of_operation": [], "biography": "", "biography_author": null, "date_of_biography": null, "external_links": [], "uuid": "de432347-adb8-416f-b48c-a23703687871", "source": {"name": "Vernon", "slug": "vernon"}, "source_identifier": "13284", "external_references": [], "date_modified": "2025-03-06T23:51:50.646149+11:00"}]}