{"count": 28687, "next": "https://api.acmi.net.au/creators/?page=367", "previous": "https://api.acmi.net.au/creators/?page=365", "results": [{"id": 81947, "name": "Chris Knowles", "roles_in_work": [{"id": 2658047, "title": "Rainbow Diary", "work_id": 114353, "role": "music", "role_id": 949, "is_primary": false}, {"id": 3088635, "title": "Myself When Fourteen", "work_id": 117123, "role": "music", "role_id": 949, "is_primary": false}], "also_known_as": "", "date_of_birth": "", "date_of_death": "", "genders": [], "languages": [], "places_of_operation": [], "biography": "", "biography_author": null, "date_of_biography": "2023-05-09T16:45:10.791529+10:00", "external_links": [], "uuid": "1b6d0f23-c9e0-49d0-8d09-ab5b23acfd4c", "source": {"name": "Vernon", "slug": "vernon"}, "source_identifier": "35521", "external_references": [{"id": 52174, "source": {"name": "Wikidata", "slug": "wikidata"}, "source_identifier": "Q121361304"}], "date_modified": "2025-03-17T10:56:01.231323+11:00"}, {"id": 81946, "name": "Bessemer Cookware", "roles_in_work": [{"id": 2302222, "title": "Skippy Bessemer plate", "work_id": 114351, "role": "manufacturer", "role_id": 627, "is_primary": true}], "also_known_as": "", "date_of_birth": "", "date_of_death": "", "genders": [], "languages": [], "places_of_operation": [], "biography": "", "biography_author": null, "date_of_biography": "2023-05-09T18:38:54.212270+10:00", "external_links": [], "uuid": "72bab509-79b0-4fbc-82c1-589a3b58eb1d", "source": {"name": "Vernon", "slug": "vernon"}, "source_identifier": "32073", "external_references": [], "date_modified": "2023-06-14T16:33:30.576250+10:00"}, {"id": 81945, "name": "Mirrie Hill", "roles_in_work": [{"id": 3099100, "title": "Aborigines of the Sea Coast", "work_id": 114350, "role": "music", "role_id": 949, "is_primary": false}], "also_known_as": "", "date_of_birth": "", "date_of_death": "", "genders": [], "languages": [], "places_of_operation": [], "biography": "", "biography_author": null, "date_of_biography": "2023-08-09T03:40:55.737568+10:00", "external_links": [], "uuid": "7187b7ca-1597-4122-9a73-7a5a9c847532", "source": {"name": "Vernon", "slug": "vernon"}, "source_identifier": "37378", "external_references": [{"id": 50907, "source": {"name": "Wikidata", "slug": "wikidata"}, "source_identifier": "Q121360570"}], "date_modified": "2025-05-21T22:35:41.038458+10:00"}, {"id": 81944, "name": "Peter Bassett-Smith", "roles_in_work": [{"id": 3099099, "title": "Aborigines of the Sea Coast", "work_id": 114350, "role": "director of photography", "role_id": 925, "is_primary": false}], "also_known_as": "", "date_of_birth": "", "date_of_death": "", "genders": [], "languages": [], "places_of_operation": [], "biography": "", "biography_author": null, "date_of_biography": "2023-08-09T03:40:55.008824+10:00", "external_links": [], "uuid": "100825b4-fcd5-4ff8-bf94-60586a81b983", "source": {"name": "Vernon", "slug": "vernon"}, "source_identifier": "37377", "external_references": [], "date_modified": "2025-05-21T22:35:40.423715+10:00"}, {"id": 81943, "name": "Jewish Museum of Australia", "roles_in_work": [{"id": 2643172, "title": "The Shoemaker", "work_id": 114348, "role": "partner", "role_id": 575, "is_primary": false}, {"id": 2643179, "title": "Second life", "work_id": 114347, "role": "partner", "role_id": 575, "is_primary": false}, {"id": 2643184, "title": "I'm not French", "work_id": 114343, "role": "partner", "role_id": 575, "is_primary": false}, {"id": 2643190, "title": "Ingredients of love", "work_id": 114344, "role": "partner", "role_id": 575, "is_primary": false}, {"id": 2643201, "title": "A Fishy problem", "work_id": 114342, "role": "partner", "role_id": 575, "is_primary": false}, {"id": 2643213, "title": "Fate makes all the moves", "work_id": 114341, "role": "partner", "role_id": 575, "is_primary": false}, {"id": 2643223, "title": "One wedding and several migrations", "work_id": 114346, "role": "partner", "role_id": 575, "is_primary": false}, {"id": 2643231, "title": "Small town girl", "work_id": 114349, "role": "partner", "role_id": 575, "is_primary": false}, {"id": 2643241, "title": "Journeys", "work_id": 114345, "role": "partner", "role_id": 575, "is_primary": false}, {"id": 2643153, "title": "Stories from the Jewish Community", "work_id": 114340, "role": "partner", "role_id": 575, "is_primary": false}, {"id": 2643167, "title": "My beautiful shwesters", "work_id": 114339, "role": "partner", "role_id": 575, "is_primary": false}], "also_known_as": "", "date_of_birth": "", "date_of_death": "", "genders": [], "languages": [], "places_of_operation": [], "biography": "", "biography_author": null, "date_of_biography": "2023-05-09T18:59:09.152733+10:00", "external_links": [], "uuid": "7b2963c0-b6dc-4490-bc5c-b3099e0b0023", "source": {"name": "Vernon", "slug": "vernon"}, "source_identifier": "3570", "external_references": [], "date_modified": "2025-03-05T11:55:20.629307+11:00"}, {"id": 81942, "name": "Riza Guclu", "roles_in_work": [{"id": 3110006, "title": "Australyaya Gelisiminhikayesi = Coming to Australia", "work_id": 114329, "role": "creator", "role_id": 968, "is_primary": true}, {"id": 3109909, "title": "Stories from the Turkish community : Digital Storytelling project", "work_id": 114328, "role": "creator", "role_id": 968, "is_primary": true}], "also_known_as": "", "date_of_birth": "", "date_of_death": "", "genders": [{"id": 9, "name": "Male", "slug": "male"}], "languages": [], "places_of_operation": [], "biography": "", "biography_author": null, "date_of_biography": "2023-05-09T19:00:05.213679+10:00", "external_links": [], "uuid": "c5de5f15-efbe-4fc5-9c1d-c367977b3e8f", "source": {"name": "Vernon", "slug": "vernon"}, "source_identifier": "35302", "external_references": [], "date_modified": "2025-12-02T14:28:16.235556+11:00"}, {"id": 81941, "name": "Billanook College (Mooroolbark)", "roles_in_work": [{"id": 2642525, "title": "Urban scrawl", "work_id": 114308, "role": "school", "role_id": 619, "is_primary": false}], "also_known_as": "", "date_of_birth": "", "date_of_death": "", "genders": [], "languages": [], "places_of_operation": [], "biography": "", "biography_author": null, "date_of_biography": "2023-05-09T18:32:21.348600+10:00", "external_links": [], "uuid": "a39679a3-d7d0-4a83-a5df-efac4e49e835", "source": {"name": "Vernon", "slug": "vernon"}, "source_identifier": "3474", "external_references": [], "date_modified": "2025-03-05T11:47:31.567395+11:00"}, {"id": 81940, "name": "Belmont High School", "roles_in_work": [{"id": 2719459, "title": "KnightGame", "work_id": 117680, "role": "creator", "role_id": 968, "is_primary": true}, {"id": 2642529, "title": "Short black", "work_id": 114306, "role": "school", "role_id": 619, "is_primary": false}], "also_known_as": "", "date_of_birth": "", "date_of_death": "", "genders": [], "languages": [], "places_of_operation": [], "biography": "", "biography_author": null, "date_of_biography": "2023-05-09T19:58:08.850614+10:00", "external_links": [], "uuid": "696236c1-c3da-4d53-b464-0c78669baa12", "source": {"name": "Vernon", "slug": "vernon"}, "source_identifier": "3471", "external_references": [], "date_modified": "2025-03-12T07:05:24.111415+11:00"}, {"id": 81939, "name": "Centre for Adult Education (Melbourne)", "roles_in_work": [{"id": 2642520, "title": "Night light", "work_id": 114303, "role": "school", "role_id": 619, "is_primary": false}], "also_known_as": "", "date_of_birth": "", "date_of_death": "", "genders": [], "languages": [], "places_of_operation": [], "biography": "", "biography_author": null, "date_of_biography": "2023-05-09T18:32:16.161758+10:00", "external_links": [], "uuid": "e9a2eda8-f3a4-411a-8089-f7dff289fb0f", "source": {"name": "Vernon", "slug": "vernon"}, "source_identifier": "3467", "external_references": [], "date_modified": "2025-03-05T11:47:28.165079+11:00"}, {"id": 81938, "name": "Sacred Heart College (Kyneton)", "roles_in_work": [{"id": 2642531, "title": "Just business", "work_id": 114301, "role": "school", "role_id": 619, "is_primary": false}], "also_known_as": "", "date_of_birth": "", "date_of_death": "", "genders": [], "languages": [], "places_of_operation": [], "biography": "", "biography_author": null, "date_of_biography": "2023-05-09T18:32:24.887153+10:00", "external_links": [], "uuid": "25c2311e-127f-444f-aad8-76af0dd579ed", "source": {"name": "Vernon", "slug": "vernon"}, "source_identifier": "3464", "external_references": [], "date_modified": "2025-03-05T11:47:35.779712+11:00"}]}