{"count": 28687, "next": "https://api.acmi.net.au/creators/?page=1295", "previous": "https://api.acmi.net.au/creators/?page=1293", "results": [{"id": 38957, "name": "Owen Johnston", "roles_in_work": [{"id": 2752969, "title": "Radio day", "work_id": 98540, "role": "director", "role_id": 938, "is_primary": true}], "also_known_as": "", "date_of_birth": "", "date_of_death": "", "genders": [], "languages": [], "places_of_operation": [], "biography": "", "biography_author": null, "date_of_biography": "2023-08-14T10:29:41.858293+10:00", "external_links": [], "uuid": "c80bc9c2-06d9-40c8-afbc-17155bd85a0a", "source": {"name": "Vernon", "slug": "vernon"}, "source_identifier": "26000", "external_references": [], "date_modified": "2025-03-13T01:15:53.910309+11:00"}, {"id": 38956, "name": "Georgina Guilfoyle", "roles_in_work": [{"id": 2752968, "title": "Radio day", "work_id": 98540, "role": "producer", "role_id": 1089, "is_primary": true}], "also_known_as": "", "date_of_birth": "", "date_of_death": "", "genders": [], "languages": [], "places_of_operation": [], "biography": "", "biography_author": null, "date_of_biography": "2023-08-14T10:29:41.246571+10:00", "external_links": [], "uuid": "f50bde41-5f8f-416c-8eb0-67de2d70dcf2", "source": {"name": "Vernon", "slug": "vernon"}, "source_identifier": "19716", "external_references": [], "date_modified": "2025-03-13T01:15:53.334134+11:00"}, {"id": 38955, "name": "Cynthia Controp", "roles_in_work": [{"id": 2752967, "title": "A Creative partnership: the actor and the director", "work_id": 98539, "role": "director", "role_id": 938, "is_primary": true}], "also_known_as": "", "date_of_birth": null, "date_of_death": null, "genders": [], "languages": [], "places_of_operation": [], "biography": "", "biography_author": null, "date_of_biography": null, "external_links": [], "uuid": "7c2c9417-d8f6-4a4c-99e5-6c1b2cde0c22", "source": {"name": "Vernon", "slug": "vernon"}, "source_identifier": "17271", "external_references": [], "date_modified": "2025-03-13T01:15:52.478735+11:00"}, {"id": 38954, "name": "A Fitzroy Flix Film", "roles_in_work": [{"id": 2752963, "title": "Wharfie", "work_id": 98538, "role": "production company", "role_id": 941, "is_primary": true}], "also_known_as": "", "date_of_birth": "", "date_of_death": "", "genders": [], "languages": [], "places_of_operation": [], "biography": "", "biography_author": null, "date_of_biography": "2023-08-14T12:42:07.922068+10:00", "external_links": [], "uuid": "17e2fa69-b096-4710-847a-83900fed9f36", "source": {"name": "Vernon", "slug": "vernon"}, "source_identifier": "4935", "external_references": [], "date_modified": "2025-03-13T01:15:49.843967+11:00"}, {"id": 38952, "name": "David Johnson", "roles_in_work": [{"id": 2752957, "title": "Puppet animation", "work_id": 98535, "role": "director", "role_id": 938, "is_primary": true}], "also_known_as": "", "date_of_birth": "", "date_of_death": "", "genders": [], "languages": [], "places_of_operation": [], "biography": "", "biography_author": null, "date_of_biography": "2023-05-09T16:41:37.740224+10:00", "external_links": [], "uuid": "dc86f6f3-1168-4e98-8940-d474efe3d6df", "source": {"name": "Vernon", "slug": "vernon"}, "source_identifier": "17658", "external_references": [{"id": 34039, "source": {"name": "Wikidata", "slug": "wikidata"}, "source_identifier": "Q121078912"}], "date_modified": "2025-03-13T01:15:45.524152+11:00"}, {"id": 38950, "name": "Butterick Company", "roles_in_work": [{"id": 2752947, "title": "Fashion from start to finish", "work_id": 98531, "role": "production company", "role_id": 941, "is_primary": true}], "also_known_as": "", "date_of_birth": "", "date_of_death": "", "genders": [], "languages": [], "places_of_operation": [], "biography": "", "biography_author": null, "date_of_biography": "2023-08-11T16:35:51.019484+10:00", "external_links": [], "uuid": "bbe93693-bdfb-44a1-aabb-113e0c42c2a1", "source": {"name": "Vernon", "slug": "vernon"}, "source_identifier": "6153", "external_references": [], "date_modified": "2025-03-13T01:15:38.608549+11:00"}, {"id": 38941, "name": "Riverina College of Advanced Education. Literacy Centre", "roles_in_work": [{"id": 2752928, "title": "Watching them write, seeing them learn: a kindergarten writing community at work", "work_id": 98524, "role": "production company", "role_id": 941, "is_primary": true}], "also_known_as": "", "date_of_birth": "", "date_of_death": "", "genders": [], "languages": [], "places_of_operation": [], "biography": "", "biography_author": null, "date_of_biography": "2023-08-14T12:35:13.325229+10:00", "external_links": [], "uuid": "f3affbd4-c3b1-4362-8837-4bf55fc51914", "source": {"name": "Vernon", "slug": "vernon"}, "source_identifier": "10096", "external_references": [], "date_modified": "2025-03-13T01:15:26.484315+11:00"}, {"id": 38940, "name": "Churchil Films", "roles_in_work": [{"id": 2752926, "title": "Mechanical energy", "work_id": 98523, "role": "production company", "role_id": 941, "is_primary": true}], "also_known_as": "", "date_of_birth": "", "date_of_death": "", "genders": [], "languages": [], "places_of_operation": [], "biography": "", "biography_author": null, "date_of_biography": "2023-08-11T19:45:17.546041+10:00", "external_links": [], "uuid": "85b01081-873b-4b18-9d3d-701f1c9b7704", "source": {"name": "Vernon", "slug": "vernon"}, "source_identifier": "6614", "external_references": [], "date_modified": "2025-03-13T01:15:25.090173+11:00"}, {"id": 38939, "name": "Fund for Theatre and Film", "roles_in_work": [{"id": 2406640, "title": "Eight minutes to midnight", "work_id": 98512, "role": "production company", "role_id": 941, "is_primary": true}], "also_known_as": "", "date_of_birth": "", "date_of_death": "", "genders": [], "languages": [], "places_of_operation": [], "biography": "", "biography_author": null, "date_of_biography": "2023-08-11T16:18:33.779863+10:00", "external_links": [], "uuid": "4e926d8d-7c0f-4b39-9add-b4ebee59c7dc", "source": {"name": "Vernon", "slug": "vernon"}, "source_identifier": "8603", "external_references": [], "date_modified": "2023-08-11T16:18:33.780144+10:00"}, {"id": 38938, "name": "Dianne Haak", "roles_in_work": [{"id": 2753560, "title": "The Lilith summer", "work_id": 98824, "role": "director", "role_id": 938, "is_primary": true}, {"id": 2752902, "title": "What Mary Jo wanted", "work_id": 98506, "role": "director", "role_id": 938, "is_primary": true}], "also_known_as": "", "date_of_birth": null, "date_of_death": null, "genders": [], "languages": [], "places_of_operation": [], "biography": "", "biography_author": null, "date_of_biography": null, "external_links": [], "uuid": "d675bb75-4d22-4b55-9d3d-6154fcd654af", "source": {"name": "Vernon", "slug": "vernon"}, "source_identifier": "18088", "external_references": [], "date_modified": "2025-03-13T01:27:03.136789+11:00"}]}