{"count": 28687, "next": "https://api.acmi.net.au/creators/?page=72", "previous": "https://api.acmi.net.au/creators/?page=70", "results": [{"id": 86425, "name": "Dan Flavin", "roles_in_work": [{"id": 2718957, "title": "‘monument’ for V. Tatlin", "work_id": 120279, "role": "artist", "role_id": 505, "is_primary": true}], "also_known_as": "", "date_of_birth": "1933", "date_of_death": "1996", "genders": [], "languages": [], "places_of_operation": [], "biography": "", "biography_author": null, "date_of_biography": "2023-05-09T18:27:07.798862+10:00", "external_links": [], "uuid": "69f049ec-2abc-4f05-b135-f93fdf002739", "source": {"name": "Vernon", "slug": "vernon"}, "source_identifier": "40280", "external_references": [], "date_modified": "2025-03-12T06:46:49.605639+11:00"}, {"id": 86424, "name": "Olafur Eliasson", "roles_in_work": [{"id": 2718951, "title": "Stardust Particle", "work_id": 120281, "role": "artist", "role_id": 505, "is_primary": true}], "also_known_as": "", "date_of_birth": "1967", "date_of_death": "", "genders": [], "languages": [], "places_of_operation": [], "biography": "", "biography_author": null, "date_of_biography": "2023-05-09T18:27:05.428792+10:00", "external_links": [], "uuid": "041a335e-8a0f-47e1-b363-cbac7ae011eb", "source": {"name": "Vernon", "slug": "vernon"}, "source_identifier": "40277", "external_references": [], "date_modified": "2025-03-12T06:46:37.407905+11:00"}, {"id": 86423, "name": "György Kepes", "roles_in_work": [{"id": 2719154, "title": "Circles and Dots", "work_id": 120275, "role": "artist", "role_id": 505, "is_primary": true}, {"id": 2719144, "title": "Blobs 3", "work_id": 120273, "role": "artist", "role_id": 505, "is_primary": true}, {"id": 2719151, "title": "Branches", "work_id": 120274, "role": "artist", "role_id": 505, "is_primary": true}, {"id": 2719158, "title": "Light Reflection", "work_id": 120276, "role": "artist", "role_id": 505, "is_primary": true}, {"id": 2719161, "title": "Structure Photogram", "work_id": 120277, "role": "artist", "role_id": 505, "is_primary": true}, {"id": 2719165, "title": "Left to right:  Light Reflection 1941  Circles and Dots c.1939–1940   Structure Photogram c.1939–1940  Branches c.1939–1940  Blobs 3 c.1939–1940   Photograph, gelatin silver print on paper", "work_id": 120272, "role": "artist", "role_id": 505, "is_primary": true}], "also_known_as": "", "date_of_birth": "1906", "date_of_death": "2001", "genders": [], "languages": [], "places_of_operation": [], "biography": "", "biography_author": null, "date_of_biography": "2023-05-09T19:04:15.032203+10:00", "external_links": [], "uuid": "81a2e444-ab04-4286-acaf-127230986d37", "source": {"name": "Vernon", "slug": "vernon"}, "source_identifier": "40284", "external_references": [], "date_modified": "2025-03-12T06:55:48.877563+11:00"}, {"id": 86422, "name": "Luigi Veronesi", "roles_in_work": [{"id": 2719126, "title": "Kinetic Study 1941  Photo n.145 1940, printed 1970s  Photo n.152 1940, printed 1970s  Photograph, gelatin silver print on paper", "work_id": 120262, "role": "artist", "role_id": 505, "is_primary": true}, {"id": 2718826, "title": "Untitled (Spiral) 1938  Construction 1938  Photograph, gelatin silver print on paper", "work_id": 120266, "role": "artist", "role_id": 505, "is_primary": true}, {"id": 2718820, "title": "Untitled (Spiral)", "work_id": 120268, "role": "artist", "role_id": 505, "is_primary": true}, {"id": 2719124, "title": "Photo n.152", "work_id": 120265, "role": "artist", "role_id": 505, "is_primary": true}, {"id": 2719121, "title": "Photo n.145", "work_id": 120264, "role": "artist", "role_id": 505, "is_primary": true}, {"id": 2718814, "title": "Construction", "work_id": 120267, "role": "artist", "role_id": 505, "is_primary": true}, {"id": 2719117, "title": "Kinetic Study", "work_id": 120263, "role": "artist", "role_id": 505, "is_primary": true}], "also_known_as": "", "date_of_birth": "1908", "date_of_death": "1998", "genders": [], "languages": [], "places_of_operation": [], "biography": "", "biography_author": null, "date_of_biography": "2023-05-09T15:32:49.651155+10:00", "external_links": [], "uuid": "eb7b181a-ddb4-4989-bb13-8b4582dfc899", "source": {"name": "Vernon", "slug": "vernon"}, "source_identifier": "40283", "external_references": [], "date_modified": "2025-03-12T06:54:12.563846+11:00"}, {"id": 86421, "name": "Yayoi Kusama", "roles_in_work": [{"id": 2717537, "title": "The Passing Winter", "work_id": 120251, "role": "artist", "role_id": 505, "is_primary": true}], "also_known_as": "", "date_of_birth": "1929", "date_of_death": "", "genders": [], "languages": [], "places_of_operation": [], "biography": "", "biography_author": null, "date_of_biography": "2023-05-09T19:31:09.595364+10:00", "external_links": [], "uuid": "93072568-da1f-4e66-a196-9df15bbe74f9", "source": {"name": "Vernon", "slug": "vernon"}, "source_identifier": "40293", "external_references": [], "date_modified": "2025-03-12T05:58:54.671812+11:00"}, {"id": 86420, "name": "Claude Monet", "roles_in_work": [{"id": 2717542, "title": "Poplars on the Epte (Les Peupliers au bord de l'Epte)", "work_id": 120256, "role": "artist", "role_id": 505, "is_primary": true}, {"id": 2717541, "title": "The Seine at Port-Villez", "work_id": 120257, "role": "artist", "role_id": 505, "is_primary": true}], "also_known_as": "", "date_of_birth": "1840", "date_of_death": "1926", "genders": [], "languages": [], "places_of_operation": [], "biography": "", "biography_author": null, "date_of_biography": "2023-05-09T19:31:18.278821+10:00", "external_links": [], "uuid": "67327d10-9053-41d3-aeb7-bbf1929d2db2", "source": {"name": "Vernon", "slug": "vernon"}, "source_identifier": "40288", "external_references": [], "date_modified": "2025-03-12T05:59:05.097177+11:00"}, {"id": 86419, "name": "Camille Pissarro", "roles_in_work": [{"id": 2335466, "title": "The Pilots’ Jetty, Le Havre, Morning, Cloudy and Misty Weather", "work_id": 120255, "role": "artist", "role_id": 505, "is_primary": true}], "also_known_as": "", "date_of_birth": "1830", "date_of_death": "1903", "genders": [], "languages": [], "places_of_operation": [], "biography": "", "biography_author": null, "date_of_biography": "2023-05-09T19:31:14.137006+10:00", "external_links": [], "uuid": "668cfa1b-5691-4d96-a509-b07f092e424c", "source": {"name": "Vernon", "slug": "vernon"}, "source_identifier": "40290", "external_references": [], "date_modified": "2023-06-14T16:33:30.576250+10:00"}, {"id": 86418, "name": "Alfred Sisley", "roles_in_work": [{"id": 2717544, "title": "The Path to the Old Ferry at By", "work_id": 120254, "role": "artist", "role_id": 505, "is_primary": true}, {"id": 2717543, "title": "The Small Meadows in Spring", "work_id": 120258, "role": "artist", "role_id": 505, "is_primary": true}], "also_known_as": "", "date_of_birth": "1839", "date_of_death": "1899", "genders": [], "languages": [], "places_of_operation": [], "biography": "", "biography_author": null, "date_of_biography": "2023-05-09T19:31:15.808646+10:00", "external_links": [], "uuid": "4d5f25fd-507f-4a63-8b27-6f06d056cdf5", "source": {"name": "Vernon", "slug": "vernon"}, "source_identifier": "40287", "external_references": [], "date_modified": "2025-03-12T05:59:10.643838+11:00"}, {"id": 86417, "name": "John Brett", "roles_in_work": [{"id": 2717539, "title": "The British Channel Seen from the Dorsetshire Cliffs", "work_id": 120253, "role": "artist", "role_id": 505, "is_primary": true}], "also_known_as": "", "date_of_birth": "1831", "date_of_death": "1902", "genders": [], "languages": [], "places_of_operation": [], "biography": "", "biography_author": null, "date_of_biography": "2023-05-09T19:31:17.412539+10:00", "external_links": [], "uuid": "4a7093e8-16cc-4495-8f07-7f4bac49d5c0", "source": {"name": "Vernon", "slug": "vernon"}, "source_identifier": "40292", "external_references": [], "date_modified": "2025-03-12T05:58:58.509615+11:00"}, {"id": 86416, "name": "Tacita Dean", "roles_in_work": [{"id": 2717540, "title": "Disappearance at Sea", "work_id": 120250, "role": "artist", "role_id": 505, "is_primary": true}], "also_known_as": "", "date_of_birth": "1965", "date_of_death": "", "genders": [], "languages": [], "places_of_operation": [], "biography": "", "biography_author": null, "date_of_biography": "2023-05-09T15:13:11.634082+10:00", "external_links": [], "uuid": "63de6a6b-bad8-440f-8cff-821e2d7e5ea3", "source": {"name": "Vernon", "slug": "vernon"}, "source_identifier": "40295", "external_references": [], "date_modified": "2025-03-12T05:58:59.074694+11:00"}]}