{"count": 28687, "next": "https://api.acmi.net.au/creators/?page=1283", "previous": "https://api.acmi.net.au/creators/?page=1281", "results": [{"id": 39125, "name": "Teatro Comunale, Florence", "roles_in_work": [{"id": 2753647, "title": "Falstaff", "work_id": 98863, "role": "production company", "role_id": 941, "is_primary": true}], "also_known_as": "", "date_of_birth": null, "date_of_death": null, "genders": [], "languages": [], "places_of_operation": [], "biography": "", "biography_author": null, "date_of_biography": null, "external_links": [], "uuid": "39c5bfa0-d3d2-426e-9239-dffc1920b532", "source": {"name": "Vernon", "slug": "vernon"}, "source_identifier": "13216", "external_references": [], "date_modified": "2025-03-13T01:30:20.253402+11:00"}, {"id": 39124, "name": "Los Angeles Philharmonic Association", "roles_in_work": [{"id": 2753646, "title": "Falstaff", "work_id": 98863, "role": "production company", "role_id": 941, "is_primary": true}], "also_known_as": "", "date_of_birth": null, "date_of_death": null, "genders": [], "languages": [], "places_of_operation": [], "biography": "", "biography_author": null, "date_of_biography": null, "external_links": [], "uuid": "aaf8a2d4-f2c0-47bc-b107-5a7028374627", "source": {"name": "Vernon", "slug": "vernon"}, "source_identifier": "10163", "external_references": [], "date_modified": "2025-03-13T01:30:19.664487+11:00"}, {"id": 39123, "name": "Christopher Ross", "roles_in_work": [{"id": 2753643, "title": "Forestry as a career", "work_id": 98862, "role": "producer", "role_id": 1089, "is_primary": true}], "also_known_as": "", "date_of_birth": "", "date_of_death": "", "genders": [], "languages": [], "places_of_operation": [], "biography": "", "biography_author": null, "date_of_biography": "2023-08-11T16:44:14.519308+10:00", "external_links": [], "uuid": "cc75d375-0885-4fc3-936a-082f0c6ebf96", "source": {"name": "Vernon", "slug": "vernon"}, "source_identifier": "17000", "external_references": [], "date_modified": "2025-03-13T01:30:17.649681+11:00"}, {"id": 39122, "name": "Dept of Forestry, Australian National University", "roles_in_work": [{"id": 2753642, "title": "Forestry as a career", "work_id": 98862, "role": "production company", "role_id": 941, "is_primary": true}], "also_known_as": "", "date_of_birth": "", "date_of_death": "", "genders": [], "languages": [], "places_of_operation": [], "biography": "", "biography_author": null, "date_of_biography": "2023-08-11T16:44:13.881798+10:00", "external_links": [], "uuid": "68978ba7-f3c7-4b80-92aa-13e22d589ea6", "source": {"name": "Vernon", "slug": "vernon"}, "source_identifier": "7498", "external_references": [], "date_modified": "2025-03-13T01:30:17.072777+11:00"}, {"id": 39121, "name": "Harry Mehlman", "roles_in_work": [{"id": 2753639, "title": "Getting around in French", "work_id": 98860, "role": "director", "role_id": 938, "is_primary": true}, {"id": 2753641, "title": "Taking off in French", "work_id": 98861, "role": "director", "role_id": 938, "is_primary": true}], "also_known_as": "", "date_of_birth": "", "date_of_death": "", "genders": [], "languages": [], "places_of_operation": [], "biography": "", "biography_author": null, "date_of_biography": "2023-08-11T17:00:53.408824+10:00", "external_links": [], "uuid": "e08facb8-f0c1-4792-beb3-2b69b71c112b", "source": {"name": "Vernon", "slug": "vernon"}, "source_identifier": "20334", "external_references": [], "date_modified": "2025-03-13T01:30:16.234964+11:00"}, {"id": 39120, "name": "Educational TV Services", "roles_in_work": [{"id": 2753638, "title": "Getting around in French", "work_id": 98860, "role": "production company", "role_id": 941, "is_primary": true}], "also_known_as": "", "date_of_birth": "", "date_of_death": "", "genders": [], "languages": [], "places_of_operation": [], "biography": "", "biography_author": null, "date_of_biography": "2023-08-11T17:00:52.768537+10:00", "external_links": [], "uuid": "f762cbb1-1faf-4faf-9ea0-bb5cb31553d3", "source": {"name": "Vernon", "slug": "vernon"}, "source_identifier": "7819", "external_references": [], "date_modified": "2025-03-13T01:30:14.239537+11:00"}, {"id": 39116, "name": "Halina Sztynda", "roles_in_work": [{"id": 2753618, "title": "Conflict", "work_id": 98850, "role": "director", "role_id": 938, "is_primary": true}], "also_known_as": "", "date_of_birth": "", "date_of_death": "", "genders": [], "languages": [], "places_of_operation": [], "biography": "", "biography_author": null, "date_of_biography": "2023-08-11T15:40:11.175160+10:00", "external_links": [], "uuid": "bbc7fad8-d9c0-472a-aec4-8808361d2f32", "source": {"name": "Vernon", "slug": "vernon"}, "source_identifier": "20209", "external_references": [{"id": 34178, "source": {"name": "Wikidata", "slug": "wikidata"}, "source_identifier": "Q120495654"}], "date_modified": "2025-03-13T01:27:40.105372+11:00"}, {"id": 39115, "name": "Dept of Conservation, Forests and Land", "roles_in_work": [{"id": 2754809, "title": "Rabbit control. Part 2: follow up", "work_id": 99377, "role": "production company", "role_id": 941, "is_primary": true}, {"id": 2753616, "title": "Conflict", "work_id": 98850, "role": "production company", "role_id": 941, "is_primary": true}, {"id": 2754812, "title": "Conservation cropping", "work_id": 99379, "role": "production company", "role_id": 941, "is_primary": true}], "also_known_as": "", "date_of_birth": "", "date_of_death": "", "genders": [], "languages": [], "places_of_operation": [], "biography": "", "biography_author": null, "date_of_biography": "2023-08-11T15:44:27.986829+10:00", "external_links": [], "uuid": "80c79996-ce1b-4163-bf7d-18a8f141a477", "source": {"name": "Vernon", "slug": "vernon"}, "source_identifier": "7489", "external_references": [], "date_modified": "2025-03-13T01:51:44.758113+11:00"}, {"id": 39114, "name": "Peter Chatalow", "roles_in_work": [{"id": 2753612, "title": "Caroline", "work_id": 98848, "role": "director", "role_id": 938, "is_primary": true}], "also_known_as": "", "date_of_birth": null, "date_of_death": null, "genders": [], "languages": [], "places_of_operation": [], "biography": "", "biography_author": null, "date_of_biography": null, "external_links": [], "uuid": "211d66ac-c368-44e1-9710-11d8f53b8bb2", "source": {"name": "Vernon", "slug": "vernon"}, "source_identifier": "26493", "external_references": [], "date_modified": "2025-03-13T01:27:35.792668+11:00"}, {"id": 39112, "name": "Simon Heaven", "roles_in_work": [{"id": 2753601, "title": "Kites: a collage of kites and kite flyers", "work_id": 98843, "role": "director", "role_id": 938, "is_primary": true}, {"id": 2753600, "title": "Kites: a collage of kites and kite flyers", "work_id": 98843, "role": "co-producer", "role_id": 915, "is_primary": true}], "also_known_as": "", "date_of_birth": null, "date_of_death": null, "genders": [], "languages": [], "places_of_operation": [], "biography": "", "biography_author": null, "date_of_biography": null, "external_links": [], "uuid": "ba094a70-6692-470c-af76-a4504632bad6", "source": {"name": "Vernon", "slug": "vernon"}, "source_identifier": "28848", "external_references": [], "date_modified": "2025-03-13T01:27:28.433775+11:00"}]}