{"count": 28684, "next": "https://api.acmi.net.au/creators/?page=2081", "previous": "https://api.acmi.net.au/creators/?page=2079", "results": [{"id": 20952, "name": "Nicolas Noxon", "roles_in_work": [{"id": 2752381, "title": "Apemen of Africa", "work_id": 98268, "role": "director", "role_id": 938, "is_primary": true}, {"id": 2265557, "title": "Secrets of the Titanic", "work_id": 81348, "role": "co-director", "role_id": 959, "is_primary": true}, {"id": 2265551, "title": "Secrets of the Titanic", "work_id": 81348, "role": "producer", "role_id": 1089, "is_primary": true}, {"id": 1806289, "title": "Dr Leakey and the dawn of man", "work_id": 96066, "role": "producer", "role_id": 1089, "is_primary": true}, {"id": 864455, "title": "The Sharks", "work_id": 77983, "role": "producer/director", "role_id": 31, "is_primary": true}, {"id": 2752383, "title": "The Man hunters", "work_id": 98269, "role": "producer/director", "role_id": 31, "is_primary": true}, {"id": 2352322, "title": "The Great whales", "work_id": 77993, "role": "producer/director", "role_id": 31, "is_primary": true}, {"id": 2749539, "title": "From Homo Erectus to neanderthal", "work_id": 96856, "role": "producer/director", "role_id": 31, "is_primary": true}], "also_known_as": "", "date_of_birth": "29 JUL 1936", "date_of_death": "03 MAY 2016", "genders": [{"id": 9, "name": "Male", "slug": "male"}], "languages": [{"id": 4, "name": "French", "slug": "french"}], "places_of_operation": [{"id": 1, "name": "United States of America", "slug": "united-states-of-america"}], "biography": "Nicolas Lane Noxon (July 29, 1936 – May 3, 2016) was an American documentary filmmaker. He specialized in television programs dealing with history, science, and the natural world. Noxon produced television specials and series in association with ABC, David Wolper, Columbia Pictures Television, Metromedia, MGM, Survival Anglia, Time-Life, and National Geographic Television. Source: Wikidata; 01/08/2023", "biography_author": null, "date_of_biography": "2025-03-13T01:03:04.854545+11:00", "external_links": [{"id": 4779, "uri": "https://en.wikipedia.org/wiki/Nicolas_Noxon"}], "uuid": "46e35d53-41c4-45cb-b3ff-a894e54a167a", "source": {"name": "Vernon", "slug": "vernon"}, "source_identifier": "25789", "external_references": [{"id": 26565, "source": {"name": "Wikidata", "slug": "wikidata"}, "source_identifier": "Q7029759"}, {"id": 30522, "source": {"name": "VIAF", "slug": "viaf"}, "source_identifier": "60614260"}, {"id": 30523, "source": {"name": "LOC Auth", "slug": "loc-auth"}, "source_identifier": "n87914257"}, {"id": 30524, "source": {"name": "WorldCat", "slug": "worldcat"}, "source_identifier": "lccn-n87914257"}], "date_modified": "2025-03-13T01:03:04.854756+11:00"}, {"id": 20944, "name": "New South Wales. Dept. of Health", "roles_in_work": [{"id": 1426110, "title": "On the loose: three stories about leaving school", "work_id": 78605, "role": "production company", "role_id": 941, "is_primary": true}, {"id": 2649102, "title": "The Australian AIDS tape", "work_id": 80820, "role": "production company", "role_id": 941, "is_primary": true}, {"id": 2752524, "title": "Leah; Water rats; Alison; Tracey", "work_id": 98335, "role": "production company", "role_id": 941, "is_primary": true}, {"id": 2754035, "title": "STD's . . . Not just long distance phone calls", "work_id": 99032, "role": "production company", "role_id": 941, "is_primary": true}, {"id": 2754038, "title": "Esty Deez", "work_id": 99033, "role": "production company", "role_id": 941, "is_primary": true}, {"id": 2788665, "title": "Rivals. Abseiling. Wave jumping", "work_id": 98336, "role": "production company", "role_id": 941, "is_primary": true}, {"id": 2788676, "title": "Buzz", "work_id": 115366, "role": "production company", "role_id": 941, "is_primary": true}, {"id": 1915337, "title": "Heads 'n' Tails (Captioned)", "work_id": 79748, "role": "production company", "role_id": 941, "is_primary": true}, {"id": 897895, "title": "The Report", "work_id": 77974, "role": "production company", "role_id": 941, "is_primary": true}, {"id": 767582, "title": "Heads 'n' tails", "work_id": 78606, "role": "production company", "role_id": 941, "is_primary": true}], "also_known_as": "", "date_of_birth": "", "date_of_death": "", "genders": [], "languages": [], "places_of_operation": [], "biography": "", "biography_author": null, "date_of_biography": "2023-05-09T19:22:29.860470+10:00", "external_links": [], "uuid": "5c5a89e2-1bfb-42ae-9eb8-6c607872e221", "source": {"name": "Vernon", "slug": "vernon"}, "source_identifier": "4345", "external_references": [], "date_modified": "2025-03-14T19:45:25.176831+11:00"}, {"id": 20940, "name": "Fl. C. It.", "roles_in_work": [{"id": 2288928, "title": "The Trial (TEFC)", "work_id": 77973, "role": "production company", "role_id": 941, "is_primary": true}], "also_known_as": "", "date_of_birth": "", "date_of_death": "", "genders": [], "languages": [], "places_of_operation": [], "biography": "", "biography_author": null, "date_of_biography": "2023-05-09T18:15:06.231058+10:00", "external_links": [], "uuid": "8abc1193-017a-497e-9dd4-3691f0b2ab63", "source": {"name": "Vernon", "slug": "vernon"}, "source_identifier": "31861", "external_references": [{"id": 36709, "source": {"name": "Wikidata", "slug": "wikidata"}, "source_identifier": "Q121126731"}], "date_modified": "2023-09-05T19:44:24.582615+10:00"}, {"id": 20939, "name": "Hisa-Film", "roles_in_work": [{"id": 2288924, "title": "The Trial (TEFC)", "work_id": 77973, "role": "production company", "role_id": 941, "is_primary": true}], "also_known_as": "", "date_of_birth": "", "date_of_death": "", "genders": [], "languages": [], "places_of_operation": [], "biography": "", "biography_author": null, "date_of_biography": "2023-05-09T18:15:05.982222+10:00", "external_links": [], "uuid": "b21cc19d-16c0-4942-b5a0-b50dbec82763", "source": {"name": "Vernon", "slug": "vernon"}, "source_identifier": "31860", "external_references": [{"id": 37738, "source": {"name": "Wikidata", "slug": "wikidata"}, "source_identifier": "Q121223427"}], "date_modified": "2023-09-05T20:40:35.357911+10:00"}, {"id": 20938, "name": "Paris-Europa Productions", "roles_in_work": [{"id": 2288921, "title": "The Trial (TEFC)", "work_id": 77973, "role": "production company", "role_id": 941, "is_primary": true}], "also_known_as": "", "date_of_birth": "", "date_of_death": "", "genders": [], "languages": [], "places_of_operation": [], "biography": "", "biography_author": null, "date_of_biography": "2023-05-09T18:15:05.739922+10:00", "external_links": [], "uuid": "9641e35f-f84a-4997-a7fa-9f6a8aba19dc", "source": {"name": "Vernon", "slug": "vernon"}, "source_identifier": "31859", "external_references": [{"id": 34248, "source": {"name": "Wikidata", "slug": "wikidata"}, "source_identifier": "Q121223123"}], "date_modified": "2023-09-05T23:40:43.418131+10:00"}, {"id": 20937, "name": "Barbara Boyd-Anderson", "roles_in_work": [{"id": 2647989, "title": "The Water waster", "work_id": 77965, "role": "director", "role_id": 938, "is_primary": true}, {"id": 767847, "title": "The Still Point", "work_id": 78702, "role": "director", "role_id": 938, "is_primary": true}, {"id": 2752964, "title": "Wharfie", "work_id": 98538, "role": "director", "role_id": 938, "is_primary": true}, {"id": 2752638, "title": "Just a story", "work_id": 98390, "role": "co-producer", "role_id": 915, "is_primary": true}, {"id": 2751515, "title": "Lilydale: a change in pace", "work_id": 97843, "role": "producer", "role_id": 1089, "is_primary": true}], "also_known_as": "", "date_of_birth": "", "date_of_death": "", "genders": [], "languages": [], "places_of_operation": [], "biography": "", "biography_author": null, "date_of_biography": "2023-08-14T12:42:08.562046+10:00", "external_links": [], "uuid": "839f15b7-75d1-4753-b991-16c25d59d555", "source": {"name": "Vernon", "slug": "vernon"}, "source_identifier": "15635", "external_references": [{"id": 35217, "source": {"name": "Wikidata", "slug": "wikidata"}, "source_identifier": "Q117859223"}], "date_modified": "2025-03-13T01:15:50.431451+11:00"}, {"id": 20935, "name": "Fek Films", "roles_in_work": [{"id": 2107860, "title": "Banaras: steps to heaven", "work_id": 77961, "role": "production company", "role_id": 941, "is_primary": true}], "also_known_as": "", "date_of_birth": "", "date_of_death": "", "genders": [], "languages": [], "places_of_operation": [], "biography": "", "biography_author": null, "date_of_biography": "2023-05-09T12:41:11.991337+10:00", "external_links": [], "uuid": "3d7aad15-a605-4b74-804f-4e2dc87fe3e0", "source": {"name": "Vernon", "slug": "vernon"}, "source_identifier": "8137", "external_references": [{"id": 37154, "source": {"name": "Wikidata", "slug": "wikidata"}, "source_identifier": "Q121079508"}], "date_modified": "2023-09-05T19:41:02.526285+10:00"}, {"id": 20934, "name": "Firehouse Productions", "roles_in_work": [{"id": 2096545, "title": "Angus lost", "work_id": 77960, "role": "production company", "role_id": 941, "is_primary": true}, {"id": 2129687, "title": "Cannonball", "work_id": 78246, "role": "production company", "role_id": 941, "is_primary": true}], "also_known_as": "", "date_of_birth": "", "date_of_death": "", "genders": [], "languages": [], "places_of_operation": [], "biography": "", "biography_author": null, "date_of_biography": "2023-05-09T13:17:37.556040+10:00", "external_links": [], "uuid": "a62dac37-d2b9-4100-8bf0-b330eeabdc3e", "source": {"name": "Vernon", "slug": "vernon"}, "source_identifier": "3772", "external_references": [{"id": 35423, "source": {"name": "Wikidata", "slug": "wikidata"}, "source_identifier": "Q121035251"}], "date_modified": "2023-09-05T19:44:07.811771+10:00"}, {"id": 20928, "name": "Shanghai Meishu", "roles_in_work": [{"id": 2647978, "title": "The Panda's boutique", "work_id": 77956, "role": "production company", "role_id": 941, "is_primary": true}], "also_known_as": "", "date_of_birth": null, "date_of_death": null, "genders": [], "languages": [], "places_of_operation": [], "biography": "", "biography_author": null, "date_of_biography": null, "external_links": [], "uuid": "763ac45e-7145-4d63-981a-75ec659c20b0", "source": {"name": "Vernon", "slug": "vernon"}, "source_identifier": "12503", "external_references": [], "date_modified": "2025-03-05T13:36:38.056658+11:00"}, {"id": 20924, "name": "Polak Productions", "roles_in_work": [{"id": 2409083, "title": "Hardy Wilson: a living memory", "work_id": 77952, "role": "production company", "role_id": 941, "is_primary": true}], "also_known_as": "", "date_of_birth": "", "date_of_death": "", "genders": [], "languages": [], "places_of_operation": [], "biography": "", "biography_author": null, "date_of_biography": "2023-08-11T17:14:52.855979+10:00", "external_links": [], "uuid": "585369ef-c9d1-4abd-bfb9-e579feaa76a9", "source": {"name": "Vernon", "slug": "vernon"}, "source_identifier": "11545", "external_references": [], "date_modified": "2023-08-11T17:14:52.856303+10:00"}]}