{"count": 28687, "next": "https://api.acmi.net.au/creators/?page=2614", "previous": "https://api.acmi.net.au/creators/?page=2612", "results": [{"id": 12500, "name": "Australia. Antarctic Division", "roles_in_work": [{"id": 2648100, "title": "Antarctic man. No. 1. Fears do not kill you", "work_id": 78299, "role": "production company", "role_id": 941, "is_primary": true}, {"id": 860428, "title": "Vostok 900", "work_id": 74431, "role": "production company", "role_id": 941, "is_primary": true}, {"id": 876157, "title": "Penguin Island", "work_id": 89893, "role": "production company", "role_id": 941, "is_primary": true}, {"id": 2769737, "title": "Antarctic summer", "work_id": 64816, "role": "production company", "role_id": 941, "is_primary": true}, {"id": 2760464, "title": "Man the killer, man the keeper (D)", "work_id": 75234, "role": "production company", "role_id": 941, "is_primary": true}], "also_known_as": "", "date_of_birth": "", "date_of_death": "", "genders": [], "languages": [], "places_of_operation": [], "biography": "", "biography_author": null, "date_of_biography": "2023-05-09T19:44:39.907846+10:00", "external_links": [], "uuid": "c22d407e-fd3e-4d82-b756-0f0b847d76e1", "source": {"name": "Vernon", "slug": "vernon"}, "source_identifier": "3756", "external_references": [{"id": 35558, "source": {"name": "Wikidata", "slug": "wikidata"}, "source_identifier": "Q121143610"}], "date_modified": "2025-03-14T18:15:54.489906+11:00"}, {"id": 12499, "name": "Gakken Company", "roles_in_work": [{"id": 1807090, "title": "Robots: computers at work (Captioned)", "work_id": 79152, "role": "producer", "role_id": 1089, "is_primary": true}, {"id": 895657, "title": "The Robot moles", "work_id": 72305, "role": "production company", "role_id": 941, "is_primary": true}, {"id": 2647368, "title": "The Musicians in the woods", "work_id": 76111, "role": "production company", "role_id": 941, "is_primary": true}, {"id": 856117, "title": "The North wind and the sun: an Aesop fable", "work_id": 70968, "role": "production company", "role_id": 941, "is_primary": true}, {"id": 863463, "title": "Mechanism of the eye (TEFC)", "work_id": 77219, "role": "production company", "role_id": 941, "is_primary": true}, {"id": 863468, "title": "Composition and function of blood (TEFC)", "work_id": 77222, "role": "production company", "role_id": 941, "is_primary": true}, {"id": 869972, "title": "The Crying red giant (K)", "work_id": 86017, "role": "production company", "role_id": 941, "is_primary": true}, {"id": 2715891, "title": "Human relations in Japan", "work_id": 68674, "role": "production company", "role_id": 941, "is_primary": true}, {"id": 2714383, "title": "Function of digestion (TEFC)", "work_id": 67888, "role": "production company", "role_id": 941, "is_primary": true}, {"id": 2714312, "title": "The Frog's world", "work_id": 67846, "role": "production company", "role_id": 941, "is_primary": true}, {"id": 2750453, "title": "Imprinting in ducklings", "work_id": 97334, "role": "production company", "role_id": 941, "is_primary": true}, {"id": 2680577, "title": "The Country mouse and the city mouse", "work_id": 66452, "role": "production company", "role_id": 941, "is_primary": true}, {"id": 2752715, "title": "Fairy tales", "work_id": 98425, "role": "production company", "role_id": 941, "is_primary": true}, {"id": 758100, "title": "The Wonderful gift of the crane", "work_id": 74851, "role": "production company", "role_id": 941, "is_primary": true}, {"id": 2749279, "title": "Pasteur's experiments", "work_id": 96724, "role": "production company", "role_id": 941, "is_primary": true}, {"id": 2755101, "title": "The Moonbeam princess", "work_id": 70564, "role": "production company", "role_id": 941, "is_primary": true}, {"id": 2755102, "title": "The Moonbeam princess", "work_id": 83295, "role": "production company", "role_id": 941, "is_primary": true}, {"id": 2749938, "title": "Behaviour patterns and survival", "work_id": 97055, "role": "production company", "role_id": 941, "is_primary": true}, {"id": 2749845, "title": "Mate location by a moth", "work_id": 97004, "role": "production company", "role_id": 941, "is_primary": true}, {"id": 760297, "title": "Clever Hiko Ichi", "work_id": 75767, "role": "production company", "role_id": 941, "is_primary": true}, {"id": 857853, "title": "The Rolling rice ball: a Japanese fairytale", "work_id": 72329, "role": "production company", "role_id": 941, "is_primary": true}, {"id": 825896, "title": "Nature boy", "work_id": 96095, "role": "production company", "role_id": 941, "is_primary": true}, {"id": 895815, "title": "The Snow queen", "work_id": 72933, "role": "production company", "role_id": 941, "is_primary": true}, {"id": 874128, "title": "The Ant and the dove", "work_id": 88582, "role": "production company", "role_id": 941, "is_primary": true}, {"id": 854076, "title": "The Killifish", "work_id": 69391, "role": "production company", "role_id": 941, "is_primary": true}, {"id": 874805, "title": "The Shoemaker and the elves", "work_id": 89109, "role": "production company", "role_id": 941, "is_primary": true}, {"id": 918374, "title": "The King and the nightingale", "work_id": 96341, "role": "production company", "role_id": 941, "is_primary": true}, {"id": 756488, "title": "The Ugly duckling", "work_id": 74144, "role": "production company", "role_id": 941, "is_primary": true}, {"id": 748335, "title": "Momotaro, the peach boy", "work_id": 70544, "role": "production company", "role_id": 941, "is_primary": true}, {"id": 755726, "title": "Thumbelina", "work_id": 73806, "role": "production company", "role_id": 941, "is_primary": true}, {"id": 770699, "title": "Robots: computers at work", "work_id": 79823, "role": "production company", "role_id": 941, "is_primary": true}, {"id": 2097806, "title": "Antarctica", "work_id": 83968, "role": "production company", "role_id": 941, "is_primary": true}, {"id": 765117, "title": "The Crying red giant", "work_id": 77723, "role": "production company", "role_id": 941, "is_primary": true}, {"id": 824867, "title": "Nature boy", "work_id": 95604, "role": "production company", "role_id": 941, "is_primary": true}, {"id": 765118, "title": "The Boy and the North Wind", "work_id": 77724, "role": "production company", "role_id": 941, "is_primary": true}, {"id": 864175, "title": "Nature boy (K)", "work_id": 77786, "role": "production company", "role_id": 941, "is_primary": true}, {"id": 2679063, "title": "The Cabbage butterfly", "work_id": 65710, "role": "production company", "role_id": 941, "is_primary": true}, {"id": 2678712, "title": "Bones and muscles (TEFC)", "work_id": 65528, "role": "production company", "role_id": 941, "is_primary": true}, {"id": 2712671, "title": "The Eel", "work_id": 67036, "role": "production company", "role_id": 941, "is_primary": true}, {"id": 2678254, "title": "The Beetle", "work_id": 65302, "role": "production company", "role_id": 941, "is_primary": true}, {"id": 2678216, "title": "Beauty and the beast", "work_id": 65283, "role": "production company", "role_id": 941, "is_primary": true}, {"id": 2678140, "title": "The Basket worm", "work_id": 65246, "role": "production company", "role_id": 941, "is_primary": true}, {"id": 2677335, "title": "The Ant and the grasshopper", "work_id": 64813, "role": "production company", "role_id": 941, "is_primary": true}], "also_known_as": "", "date_of_birth": "", "date_of_death": "", "genders": [], "languages": [], "places_of_operation": [], "biography": "", "biography_author": null, "date_of_biography": "2023-05-09T15:07:03.636762+10:00", "external_links": [], "uuid": "4a2e0836-e370-4d67-a564-2a72ce28e59b", "source": {"name": "Vernon", "slug": "vernon"}, "source_identifier": "3949", "external_references": [], "date_modified": "2025-03-13T01:10:51.031291+11:00"}, {"id": 12498, "name": "National Institute of Mental Health (U.S.)", "roles_in_work": [{"id": 877667, "title": "Community in quest", "work_id": 90814, "role": "production company", "role_id": 941, "is_primary": true}, {"id": 857734, "title": "Rick -File X258375", "work_id": 72226, "role": "production company", "role_id": 941, "is_primary": true}, {"id": 2680966, "title": "A Day in the death of Donny B", "work_id": 66638, "role": "production company", "role_id": 941, "is_primary": true}, {"id": 2766690, "title": "Sedatives", "work_id": 72619, "role": "production company", "role_id": 941, "is_primary": true}, {"id": 2766692, "title": "Stimulants", "work_id": 73200, "role": "production company", "role_id": 941, "is_primary": true}, {"id": 2644006, "title": "Are drugs the answer?", "work_id": 64874, "role": "production company", "role_id": 941, "is_primary": true}, {"id": 2677333, "title": "The Answer is understanding", "work_id": 64811, "role": "production company", "role_id": 941, "is_primary": true}], "also_known_as": "", "date_of_birth": "", "date_of_death": "", "genders": [], "languages": [], "places_of_operation": [], "biography": "", "biography_author": null, "date_of_biography": "2023-08-11T14:10:47.601346+10:00", "external_links": [], "uuid": "f7db9ae7-cccc-4fd3-b8d5-9d39e7115543", "source": {"name": "Vernon", "slug": "vernon"}, "source_identifier": "4267", "external_references": [], "date_modified": "2025-03-14T17:59:47.932078+11:00"}, {"id": 12497, "name": "Associated Film Consultants", "roles_in_work": [{"id": 2645059, "title": "Here's help", "work_id": 68426, "role": "production company", "role_id": 941, "is_primary": true}, {"id": 2677332, "title": "The Answer is understanding", "work_id": 64811, "role": "production company", "role_id": 941, "is_primary": true}], "also_known_as": "", "date_of_birth": null, "date_of_death": null, "genders": [], "languages": [], "places_of_operation": [], "biography": "", "biography_author": null, "date_of_biography": null, "external_links": [], "uuid": "8005ff22-4b98-4022-8356-8f1e645598d2", "source": {"name": "Vernon", "slug": "vernon"}, "source_identifier": "5461", "external_references": [], "date_modified": "2025-03-06T23:17:10.570919+11:00"}, {"id": 12496, "name": "Larry Dawson Productions", "roles_in_work": [{"id": 2677330, "title": "Ansel Adams: photographer", "work_id": 64810, "role": "production company", "role_id": 941, "is_primary": true}], "also_known_as": "", "date_of_birth": "", "date_of_death": "", "genders": [], "languages": [], "places_of_operation": [], "biography": "", "biography_author": null, "date_of_biography": "2023-08-11T14:08:33.985724+10:00", "external_links": [], "uuid": "39aa8bcb-5d42-4524-ae35-7e0fa603002f", "source": {"name": "Vernon", "slug": "vernon"}, "source_identifier": "9906", "external_references": [], "date_modified": "2025-03-06T23:17:09.117350+11:00"}, {"id": 12495, "name": "Peter Johnson", "roles_in_work": [{"id": 2764427, "title": "An Introduction to motor cycling", "work_id": 69056, "role": "co-director", "role_id": 959, "is_primary": true}, {"id": 2752756, "title": "Drink-driving education", "work_id": 98442, "role": "co-producer", "role_id": 915, "is_primary": true}, {"id": 2680804, "title": "Cyclone Tracy", "work_id": 66562, "role": "co-producer", "role_id": 915, "is_primary": true}, {"id": 3105918, "title": "Basic riding techniques", "work_id": 65243, "role": "co-producer", "role_id": 915, "is_primary": true}, {"id": 2767084, "title": "Striving", "work_id": 114996, "role": "co-producer", "role_id": 915, "is_primary": true}, {"id": 2392278, "title": "When will the birds return", "work_id": 74673, "role": "co-producer", "role_id": 915, "is_primary": true}, {"id": 2764436, "title": "The Ultimate skills", "work_id": 74149, "role": "co-producer", "role_id": 915, "is_primary": true}, {"id": 2764422, "title": "An Introduction to motor cycling", "work_id": 69056, "role": "co-producer", "role_id": 915, "is_primary": true}, {"id": 1903720, "title": "Who Does the Sentence?", "work_id": 75307, "role": "editor", "role_id": 918, "is_primary": true}, {"id": 1819709, "title": "You don't have to be mad", "work_id": 75008, "role": "producer", "role_id": 1089, "is_primary": true}, {"id": 2677329, "title": "Another viewpoint", "work_id": 64809, "role": "producer", "role_id": 1089, "is_primary": true}, {"id": 2677964, "title": "Australians remember", "work_id": 65148, "role": "producer", "role_id": 1089, "is_primary": true}, {"id": 2712128, "title": "Disaster fly", "work_id": 66796, "role": "producer", "role_id": 1089, "is_primary": true}, {"id": 2678418, "title": "Beyond hell's gate", "work_id": 65378, "role": "producer", "role_id": 1089, "is_primary": true}, {"id": 2712939, "title": "Energy highway", "work_id": 67166, "role": "producer", "role_id": 1089, "is_primary": true}, {"id": 2678768, "title": "Box kite to swing wing", "work_id": 65562, "role": "producer", "role_id": 1089, "is_primary": true}, {"id": 2679192, "title": "Canungra", "work_id": 65780, "role": "producer", "role_id": 1089, "is_primary": true}, {"id": 2766413, "title": "In-shore waters", "work_id": 75808, "role": "producer", "role_id": 1089, "is_primary": true}, {"id": 2766429, "title": "Search and rescue", "work_id": 76037, "role": "producer", "role_id": 1089, "is_primary": true}, {"id": 2766436, "title": "Seamanship", "work_id": 76052, "role": "producer", "role_id": 1089, "is_primary": true}, {"id": 2766446, "title": "Means of being rescued", "work_id": 76053, "role": "producer", "role_id": 1089, "is_primary": true}, {"id": 2766451, "title": "Water skiing", "work_id": 76054, "role": "producer", "role_id": 1089, "is_primary": true}, {"id": 2680575, "title": "Country editor", "work_id": 66451, "role": "producer", "role_id": 1089, "is_primary": true}, {"id": 2644504, "title": "Dear mum", "work_id": 66659, "role": "producer", "role_id": 1089, "is_primary": true}, {"id": 2645728, "title": "A Mountain's domain", "work_id": 70630, "role": "producer", "role_id": 1089, "is_primary": true}, {"id": 2647070, "title": "Hospitals don't burn down", "work_id": 75277, "role": "producer", "role_id": 1089, "is_primary": true}, {"id": 2714646, "title": "Ghan to Alice", "work_id": 68042, "role": "producer", "role_id": 1089, "is_primary": true}, {"id": 2750634, "title": "Sea eagles", "work_id": 97424, "role": "producer", "role_id": 1089, "is_primary": true}, {"id": 2647322, "title": "The Constant threat", "work_id": 75953, "role": "producer", "role_id": 1089, "is_primary": true}, {"id": 2647410, "title": "Point of entry", "work_id": 76211, "role": "producer", "role_id": 1089, "is_primary": true}, {"id": 2714782, "title": "Gold on blue", "work_id": 68112, "role": "producer", "role_id": 1089, "is_primary": true}, {"id": 2647594, "title": "Earth, fire and water", "work_id": 76782, "role": "producer", "role_id": 1089, "is_primary": true}, {"id": 2647718, "title": "Rural industries", "work_id": 77150, "role": "producer", "role_id": 1089, "is_primary": true}, {"id": 2648206, "title": "Streets are for sharing", "work_id": 78547, "role": "producer", "role_id": 1089, "is_primary": true}, {"id": 2753590, "title": "Cyclone warning", "work_id": 98839, "role": "producer", "role_id": 1089, "is_primary": true}, {"id": 2760881, "title": "Country Outcasts", "work_id": 75365, "role": "producer", "role_id": 1089, "is_primary": true}, {"id": 2760884, "title": "G'day sport", "work_id": 75366, "role": "producer", "role_id": 1089, "is_primary": true}, {"id": 2760890, "title": "Urban mixtures", "work_id": 75369, "role": "producer", "role_id": 1089, "is_primary": true}, {"id": 2760893, "title": "Frontiers downunder", "work_id": 75364, "role": "producer", "role_id": 1089, "is_primary": true}, {"id": 2760895, "title": "Frontiers downunder", "work_id": 114752, "role": "producer", "role_id": 1089, "is_primary": true}, {"id": 2264531, "title": "Scientific and medical research", "work_id": 77155, "role": "producer", "role_id": 1089, "is_primary": true}, {"id": 1804737, "title": "Bully for hockey", "work_id": 75900, "role": "producer", "role_id": 1089, "is_primary": true}, {"id": 1805176, "title": "Repeater away", "work_id": 72147, "role": "producer", "role_id": 1089, "is_primary": true}, {"id": 2264517, "title": "Culture and recreation", "work_id": 77154, "role": "producer", "role_id": 1089, "is_primary": true}, {"id": 1804819, "title": "Gymnastics: Just about the best thing going", "work_id": 75922, "role": "producer", "role_id": 1089, "is_primary": true}, {"id": 2264487, "title": "Mining", "work_id": 77152, "role": "producer", "role_id": 1089, "is_primary": true}, {"id": 2264542, "title": "Political and legal systems", "work_id": 77153, "role": "producer", "role_id": 1089, "is_primary": true}, {"id": 2264477, "title": "Commerce", "work_id": 77151, "role": "producer", "role_id": 1089, "is_primary": true}, {"id": 2215541, "title": "Election year: electing Australia's federal parliament", "work_id": 76813, "role": "producer", "role_id": 1089, "is_primary": true}, {"id": 2258006, "title": "Rugby rouses me", "work_id": 75941, "role": "producer", "role_id": 1089, "is_primary": true}, {"id": 1812848, "title": "A Trade for tomorrow", "work_id": 73959, "role": "producer", "role_id": 1089, "is_primary": true}, {"id": 2098688, "title": "Arafura to Alice", "work_id": 75896, "role": "producer", "role_id": 1089, "is_primary": true}, {"id": 2260217, "title": "Safety in the slaughterhouse", "work_id": 72436, "role": "producer", "role_id": 1089, "is_primary": true}, {"id": 1813063, "title": "It stands to reason: army training command", "work_id": 76979, "role": "producer", "role_id": 1089, "is_primary": true}, {"id": 2104208, "title": "Australia in the 80's", "work_id": 76779, "role": "producer", "role_id": 1089, "is_primary": true}, {"id": 1810033, "title": "It's easy to criticize (TEFC)", "work_id": 69154, "role": "producer", "role_id": 1089, "is_primary": true}, {"id": 1810027, "title": "It's different today", "work_id": 69153, "role": "producer", "role_id": 1089, "is_primary": true}, {"id": 1811466, "title": "Teach me what?", "work_id": 73540, "role": "producer", "role_id": 1089, "is_primary": true}, {"id": 1811065, "title": "Focus on Canberra", "work_id": 76601, "role": "producer", "role_id": 1089, "is_primary": true}, {"id": 1811120, "title": "Keeping up with the Joneses", "work_id": 76656, "role": "producer", "role_id": 1089, "is_primary": true}, {"id": 2321458, "title": "Tale of one city", "work_id": 73476, "role": "producer", "role_id": 1089, "is_primary": true}, {"id": 2071228, "title": "A Man and an organ", "work_id": 77133, "role": "producer", "role_id": 1089, "is_primary": true}, {"id": 1820341, "title": "The Royal visit: surf carnival 1974", "work_id": 72379, "role": "producer", "role_id": 1089, "is_primary": true}, {"id": 2066734, "title": "A Continent on guard", "work_id": 76221, "role": "producer", "role_id": 1089, "is_primary": true}, {"id": 2391868, "title": "It's your vote: the federal parliamentary system", "work_id": 69172, "role": "producer", "role_id": 1089, "is_primary": true}, {"id": 2392064, "title": "The Royal Silver Jubilee Exhibition Train", "work_id": 72375, "role": "producer", "role_id": 1089, "is_primary": true}, {"id": 2177320, "title": "Operation skilltest", "work_id": 75937, "role": "producer", "role_id": 1089, "is_primary": true}, {"id": 2392423, "title": "Drinking driving surviving", "work_id": 75391, "role": "producer", "role_id": 1089, "is_primary": true}, {"id": 1819675, "title": "In good company", "work_id": 86164, "role": "producer", "role_id": 1089, "is_primary": true}, {"id": 1819504, "title": "Small boat engine maintenance and safety", "work_id": 76984, "role": "producer", "role_id": 1089, "is_primary": true}, {"id": 2302190, "title": "Skiing's different", "work_id": 72883, "role": "producer", "role_id": 1089, "is_primary": true}, {"id": 1819413, "title": "Seawatch", "work_id": 76793, "role": "producer", "role_id": 1089, "is_primary": true}, {"id": 1903719, "title": "Who Does the Sentence?", "work_id": 75307, "role": "producer/director", "role_id": 31, "is_primary": true}], "also_known_as": "", "date_of_birth": "", "date_of_death": "", "genders": [], "languages": [], "places_of_operation": [], "biography": "", "biography_author": null, "date_of_biography": "2023-08-09T03:56:47.545131+10:00", "external_links": [], "uuid": "633a302b-e1e4-40f6-b977-78b218f19d53", "source": {"name": "Vernon", "slug": "vernon"}, "source_identifier": "26595", "external_references": [], "date_modified": "2025-06-02T22:35:12.827759+10:00"}, {"id": 12491, "name": "Pauline Shaw", "roles_in_work": [{"id": 2767905, "title": "Three score years and ten", "work_id": 73786, "role": "director", "role_id": 938, "is_primary": true}, {"id": 860107, "title": "Understanding venereal disease", "work_id": 74177, "role": "director", "role_id": 938, "is_primary": true}, {"id": 756552, "title": "Understanding: family and marriage", "work_id": 74169, "role": "director", "role_id": 938, "is_primary": true}, {"id": 2767885, "title": "The Drug takers", "work_id": 66947, "role": "producer", "role_id": 1089, "is_primary": true}, {"id": 2767881, "title": "Contraception", "work_id": 86052, "role": "producer", "role_id": 1089, "is_primary": true}, {"id": 2767877, "title": "Caring for the mind", "work_id": 65826, "role": "producer", "role_id": 1089, "is_primary": true}, {"id": 2767866, "title": "An Apple a day", "work_id": 64844, "role": "producer", "role_id": 1089, "is_primary": true}, {"id": 2767900, "title": "Safe on the road", "work_id": 72423, "role": "producer", "role_id": 1089, "is_primary": true}, {"id": 1812322, "title": "The Messengers: Laurie Lee", "work_id": 96882, "role": "producer", "role_id": 1089, "is_primary": true}, {"id": 2767862, "title": "Another little drink", "work_id": 64806, "role": "producer", "role_id": 1089, "is_primary": true}, {"id": 2767892, "title": "In a cleaner greener land", "work_id": 68808, "role": "producer", "role_id": 1089, "is_primary": true}, {"id": 2767896, "title": "Love now pay later", "work_id": 69937, "role": "producer", "role_id": 1089, "is_primary": true}, {"id": 2767889, "title": "Fixed for death", "work_id": 67606, "role": "producer/director", "role_id": 31, "is_primary": true}], "also_known_as": "", "date_of_birth": "", "date_of_death": "", "genders": [], "languages": [], "places_of_operation": [], "biography": "", "biography_author": null, "date_of_biography": "2023-08-11T14:08:28.963598+10:00", "external_links": [], "uuid": "135125cd-0b71-4c63-8145-4a2e023c2644", "source": {"name": "Vernon", "slug": "vernon"}, "source_identifier": "26381", "external_references": [], "date_modified": "2025-03-14T18:07:30.784325+11:00"}, {"id": 12490, "name": "Graham Bye", "roles_in_work": [{"id": 2677318, "title": "Another day of healing", "work_id": 64805, "role": "director", "role_id": 938, "is_primary": true}, {"id": 747378, "title": "Making sure-footed friends", "work_id": 70051, "role": "director", "role_id": 938, "is_primary": true}, {"id": 853884, "title": "John Dowie: sculptor", "work_id": 69262, "role": "director", "role_id": 938, "is_primary": true}], "also_known_as": "", "date_of_birth": "", "date_of_death": "", "genders": [], "languages": [], "places_of_operation": [], "biography": "", "biography_author": null, "date_of_biography": "2023-08-11T14:07:44.010047+10:00", "external_links": [], "uuid": "ee712c09-75cb-4e6e-960f-42ba0b28371f", "source": {"name": "Vernon", "slug": "vernon"}, "source_identifier": "19986", "external_references": [], "date_modified": "2025-03-06T23:17:00.847717+11:00"}, {"id": 12489, "name": "Leon Bram", "roles_in_work": [{"id": 2677317, "title": "Another day of healing", "work_id": 64805, "role": "producer", "role_id": 1089, "is_primary": true}], "also_known_as": "", "date_of_birth": "", "date_of_death": "", "genders": [], "languages": [], "places_of_operation": [], "biography": "", "biography_author": null, "date_of_biography": "2023-08-11T14:07:43.351678+10:00", "external_links": [], "uuid": "c6f8c156-e195-42c7-92e9-e66437c6d7b2", "source": {"name": "Vernon", "slug": "vernon"}, "source_identifier": "23698", "external_references": [], "date_modified": "2025-03-06T23:17:00.258227+11:00"}, {"id": 12488, "name": "Film Partnership (Vic.)", "roles_in_work": [{"id": 2679849, "title": "Christopher", "work_id": 66100, "role": "production company", "role_id": 941, "is_primary": true}, {"id": 860884, "title": "The Winning breed", "work_id": 74806, "role": "production company", "role_id": 941, "is_primary": true}, {"id": 2713643, "title": "The Find me book: self help in action", "work_id": 67513, "role": "production company", "role_id": 941, "is_primary": true}, {"id": 748721, "title": "Musicians in the making", "work_id": 70711, "role": "production company", "role_id": 941, "is_primary": true}, {"id": 806853, "title": "Chelsea College", "work_id": 90943, "role": "production company", "role_id": 941, "is_primary": true}, {"id": 853882, "title": "John Dowie: sculptor", "work_id": 69262, "role": "production company", "role_id": 941, "is_primary": true}, {"id": 2678752, "title": "Born to boats", "work_id": 65552, "role": "production company", "role_id": 941, "is_primary": true}, {"id": 2677316, "title": "Another day of healing", "work_id": 64805, "role": "production company", "role_id": 941, "is_primary": true}, {"id": 861797, "title": "Our golden heritage", "work_id": 75795, "role": "production company", "role_id": 941, "is_primary": true}], "also_known_as": "", "date_of_birth": "", "date_of_death": "", "genders": [], "languages": [], "places_of_operation": [], "biography": "", "biography_author": null, "date_of_biography": "2023-08-11T14:07:42.736638+10:00", "external_links": [], "uuid": "00ad6889-4e5e-485d-86ec-6eaa3092d361", "source": {"name": "Vernon", "slug": "vernon"}, "source_identifier": "4896", "external_references": [], "date_modified": "2025-03-12T00:47:59.951592+11:00"}]}