{"count": 28687, "next": "https://api.acmi.net.au/creators/?page=496", "previous": "https://api.acmi.net.au/creators/?page=494", "results": [{"id": 80633, "name": "Jeff Franklin II", "roles_in_work": [{"id": 2315958, "title": "Stuart Little (Collector's edition) [DVD]", "work_id": 94083, "role": "co-producer", "role_id": 915, "is_primary": true}], "also_known_as": "", "date_of_birth": "", "date_of_death": "", "genders": [], "languages": [], "places_of_operation": [], "biography": "", "biography_author": null, "date_of_biography": "2023-05-09T19:04:18.486931+10:00", "external_links": [], "uuid": "bc960879-7c6a-4e7b-94ea-f93c4a2c3a21", "source": {"name": "Vernon", "slug": "vernon"}, "source_identifier": "21634", "external_references": [{"id": 37294, "source": {"name": "Wikidata", "slug": "wikidata"}, "source_identifier": "Q121337186"}], "date_modified": "2023-09-05T21:18:24.593463+10:00"}, {"id": 80632, "name": "Jason Clark", "roles_in_work": [{"id": 2315955, "title": "Stuart Little (Collector's edition) [DVD]", "work_id": 94083, "role": "co-producer", "role_id": 915, "is_primary": true}], "also_known_as": "", "date_of_birth": "", "date_of_death": "", "genders": [], "languages": [], "places_of_operation": [], "biography": "", "biography_author": null, "date_of_biography": "2023-05-09T19:04:18.248211+10:00", "external_links": [], "uuid": "6f92c7ce-6cff-45c5-b14d-a84d12f886e1", "source": {"name": "Vernon", "slug": "vernon"}, "source_identifier": "21491", "external_references": [{"id": 32358, "source": {"name": "Wikidata", "slug": "wikidata"}, "source_identifier": "Q121337716"}], "date_modified": "2023-09-05T21:09:26.077125+10:00"}, {"id": 80631, "name": "Dick Sebast", "roles_in_work": [{"id": 2475576, "title": "The Secret of Nimh 2: Timmy to the rescue", "work_id": 94082, "role": "director", "role_id": 938, "is_primary": true}], "also_known_as": "", "date_of_birth": null, "date_of_death": "", "genders": [{"id": 9, "name": "Male", "slug": "male"}], "languages": [{"id": 1, "name": "English", "slug": "english"}], "places_of_operation": [{"id": 1, "name": "United States of America", "slug": "united-states-of-america"}], "biography": "Richard Sebast is an American director, story director, animator, and television producer known for working at companies such as Disney, Hanna-Barbera, Warner Bros., Marvel, MGM, and Universal Animation Studios.", "biography_author": "Wikidata", "date_of_biography": "2023-09-05T19:11:58.570917+10:00", "external_links": [{"id": 3883, "uri": "https://en.wikipedia.org/wiki/Dick_Sebast"}], "uuid": "adc3dc3c-fc28-43af-bf82-d1ff4c2cff50", "source": {"name": "Vernon", "slug": "vernon"}, "source_identifier": "18123", "external_references": [{"id": 26855, "source": {"name": "Wikidata", "slug": "wikidata"}, "source_identifier": "Q5273355"}, {"id": 28173, "source": {"name": "VIAF", "slug": "viaf"}, "source_identifier": "106146359"}, {"id": 28174, "source": {"name": "LOC Auth", "slug": "loc-auth"}, "source_identifier": "no2011141820"}, {"id": 28175, "source": {"name": "WorldCat", "slug": "worldcat"}, "source_identifier": "lccn-no2011141820"}], "date_modified": "2023-09-05T19:11:58.581000+10:00"}, {"id": 80630, "name": "Jonathan Dern", "roles_in_work": [{"id": 2475575, "title": "The Secret of Nimh 2: Timmy to the rescue", "work_id": 94082, "role": "co-producer", "role_id": 915, "is_primary": true}], "also_known_as": "", "date_of_birth": "", "date_of_death": "", "genders": [], "languages": [], "places_of_operation": [], "biography": "", "biography_author": null, "date_of_biography": "2023-08-17T15:10:03.935508+10:00", "external_links": [], "uuid": "85e378e2-b5d5-405e-b2e2-a9bd146a57ed", "source": {"name": "Vernon", "slug": "vernon"}, "source_identifier": "22643", "external_references": [{"id": 36376, "source": {"name": "Wikidata", "slug": "wikidata"}, "source_identifier": "Q121299024"}], "date_modified": "2023-09-05T21:48:13.240885+10:00"}, {"id": 80629, "name": "David Levy", "roles_in_work": [{"id": 1998778, "title": "Gosford Park", "work_id": 94077, "role": "co-producer", "role_id": 915, "is_primary": true}], "also_known_as": "", "date_of_birth": null, "date_of_death": null, "genders": [], "languages": [], "places_of_operation": [], "biography": "", "biography_author": null, "date_of_biography": null, "external_links": [], "uuid": "61b931af-4bb2-442d-b4f5-28a2a8d83b07", "source": {"name": "Vernon", "slug": "vernon"}, "source_identifier": null, "external_references": [{"id": 41533, "source": {"name": "Wikidata", "slug": "wikidata"}, "source_identifier": "Q121223137"}], "date_modified": "2023-09-05T18:59:44.173328+10:00"}, {"id": 80628, "name": "Craig Perry", "roles_in_work": [{"id": 2132880, "title": "Cats & dogs = Cats and dogs [DVD]", "work_id": 94075, "role": "co-producer", "role_id": 915, "is_primary": true}], "also_known_as": "", "date_of_birth": "1968-03-27", "date_of_death": "", "genders": [{"id": 9, "name": "Male", "slug": "male"}], "languages": [{"id": 1, "name": "English", "slug": "english"}], "places_of_operation": [{"id": 1, "name": "United States of America", "slug": "united-states-of-america"}], "biography": "", "biography_author": null, "date_of_biography": "2023-05-09T13:23:15.010322+10:00", "external_links": [], "uuid": "f6419d19-c47e-4425-a784-ecef52e0e5b2", "source": {"name": "Vernon", "slug": "vernon"}, "source_identifier": "17247", "external_references": [{"id": 8043, "source": {"name": "Wikidata", "slug": "wikidata"}, "source_identifier": "Q5790513"}], "date_modified": "2023-09-05T18:46:30.204599+10:00"}, {"id": 80627, "name": "Warren Zide", "roles_in_work": [{"id": 2132879, "title": "Cats & dogs = Cats and dogs [DVD]", "work_id": 94075, "role": "co-producer", "role_id": 915, "is_primary": true}, {"id": 2331709, "title": "The Big hit [DVD]", "work_id": 94112, "role": "co-producer", "role_id": 915, "is_primary": true}], "also_known_as": "", "date_of_birth": "1966-06-12", "date_of_death": "", "genders": [{"id": 9, "name": "Male", "slug": "male"}], "languages": [], "places_of_operation": [{"id": 1, "name": "United States of America", "slug": "united-states-of-america"}], "biography": "", "biography_author": null, "date_of_biography": "2023-05-09T19:26:34.618450+10:00", "external_links": [], "uuid": "e2601e53-8121-4cb7-945d-1601032cd653", "source": {"name": "Vernon", "slug": "vernon"}, "source_identifier": "30296", "external_references": [{"id": 43490, "source": {"name": "Wikidata", "slug": "wikidata"}, "source_identifier": "Q5490005"}], "date_modified": "2023-09-06T02:12:09.579144+10:00"}, {"id": 80626, "name": "Chris DeFaria", "roles_in_work": [{"id": 2132876, "title": "Cats & dogs = Cats and dogs [DVD]", "work_id": 94075, "role": "co-producer", "role_id": 915, "is_primary": true}], "also_known_as": "", "date_of_birth": "1959-05-20", "date_of_death": "", "genders": [{"id": 9, "name": "Male", "slug": "male"}], "languages": [{"id": 1, "name": "English", "slug": "english"}], "places_of_operation": [{"id": 1, "name": "United States of America", "slug": "united-states-of-america"}], "biography": "Christopher DeFaria (born May 20, 1959) is an American film producer. He served as president of animation and innovative technology at Warner Bros. Pictures for four years. In January 2017, he joined DreamWorks Animation in the newly-created position of president of the DreamWorks Feature Animation Group. As president, DeFaria oversaw all aspects of DWA's feature animation business, including slate strategy, development, production; innovation and technology; and business affairs prior to his departure in early 2019.He is a graduate of UCLA, a member of the AMPAS and WGA and a founding member of FilmAid International. He serves on the board of the American Academy of Dramatic Arts.", "biography_author": "Wikidata", "date_of_biography": "2023-08-01T14:24:49.358366+10:00", "external_links": [{"id": 1811, "uri": "https://en.wikipedia.org/wiki/Christopher_DeFaria"}], "uuid": "d24dca7f-02f4-4a13-b671-e5ac4233bd81", "source": {"name": "Vernon", "slug": "vernon"}, "source_identifier": "16820", "external_references": [{"id": 7884, "source": {"name": "Wikidata", "slug": "wikidata"}, "source_identifier": "Q5112210"}, {"id": 7885, "source": {"name": "VIAF", "slug": "viaf"}, "source_identifier": "171090695"}, {"id": 7886, "source": {"name": "LOC Auth", "slug": "loc-auth"}, "source_identifier": "no2011081374"}, {"id": 7887, "source": {"name": "WorldCat", "slug": "worldcat"}, "source_identifier": "lccn-no2011081374"}], "date_modified": "2023-09-05T18:31:49.332004+10:00"}, {"id": 80625, "name": "Beau Flynn", "roles_in_work": [{"id": 1998760, "title": "Tigerland [DVD]", "work_id": 94074, "role": "co-producer", "role_id": 915, "is_primary": true}], "also_known_as": "", "date_of_birth": null, "date_of_death": null, "genders": [], "languages": [], "places_of_operation": [], "biography": "", "biography_author": null, "date_of_biography": null, "external_links": [], "uuid": "7f433db9-df7e-435c-be8e-a72be96f5604", "source": {"name": "Vernon", "slug": "vernon"}, "source_identifier": null, "external_references": [{"id": 39406, "source": {"name": "Wikidata", "slug": "wikidata"}, "source_identifier": "Q121091209"}], "date_modified": "2023-09-05T17:56:50.736739+10:00"}, {"id": 80624, "name": "Ralph Zondag", "roles_in_work": [{"id": 2192960, "title": "Dinosaur", "work_id": 94071, "role": "co-director", "role_id": 959, "is_primary": true}, {"id": 2192971, "title": "Dinosaur", "work_id": 95349, "role": "co-director", "role_id": 959, "is_primary": true}], "also_known_as": "", "date_of_birth": null, "date_of_death": "", "genders": [{"id": 9, "name": "Male", "slug": "male"}], "languages": [], "places_of_operation": [{"id": 1, "name": "United States of America", "slug": "united-states-of-america"}], "biography": "Ralph Zondag is a Canadian animator, storyboard artist, and director.", "biography_author": "Wikidata", "date_of_biography": "2023-08-01T16:41:31.649194+10:00", "external_links": [{"id": 4946, "uri": "https://en.wikipedia.org/wiki/Ralph_Zondag"}], "uuid": "ddd8eb9e-44ba-4c40-b40f-5ac3e6a0ebf2", "source": {"name": "Vernon", "slug": "vernon"}, "source_identifier": "27096", "external_references": [{"id": 25520, "source": {"name": "Wikidata", "slug": "wikidata"}, "source_identifier": "Q3418313"}, {"id": 30970, "source": {"name": "VIAF", "slug": "viaf"}, "source_identifier": "2679517"}, {"id": 30971, "source": {"name": "LOC Auth", "slug": "loc-auth"}, "source_identifier": "no2003041740"}, {"id": 30972, "source": {"name": "WorldCat", "slug": "worldcat"}, "source_identifier": "lccn-no2003041740"}], "date_modified": "2023-09-06T00:20:32.031389+10:00"}]}