{"count": 28687, "next": "https://api.acmi.net.au/creators/?page=1143", "previous": "https://api.acmi.net.au/creators/?page=1141", "results": [{"id": 74162, "name": "Hans Beumer", "roles_in_work": [{"id": 2677109, "title": "Alpine ranger: Mt. Buffalo National Park", "work_id": 64695, "role": "co-producer", "role_id": 915, "is_primary": true}], "also_known_as": "", "date_of_birth": "", "date_of_death": "", "genders": [], "languages": [], "places_of_operation": [], "biography": "", "biography_author": null, "date_of_biography": "2023-05-09T11:57:14.284287+10:00", "external_links": [], "uuid": "803897c8-027c-42bc-b3a5-1bbfdfc9d158", "source": {"name": "Vernon", "slug": "vernon"}, "source_identifier": "20225", "external_references": [{"id": 42902, "source": {"name": "Wikidata", "slug": "wikidata"}, "source_identifier": "Q121144201"}], "date_modified": "2025-03-06T23:12:15.560963+11:00"}, {"id": 74161, "name": "John West", "roles_in_work": [{"id": 2648604, "title": "Antarctic Pioneers", "work_id": 79627, "role": "narrator", "role_id": 499, "is_primary": false}, {"id": 3081281, "title": "Along the Sepik", "work_id": 64690, "role": "narrator", "role_id": 499, "is_primary": false}], "also_known_as": "", "date_of_birth": "", "date_of_death": "", "genders": [{"id": 9, "name": "Male", "slug": "male"}], "languages": [], "places_of_operation": [], "biography": "", "biography_author": null, "date_of_biography": "2023-05-09T15:16:53.442337+10:00", "external_links": [], "uuid": "5a0a72ca-245d-4fdb-9775-cb96c9866a30", "source": {"name": "Vernon", "slug": "vernon"}, "source_identifier": "35870", "external_references": [], "date_modified": "2025-03-17T10:23:06.968978+11:00"}, {"id": 74160, "name": "Des Martin", "roles_in_work": [{"id": 3081279, "title": "Along the Sepik", "work_id": 64690, "role": "narrator", "role_id": 499, "is_primary": false}], "also_known_as": "", "date_of_birth": "", "date_of_death": "", "genders": [], "languages": [], "places_of_operation": [], "biography": "", "biography_author": null, "date_of_biography": "2023-05-09T15:16:53.217155+10:00", "external_links": [], "uuid": "925c0dba-58d3-44fd-a6cd-2975e4208ee8", "source": {"name": "Vernon", "slug": "vernon"}, "source_identifier": "37897", "external_references": [], "date_modified": "2025-03-17T10:23:06.370900+11:00"}, {"id": 74159, "name": "Edward Cranstone", "roles_in_work": [{"id": 3081277, "title": "Along the Sepik", "work_id": 64690, "role": "camera operator", "role_id": 931, "is_primary": false}, {"id": 3110905, "title": "Born in the sun", "work_id": 65550, "role": "cinematographer", "role_id": 32, "is_primary": false}, {"id": 2392048, "title": "Richard Takes a Train Ride", "work_id": 72220, "role": "cinematographer", "role_id": 32, "is_primary": false}, {"id": 2392699, "title": "Postcard from Perth", "work_id": 86807, "role": "cinematographer", "role_id": 32, "is_primary": false}, {"id": 2646119, "title": "Rail town", "work_id": 72035, "role": "cinematographer", "role_id": 32, "is_primary": false}, {"id": 2646770, "title": "The Valley is ours", "work_id": 74271, "role": "cinematographer", "role_id": 32, "is_primary": false}, {"id": 2680290, "title": "Concerto for orchestra", "work_id": 66313, "role": "director of photography", "role_id": 925, "is_primary": false}, {"id": 2391965, "title": "Our Policemen", "work_id": 71256, "role": "director of photography", "role_id": 925, "is_primary": false}], "also_known_as": "", "date_of_birth": "", "date_of_death": "", "genders": [], "languages": [], "places_of_operation": [], "biography": "", "biography_author": null, "date_of_biography": "2023-08-09T03:59:32.165248+10:00", "external_links": [], "uuid": "267cdb5c-e43a-4a7e-8d8e-85df0dccd20f", "source": {"name": "Vernon", "slug": "vernon"}, "source_identifier": "35338", "external_references": [{"id": 42759, "source": {"name": "Wikidata", "slug": "wikidata"}, "source_identifier": "Q121036285"}], "date_modified": "2026-04-16T17:07:51.170827+10:00"}, {"id": 74158, "name": "Jordan Belson", "roles_in_work": [{"id": 2643965, "title": "Allures", "work_id": 64685, "role": "producer/director", "role_id": 31, "is_primary": true}], "also_known_as": "", "date_of_birth": "1926-06-06", "date_of_death": "2011-09-06", "genders": [{"id": 9, "name": "Male", "slug": "male"}], "languages": [], "places_of_operation": [{"id": 1, "name": "United States of America", "slug": "united-states-of-america"}], "biography": "Jordan Belson (June 6, 1926 – September 6, 2011) was an American artist and abstract cinematic filmmaker who created nonobjective, often spiritually oriented, abstract films spanning six decades.\n\n", "biography_author": "Wikidata", "date_of_biography": "2023-09-05T21:49:34.976326+10:00", "external_links": [{"id": 4430, "uri": "https://en.wikipedia.org/wiki/Jordan_Belson"}], "uuid": "97c4468e-932d-4634-bddb-5c278e02d6bc", "source": {"name": "Vernon", "slug": "vernon"}, "source_identifier": "22687", "external_references": [{"id": 25527, "source": {"name": "Wikidata", "slug": "wikidata"}, "source_identifier": "Q6276381"}, {"id": 29641, "source": {"name": "VIAF", "slug": "viaf"}, "source_identifier": "45542364"}, {"id": 29642, "source": {"name": "LOC Auth", "slug": "loc-auth"}, "source_identifier": "n50007151"}, {"id": 29643, "source": {"name": "WorldCat", "slug": "worldcat"}, "source_identifier": "lccn-n50007151"}], "date_modified": "2025-03-05T12:08:38.107982+11:00"}, {"id": 74157, "name": "Joanne M Mock", "roles_in_work": [{"id": 2644607, "title": "Drugs in our time", "work_id": 66955, "role": "producer/director", "role_id": 31, "is_primary": true}, {"id": 2646900, "title": "What some communities are doing", "work_id": 74644, "role": "producer/director", "role_id": 31, "is_primary": true}, {"id": 2327610, "title": "What can we do?", "work_id": 74615, "role": "producer/director", "role_id": 31, "is_primary": true}, {"id": 2712464, "title": "Drugs and the very young", "work_id": 66951, "role": "producer/director", "role_id": 31, "is_primary": true}, {"id": 2327588, "title": "Drugs: The Children are choosing - The Need for dialogue", "work_id": 70799, "role": "producer/director", "role_id": 31, "is_primary": true}, {"id": 2327598, "title": "The Pharmacology of drugs", "work_id": 71513, "role": "producer/director", "role_id": 31, "is_primary": true}, {"id": 2677084, "title": "The Allure of drugs", "work_id": 64684, "role": "producer/director", "role_id": 31, "is_primary": true}], "also_known_as": "", "date_of_birth": "", "date_of_death": "", "genders": [], "languages": [], "places_of_operation": [], "biography": "", "biography_author": null, "date_of_biography": "2023-05-09T19:21:26.805963+10:00", "external_links": [], "uuid": "15ade1d6-3978-4900-a698-c794bb957822", "source": {"name": "Vernon", "slug": "vernon"}, "source_identifier": "22005", "external_references": [{"id": 51796, "source": {"name": "Wikidata", "slug": "wikidata"}, "source_identifier": "Q121360947"}], "date_modified": "2025-03-12T00:22:51.485964+11:00"}, {"id": 74156, "name": "Juilliard School of Music (Drama Division)", "roles_in_work": [{"id": 2677074, "title": "All the World's a Stage", "work_id": 64678, "role": "sponsor", "role_id": 625, "is_primary": false}], "also_known_as": "", "date_of_birth": "", "date_of_death": "", "genders": [], "languages": [], "places_of_operation": [], "biography": "", "biography_author": null, "date_of_biography": "2023-05-09T11:57:04.804614+10:00", "external_links": [], "uuid": "a1b00389-44e9-4b32-bf9c-5e90dae3c951", "source": {"name": "Vernon", "slug": "vernon"}, "source_identifier": "35906", "external_references": [], "date_modified": "2025-03-06T23:11:46.054494+11:00"}, {"id": 74155, "name": "Brian Bergen", "roles_in_work": [{"id": 2677063, "title": "The all purpose any place any time parent-teacher interview: a nine point guide (TEFC)", "work_id": 64672, "role": "director", "role_id": 938, "is_primary": true}, {"id": 756028, "title": "Towards a balanced view", "work_id": 73943, "role": "director", "role_id": 938, "is_primary": true}], "also_known_as": "", "date_of_birth": "", "date_of_death": "", "genders": [], "languages": [], "places_of_operation": [], "biography": "", "biography_author": null, "date_of_biography": "2023-05-09T19:21:03.604266+10:00", "external_links": [], "uuid": "08ee4b7f-5f34-421c-a4c0-cdc020096da9", "source": {"name": "Vernon", "slug": "vernon"}, "source_identifier": "16193", "external_references": [{"id": 35605, "source": {"name": "Wikidata", "slug": "wikidata"}, "source_identifier": "Q121040122"}], "date_modified": "2025-03-06T23:11:36.872010+11:00"}, {"id": 74154, "name": "Ron Saunders", "roles_in_work": [{"id": 2680281, "title": "A Conceptual approach to teaching", "work_id": 66311, "role": "director", "role_id": 938, "is_primary": true}, {"id": 2677034, "title": "Alice through the lift door: the other side of shopping", "work_id": 64657, "role": "director", "role_id": 938, "is_primary": true}, {"id": 2677415, "title": "Approach to infant education", "work_id": 64853, "role": "director", "role_id": 938, "is_primary": true}, {"id": 2524117, "title": "This little pig went to market", "work_id": 73747, "role": "director", "role_id": 938, "is_primary": true}, {"id": 2713241, "title": "The Expressive arts: everyone succeeds!", "work_id": 67311, "role": "director", "role_id": 938, "is_primary": true}, {"id": 2714632, "title": "Getting it all together", "work_id": 68034, "role": "director", "role_id": 938, "is_primary": true}, {"id": 2715820, "title": "How to gromble a flub", "work_id": 68637, "role": "director", "role_id": 938, "is_primary": true}, {"id": 2715997, "title": "I taught them but they didn't learn (TEFC)", "work_id": 68725, "role": "director", "role_id": 938, "is_primary": true}, {"id": 2751816, "title": "Water management", "work_id": 97996, "role": "director", "role_id": 938, "is_primary": true}, {"id": 2182714, "title": "Outback festivals of Australia", "work_id": 75420, "role": "director", "role_id": 938, "is_primary": true}, {"id": 2168862, "title": "Moments in time", "work_id": 75417, "role": "director", "role_id": 938, "is_primary": true}, {"id": 2322466, "title": "Teaching reading in the upper primary school", "work_id": 73554, "role": "director", "role_id": 938, "is_primary": true}, {"id": 2241418, "title": "First days", "work_id": 97821, "role": "director", "role_id": 938, "is_primary": true}, {"id": 2202565, "title": "Pesticides: friend or foe?", "work_id": 71503, "role": "director", "role_id": 938, "is_primary": true}, {"id": 2241443, "title": "First days (TEFC)", "work_id": 76602, "role": "director", "role_id": 938, "is_primary": true}, {"id": 2177188, "title": "Only two wheels", "work_id": 75419, "role": "director", "role_id": 938, "is_primary": true}, {"id": 2154721, "title": "Misconceptions", "work_id": 75416, "role": "director", "role_id": 938, "is_primary": true}, {"id": 2073639, "title": "A Reason to read", "work_id": 72087, "role": "director", "role_id": 938, "is_primary": true}, {"id": 2170379, "title": "Noise annoys", "work_id": 70943, "role": "director", "role_id": 938, "is_primary": true}, {"id": 1864595, "title": "Great coastal dune show", "work_id": 75281, "role": "director", "role_id": 938, "is_primary": true}, {"id": 828063, "title": "Hector's roadshow", "work_id": 97052, "role": "director", "role_id": 938, "is_primary": true}, {"id": 854337, "title": "Less hours working", "work_id": 69596, "role": "director", "role_id": 938, "is_primary": true}, {"id": 2163978, "title": "Just the job", "work_id": 76441, "role": "director", "role_id": 938, "is_primary": true}, {"id": 759545, "title": "Yorke Peninsula", "work_id": 75430, "role": "director", "role_id": 938, "is_primary": true}, {"id": 2094721, "title": "An Open space secondary school at work", "work_id": 71168, "role": "director", "role_id": 938, "is_primary": true}, {"id": 2303504, "title": "Smash", "work_id": 87108, "role": "co-director", "role_id": 959, "is_primary": true}, {"id": 3108873, "title": "Lottie Lyell", "work_id": 79638, "role": "co-producer", "role_id": 915, "is_primary": true}, {"id": 898639, "title": "Mum How Do You Spell Gorbatrof?", "work_id": 78804, "role": "co-producer", "role_id": 915, "is_primary": true}, {"id": 3108868, "title": "Errol Flynn", "work_id": 79637, "role": "co-producer", "role_id": 915, "is_primary": true}, {"id": 3108888, "title": "Jack Davey", "work_id": 79855, "role": "co-producer", "role_id": 915, "is_primary": true}, {"id": 3108903, "title": "Soldier Settlers", "work_id": 79875, "role": "co-producer", "role_id": 915, "is_primary": true}, {"id": 3108907, "title": "Lola Montez", "work_id": 79876, "role": "co-producer", "role_id": 915, "is_primary": true}, {"id": 3108911, "title": "Gordon Bennett", "work_id": 79877, "role": "co-producer", "role_id": 915, "is_primary": true}, {"id": 3108916, "title": "Vivian Bullwinkel", "work_id": 79878, "role": "co-producer", "role_id": 915, "is_primary": true}, {"id": 3108921, "title": "John Norton", "work_id": 79879, "role": "co-producer", "role_id": 915, "is_primary": true}, {"id": 3108926, "title": "Les Darcy", "work_id": 80089, "role": "co-producer", "role_id": 915, "is_primary": true}, {"id": 3108930, "title": "Clyde Fenton", "work_id": 79854, "role": "co-producer", "role_id": 915, "is_primary": true}, {"id": 3108935, "title": "Mary Mackillop", "work_id": 79874, "role": "co-producer", "role_id": 915, "is_primary": true}, {"id": 3108941, "title": "Private John Simpson", "work_id": 79856, "role": "co-producer", "role_id": 915, "is_primary": true}, {"id": 3108947, "title": "Betty Cuthbert", "work_id": 79639, "role": "co-producer", "role_id": 915, "is_primary": true}, {"id": 2648554, "title": "The Bruce Petty collection", "work_id": 79441, "role": "co-producer", "role_id": 915, "is_primary": true}, {"id": 2771429, "title": "Dad's Girl/Common Ground", "work_id": 80141, "role": "co-producer", "role_id": 915, "is_primary": true}, {"id": 2771444, "title": "In Loving Memory. Alice", "work_id": 80144, "role": "co-producer", "role_id": 915, "is_primary": true}, {"id": 2771455, "title": "Hit and Miss/One Voice", "work_id": 80145, "role": "co-producer", "role_id": 915, "is_primary": true}, {"id": 2392615, "title": "Out of Control", "work_id": 79677, "role": "producer", "role_id": 1089, "is_primary": true}, {"id": 2127906, "title": "Bush corridors", "work_id": 76704, "role": "producer", "role_id": 1089, "is_primary": true}, {"id": 2351960, "title": "The Great artesian basin", "work_id": 76918, "role": "producer", "role_id": 1089, "is_primary": true}, {"id": 1807006, "title": "Mum How Do You Spell Gorbatrof? (Captioned)", "work_id": 79099, "role": "producer", "role_id": 1089, "is_primary": true}, {"id": 2309840, "title": "Step-By-Step Guide to Form S", "work_id": 79979, "role": "producer", "role_id": 1089, "is_primary": true}, {"id": 2771421, "title": "The Stress Factor/ a Crime Called Violence", "work_id": 80140, "role": "producer", "role_id": 1089, "is_primary": true}, {"id": 2341803, "title": "The Cubbies", "work_id": 75565, "role": "producer", "role_id": 1089, "is_primary": true}, {"id": 2751068, "title": "Drugs: it's up to you really", "work_id": 97644, "role": "script", "role_id": 962, "is_primary": false}], "also_known_as": "", "date_of_birth": "", "date_of_death": "", "genders": [{"id": 9, "name": "Male", "slug": "male"}], "languages": [], "places_of_operation": [], "biography": "Ronald Victor Saunders is an Australian film and television producer, writer and director. He has worked in almost every genre of film and his career has spanned over 30 years. He is particularly known for specialising in children's television and for co-creating the successful Australian children's television series Johnson and Friends, with Ian Munro (director) and John Patterson (writer) and later on, The Girl from Tomorrow, Spellbinder and Magic Mountain.\nSaunders was also instrumental in building race relations between Australia and China and he has been responsible for many co-productions between the two countries, including Magic Mountain, Spellbinder: Land of the Dragon Lord and The Dragon Pearl. Other children's programs he was involved with include The Adventures of Sam, and the 1990s version of The Toothbrush Family, Ketchup: Cats Who Cook.", "biography_author": "Wikidata", "date_of_biography": "2023-09-06T00:54:41.867693+10:00", "external_links": [{"id": 5075, "uri": "https://en.wikipedia.org/wiki/Ron_Saunders_(producer)"}], "uuid": "86592219-ae95-4c7d-abe7-0af322c00609", "source": {"name": "Vernon", "slug": "vernon"}, "source_identifier": "28171", "external_references": [{"id": 26379, "source": {"name": "Wikidata", "slug": "wikidata"}, "source_identifier": "Q104093820"}], "date_modified": "2025-10-01T20:39:44.243559+10:00"}, {"id": 74153, "name": "James Coffey", "roles_in_work": [{"id": 2324338, "title": "Tennant Creek in passing", "work_id": 73617, "role": "director", "role_id": 938, "is_primary": true}, {"id": 2392352, "title": "One weft double cloth", "work_id": 75153, "role": "director", "role_id": 938, "is_primary": true}, {"id": 2677032, "title": "Alice Springs: red heart blue centre", "work_id": 64656, "role": "director", "role_id": 938, "is_primary": true}, {"id": 2174145, "title": "Katherine: air-conditioned frontier", "work_id": 69354, "role": "director", "role_id": 938, "is_primary": true}, {"id": 2680828, "title": "Dairying: space and system", "work_id": 66571, "role": "co-director", "role_id": 959, "is_primary": true}], "also_known_as": "", "date_of_birth": "", "date_of_death": "", "genders": [], "languages": [], "places_of_operation": [], "biography": "", "biography_author": null, "date_of_biography": "2023-08-09T03:55:34.054460+10:00", "external_links": [], "uuid": "d7d5b7d7-9259-4759-912f-23809278d970", "source": {"name": "Vernon", "slug": "vernon"}, "source_identifier": "21215", "external_references": [{"id": 39835, "source": {"name": "Wikidata", "slug": "wikidata"}, "source_identifier": "Q121315534"}], "date_modified": "2025-03-07T00:42:45.083720+11:00"}]}