{"count": 28687, "next": "https://api.acmi.net.au/creators/?page=765", "previous": "https://api.acmi.net.au/creators/?page=763", "results": [{"id": 77943, "name": "Debbie Christie", "roles_in_work": [{"id": 2122803, "title": "Bosnia at war: we are all neighbours", "work_id": 85416, "role": "producer/director", "role_id": 31, "is_primary": true}], "also_known_as": "", "date_of_birth": "", "date_of_death": "", "genders": [], "languages": [], "places_of_operation": [], "biography": "", "biography_author": null, "date_of_biography": "2023-05-09T13:06:22.403817+10:00", "external_links": [], "uuid": "19944894-800e-48c7-84bf-ef728f6d83a1", "source": {"name": "Vernon", "slug": "vernon"}, "source_identifier": "17891", "external_references": [{"id": 50753, "source": {"name": "Wikidata", "slug": "wikidata"}, "source_identifier": "Q121360552"}], "date_modified": "2023-09-05T19:05:07.317849+10:00"}, {"id": 77942, "name": "Robyn Johnston", "roles_in_work": [{"id": 2196028, "title": "Doc: a Portrait of Herbert Vere Evatt, 1894-1965", "work_id": 85415, "role": "narrator", "role_id": 499, "is_primary": false}], "also_known_as": "", "date_of_birth": "", "date_of_death": "", "genders": [], "languages": [], "places_of_operation": [], "biography": "", "biography_author": null, "date_of_biography": "2023-05-09T15:16:54.631225+10:00", "external_links": [], "uuid": "970d3b0c-499e-4f38-8144-ece6793468b0", "source": {"name": "Vernon", "slug": "vernon"}, "source_identifier": "38867", "external_references": [], "date_modified": "2023-06-14T16:33:30.576250+10:00"}, {"id": 77941, "name": "Helen Barrow", "roles_in_work": [{"id": 2196021, "title": "Doc: a Portrait of Herbert Vere Evatt, 1894-1965", "work_id": 85415, "role": "director of photography", "role_id": 925, "is_primary": false}, {"id": 1805071, "title": "The Post", "work_id": 94728, "role": "producer", "role_id": 1089, "is_primary": true}], "also_known_as": "", "date_of_birth": "", "date_of_death": "", "genders": [], "languages": [], "places_of_operation": [], "biography": "", "biography_author": null, "date_of_biography": "2023-05-09T15:16:54.143640+10:00", "external_links": [], "uuid": "9b73507b-7308-444f-84a1-7978da27e335", "source": {"name": "Vernon", "slug": "vernon"}, "source_identifier": "20413", "external_references": [{"id": 34021, "source": {"name": "Wikidata", "slug": "wikidata"}, "source_identifier": "Q121034962"}], "date_modified": "2023-09-05T20:33:56.534919+10:00"}, {"id": 77940, "name": "David McKnight", "roles_in_work": [{"id": 2196015, "title": "Doc: a Portrait of Herbert Vere Evatt, 1894-1965", "work_id": 85415, "role": "writer", "role_id": 939, "is_primary": true}], "also_known_as": "", "date_of_birth": "", "date_of_death": "", "genders": [], "languages": [], "places_of_operation": [], "biography": "", "biography_author": null, "date_of_biography": "2023-05-09T15:16:53.669842+10:00", "external_links": [], "uuid": "a32ad608-29e5-4f29-9ada-1266060025b0", "source": {"name": "Vernon", "slug": "vernon"}, "source_identifier": "38866", "external_references": [{"id": 42761, "source": {"name": "Wikidata", "slug": "wikidata"}, "source_identifier": "Q121036212"}], "date_modified": "2023-09-05T19:00:17.657269+10:00"}, {"id": 77939, "name": "Denise Haslem", "roles_in_work": [{"id": 1932063, "title": "Mabo: the life of an Island man (Captioned)", "work_id": 86116, "role": "producer", "role_id": 1089, "is_primary": true}, {"id": 2043576, "title": "Mabo: The Life of an Island Man", "work_id": 85892, "role": "producer", "role_id": 1089, "is_primary": true}, {"id": 2196006, "title": "Doc: a Portrait of Herbert Vere Evatt, 1894-1965", "work_id": 85415, "role": "producer", "role_id": 1089, "is_primary": true}, {"id": 2065533, "title": "A Calcutta Christmas", "work_id": 92999, "role": "producer", "role_id": 1089, "is_primary": true}], "also_known_as": "", "date_of_birth": "", "date_of_death": "", "genders": [], "languages": [], "places_of_operation": [], "biography": "", "biography_author": null, "date_of_biography": "2023-05-09T15:16:53.179969+10:00", "external_links": [], "uuid": "2d9bf0da-f05c-416f-bef5-7a4b9d827c6f", "source": {"name": "Vernon", "slug": "vernon"}, "source_identifier": "17980", "external_references": [{"id": 43402, "source": {"name": "Wikidata", "slug": "wikidata"}, "source_identifier": "Q121144266"}], "date_modified": "2023-09-05T19:08:07.850486+10:00"}, {"id": 77938, "name": "Lance Comfort", "roles_in_work": [{"id": 2125279, "title": "Brighton rock = Young scareface. Eight o'clock walk", "work_id": 85405, "role": "co-director", "role_id": 959, "is_primary": true}], "also_known_as": "", "date_of_birth": "", "date_of_death": "", "genders": [], "languages": [], "places_of_operation": [], "biography": "", "biography_author": null, "date_of_biography": "2023-05-09T13:10:03.048256+10:00", "external_links": [], "uuid": "133ac437-7949-48e5-b62d-f6884ca0d2ef", "source": {"name": "Vernon", "slug": "vernon"}, "source_identifier": "23464", "external_references": [{"id": 41637, "source": {"name": "Wikidata", "slug": "wikidata"}, "source_identifier": "Q121040107"}], "date_modified": "2023-09-05T22:13:48.620090+10:00"}, {"id": 77937, "name": "George B. Seitz", "roles_in_work": [{"id": 2793328, "title": "Love finds Andy Hardy", "work_id": 85397, "role": "director", "role_id": 938, "is_primary": true}, {"id": 2793333, "title": "Andy Hardy meets debutante", "work_id": 85398, "role": "director", "role_id": 938, "is_primary": true}, {"id": 2793336, "title": "Andy Hardy's private secretary", "work_id": 85399, "role": "director", "role_id": 938, "is_primary": true}], "also_known_as": "George Brackett Seitz", "date_of_birth": "03 JAN 1888", "date_of_death": "08 JUL 1944", "genders": [{"id": 9, "name": "Male", "slug": "male"}], "languages": [{"id": 1, "name": "English", "slug": "english"}], "places_of_operation": [{"id": 1, "name": "United States of America", "slug": "united-states-of-america"}], "biography": "George Brackett Seitz (January 3, 1888 – July 8, 1944) was an American playwright, screenwriter, film actor and director. He was known for his screenplays for action serials, such as The Perils of Pauline (1914) and The Exploits of Elaine (1914).\n\nSeitz was born in Boston, Massachusetts, started his career as a playwright, and also wrote some fiction for \"up-market\" pulp magazines such as Adventure and People's Magazine.Seitz did much of his early work in Fort Lee, New Jersey when many other early film studios in America's first motion picture industry were based there. He was the director of more than one hundred films, the writer of more than thirty screenplays, and an actor in seven films.  He worked at Columbia Pictures and at Metro-Goldwyn-Mayer where he directed eleven films in the Andy Hardy series of the 1930s & 1940s.  He died in Hollywood, California in 1944. Although an acquaintance of the cinematographer John F. Seitz, they were not related.  He was the father of George B. Seitz Jr., who was a writer/director active in the 1940s and 1950s in films and television. Source: Wikidata; 01/08/2023", "biography_author": null, "date_of_biography": "2025-03-14T20:17:06.458426+11:00", "external_links": [{"id": 2108, "uri": "https://en.wikipedia.org/wiki/George_B._Seitz"}], "uuid": "62ada8aa-12df-4423-8c4a-c85dac7ec13b", "source": {"name": "Vernon", "slug": "vernon"}, "source_identifier": "19564", "external_references": [{"id": 9092, "source": {"name": "Wikidata", "slug": "wikidata"}, "source_identifier": "Q441976"}, {"id": 9093, "source": {"name": "VIAF", "slug": "viaf"}, "source_identifier": "33438858"}, {"id": 9094, "source": {"name": "LOC Auth", "slug": "loc-auth"}, "source_identifier": "n85199136"}, {"id": 9095, "source": {"name": "WorldCat", "slug": "worldcat"}, "source_identifier": "lccn-n85199136"}], "date_modified": "2025-03-14T20:17:06.458746+11:00"}, {"id": 77936, "name": "Graeme Tubbenhauer", "roles_in_work": [{"id": 2308043, "title": "Spider & Rose = Spider and Rose", "work_id": 85385, "role": "co-producer", "role_id": 915, "is_primary": true}], "also_known_as": "", "date_of_birth": "", "date_of_death": "", "genders": [], "languages": [], "places_of_operation": [], "biography": "", "biography_author": null, "date_of_biography": "2023-05-09T18:48:07.163269+10:00", "external_links": [], "uuid": "d102d241-2144-4540-a2c6-313e5dcf12f3", "source": {"name": "Vernon", "slug": "vernon"}, "source_identifier": "19980", "external_references": [{"id": 42460, "source": {"name": "Wikidata", "slug": "wikidata"}, "source_identifier": "Q121315648"}], "date_modified": "2023-09-05T20:18:34.987789+10:00"}, {"id": 77935, "name": "Lyn McCarthy", "roles_in_work": [{"id": 2308041, "title": "Spider & Rose = Spider and Rose", "work_id": 85385, "role": "co-producer", "role_id": 915, "is_primary": true}], "also_known_as": "", "date_of_birth": "", "date_of_death": "", "genders": [{"id": 5, "name": "Female", "slug": "female"}], "languages": [], "places_of_operation": [], "biography": "", "biography_author": null, "date_of_biography": "2023-05-09T18:48:06.807313+10:00", "external_links": [], "uuid": "6b6a4229-8bc9-4682-94a7-a946748e8740", "source": {"name": "Vernon", "slug": "vernon"}, "source_identifier": "24121", "external_references": [{"id": 37012, "source": {"name": "Wikidata", "slug": "wikidata"}, "source_identifier": "Q121337548"}], "date_modified": "2023-06-14T16:33:30.576250+10:00"}, {"id": 77934, "name": "Robert Rehme", "roles_in_work": [{"id": 2615379, "title": "Clear and present danger", "work_id": 85368, "role": "co-producer", "role_id": 915, "is_primary": true}], "also_known_as": "", "date_of_birth": "", "date_of_death": "", "genders": [], "languages": [], "places_of_operation": [], "biography": "", "biography_author": null, "date_of_biography": "2023-05-09T13:35:01.199895+10:00", "external_links": [], "uuid": "ac77a749-f4a9-4897-acbd-873cfe620e6b", "source": {"name": "Vernon", "slug": "vernon"}, "source_identifier": "27856", "external_references": [{"id": 38723, "source": {"name": "Wikidata", "slug": "wikidata"}, "source_identifier": "Q121337690"}], "date_modified": "2025-02-26T20:22:56.526464+11:00"}]}