{"count": 28687, "next": "https://api.acmi.net.au/creators/?page=1944", "previous": "https://api.acmi.net.au/creators/?page=1942", "results": [{"id": 23666, "name": "Barbara de Fina", "roles_in_work": [{"id": 1996406, "title": "The Hi-Lo country", "work_id": 92677, "role": "co-producer", "role_id": 915, "is_primary": true}, {"id": 2270690, "title": "You can count on me", "work_id": 93961, "role": "co-producer", "role_id": 915, "is_primary": true}, {"id": 929494, "title": "My voyage to Italy = Il Mio Viaggio In Italia", "work_id": 94896, "role": "co-producer", "role_id": 915, "is_primary": true}, {"id": 1996877, "title": "Mad Dog and Glory", "work_id": 92959, "role": "co-producer", "role_id": 915, "is_primary": true}, {"id": 1994997, "title": "The Last temptation of Christ [DVD]", "work_id": 90965, "role": "producer", "role_id": 1089, "is_primary": true}, {"id": 2131347, "title": "Casino [DVD]", "work_id": 93850, "role": "producer", "role_id": 1089, "is_primary": true}, {"id": 2129788, "title": "Cape fear (1991) [DVD]", "work_id": 92850, "role": "producer", "role_id": 1089, "is_primary": true}, {"id": 1999339, "title": "Bringing out the dead", "work_id": 94417, "role": "producer", "role_id": 1089, "is_primary": true}, {"id": 1994116, "title": "Kundun", "work_id": 89851, "role": "producer", "role_id": 1089, "is_primary": true}, {"id": 2327024, "title": "The Age of innocence [DVD]", "work_id": 95082, "role": "producer", "role_id": 1089, "is_primary": true}, {"id": 1805373, "title": "Kundun", "work_id": 91499, "role": "producer", "role_id": 1089, "is_primary": true}], "also_known_as": "", "date_of_birth": "", "date_of_death": "", "genders": [], "languages": [], "places_of_operation": [], "biography": "", "biography_author": null, "date_of_biography": "2023-05-09T19:20:34.358529+10:00", "external_links": [], "uuid": "47006976-d287-4e32-9c13-7fbb7632f691", "source": {"name": "Vernon", "slug": "vernon"}, "source_identifier": "15642", "external_references": [{"id": 40695, "source": {"name": "Wikidata", "slug": "wikidata"}, "source_identifier": "Q121078968"}], "date_modified": "2023-09-05T17:53:04.809953+10:00"}, {"id": 23665, "name": "Cineplex Odeon", "roles_in_work": [{"id": 1994996, "title": "The Last temptation of Christ [DVD]", "work_id": 90965, "role": "production company", "role_id": 941, "is_primary": true}, {"id": 2321982, "title": "Talk radio", "work_id": 87003, "role": "production company", "role_id": 941, "is_primary": true}], "also_known_as": "", "date_of_birth": "", "date_of_death": "", "genders": [], "languages": [], "places_of_operation": [], "biography": "", "biography_author": null, "date_of_biography": "2023-05-09T19:13:28.556103+10:00", "external_links": [], "uuid": "e320cb6e-b7d1-4824-a991-24397cfaa354", "source": {"name": "Vernon", "slug": "vernon"}, "source_identifier": "6731", "external_references": [], "date_modified": "2023-06-14T16:33:30.576250+10:00"}, {"id": 23664, "name": "Bernardo Bertolucci", "roles_in_work": [{"id": 1987478, "title": "The Sheltering sky", "work_id": 83632, "role": "director", "role_id": 938, "is_primary": true}, {"id": 1993949, "title": "Besieged", "work_id": 89609, "role": "director", "role_id": 938, "is_primary": true}, {"id": 1985718, "title": "The Last Emperor", "work_id": 81415, "role": "director", "role_id": 938, "is_primary": true}, {"id": 1987473, "title": "Last tango in Paris", "work_id": 83631, "role": "director", "role_id": 938, "is_primary": true}, {"id": 2309796, "title": "Stealing beauty", "work_id": 87342, "role": "director", "role_id": 938, "is_primary": true}, {"id": 1986421, "title": "The Spider's stratagem", "work_id": 82546, "role": "director", "role_id": 938, "is_primary": true}, {"id": 800650, "title": "Grim reaper = La Commare Secca", "work_id": 88723, "role": "director", "role_id": 938, "is_primary": true}, {"id": 814517, "title": "1900 = Novecento = Millenovecento [NTSC]", "work_id": 93183, "role": "director", "role_id": 938, "is_primary": true}, {"id": 2110474, "title": "Before the revolution = Prima della rivoluzione", "work_id": 82739, "role": "producer/director", "role_id": 31, "is_primary": true}], "also_known_as": "", "date_of_birth": "1941-03-16", "date_of_death": "2018-11-26", "genders": [{"id": 9, "name": "Male", "slug": "male"}], "languages": [{"id": 1, "name": "English", "slug": "english"}, {"id": 6, "name": "Italian", "slug": "italian"}], "places_of_operation": [{"id": 19, "name": "Italy", "slug": "italy"}], "biography": "Bernardo Bertolucci OMRI (Italian: [berˈnardo bertoˈluttʃi]; 16 March 1941 – 26 November 2018) was an Italian film director and screenwriter with a career that spanned 50 years. Considered one of the great filmmakers of the Italian cinema, Bertolucci's work achieved international acclaim. He was the first Italian filmmaker to win the Academy Award for Best Director for The Last Emperor (1987), one of many accolades including two Golden Globes, two David di Donatellos, a British Academy Award, and a César Award. In recognition of his work, he was presented with the inaugural Honorary Palme d'Or Award at the opening ceremony of the 2011 Cannes Film Festival. He had previously received a Lifetime Achievement Golden Lion from the Venice Film Festival.\nA protégé of Pier Paolo Pasolini, Bertolucci made his directorial debut at 22. His second film, Before the Revolution (1964), earned strong international reviews and has since gained classic status, being called a \"masterpiece of Italian cinema\" by Film4. His 1970 film The Conformist, an adaptation of the Alberto Moravia novel, is considered a classic of international cinema, and was nominated for an Academy Award for Best Adapted Screenplay and the prestigious Berlin Golden Bear. In 1972, his erotic drama Last Tango in Paris erupted a firestorm of controversy over its graphic sexuality,  Bertolucci's and star Marlon Brando's working relationship with actress Maria Schneider, and continues to spark debate. Bertolucci's films such as the historical epic 1900 (1976), the family drama La Luna (1979), and the darkly comedic Tragedy of a Ridiculous Man (1981), were likewise controversial but acclaimed.\nHis 1987 film The Last Emperor, a biopic of Chinese monarch Puyi, was a critical and commercial success, earning rave reviews and sweeping the 60th Academy Awards (including Best Picture and Best Director). He followed its success with two more films in his \"Oriental Trilogy\" – The Sheltering Sky, an adaptation of the novel of the same name, and Little Buddha, a Buddhist religious epic. His 1996 film, Stealing Beauty, brought him his second of two Palme d'Or nominations. He continued directing well into the 21st century, releasing his final film, Me and You, in 2012.\nBertolucci's films often deal with themes of politics, sexuality, history, class conflict, and social taboos; marked by a sensual, colorful visual style that's proved influential to filmmakers around the world. Several of his films have appeared on lists of the greatest film of all time.", "biography_author": "Wikidata", "date_of_biography": "2022-05-19T10:55:35.520321+10:00", "external_links": [{"id": 1712, "uri": "https://en.wikipedia.org/wiki/Bernardo_Bertolucci"}], "uuid": "554d42c5-e802-4b6d-9a79-b3114dd2fe97", "source": {"name": "Vernon", "slug": "vernon"}, "source_identifier": "15853", "external_references": [{"id": 7471, "source": {"name": "Wikidata", "slug": "wikidata"}, "source_identifier": "Q53009"}, {"id": 7472, "source": {"name": "VIAF", "slug": "viaf"}, "source_identifier": "109921450"}, {"id": 7473, "source": {"name": "LOC Auth", "slug": "loc-auth"}, "source_identifier": "n50009086"}, {"id": 7474, "source": {"name": "WorldCat", "slug": "worldcat"}, "source_identifier": "lccn-n50009086"}], "date_modified": "2023-09-13T12:28:26.276702+10:00"}, {"id": 23663, "name": "Arthur Penn", "roles_in_work": [{"id": 2650055, "title": "Bonnie and Clyde (Captioned)", "work_id": 82659, "role": "director", "role_id": 938, "is_primary": true}, {"id": 1994776, "title": "Little Big Man", "work_id": 90541, "role": "director", "role_id": 938, "is_primary": true}, {"id": 2122415, "title": "Bonnie and clyde [DVD]", "work_id": 92758, "role": "director", "role_id": 938, "is_primary": true}, {"id": 1993822, "title": "The Left handed gun", "work_id": 89558, "role": "director", "role_id": 938, "is_primary": true}, {"id": 1988876, "title": "The Miracle worker", "work_id": 84944, "role": "director", "role_id": 938, "is_primary": true}, {"id": 2649372, "title": "Night Moves", "work_id": 81414, "role": "director", "role_id": 938, "is_primary": true}], "also_known_as": "", "date_of_birth": "1922-09-27", "date_of_death": "2010-09-28", "genders": [{"id": 9, "name": "Male", "slug": "male"}], "languages": [{"id": 1, "name": "English", "slug": "english"}], "places_of_operation": [{"id": 1, "name": "United States of America", "slug": "united-states-of-america"}], "biography": "Arthur Hiller Penn  (September 27, 1922 – September 28, 2010) was an American director and producer of film, television and theater. Closely associated with the American New Wave,  Penn directed critically acclaimed films throughout the 1960s such as the drama The Chase (1966), the biographical crime film Bonnie and Clyde (1967) and the comedy Alice's Restaurant (1969). He also received attention for his acclaimed revisionist Western Little Big Man (1970). Night Moves (1975) and The Missouri Breaks (1976) which were commercial flops, though the former generated positive reviews. \nIn the 1990s he returned to stage and television direction and production, including an executive producer role for the crime series Law & Order. By his death in 2010, he had been nominated for three Academy Awards for Best Director, a BAFTA, a Golden Globe, two Emmys, and two Directors Guild of America Awards. He was the recipient of several honorary accolades, including an Honorary Golden Bear, a Tony Award, and an Akira Kurosawa Award from the San Francisco International Film Festival.", "biography_author": "Wikidata", "date_of_biography": "2022-05-19T10:53:09.680960+10:00", "external_links": [{"id": 1687, "uri": "https://en.wikipedia.org/wiki/Arthur_Penn"}], "uuid": "1372fe3a-afca-4830-b6a0-742b5a8ab4e7", "source": {"name": "Vernon", "slug": "vernon"}, "source_identifier": "15556", "external_references": [{"id": 7357, "source": {"name": "Wikidata", "slug": "wikidata"}, "source_identifier": "Q41136"}, {"id": 7358, "source": {"name": "VIAF", "slug": "viaf"}, "source_identifier": "27116176"}, {"id": 7359, "source": {"name": "LOC Auth", "slug": "loc-auth"}, "source_identifier": "n79090078"}, {"id": 7360, "source": {"name": "WorldCat", "slug": "worldcat"}, "source_identifier": "lccn-n79090078"}], "date_modified": "2025-03-05T14:08:57.573377+11:00"}, {"id": 23662, "name": "Robert Sherman", "roles_in_work": [{"id": 2649371, "title": "Night Moves", "work_id": 81414, "role": "producer", "role_id": 1089, "is_primary": true}], "also_known_as": "", "date_of_birth": "", "date_of_death": "", "genders": [], "languages": [], "places_of_operation": [], "biography": "", "biography_author": null, "date_of_biography": "2023-05-09T13:56:19.287668+10:00", "external_links": [], "uuid": "1de1cf44-a849-42d2-88bf-85a9b15d570b", "source": {"name": "Vernon", "slug": "vernon"}, "source_identifier": "27820", "external_references": [{"id": 32985, "source": {"name": "Wikidata", "slug": "wikidata"}, "source_identifier": "Q121034853"}], "date_modified": "2025-03-05T14:00:54.959399+11:00"}, {"id": 23661, "name": "Sacha Guitry", "roles_in_work": [{"id": 3104951, "title": "Pasteur", "work_id": 116164, "role": "director", "role_id": 938, "is_primary": true}, {"id": 1985712, "title": "Napoleon", "work_id": 81413, "role": "director", "role_id": 938, "is_primary": true}, {"id": 3104355, "title": "Le Diable Boiteux = the Devil with a Limp", "work_id": 115876, "role": "director", "role_id": 938, "is_primary": true}, {"id": 3104464, "title": "Si Versailles M'etait Conte = Affairs in Versailles", "work_id": 115925, "role": "director", "role_id": 938, "is_primary": true}], "also_known_as": "Alexandre-Georges-Pierre Guitry", "date_of_birth": "1885", "date_of_death": "1957", "genders": [{"id": 9, "name": "Male", "slug": "male"}], "languages": [{"id": 4, "name": "French", "slug": "french"}], "places_of_operation": [{"id": 17, "name": "France", "slug": "france"}], "biography": "Alexandre-Pierre Georges \"Sacha\" Guitry (French: [gitʁi]; 21 February 1885 – 24 July 1957) was a French stage actor, film actor, director, screenwriter, and playwright of the boulevard theatre. He was the son of a leading French actor, Lucien Guitry, and followed his father into the theatrical profession. He became known for his stage performances, particularly in boulevardier roles. He was also a prolific playwright, writing 115 plays throughout his career. He was married five times, always to rising actresses whose careers he furthered. Probably his best-known wife was Yvonne Printemps to whom he was married between 1919 and 1932.\nGuitry's plays range from historical dramas to contemporary light comedies. Some have musical scores, by composers including André Messager and Reynaldo Hahn. When silent films became popular Guitry avoided them, finding the lack of spoken dialogue fatal to dramatic impact. From the 1930s to the end of his life he enthusiastically embraced the cinema, making as many as five films in a single year.\nThe later years of Guitry's career were overshadowed by accusations of collaborating with the occupying Germans after the capitulation of France in the Second World War. The charges were dismissed, but Guitry, a strongly patriotic man, was disillusioned by the vilification he received from some of his compatriots. By the time of his death, his popular esteem had been restored to the extent that 12,000 people filed past his coffin before his burial in Paris.\n\n", "biography_author": "Wikidata", "date_of_biography": "2022-05-19T12:59:54.060993+10:00", "external_links": [{"id": 3047, "uri": "https://en.wikipedia.org/wiki/Sacha_Guitry"}], "uuid": "0e0670ae-f5f5-473f-ab89-95a83941d8b2", "source": {"name": "Vernon", "slug": "vernon"}, "source_identifier": "28426", "external_references": [{"id": 12930, "source": {"name": "Wikidata", "slug": "wikidata"}, "source_identifier": "Q337276"}, {"id": 12931, "source": {"name": "VIAF", "slug": "viaf"}, "source_identifier": "14770929"}, {"id": 12932, "source": {"name": "LOC Auth", "slug": "loc-auth"}, "source_identifier": "n50018815"}, {"id": 12933, "source": {"name": "WorldCat", "slug": "worldcat"}, "source_identifier": "lccn-n50018815"}], "date_modified": "2025-05-22T22:51:54.781669+10:00"}, {"id": 23660, "name": "Clement Duhour", "roles_in_work": [{"id": 1985711, "title": "Napoleon", "work_id": 81413, "role": "producer", "role_id": 1089, "is_primary": true}, {"id": 3104463, "title": "Si Versailles M'etait Conte = Affairs in Versailles", "work_id": 115925, "role": "producer", "role_id": 1089, "is_primary": true}], "also_known_as": "Denis Clément Duhour", "date_of_birth": "1911-12-11", "date_of_death": "1983-01-03", "genders": [{"id": 9, "name": "Male", "slug": "male"}], "languages": [{"id": 4, "name": "French", "slug": "french"}], "places_of_operation": [{"id": 17, "name": "France", "slug": "france"}], "biography": "Clément Duhour was born in Saint-Jean d’Anglet, in the Aquitaine region of south-western France on 11 December 1912. He died on 3 January 1983 in Neuilly-sur-Seine. He was a French athlete, singer, actor, film director and producer.", "biography_author": "Wikidata", "date_of_biography": "2022-05-19T11:07:36.412013+10:00", "external_links": [{"id": 1840, "uri": "https://en.wikipedia.org/wiki/Cl%C3%A9ment_Duhour"}], "uuid": "55444e3a-988d-4007-8d7f-4441f2c2e013", "source": {"name": "Vernon", "slug": "vernon"}, "source_identifier": "17110", "external_references": [{"id": 7999, "source": {"name": "Wikidata", "slug": "wikidata"}, "source_identifier": "Q2980609"}, {"id": 8000, "source": {"name": "VIAF", "slug": "viaf"}, "source_identifier": "17485859"}, {"id": 8001, "source": {"name": "LOC Auth", "slug": "loc-auth"}, "source_identifier": "no2005112337"}, {"id": 8002, "source": {"name": "WorldCat", "slug": "worldcat"}, "source_identifier": "lccn-no2005112337"}], "date_modified": "2025-05-22T22:41:08.720045+10:00"}, {"id": 23658, "name": "Peter Yates", "roles_in_work": [{"id": 1996807, "title": "Krull", "work_id": 92900, "role": "director", "role_id": 938, "is_primary": true}, {"id": 2127619, "title": "Bullitt", "work_id": 87430, "role": "director", "role_id": 938, "is_primary": true}, {"id": 2344886, "title": "The Dresser", "work_id": 81410, "role": "producer/director", "role_id": 31, "is_primary": true}], "also_known_as": "", "date_of_birth": "1929-07-24", "date_of_death": "2011-01-09", "genders": [{"id": 9, "name": "Male", "slug": "male"}], "languages": [{"id": 1, "name": "English", "slug": "english"}], "places_of_operation": [{"id": 10, "name": "United Kingdom", "slug": "united-kingdom"}], "biography": "Peter James Yates (24 July 1929 – 9 January 2011) was an English film director and producer.\n\n", "biography_author": "Wikidata", "date_of_biography": "2022-05-19T12:43:06.600533+10:00", "external_links": [{"id": 2868, "uri": "https://en.wikipedia.org/wiki/Peter_Yates"}], "uuid": "0504a5d1-3132-4104-bdec-722379c89f75", "source": {"name": "Vernon", "slug": "vernon"}, "source_identifier": "26762", "external_references": [{"id": 12190, "source": {"name": "Wikidata", "slug": "wikidata"}, "source_identifier": "Q314301"}, {"id": 12191, "source": {"name": "VIAF", "slug": "viaf"}, "source_identifier": "57511621"}, {"id": 12192, "source": {"name": "LOC Auth", "slug": "loc-auth"}, "source_identifier": "n91100048"}, {"id": 12193, "source": {"name": "WorldCat", "slug": "worldcat"}, "source_identifier": "lccn-n91100048"}], "date_modified": "2023-09-13T12:31:58.397813+10:00"}, {"id": 23656, "name": "William K. Howard", "roles_in_work": [{"id": 2241982, "title": "Fire over England", "work_id": 81405, "role": "director", "role_id": 938, "is_primary": true}], "also_known_as": "", "date_of_birth": "1899-06-16", "date_of_death": "1954-02-21", "genders": [{"id": 9, "name": "Male", "slug": "male"}], "languages": [], "places_of_operation": [{"id": 1, "name": "United States of America", "slug": "united-states-of-america"}], "biography": "William K. Howard (June 16, 1899 – February 21, 1954) was an American film director, writer, and producer. Considered one of Hollywood's leading directors, he directed over 50 films from 1921 to 1946, including The Thundering Herd (1925), The Power and the Glory (1933), Fire Over England (1937), and Johnny Come Lately (1943).\n\n", "biography_author": "Wikidata", "date_of_biography": "2022-05-19T13:22:40.028411+10:00", "external_links": [{"id": 3291, "uri": "https://en.wikipedia.org/wiki/William_K._Howard"}], "uuid": "35caab80-3fa6-4515-baf1-0d03c9a4a789", "source": {"name": "Vernon", "slug": "vernon"}, "source_identifier": "30456", "external_references": [{"id": 13924, "source": {"name": "Wikidata", "slug": "wikidata"}, "source_identifier": "Q1342878"}, {"id": 13925, "source": {"name": "VIAF", "slug": "viaf"}, "source_identifier": "27269564"}, {"id": 13926, "source": {"name": "LOC Auth", "slug": "loc-auth"}, "source_identifier": "no89005096"}, {"id": 13927, "source": {"name": "WorldCat", "slug": "worldcat"}, "source_identifier": "lccn-no89005096"}], "date_modified": "2023-09-13T12:33:17.127251+10:00"}, {"id": 23655, "name": "Pendennis", "roles_in_work": [{"id": 2241977, "title": "Fire over England", "work_id": 81405, "role": "production company", "role_id": 941, "is_primary": true}], "also_known_as": "", "date_of_birth": "", "date_of_death": "", "genders": [], "languages": [], "places_of_operation": [], "biography": "", "biography_author": null, "date_of_biography": "2023-05-09T16:55:26.310684+10:00", "external_links": [], "uuid": "97746299-20ef-432f-910e-53eb4708e95a", "source": {"name": "Vernon", "slug": "vernon"}, "source_identifier": "11383", "external_references": [{"id": 40264, "source": {"name": "Wikidata", "slug": "wikidata"}, "source_identifier": "Q121078892"}], "date_modified": "2023-09-05T23:51:31.682146+10:00"}]}