{"count": 28687, "next": "https://api.acmi.net.au/creators/?page=445", "previous": "https://api.acmi.net.au/creators/?page=443", "results": [{"id": 81143, "name": "Lauren Zalaznick", "roles_in_work": [{"id": 2059244, "title": "[Safe] = Safe [DVD]", "work_id": 95050, "role": "co-producer", "role_id": 915, "is_primary": true}], "also_known_as": "", "date_of_birth": "", "date_of_death": "", "genders": [], "languages": [], "places_of_operation": [], "biography": "", "biography_author": null, "date_of_biography": "2023-05-09T10:58:35.459383+10:00", "external_links": [], "uuid": "e5e86f25-f080-4305-97da-ff5b06a6f075", "source": {"name": "Vernon", "slug": "vernon"}, "source_identifier": "23541", "external_references": [{"id": 33541, "source": {"name": "Wikidata", "slug": "wikidata"}, "source_identifier": "Q121298772"}], "date_modified": "2023-09-05T22:15:51.292776+10:00"}, {"id": 81142, "name": "Brad McGann", "roles_in_work": [{"id": 2474975, "title": "In my father's den", "work_id": 95049, "role": "director", "role_id": 938, "is_primary": true}], "also_known_as": "", "date_of_birth": "1964-02-22", "date_of_death": "2007-05-02", "genders": [{"id": 9, "name": "Male", "slug": "male"}], "languages": [], "places_of_operation": [{"id": 9, "name": "New Zealand", "slug": "new-zealand"}], "biography": "Brad McGann MNZM (22 February 1964–2 May 2007), was a New Zealand film director and screenwriter.\nMcGann was born in New Zealand in 1964. He completed a Bachelor of Commerce degree at the University of Otago[1] and in 1988 completed a one-year post-graduate course at the Swinburne School of Film and Television (now a part of the Victorian College of the Arts) in Melbourne.[2] He directed the drama It Never Rains in 1996 as well as co-directing the documentary Come As You Are for the Australian Broadcasting Corporation, and the award-winning short film Possum.\nIn 2004 and 2005 McGann won international acclaim for his first full-length feature film, In My Father's Den, which was based on Maurice Gee's novel. McGann both wrote the screenplay and directed the film.\n\nThe film won the Fipresci Prize at the 2004 Toronto International Film Festival and the Mercedes Benz Youth Jury Prize at the 52nd San Sebastian Film Festival in Spain in the same year, and the Special Jury Prize at the Seattle International Film Festival in 2005. It became one of the top 10 grossing New Zealand films.[3]\nMcGann was made a Member of the New Zealand Order of Merit in the 2006 New Years Honours List. He died on 2 May 2007[4] after a long battle with bowel cancer (he was first diagnosed in 1998).[5]", "biography_author": null, "date_of_biography": "2023-08-17T15:02:24.618820+10:00", "external_links": [{"id": 1746, "uri": "https://en.wikipedia.org/wiki/Brad_McGann"}], "uuid": "28ac654d-9c0a-4237-abd2-b7c0f9fd85ef", "source": {"name": "Vernon", "slug": "vernon"}, "source_identifier": "16157", "external_references": [{"id": 7615, "source": {"name": "Wikidata", "slug": "wikidata"}, "source_identifier": "Q303695"}, {"id": 7616, "source": {"name": "VIAF", "slug": "viaf"}, "source_identifier": "31794780"}, {"id": 7617, "source": {"name": "LOC Auth", "slug": "loc-auth"}, "source_identifier": "no2008006397"}, {"id": 7618, "source": {"name": "WorldCat", "slug": "worldcat"}, "source_identifier": "lccn-no2008006397"}], "date_modified": "2023-09-06T10:26:19.288081+10:00"}, {"id": 81141, "name": "Bill Robert", "roles_in_work": [{"id": 917142, "title": "Fun fancy free", "work_id": 95048, "role": "co-director", "role_id": 959, "is_primary": true}], "also_known_as": "", "date_of_birth": null, "date_of_death": null, "genders": [], "languages": [], "places_of_operation": [], "biography": "", "biography_author": null, "date_of_biography": null, "external_links": [], "uuid": "7860b5f8-c123-4c9b-98c9-0baa258b69f6", "source": {"name": "Vernon", "slug": "vernon"}, "source_identifier": null, "external_references": [{"id": 52133, "source": {"name": "Wikidata", "slug": "wikidata"}, "source_identifier": "Q121357696"}], "date_modified": "2023-09-05T18:04:27.880772+10:00"}, {"id": 81140, "name": "Stuart Blumberg", "roles_in_work": [{"id": 2476476, "title": "Keeping the faith", "work_id": 95046, "role": "co-producer", "role_id": 915, "is_primary": true}], "also_known_as": "", "date_of_birth": "1969-07-19", "date_of_death": "", "genders": [{"id": 9, "name": "Male", "slug": "male"}], "languages": [{"id": 1, "name": "English", "slug": "english"}], "places_of_operation": [{"id": 1, "name": "United States of America", "slug": "united-states-of-america"}], "biography": "Stuart Blumberg (born July 19, 1969) is an American screenwriter, actor, producer and director.\n\n", "biography_author": "Wikidata", "date_of_biography": "2023-09-06T01:33:31.334160+10:00", "external_links": [{"id": 3161, "uri": "https://en.wikipedia.org/wiki/Stuart_Blumberg"}], "uuid": "f34da523-f656-4e21-badf-341316399aed", "source": {"name": "Vernon", "slug": "vernon"}, "source_identifier": "29244", "external_references": [{"id": 13401, "source": {"name": "Wikidata", "slug": "wikidata"}, "source_identifier": "Q2357826"}, {"id": 13402, "source": {"name": "VIAF", "slug": "viaf"}, "source_identifier": "64212238"}, {"id": 13403, "source": {"name": "LOC Auth", "slug": "loc-auth"}, "source_identifier": "no2005060133"}, {"id": 13404, "source": {"name": "WorldCat", "slug": "worldcat"}, "source_identifier": "lccn-no2005060133"}], "date_modified": "2023-09-06T01:33:31.345046+10:00"}, {"id": 81139, "name": "Edward Norton", "roles_in_work": [{"id": 2476478, "title": "Keeping the faith", "work_id": 95046, "role": "director", "role_id": 938, "is_primary": true}, {"id": 2476475, "title": "Keeping the faith", "work_id": 95046, "role": "co-producer", "role_id": 915, "is_primary": true}], "also_known_as": "", "date_of_birth": "1969-08-18", "date_of_death": "", "genders": [{"id": 9, "name": "Male", "slug": "male"}], "languages": [{"id": 1, "name": "English", "slug": "english"}], "places_of_operation": [{"id": 1, "name": "United States of America", "slug": "united-states-of-america"}], "biography": "Edward Harrison Norton (born August 18, 1969) is an American actor. Norton was drawn to theatrical productions at local venues as a child. After graduating from Yale College in 1991, he worked for a few months in Japan before moving to Manhattan to pursue an acting career. He gained immediate recognition and critical acclaim for his debut in Primal Fear (1996), which earned him a Golden Globe for Best Supporting Actor and an Academy Award nomination in the same category. His role as a redeemed neo-Nazi in American History X (1998) earned him an Academy Award nomination for Best Actor. He also starred in the film Fight Club (1999), which garnered a cult following.\nNorton established the production company Class 5 Films in 2003, and was director or producer of the films Keeping the Faith (2000), Down in the Valley (2005), and The Painted Veil (2006). He continued to receive critical acclaim for his acting roles in films such as The Score (2001), 25th Hour (2002), The Illusionist (2006), Moonrise Kingdom (2012), and The Grand Budapest Hotel (2014). His biggest commercial successes have been Red Dragon (2002), Kingdom of Heaven (2005), The Incredible Hulk (2008), and The Bourne Legacy (2012). For his role in the black comedy Birdman (2014), Norton earned another Academy Award nomination for Best Supporting Actor. Norton has since directed and acted in the crime film Motherless Brooklyn (2019), and starred in Glass Onion: A Knives Out Mystery (2022).\nDespite critical plaudits, Norton has gained notoriety for being difficult to work with, including incidents such as editing the final cuts and rewriting screenplays against the will of other producers. He is discreet about his personal life and has expressed no interest in being a celebrity. Besides acting and filmmaking, he is an environmental activist and social entrepreneur. He is a trustee of Enterprise Community Partners, a non-profit organization that advocates for affordable housing, and serves as president of the American branch of the Maasai Wilderness Conservation Trust. He is also the UN Goodwill Ambassador for Biodiversity. He is married to Canadian film producer Shauna Robertson, with whom he has a son. In March 2022, on the day of another sentencing of Russian opposition leader and political prisoner Alexei Navalny, Norton became the first celebrity sponsor of the international Anti-Corruption Foundation.", "biography_author": "Wikidata", "date_of_biography": "2023-09-05T19:26:21.031764+10:00", "external_links": [{"id": 1979, "uri": "https://en.wikipedia.org/wiki/Edward_Norton"}], "uuid": "1a8bc95e-6d26-4c7b-8879-06b08d31ae64", "source": {"name": "Vernon", "slug": "vernon"}, "source_identifier": "18619", "external_references": [{"id": 8560, "source": {"name": "Wikidata", "slug": "wikidata"}, "source_identifier": "Q125904"}, {"id": 8561, "source": {"name": "VIAF", "slug": "viaf"}, "source_identifier": "85514067"}, {"id": 8562, "source": {"name": "LOC Auth", "slug": "loc-auth"}, "source_identifier": "no97043381"}, {"id": 8563, "source": {"name": "WorldCat", "slug": "worldcat"}, "source_identifier": "lccn-no97043381"}], "date_modified": "2023-09-05T19:26:23.096031+10:00"}, {"id": 81138, "name": "Don MacBain", "roles_in_work": [{"id": 2184515, "title": "Deep blue sea", "work_id": 95045, "role": "co-producer", "role_id": 915, "is_primary": true}], "also_known_as": "", "date_of_birth": "", "date_of_death": "", "genders": [], "languages": [], "places_of_operation": [], "biography": "", "biography_author": null, "date_of_biography": "2023-05-09T14:58:32.261202+10:00", "external_links": [], "uuid": "386ccf03-4d52-4767-94ad-6476388043fa", "source": {"name": "Vernon", "slug": "vernon"}, "source_identifier": "18228", "external_references": [{"id": 33518, "source": {"name": "Wikidata", "slug": "wikidata"}, "source_identifier": "Q121036496"}], "date_modified": "2023-09-05T19:15:35.357926+10:00"}, {"id": 81137, "name": "Robert Kosberg", "roles_in_work": [{"id": 2184507, "title": "Deep blue sea", "work_id": 95045, "role": "co-producer", "role_id": 915, "is_primary": true}], "also_known_as": "", "date_of_birth": "", "date_of_death": "", "genders": [], "languages": [], "places_of_operation": [], "biography": "", "biography_author": null, "date_of_biography": "2023-05-09T14:58:31.803644+10:00", "external_links": [], "uuid": "17ada06b-c1d8-43b2-9678-b830aa165ebe", "source": {"name": "Vernon", "slug": "vernon"}, "source_identifier": "27790", "external_references": [{"id": 40426, "source": {"name": "Wikidata", "slug": "wikidata"}, "source_identifier": "Q121143968"}], "date_modified": "2023-09-06T00:43:22.631110+10:00"}, {"id": 81136, "name": "Eva Colmers", "roles_in_work": [{"id": 2347007, "title": "The Enemy within (2003) [Widescreen]", "work_id": 95034, "role": "director", "role_id": 938, "is_primary": true}], "also_known_as": "", "date_of_birth": "", "date_of_death": "", "genders": [], "languages": [], "places_of_operation": [], "biography": "", "biography_author": null, "date_of_biography": "2023-05-09T19:48:47.863382+10:00", "external_links": [], "uuid": "0a2e069e-c2a8-4040-bf79-d9daf86ffb41", "source": {"name": "Vernon", "slug": "vernon"}, "source_identifier": "18915", "external_references": [{"id": 43412, "source": {"name": "Wikidata", "slug": "wikidata"}, "source_identifier": "Q121271245"}], "date_modified": "2023-09-05T19:38:13.110195+10:00"}, {"id": 81135, "name": "Bonnie Thompson", "roles_in_work": [{"id": 2347002, "title": "The Enemy within (2003) [Widescreen]", "work_id": 95034, "role": "co-producer", "role_id": 915, "is_primary": true}], "also_known_as": "", "date_of_birth": "", "date_of_death": "", "genders": [], "languages": [], "places_of_operation": [], "biography": "", "biography_author": null, "date_of_biography": "2023-05-09T19:48:47.395244+10:00", "external_links": [], "uuid": "d51b576c-0b96-442e-9ff2-c6a978adba62", "source": {"name": "Vernon", "slug": "vernon"}, "source_identifier": "16132", "external_references": [{"id": 41838, "source": {"name": "Wikidata", "slug": "wikidata"}, "source_identifier": "Q121337503"}], "date_modified": "2023-09-06T10:25:26.757337+10:00"}, {"id": 81134, "name": "Arnaud Hantute", "roles_in_work": [{"id": 917100, "title": "This is not Einstein", "work_id": 95033, "role": "co-producer", "role_id": 915, "is_primary": true}], "also_known_as": "", "date_of_birth": null, "date_of_death": null, "genders": [], "languages": [], "places_of_operation": [], "biography": "", "biography_author": null, "date_of_biography": null, "external_links": [], "uuid": "421080ac-7f7c-41a3-bde2-c05ac5e327a4", "source": {"name": "Vernon", "slug": "vernon"}, "source_identifier": null, "external_references": [{"id": 38440, "source": {"name": "Wikidata", "slug": "wikidata"}, "source_identifier": "Q121126445"}], "date_modified": "2023-09-05T17:45:06.011924+10:00"}]}