{"count": 28687, "next": "https://api.acmi.net.au/creators/?page=1776", "previous": "https://api.acmi.net.au/creators/?page=1774", "results": [{"id": 26938, "name": "Ray Muller", "roles_in_work": [{"id": 788057, "title": "The Wonderful horrible life of Leni Riefenstahl", "work_id": 85037, "role": "director", "role_id": 938, "is_primary": true}], "also_known_as": "", "date_of_birth": null, "date_of_death": null, "genders": [{"id": 9, "name": "Male", "slug": "male"}], "languages": [{"id": 5, "name": "German", "slug": "german"}], "places_of_operation": [{"id": 18, "name": "Germany", "slug": "germany"}], "biography": "", "biography_author": null, "date_of_biography": null, "external_links": [], "uuid": "029fc7ef-ae8d-4ce1-b1cc-a19207b5dfe5", "source": {"name": "Vernon", "slug": "vernon"}, "source_identifier": "27166", "external_references": [{"id": 12393, "source": {"name": "Wikidata", "slug": "wikidata"}, "source_identifier": "Q14554280"}, {"id": 12394, "source": {"name": "VIAF", "slug": "viaf"}, "source_identifier": "15945843"}, {"id": 12395, "source": {"name": "LOC Auth", "slug": "loc-auth"}, "source_identifier": "n95086371"}, {"id": 12396, "source": {"name": "WorldCat", "slug": "worldcat"}, "source_identifier": "lccn-n95086371"}], "date_modified": "2023-09-13T12:32:07.604772+10:00"}, {"id": 26936, "name": "Fiona Eagger", "roles_in_work": [{"id": 1816605, "title": "Mallboy", "work_id": 93733, "role": "producer", "role_id": 1089, "is_primary": true}, {"id": 1804433, "title": "The Web", "work_id": 85123, "role": "producer", "role_id": 1089, "is_primary": true}, {"id": 2719957, "title": "Miss Fisher's Murder Mysteries (Series 03) [promotional trailer]", "work_id": 114409, "role": "producer", "role_id": 1089, "is_primary": true}, {"id": 2719965, "title": "Miss Fisher's Murder Mysteries: Cocaine Blues (Series 01. Ep. 01)", "work_id": 114404, "role": "producer", "role_id": 1089, "is_primary": true}, {"id": 2719985, "title": "Miss Fisher's Murder Mysteries: Costume Designer Marion Boyce", "work_id": 114408, "role": "producer", "role_id": 1089, "is_primary": true}, {"id": 2719994, "title": "Miss Fisher's Murder Mysteries: Dead Air (Series 02. Ep. 11)", "work_id": 114406, "role": "producer", "role_id": 1089, "is_primary": true}, {"id": 2720013, "title": "Miss Fisher's Murder Mysteries: Hispano Suiza", "work_id": 114410, "role": "producer", "role_id": 1089, "is_primary": true}, {"id": 2720024, "title": "Miss Fisher's Murder Mysteries: Murder on the Ballarat train  (Series 01. Ep. 02)", "work_id": 114405, "role": "producer", "role_id": 1089, "is_primary": true}, {"id": 2720043, "title": "Miss Fisher's Murder Mysteries: Murder Under the Mistletoe (Series 02. Ep. 13)", "work_id": 114407, "role": "producer", "role_id": 1089, "is_primary": true}, {"id": 2177152, "title": "Only the brave", "work_id": 85034, "role": "producer", "role_id": 1089, "is_primary": true}], "also_known_as": "", "date_of_birth": "", "date_of_death": "", "genders": [{"id": 5, "name": "Female", "slug": "female"}], "languages": [], "places_of_operation": [], "biography": "", "biography_author": null, "date_of_biography": "2023-05-09T14:47:06.345046+10:00", "external_links": [], "uuid": "2c2932a1-148e-4caf-b80a-22822450ae45", "source": {"name": "Vernon", "slug": "vernon"}, "source_identifier": "19009", "external_references": [{"id": 39418, "source": {"name": "Wikidata", "slug": "wikidata"}, "source_identifier": "Q121034475"}], "date_modified": "2025-03-12T07:07:51.757677+11:00"}, {"id": 26935, "name": "Pickpocket Productions", "roles_in_work": [{"id": 2177147, "title": "Only the brave", "work_id": 85034, "role": "production company", "role_id": 941, "is_primary": true}], "also_known_as": "", "date_of_birth": "", "date_of_death": "", "genders": [], "languages": [], "places_of_operation": [], "biography": "", "biography_author": null, "date_of_biography": "2023-05-09T14:47:06.105761+10:00", "external_links": [], "uuid": "08f2d0c7-40ee-4ccd-9e8e-2e667d18f45a", "source": {"name": "Vernon", "slug": "vernon"}, "source_identifier": "11469", "external_references": [{"id": 42987, "source": {"name": "Wikidata", "slug": "wikidata"}, "source_identifier": "Q121299119"}], "date_modified": "2023-09-06T00:07:21.890646+10:00"}, {"id": 26933, "name": "Kroger Babb", "roles_in_work": [{"id": 2149295, "title": "Cry sweet revenge = Uncle Tom's cabin", "work_id": 85033, "role": "production company", "role_id": 941, "is_primary": true}], "also_known_as": "", "date_of_birth": "", "date_of_death": "", "genders": [], "languages": [], "places_of_operation": [], "biography": "", "biography_author": null, "date_of_biography": "2023-05-09T13:50:18.860525+10:00", "external_links": [], "uuid": "dd09b14b-6e2f-4f73-ab4c-6377c57caa97", "source": {"name": "Vernon", "slug": "vernon"}, "source_identifier": "4684", "external_references": [{"id": 40932, "source": {"name": "Wikidata", "slug": "wikidata"}, "source_identifier": "Q121079265"}], "date_modified": "2023-09-05T22:12:13.225959+10:00"}, {"id": 26932, "name": "Independent International Pictures", "roles_in_work": [{"id": 2149291, "title": "Cry sweet revenge = Uncle Tom's cabin", "work_id": 85033, "role": "production company", "role_id": 941, "is_primary": true}], "also_known_as": "", "date_of_birth": "", "date_of_death": "", "genders": [], "languages": [], "places_of_operation": [], "biography": "", "biography_author": null, "date_of_biography": "2023-05-09T13:50:18.623433+10:00", "external_links": [], "uuid": "348998cf-ec77-4685-8d36-0019bdae20f8", "source": {"name": "Vernon", "slug": "vernon"}, "source_identifier": "4683", "external_references": [], "date_modified": "2023-06-14T16:33:30.576250+10:00"}, {"id": 26930, "name": "Michael Wayne", "roles_in_work": [{"id": 2352591, "title": "The Green berets (Captioned)", "work_id": 85032, "role": "producer", "role_id": 1089, "is_primary": true}, {"id": 2171597, "title": "McLintock", "work_id": 94281, "role": "producer", "role_id": 1089, "is_primary": true}, {"id": 2352556, "title": "The Green berets", "work_id": 90472, "role": "producer", "role_id": 1089, "is_primary": true}], "also_known_as": "", "date_of_birth": "1934-11-23", "date_of_death": "2003-04-02", "genders": [{"id": 9, "name": "Male", "slug": "male"}], "languages": [{"id": 1, "name": "English", "slug": "english"}], "places_of_operation": [{"id": 1, "name": "United States of America", "slug": "united-states-of-america"}], "biography": "Michael Anthony Morrison (November 23, 1934 – April 2, 2003), better known by his stage name Michael Wayne, was an American film producer and actor. He was the eldest son of actor John Wayne and his first wife, Josephine Saenz.\n\n", "biography_author": "Wikidata", "date_of_biography": "2022-05-19T12:30:30.849549+10:00", "external_links": [{"id": 2731, "uri": "https://en.wikipedia.org/wiki/Michael_Wayne"}], "uuid": "c7e88a1e-4cac-42a3-b8d9-8e98cf0bb434", "source": {"name": "Vernon", "slug": "vernon"}, "source_identifier": "25253", "external_references": [{"id": 11636, "source": {"name": "Wikidata", "slug": "wikidata"}, "source_identifier": "Q521087"}, {"id": 11637, "source": {"name": "VIAF", "slug": "viaf"}, "source_identifier": "37128372"}, {"id": 11638, "source": {"name": "LOC Auth", "slug": "loc-auth"}, "source_identifier": "nr94017652"}, {"id": 11639, "source": {"name": "WorldCat", "slug": "worldcat"}, "source_identifier": "lccn-nr94017652"}], "date_modified": "2023-09-13T12:31:28.690747+10:00"}, {"id": 26929, "name": "Batjac Productions", "roles_in_work": [{"id": 2171593, "title": "McLintock", "work_id": 94281, "role": "production company", "role_id": 941, "is_primary": true}, {"id": 2352579, "title": "The Green berets (Captioned)", "work_id": 85032, "role": "production company", "role_id": 941, "is_primary": true}, {"id": 2327050, "title": "The Alamo (Captioned)", "work_id": 85031, "role": "production company", "role_id": 941, "is_primary": true}, {"id": 2352550, "title": "The Green berets", "work_id": 90472, "role": "production company", "role_id": 941, "is_primary": true}], "also_known_as": "", "date_of_birth": "", "date_of_death": "", "genders": [], "languages": [], "places_of_operation": [], "biography": "Batjac Productions is an independent film production company co-founded by John Wayne in 1952 as a vehicle for Wayne to both produce and star in movies.   The first Batjac production was Big Jim McLain released by Warner Bros. in 1952, and its final film was McQ, in 1974, also distributed by Warner Bros. After John Wayne's death in 1979, his son Michael Wayne owned and managed the company until his own death in 2003, when his wife Gretchen assumed ownership.", "biography_author": "Wikidata", "date_of_biography": "2023-08-01T14:10:07.958717+10:00", "external_links": [{"id": 3621, "uri": "https://en.wikipedia.org/wiki/Batjac_Productions"}], "uuid": "4eb1bea4-bef8-42b6-88a1-e350fef424e9", "source": {"name": "Vernon", "slug": "vernon"}, "source_identifier": "5749", "external_references": [{"id": 25263, "source": {"name": "Wikidata", "slug": "wikidata"}, "source_identifier": "Q2891393"}, {"id": 27440, "source": {"name": "VIAF", "slug": "viaf"}, "source_identifier": "132844081"}, {"id": 27441, "source": {"name": "LOC Auth", "slug": "loc-auth"}, "source_identifier": "no98098974"}, {"id": 27442, "source": {"name": "WorldCat", "slug": "worldcat"}, "source_identifier": "lccn-no98098974"}], "date_modified": "2023-09-05T17:56:37.584751+10:00"}, {"id": 26928, "name": "The Alamo Company", "roles_in_work": [{"id": 2327044, "title": "The Alamo (Captioned)", "work_id": 85031, "role": "production company", "role_id": 941, "is_primary": true}], "also_known_as": "", "date_of_birth": "", "date_of_death": "", "genders": [], "languages": [], "places_of_operation": [], "biography": "", "biography_author": null, "date_of_biography": "2023-05-09T19:20:35.870409+10:00", "external_links": [], "uuid": "946c6b49-50e3-4e22-b1c5-643c7fee1c4e", "source": {"name": "Vernon", "slug": "vernon"}, "source_identifier": "13332", "external_references": [{"id": 37655, "source": {"name": "Wikidata", "slug": "wikidata"}, "source_identifier": "Q121222597"}], "date_modified": "2023-09-06T01:47:18.906601+10:00"}, {"id": 26927, "name": "Brendan Maher", "roles_in_work": [{"id": 2350451, "title": "The Genie from downunder. - Vol. 4.", "work_id": 85662, "role": "co-director", "role_id": 959, "is_primary": true}, {"id": 2350432, "title": "The Genie from downunder. - Vol. 3.", "work_id": 85245, "role": "co-director", "role_id": 959, "is_primary": true}, {"id": 2214089, "title": "Imagine, EC and me", "work_id": 85030, "role": "co-director", "role_id": 959, "is_primary": true}, {"id": 2350844, "title": "The Genie from downunder. - Vol. 2.", "work_id": 85244, "role": "co-director", "role_id": 959, "is_primary": true}, {"id": 2350418, "title": "The Genie from down under: larceny", "work_id": 116694, "role": "director", "role_id": 938, "is_primary": true}, {"id": 2350690, "title": "The Genie from down under: good cop, bad genie", "work_id": 116692, "role": "director", "role_id": 938, "is_primary": true}, {"id": 2066728, "title": "A Country practice: the wedding", "work_id": 93498, "role": "director", "role_id": 938, "is_primary": true}], "also_known_as": "", "date_of_birth": "", "date_of_death": "", "genders": [], "languages": [], "places_of_operation": [], "biography": "", "biography_author": null, "date_of_biography": "2023-05-09T19:55:50.963256+10:00", "external_links": [], "uuid": "9919d103-ae1d-4629-8bc1-9ae8c7d85108", "source": {"name": "Vernon", "slug": "vernon"}, "source_identifier": "16180", "external_references": [{"id": 51364, "source": {"name": "Wikidata", "slug": "wikidata"}, "source_identifier": "Q56419016"}], "date_modified": "2023-09-06T10:26:36.896723+10:00"}, {"id": 26925, "name": "Winkler Production", "roles_in_work": [{"id": 2295703, "title": "They shoot horses don't they", "work_id": 85027, "role": "production company", "role_id": 941, "is_primary": true}], "also_known_as": "", "date_of_birth": "1931-05-25", "date_of_death": null, "genders": [{"id": 9, "name": "Male", "slug": "male"}], "languages": [], "places_of_operation": [{"id": 1, "name": "United States of America", "slug": "united-states-of-america"}], "biography": "Irwin Winkler (born May 28, 1931) is an American film producer and director. He is the producer or director of over 50 motion pictures, dating back to 1967's Double Trouble, starring Elvis Presley. The fourth film he produced, They Shoot Horses, Don't They? (1969), starring Jane Fonda, was nominated for nine Academy Awards. He won an Oscar for Best Picture for 1976's Rocky. As a producer, he has been nominated for Best Picture for four films: Rocky, Raging Bull (1980), The Right Stuff (1983), and Goodfellas (1990).", "biography_author": "Wikidata", "date_of_biography": "2022-05-19T13:23:31.100361+10:00", "external_links": [{"id": 2020, "uri": "https://en.wikipedia.org/wiki/Irwin_Winkler"}], "uuid": "b7d2d2b5-179f-4dda-a21d-5023a2d7d2c9", "source": {"name": "Vernon", "slug": "vernon"}, "source_identifier": "14394", "external_references": [{"id": 13956, "source": {"name": "Wikidata", "slug": "wikidata"}, "source_identifier": "Q950428"}, {"id": 13957, "source": {"name": "VIAF", "slug": "viaf"}, "source_identifier": "85457952"}, {"id": 13958, "source": {"name": "LOC Auth", "slug": "loc-auth"}, "source_identifier": "n77006077"}, {"id": 13959, "source": {"name": "WorldCat", "slug": "worldcat"}, "source_identifier": "lccn-n77006077"}], "date_modified": "2023-09-13T12:33:18.877513+10:00"}]}