{"count": 28687, "next": "https://api.acmi.net.au/creators/?page=1438", "previous": "https://api.acmi.net.au/creators/?page=1436", "results": [{"id": 35862, "name": "Hollywood Partners", "roles_in_work": [{"id": 2321995, "title": "Tango", "work_id": 94234, "role": "production company", "role_id": 941, "is_primary": true}, {"id": 2234204, "title": "Quills", "work_id": 93949, "role": "production company", "role_id": 941, "is_primary": true}], "also_known_as": "", "date_of_birth": "", "date_of_death": "", "genders": [], "languages": [], "places_of_operation": [], "biography": "", "biography_author": null, "date_of_biography": "2023-05-09T19:13:29.434583+10:00", "external_links": [], "uuid": "022b1dc4-256c-499e-922b-c94c649cf4fa", "source": {"name": "Vernon", "slug": "vernon"}, "source_identifier": "9129", "external_references": [{"id": 34046, "source": {"name": "Wikidata", "slug": "wikidata"}, "source_identifier": "Q121078973"}], "date_modified": "2023-09-05T20:40:48.904310+10:00"}, {"id": 35861, "name": "Alek Keshishian", "roles_in_work": [{"id": 1998603, "title": "In bed with Madonna = Truth or dare", "work_id": 93945, "role": "director", "role_id": 938, "is_primary": true}], "also_known_as": "", "date_of_birth": "1964-07-30", "date_of_death": null, "genders": [{"id": 9, "name": "Male", "slug": "male"}], "languages": [{"id": 77, "name": "Armenian", "slug": "armenian"}, {"id": 1, "name": "English", "slug": "english"}], "places_of_operation": [{"id": 1, "name": "United States of America", "slug": "united-states-of-america"}], "biography": "Alek Keshishian (Armenian: Ալեք Գևորգի Քեշիշեան, born 30 July 1964) is an Armenian-born American film and commercial director, writer, producer and music video director. His 1991 documentary, Madonna: Truth or Dare was the highest-grossing documentary of all time until 2002; it \"changed the way filmmakers explored the world of celebrity\" and had a \"profound impact on LGBTQ representation in film.\"  \n\n", "biography_author": "Wikidata", "date_of_biography": "2023-08-01T13:57:49.432527+10:00", "external_links": [{"id": 3517, "uri": "https://en.wikipedia.org/wiki/Alek_Keshishian"}], "uuid": "34ca3b4c-d472-4903-88da-73be377173b0", "source": {"name": "Vernon", "slug": "vernon"}, "source_identifier": "14874", "external_references": [{"id": 26858, "source": {"name": "Wikidata", "slug": "wikidata"}, "source_identifier": "Q2832478"}, {"id": 27166, "source": {"name": "VIAF", "slug": "viaf"}, "source_identifier": "24808577"}, {"id": 27167, "source": {"name": "LOC Auth", "slug": "loc-auth"}, "source_identifier": "n92086014"}, {"id": 27168, "source": {"name": "WorldCat", "slug": "worldcat"}, "source_identifier": "lccn-n92086014"}], "date_modified": "2023-09-13T12:28:04.105433+10:00"}, {"id": 35853, "name": "Scott Roberts", "roles_in_work": [{"id": 1998574, "title": "The Hard word", "work_id": 93934, "role": "director", "role_id": 938, "is_primary": true}], "also_known_as": "", "date_of_birth": null, "date_of_death": null, "genders": [], "languages": [], "places_of_operation": [], "biography": "", "biography_author": null, "date_of_biography": null, "external_links": [], "uuid": "a302a379-d188-40f7-92fe-d54efe8d0af0", "source": {"name": "Vernon", "slug": "vernon"}, "source_identifier": "28645", "external_references": [{"id": 13068, "source": {"name": "Wikidata", "slug": "wikidata"}, "source_identifier": "Q106375401"}], "date_modified": "2023-09-13T12:32:40.855558+10:00"}, {"id": 35843, "name": "Dominant 7", "roles_in_work": [{"id": 2353500, "title": "The Hacktivists [Widescreen]", "work_id": 93925, "role": "production company", "role_id": 941, "is_primary": true}], "also_known_as": "", "date_of_birth": "", "date_of_death": "", "genders": [], "languages": [], "places_of_operation": [], "biography": "", "biography_author": null, "date_of_biography": "2023-05-09T20:00:25.469554+10:00", "external_links": [], "uuid": "60308f24-4090-40c5-92d4-144581fec867", "source": {"name": "Vernon", "slug": "vernon"}, "source_identifier": "7628", "external_references": [{"id": 38482, "source": {"name": "Wikidata", "slug": "wikidata"}, "source_identifier": "Q121091101"}], "date_modified": "2023-09-05T19:13:44.882908+10:00"}, {"id": 35842, "name": "Hilton Cordell", "roles_in_work": [{"id": 2353497, "title": "The Hacktivists [Widescreen]", "work_id": 93925, "role": "production company", "role_id": 941, "is_primary": true}], "also_known_as": "", "date_of_birth": "", "date_of_death": "", "genders": [], "languages": [], "places_of_operation": [], "biography": "", "biography_author": null, "date_of_biography": "2023-05-09T20:00:25.237656+10:00", "external_links": [], "uuid": "3746dcbb-e372-49ba-8f27-79993d5eeb81", "source": {"name": "Vernon", "slug": "vernon"}, "source_identifier": "20564", "external_references": [{"id": 37887, "source": {"name": "Wikidata", "slug": "wikidata"}, "source_identifier": "Q121222656"}], "date_modified": "2023-09-05T20:39:29.713043+10:00"}, {"id": 35838, "name": "Promises Film Project", "roles_in_work": [{"id": 2231349, "title": "Promises", "work_id": 93924, "role": "production company", "role_id": 941, "is_primary": true}], "also_known_as": "", "date_of_birth": "", "date_of_death": "", "genders": [], "languages": [], "places_of_operation": [], "biography": "", "biography_author": null, "date_of_biography": "2023-05-09T16:37:24.024609+10:00", "external_links": [], "uuid": "8046e38e-5d06-4ac1-bd1c-67a081aed3c5", "source": {"name": "Vernon", "slug": "vernon"}, "source_identifier": "11700", "external_references": [{"id": 37135, "source": {"name": "Wikidata", "slug": "wikidata"}, "source_identifier": "Q121091055"}], "date_modified": "2023-09-06T00:14:37.930870+10:00"}, {"id": 35834, "name": "Production Docu 2", "roles_in_work": [{"id": 2139492, "title": "Claude Jutra: an unfinished story", "work_id": 93923, "role": "production company", "role_id": 941, "is_primary": true}], "also_known_as": "", "date_of_birth": "", "date_of_death": "", "genders": [], "languages": [], "places_of_operation": [], "biography": "", "biography_author": null, "date_of_biography": "2023-05-09T13:34:55.315060+10:00", "external_links": [], "uuid": "98f29be1-ae07-4ccd-8dbd-7d053b6408bd", "source": {"name": "Vernon", "slug": "vernon"}, "source_identifier": "11667", "external_references": [{"id": 34147, "source": {"name": "Wikidata", "slug": "wikidata"}, "source_identifier": "Q121223254"}], "date_modified": "2023-09-06T00:14:27.129194+10:00"}, {"id": 35833, "name": "Fox-Fire Films", "roles_in_work": [{"id": 2139490, "title": "Claude Jutra: an unfinished story", "work_id": 93923, "role": "production company", "role_id": 941, "is_primary": true}], "also_known_as": "", "date_of_birth": "", "date_of_death": "", "genders": [], "languages": [], "places_of_operation": [], "biography": "", "biography_author": null, "date_of_biography": "2023-05-09T13:34:55.079116+10:00", "external_links": [], "uuid": "feb9a4e5-3e37-4547-b94a-0a9bfc58c37f", "source": {"name": "Vernon", "slug": "vernon"}, "source_identifier": "8483", "external_references": [{"id": 43320, "source": {"name": "Wikidata", "slug": "wikidata"}, "source_identifier": "Q121035694"}], "date_modified": "2023-09-05T19:45:25.191129+10:00"}, {"id": 35827, "name": "Jon Cassar", "roles_in_work": [{"id": 817931, "title": "24 = Twenty-four Season one [DVD]", "work_id": 93990, "role": "director", "role_id": 938, "is_primary": true}], "also_known_as": "", "date_of_birth": "1958-04-27", "date_of_death": null, "genders": [{"id": 9, "name": "Male", "slug": "male"}], "languages": [], "places_of_operation": [{"id": 36, "name": "Canada", "slug": "canada"}], "biography": "John Francis \"Jon\" Cassar (born 27 April 1958) is a Maltese-Canadian television director and producer, known for his work on the first seven seasons of 24. In 2006, he won the Primetime Emmy Award for Outstanding Directing for a Drama Series for his work on the episode \"Day 5: 7:00 a.m. – 8:00 a.m.\". In 2011, he produced and directed all episodes of the Canadian-American miniseries The Kennedys, for which he won the Directors Guild of America Award for Outstanding Directing – Television Film and was nominated for the Primetime Emmy Award for Outstanding Miniseries or Movie.", "biography_author": "Wikidata", "date_of_biography": "2023-08-01T15:40:52.488904+10:00", "external_links": [{"id": 4423, "uri": "https://en.wikipedia.org/wiki/Jon_Cassar"}], "uuid": "9294cc6a-298f-4e30-9996-38cd4f2f8f77", "source": {"name": "Vernon", "slug": "vernon"}, "source_identifier": "22604", "external_references": [{"id": 24900, "source": {"name": "Wikidata", "slug": "wikidata"}, "source_identifier": "Q716214"}, {"id": 29614, "source": {"name": "VIAF", "slug": "viaf"}, "source_identifier": "106146344"}, {"id": 29615, "source": {"name": "LOC Auth", "slug": "loc-auth"}, "source_identifier": "no2008177860"}, {"id": 29616, "source": {"name": "WorldCat", "slug": "worldcat"}, "source_identifier": "lccn-no2008177860"}], "date_modified": "2023-09-13T12:30:38.135890+10:00"}, {"id": 35822, "name": "Kiefer Sutherland", "roles_in_work": [{"id": 1820165, "title": "24 = Twenty-four Season one [DVD]", "work_id": 93990, "role": "producer", "role_id": 1089, "is_primary": true}], "also_known_as": "Kiefer William Frederick Dempsey George Rufus Sutherland", "date_of_birth": "1966-12-21", "date_of_death": null, "genders": [{"id": 9, "name": "Male", "slug": "male"}], "languages": [{"id": 1, "name": "English", "slug": "english"}, {"id": 4, "name": "French", "slug": "french"}], "places_of_operation": [{"id": 36, "name": "Canada", "slug": "canada"}], "biography": "Kiefer William Frederick Dempsey George Rufus Sutherland (born 21 December 1966) is a Canadian actor and musician. He is best known for his starring role as Jack Bauer in the Fox drama series 24 (2001–2010, 2014), for which he won an Emmy Award, a Golden Globe Award, two Screen Actors Guild Awards, and two Satellite Awards.\nSutherland got his first leading film role in the Canadian drama The Bay Boy (1984), which earned him a Genie Award nomination. Since that time he has had a successful film career, starring in films such as Stand by Me (1986), The Lost Boys (1987), Bright Lights, Big City (1988), Renegades (1989), Flatliners (1990), The Vanishing (1993), A Time to Kill (1996), Ground Control (1998), Picking Up the Pieces (2000), The Sentinel (2006), The Reluctant Fundamentalist (2012) and The Contractor (2022).\nHe has also starred as Martin Bohm in the Fox drama Touch, and provided the facial motion capture and English voice for Venom Snake in the video games Metal Gear Solid V: Ground Zeroes and Metal Gear Solid V: The Phantom Pain. He starred as President Tom Kirkman in the ABC/Netflix political drama series Designated Survivor.\nSutherland has been inducted to the Hollywood Walk of Fame and to Canada's Walk of Fame, and has received a Lifetime Achievement Award at the Zurich Film Festival.", "biography_author": "Wikidata", "date_of_biography": "2023-08-01T15:50:06.065511+10:00", "external_links": [{"id": 4496, "uri": "https://en.wikipedia.org/wiki/Kiefer_Sutherland"}], "uuid": "d672ca4a-ba47-4268-8cb5-b228faa1c078", "source": {"name": "Vernon", "slug": "vernon"}, "source_identifier": "23319", "external_references": [{"id": 24893, "source": {"name": "Wikidata", "slug": "wikidata"}, "source_identifier": "Q103946"}, {"id": 29797, "source": {"name": "VIAF", "slug": "viaf"}, "source_identifier": "85415887"}, {"id": 29798, "source": {"name": "LOC Auth", "slug": "loc-auth"}, "source_identifier": "no96050395"}, {"id": 29799, "source": {"name": "WorldCat", "slug": "worldcat"}, "source_identifier": "lccn-no96050395"}], "date_modified": "2023-09-13T12:30:51.570186+10:00"}]}