{"count": 28687, "next": "https://api.acmi.net.au/creators/?page=2220", "previous": "https://api.acmi.net.au/creators/?page=2218", "results": [{"id": 18300, "name": "Craig Baynes productions", "roles_in_work": [{"id": 2468849, "title": "There's more to it than that", "work_id": 73670, "role": "production company", "role_id": 941, "is_primary": true}], "also_known_as": "", "date_of_birth": "", "date_of_death": "", "genders": [], "languages": [], "places_of_operation": [], "biography": "", "biography_author": null, "date_of_biography": "2023-08-14T11:47:37.068208+10:00", "external_links": [], "uuid": "85bc7d05-9e72-4a4c-a2b0-a5cfd0b4bbf2", "source": {"name": "Vernon", "slug": "vernon"}, "source_identifier": "7144", "external_references": [], "date_modified": "2023-08-14T11:47:37.068587+10:00"}, {"id": 18299, "name": "Department of Visual Communication, UCLA", "roles_in_work": [{"id": 2468846, "title": "Theory of management development", "work_id": 73662, "role": "production company", "role_id": 941, "is_primary": true}], "also_known_as": "", "date_of_birth": "", "date_of_death": "", "genders": [], "languages": [], "places_of_operation": [], "biography": "", "biography_author": null, "date_of_biography": "2023-08-14T11:47:32.258978+10:00", "external_links": [], "uuid": "cbebd513-b093-487a-b434-ee75c72b6e3c", "source": {"name": "Vernon", "slug": "vernon"}, "source_identifier": "7471", "external_references": [], "date_modified": "2023-08-14T11:47:32.259208+10:00"}, {"id": 18296, "name": "Cal Dunn Studios", "roles_in_work": [{"id": 2289732, "title": "Theobald faces the facts", "work_id": 73659, "role": "production company", "role_id": 941, "is_primary": true}, {"id": 2749452, "title": "Teeth", "work_id": 96813, "role": "production company", "role_id": 941, "is_primary": true}], "also_known_as": "", "date_of_birth": "", "date_of_death": "", "genders": [], "languages": [], "places_of_operation": [], "biography": "", "biography_author": null, "date_of_biography": "2023-05-09T19:14:51.162512+10:00", "external_links": [], "uuid": "782e8d13-7afe-463e-98a3-bfe4acd16cca", "source": {"name": "Vernon", "slug": "vernon"}, "source_identifier": "6193", "external_references": [], "date_modified": "2025-03-13T00:00:39.686596+11:00"}, {"id": 18295, "name": "Roland Feven", "roles_in_work": [{"id": 2289607, "title": "Their first year", "work_id": 73655, "role": "director", "role_id": 938, "is_primary": true}], "also_known_as": "", "date_of_birth": "", "date_of_death": "", "genders": [], "languages": [], "places_of_operation": [], "biography": "", "biography_author": null, "date_of_biography": "2023-05-09T18:16:25.480065+10:00", "external_links": [], "uuid": "6226f229-e917-40b1-9585-6ab17636658b", "source": {"name": "Vernon", "slug": "vernon"}, "source_identifier": "28097", "external_references": [{"id": 41425, "source": {"name": "Wikidata", "slug": "wikidata"}, "source_identifier": "Q121160082"}], "date_modified": "2023-09-06T00:52:32.355562+10:00"}, {"id": 18293, "name": "Ken Frankel", "roles_in_work": [{"id": 2781703, "title": "Theater of the absurd: Luigi Pirandello: Six characters in search of an author", "work_id": 73653, "role": "director", "role_id": 938, "is_primary": true}, {"id": 2781714, "title": "History of the drama", "work_id": 115264, "role": "director", "role_id": 938, "is_primary": true}], "also_known_as": "", "date_of_birth": null, "date_of_death": null, "genders": [], "languages": [], "places_of_operation": [], "biography": "", "biography_author": null, "date_of_biography": null, "external_links": [], "uuid": "a40ab1da-8bbe-441d-b10f-690e71bb719d", "source": {"name": "Vernon", "slug": "vernon"}, "source_identifier": "23179", "external_references": [], "date_modified": "2025-03-14T19:10:09.576360+11:00"}, {"id": 18289, "name": "Ken Wallace", "roles_in_work": [{"id": 2466557, "title": "Thanksgiving", "work_id": 73646, "role": "director", "role_id": 938, "is_primary": true}], "also_known_as": "", "date_of_birth": "", "date_of_death": "", "genders": [], "languages": [], "places_of_operation": [], "biography": "", "biography_author": null, "date_of_biography": "2023-08-14T11:00:03.040390+10:00", "external_links": [], "uuid": "3d7e3386-f54f-4ac1-a155-b940a441708b", "source": {"name": "Vernon", "slug": "vernon"}, "source_identifier": "32744", "external_references": [], "date_modified": "2023-08-14T11:00:03.040683+10:00"}, {"id": 18288, "name": "Save the Children Fund", "roles_in_work": [{"id": 2111367, "title": "Belinda", "work_id": 82148, "role": "production company", "role_id": 941, "is_primary": true}, {"id": 2646590, "title": "Thank you, from John", "work_id": 73645, "role": "sponsor", "role_id": 625, "is_primary": false}], "also_known_as": "", "date_of_birth": "", "date_of_death": "", "genders": [], "languages": [], "places_of_operation": [], "biography": "", "biography_author": null, "date_of_biography": "2023-05-09T12:47:20.786357+10:00", "external_links": [], "uuid": "a69705d0-65a8-407a-ab66-92ad76c9f315", "source": {"name": "Vernon", "slug": "vernon"}, "source_identifier": "12309", "external_references": [{"id": 34935, "source": {"name": "Wikidata", "slug": "wikidata"}, "source_identifier": "Q121315709"}], "date_modified": "2025-03-05T13:07:01.305344+11:00"}, {"id": 18287, "name": "Unicorn Productions", "roles_in_work": [{"id": 2405545, "title": "Dax's Case", "work_id": 79284, "role": "producer", "role_id": 1089, "is_primary": true}, {"id": 859448, "title": "Thailand: past and present", "work_id": 73642, "role": "production company", "role_id": 941, "is_primary": true}], "also_known_as": "", "date_of_birth": "", "date_of_death": "", "genders": [], "languages": [], "places_of_operation": [], "biography": "", "biography_author": null, "date_of_biography": "2023-08-11T15:54:43.076114+10:00", "external_links": [], "uuid": "2063b3ac-7180-469e-b3d8-7b6dcd103c20", "source": {"name": "Vernon", "slug": "vernon"}, "source_identifier": "13837", "external_references": [], "date_modified": "2023-08-11T15:54:43.076344+10:00"}, {"id": 18285, "name": "Phoebe Flory", "roles_in_work": [{"id": 2466552, "title": "Texture in painting", "work_id": 73638, "role": "producer", "role_id": 1089, "is_primary": true}], "also_known_as": "", "date_of_birth": "", "date_of_death": "", "genders": [], "languages": [], "places_of_operation": [], "biography": "", "biography_author": null, "date_of_biography": "2023-08-14T10:59:55.305807+10:00", "external_links": [], "uuid": "3d1d41fd-4909-4d3f-9e68-5136c0cd860c", "source": {"name": "Vernon", "slug": "vernon"}, "source_identifier": "32183", "external_references": [], "date_modified": "2023-08-14T10:59:55.306029+10:00"}, {"id": 18283, "name": "Jim McCurdy", "roles_in_work": [{"id": 2468250, "title": "The Textile touch", "work_id": 73635, "role": "director", "role_id": 938, "is_primary": true}], "also_known_as": "", "date_of_birth": "", "date_of_death": "", "genders": [], "languages": [], "places_of_operation": [], "biography": "", "biography_author": null, "date_of_biography": "2023-08-14T11:37:24.859640+10:00", "external_links": [], "uuid": "3a0a06f1-ede2-478a-b812-d565111f7757", "source": {"name": "Vernon", "slug": "vernon"}, "source_identifier": "32182", "external_references": [], "date_modified": "2023-08-14T11:37:24.859894+10:00"}]}