{"count": 28684, "next": "https://api.acmi.net.au/creators/?page=2771", "previous": "https://api.acmi.net.au/creators/?page=2769", "results": [{"id": 10184, "name": "National Library of Australia", "roles_in_work": [{"id": 2122783, "title": "Boro's ballet: the making of an Australian ballet 1939-1961", "work_id": 91512, "role": "production company", "role_id": 941, "is_primary": true}, {"id": 863814, "title": "ABN: the library without walls (TEFC)", "work_id": 77506, "role": "production company", "role_id": 941, "is_primary": true}, {"id": 2328620, "title": "The Australian ballet: opening act 1962-1972", "work_id": 94069, "role": "production company", "role_id": 941, "is_primary": true}, {"id": 2329342, "title": "The Ballets Russes in Australia: an avalanche of dancing", "work_id": 87691, "role": "production company", "role_id": 941, "is_primary": true}], "also_known_as": "", "date_of_birth": "", "date_of_death": "", "genders": [], "languages": [], "places_of_operation": [], "biography": "", "biography_author": null, "date_of_biography": "2023-05-09T19:23:29.670366+10:00", "external_links": [], "uuid": "bac195c1-9e05-48a5-b6c5-febe9e3258d1", "source": {"name": "Vernon", "slug": "vernon"}, "source_identifier": "898", "external_references": [{"id": 33204, "source": {"name": "Wikidata", "slug": "wikidata"}, "source_identifier": "Q623578"}], "date_modified": "2023-09-05T23:26:08.304388+10:00"}, {"id": 10183, "name": "Andrew Pike", "roles_in_work": [{"id": 2096312, "title": "Angels of war", "work_id": 78368, "role": "co-director", "role_id": 959, "is_primary": true}, {"id": 2096308, "title": "Angels of war", "work_id": 78368, "role": "producer", "role_id": 1089, "is_primary": true}], "also_known_as": "", "date_of_birth": "", "date_of_death": "", "genders": [], "languages": [], "places_of_operation": [], "biography": "", "biography_author": null, "date_of_biography": "2023-05-09T12:24:28.487074+10:00", "external_links": [], "uuid": "c1e0f37f-0a36-4da4-a18b-21a37757c743", "source": {"name": "Vernon", "slug": "vernon"}, "source_identifier": "49", "external_references": [{"id": 38552, "source": {"name": "Wikidata", "slug": "wikidata"}, "source_identifier": "Q121034342"}], "date_modified": "2023-09-05T17:36:38.149259+10:00"}, {"id": 10175, "name": "National Film and Sound Archive of Australia", "roles_in_work": [{"id": 2717244, "title": "\"War Pictures\": Australians at the Cinema 1914-1918", "work_id": 120194, "role": "collaborator", "role_id": 536, "is_primary": false}, {"id": 1939661, "title": "My Survival as an Aboriginal", "work_id": 121858, "role": "lender", "role_id": 626, "is_primary": false}, {"id": 2514675, "title": "Acropolis Now promotional coffee cup, saucer and side plate", "work_id": 107634, "role": "lender", "role_id": 626, "is_primary": false}, {"id": 2195999, "title": "Doc: a Portrait of Herbert Vere Evatt, 1894-1965", "work_id": 85415, "role": "production company", "role_id": 941, "is_primary": true}, {"id": 2615990, "title": "Queensland's first films 1895-1910", "work_id": 86521, "role": "production company", "role_id": 941, "is_primary": true}, {"id": 2615357, "title": "Blue Mountains: moving memories: 1920's - 1970's", "work_id": 85347, "role": "production company", "role_id": 941, "is_primary": true}, {"id": 2649771, "title": "On Sacred Ground", "work_id": 82175, "role": "production company", "role_id": 941, "is_primary": true}, {"id": 2651558, "title": "The Story of the Kelly Gang [fragments with commentary]", "work_id": 116782, "role": "production company", "role_id": 941, "is_primary": true}, {"id": 2754886, "title": "Federation films: Australian films from early 20th century", "work_id": 99411, "role": "production company", "role_id": 941, "is_primary": true}, {"id": 818202, "title": "Clarence River district: moving memories 1920s-1970s", "work_id": 94053, "role": "production company", "role_id": 941, "is_primary": true}, {"id": 2392756, "title": "Journey of a Nation", "work_id": 95674, "role": "production company", "role_id": 941, "is_primary": true}, {"id": 2318270, "title": "Sun, surf and sand", "work_id": 90563, "role": "production company", "role_id": 941, "is_primary": true}, {"id": 2249756, "title": "Rewind, tape 2 eps. 14-26", "work_id": 89806, "role": "production company", "role_id": 941, "is_primary": true}, {"id": 2249728, "title": "Rewind - tape 1 eps. 1-13", "work_id": 89805, "role": "production company", "role_id": 941, "is_primary": true}, {"id": 2236613, "title": "Rats in the Ranks", "work_id": 85419, "role": "production company", "role_id": 941, "is_primary": true}, {"id": 818090, "title": "Keepin' silent", "work_id": 94024, "role": "production company", "role_id": 941, "is_primary": true}, {"id": 2102412, "title": "At the front: 1939-1945", "work_id": 85003, "role": "production company", "role_id": 941, "is_primary": true}, {"id": 793395, "title": "Western Australia's moving memories...", "work_id": 86522, "role": "production company", "role_id": 941, "is_primary": true}, {"id": 793367, "title": "Women of the silent era : Virgins, vamps and heroines", "work_id": 86511, "role": "production company", "role_id": 941, "is_primary": true}, {"id": 793362, "title": "Skeletons in our closet", "work_id": 86509, "role": "production company", "role_id": 941, "is_primary": true}, {"id": 787887, "title": "Home front: 1939-1945", "work_id": 85002, "role": "production company", "role_id": 941, "is_primary": true}, {"id": 793378, "title": "The Talkies : Australians at the movies 1930s style", "work_id": 86516, "role": "production company", "role_id": 941, "is_primary": true}, {"id": 2348798, "title": "The Floating Brothel", "work_id": 95583, "role": "production company", "role_id": 941, "is_primary": true}, {"id": 793380, "title": "Bail up! The Bushranger on Australia's silent screen (1906-1928)", "work_id": 86517, "role": "production company", "role_id": 941, "is_primary": true}, {"id": 2122781, "title": "Boro's ballet: the making of an Australian ballet 1939-1961", "work_id": 91512, "role": "production company", "role_id": 941, "is_primary": true}, {"id": 793369, "title": "Geelong and district : Moving memories 1911 - 1950s", "work_id": 86512, "role": "production company", "role_id": 941, "is_primary": true}, {"id": 2321068, "title": "Sydney city life: 1899-1948", "work_id": 85001, "role": "production company", "role_id": 941, "is_primary": true}, {"id": 793373, "title": "Great Australian disasters of the 20th century", "work_id": 86514, "role": "production company", "role_id": 941, "is_primary": true}, {"id": 793376, "title": "Melbourne : films of the fifties", "work_id": 86515, "role": "production company", "role_id": 941, "is_primary": true}, {"id": 783813, "title": "Newsreel Nostalgia", "work_id": 83897, "role": "production company", "role_id": 941, "is_primary": true}, {"id": 2043595, "title": "The Woman Suffers", "work_id": 86518, "role": "production company", "role_id": 941, "is_primary": true}, {"id": 1427443, "title": "Fashion daze : Australian style on the catwalk 1910s-1970s", "work_id": 86513, "role": "production company", "role_id": 941, "is_primary": true}, {"id": 2615988, "title": "Border images: Albury-Wodonga 1920s-1970s", "work_id": 86520, "role": "production company", "role_id": 941, "is_primary": true}, {"id": 2329339, "title": "The Ballets Russes in Australia: an avalanche of dancing", "work_id": 87691, "role": "production company", "role_id": 941, "is_primary": true}, {"id": 1932419, "title": "The Dreaming reels. Vol. 2", "work_id": 94045, "role": "production company", "role_id": 941, "is_primary": true}, {"id": 907661, "title": "Our century: invaders", "work_id": 88126, "role": "production company", "role_id": 941, "is_primary": true}, {"id": 790208, "title": "VFL on film 1909-1945: Marking time. - Vol. 1.", "work_id": 85595, "role": "production company", "role_id": 941, "is_primary": true}, {"id": 790211, "title": "VFL on film 1946-1982: Marking time. - Vol. 2", "work_id": 85596, "role": "production company", "role_id": 941, "is_primary": true}, {"id": 2043291, "title": "Living Melbourne 1896-1910", "work_id": 79951, "role": "production company", "role_id": 941, "is_primary": true}, {"id": 2336415, "title": "The Celluloid heroes: 1896-1996 Celebrating 100 years of Australian Cinema. - Vol. 1.", "work_id": 84902, "role": "production company", "role_id": 941, "is_primary": true}, {"id": 1932417, "title": "The Dreaming reels. Vol. 1", "work_id": 94044, "role": "production company", "role_id": 941, "is_primary": true}, {"id": 790629, "title": "The Game is up!", "work_id": 85689, "role": "production company", "role_id": 941, "is_primary": true}, {"id": 2336637, "title": "The Celluloid heroes: 1896-1996 Celebrating 100 years of Australian Cinema. - Vol. 2.", "work_id": 84903, "role": "production company", "role_id": 941, "is_primary": true}, {"id": 2250790, "title": "Riverboats remembered: Murray paddlesteamers on film 1920's-1970's", "work_id": 85226, "role": "production company", "role_id": 941, "is_primary": true}, {"id": 864971, "title": "The Gossips", "work_id": 78484, "role": "production company", "role_id": 941, "is_primary": true}, {"id": 2100556, "title": "Around the boree log (1925)", "work_id": 87689, "role": "production company", "role_id": 941, "is_primary": true}], "also_known_as": "", "date_of_birth": "", "date_of_death": "", "genders": [], "languages": [], "places_of_operation": [], "biography": "", "biography_author": null, "date_of_biography": "2023-08-14T13:03:11.690350+10:00", "external_links": [], "uuid": "511fd732-7276-4fda-92af-0809ecba6e83", "source": {"name": "Vernon", "slug": "vernon"}, "source_identifier": "1126", "external_references": [{"id": 41826, "source": {"name": "Wikidata", "slug": "wikidata"}, "source_identifier": "Q121314986"}], "date_modified": "2025-03-13T01:52:52.127551+11:00"}, {"id": 10174, "name": "Ken Berryman", "roles_in_work": [{"id": 3084619, "title": "Bayside reflections: Port Phillip Bay on film", "work_id": 115594, "role": "producer", "role_id": 1089, "is_primary": true}, {"id": 3084615, "title": "The Top end", "work_id": 93152, "role": "producer", "role_id": 1089, "is_primary": true}, {"id": 1814722, "title": "VFL on film 1909-1945: Marking time. - Vol. 1.", "work_id": 85595, "role": "producer", "role_id": 1089, "is_primary": true}, {"id": 1814723, "title": "VFL on film 1946-1982: Marking time. - Vol. 2", "work_id": 85596, "role": "producer", "role_id": 1089, "is_primary": true}, {"id": 2250794, "title": "Riverboats remembered: Murray paddlesteamers on film 1920's-1970's", "work_id": 85226, "role": "producer", "role_id": 1089, "is_primary": true}, {"id": 3084612, "title": "The Southern portion", "work_id": 92502, "role": "producer", "role_id": 1089, "is_primary": true}], "also_known_as": "", "date_of_birth": "", "date_of_death": "", "genders": [], "languages": [], "places_of_operation": [], "biography": "", "biography_author": null, "date_of_biography": "2023-05-09T17:10:37.964070+10:00", "external_links": [], "uuid": "c5df123b-e8dd-43a0-9aa6-c173b6379719", "source": {"name": "Vernon", "slug": "vernon"}, "source_identifier": "157", "external_references": [{"id": 41987, "source": {"name": "Wikidata", "slug": "wikidata"}, "source_identifier": "Q121040106"}], "date_modified": "2025-03-17T10:37:14.054256+11:00"}, {"id": 10166, "name": "Peter Beilby", "roles_in_work": [{"id": 898569, "title": "A Sense of Direction", "work_id": 78681, "role": "co-producer", "role_id": 915, "is_primary": true}, {"id": 2325383, "title": "That eye, the sky [DVD]", "work_id": 93806, "role": "co-producer", "role_id": 915, "is_primary": true}, {"id": 897983, "title": "Anna (Vietnamese Version)", "work_id": 78027, "role": "co-producer", "role_id": 915, "is_primary": true}, {"id": 897979, "title": "Anna (English version)", "work_id": 78026, "role": "co-producer", "role_id": 915, "is_primary": true}, {"id": 2326478, "title": "That eye, the sky", "work_id": 85421, "role": "co-producer", "role_id": 915, "is_primary": true}, {"id": 2648659, "title": "A Sense of Direction (Captioned)", "work_id": 79702, "role": "co-producer", "role_id": 915, "is_primary": true}, {"id": 897966, "title": "Anna (Turkish Version)", "work_id": 78023, "role": "co-producer", "role_id": 915, "is_primary": true}, {"id": 897963, "title": "Anna (Greek Version)", "work_id": 78022, "role": "co-producer", "role_id": 915, "is_primary": true}, {"id": 897970, "title": "Anna [Italian version]", "work_id": 78024, "role": "co-producer", "role_id": 915, "is_primary": true}, {"id": 897974, "title": "Anna (Turkish)", "work_id": 78025, "role": "co-producer", "role_id": 915, "is_primary": true}, {"id": 897987, "title": "Anna (Arabic Version)", "work_id": 78028, "role": "co-producer", "role_id": 915, "is_primary": true}, {"id": 2297113, "title": "She's a woman: a media portrait", "work_id": 92143, "role": "producer", "role_id": 1089, "is_primary": true}, {"id": 2774794, "title": "Mountains of change", "work_id": 81798, "role": "producer", "role_id": 1089, "is_primary": true}], "also_known_as": "", "date_of_birth": "", "date_of_death": "", "genders": [], "languages": [], "places_of_operation": [], "biography": "", "biography_author": null, "date_of_biography": "2023-05-09T19:23:38.888930+10:00", "external_links": [], "uuid": "70af4c2c-b7d8-4c34-9094-409202339e3c", "source": {"name": "Vernon", "slug": "vernon"}, "source_identifier": "496", "external_references": [], "date_modified": "2025-03-14T18:40:24.087788+11:00"}, {"id": 10138, "name": "Ingmar Bergman", "roles_in_work": [{"id": 2303500, "title": "Smiles of a summer night", "work_id": 86119, "role": "director", "role_id": 938, "is_primary": true}, {"id": 1985191, "title": "The Serpent's Egg", "work_id": 81068, "role": "director", "role_id": 938, "is_primary": true}, {"id": 2227233, "title": "Fanny and Alexander", "work_id": 83155, "role": "director", "role_id": 938, "is_primary": true}, {"id": 2227275, "title": "Fanny and Alexander = Fanny och Alexander", "work_id": 83156, "role": "director", "role_id": 938, "is_primary": true}, {"id": 1990487, "title": "Wild strawberries", "work_id": 86120, "role": "director", "role_id": 938, "is_primary": true}, {"id": 2650398, "title": "Sommaren med Monika = Summer with Monika", "work_id": 115673, "role": "director", "role_id": 938, "is_primary": true}, {"id": 800657, "title": "The Silence = Tystnaden", "work_id": 88726, "role": "director", "role_id": 938, "is_primary": true}, {"id": 2650412, "title": "Smultronstallet = Wild strawberries", "work_id": 115679, "role": "director", "role_id": 938, "is_primary": true}, {"id": 2650494, "title": "Det Sjunde inseglet = The Seventh seal", "work_id": 115713, "role": "director", "role_id": 938, "is_primary": true}, {"id": 2650526, "title": "Sommarnattens leende = Smiles of a summer night", "work_id": 115726, "role": "director", "role_id": 938, "is_primary": true}, {"id": 1999311, "title": "Persona = Diabolic women = Masks [DVD]", "work_id": 94373, "role": "director", "role_id": 938, "is_primary": true}, {"id": 2287755, "title": "Winter light = Nattvardsgarterna", "work_id": 86121, "role": "director", "role_id": 938, "is_primary": true}, {"id": 1994726, "title": "The Devil's eye = Djavulens oga", "work_id": 90513, "role": "director", "role_id": 938, "is_primary": true}, {"id": 792104, "title": "The Magician", "work_id": 86122, "role": "director", "role_id": 938, "is_primary": true}, {"id": 2105375, "title": "Autumn sonata", "work_id": 83105, "role": "director", "role_id": 938, "is_primary": true}, {"id": 2316735, "title": "Summer with Monika = Sommaren med Monika", "work_id": 86124, "role": "director", "role_id": 938, "is_primary": true}, {"id": 2156392, "title": "Jungfrukallan = The Virgin Spring", "work_id": 86131, "role": "director", "role_id": 938, "is_primary": true}, {"id": 1990522, "title": "Through a glass darkly", "work_id": 86133, "role": "director", "role_id": 938, "is_primary": true}, {"id": 1990456, "title": "The Seventh seal", "work_id": 86106, "role": "director", "role_id": 938, "is_primary": true}, {"id": 2318225, "title": "Summer interlude = Sommarlek", "work_id": 86123, "role": "director", "role_id": 938, "is_primary": true}, {"id": 792091, "title": "Images: my life in film (Text)", "work_id": 86118, "role": "author", "role_id": 943, "is_primary": true}, {"id": 2650401, "title": "Viskingar och rop = Cries and whispers", "work_id": 115674, "role": "producer/director", "role_id": 31, "is_primary": true}, {"id": 2284036, "title": "The Touch", "work_id": 85489, "role": "producer/director", "role_id": 31, "is_primary": true}, {"id": 2263133, "title": "Scenes from a marriage", "work_id": 86132, "role": "producer/director", "role_id": 31, "is_primary": true}, {"id": 2292955, "title": "Torment = Hets", "work_id": 86498, "role": "writer", "role_id": 939, "is_primary": true}, {"id": 2225626, "title": "Faithless = Trolosa [Widescreen]", "work_id": 92613, "role": "writer", "role_id": 939, "is_primary": true}], "also_known_as": "Ernst Ingmar Bergman", "date_of_birth": "1918-07-14", "date_of_death": "2007-07-30", "genders": [{"id": 9, "name": "Male", "slug": "male"}], "languages": [{"id": 5, "name": "German", "slug": "german"}, {"id": 35, "name": "Swedish", "slug": "swedish"}], "places_of_operation": [{"id": 43, "name": "Sweden", "slug": "sweden"}], "biography": "Ernst Ingmar Bergman (14 July 1918 – 30 July 2007) was a Swedish film director, screenwriter, producer and playwright. Widely considered one of the most accomplished and influential filmmakers of all time, Bergman's films are known as \"profoundly personal meditations into the myriad struggles facing the psyche and the soul.\"Bergman directed more than 60 films and documentaries for cinematic release and for television screenings, most of which he also wrote. His theatrical career continued in parallel and included periods as Leading Director of the Royal Dramatic Theatre in Stockholm and of the Residenztheater in Munich. He directed more than 170 plays. He forged a creative partnership with his cinematographers Gunnar Fischer and Sven Nykvist. Among his company of actors were Harriet Andersson, Bibi Andersson, Liv Ullmann, Gunnar Björnstrand, Erland Josephson, Ingrid Thulin, and Max von Sydow. Most of his films were set in Sweden, and many films from Through a Glass Darkly (1961) onward were filmed on the island of Fårö.\nPhilip French referred to Bergman as \"one of the greatest artists of the 20th century ... he found in literature and the performing arts a way of both recreating and questioning the human condition.\" Director Martin Scorsese commented that \"it's impossible to overestimate the effect that [his] films had on people.\" Bergman was ranked 8th in director's poll on Sight & Sound's 2002 list of The Greatest Directors of All Time.", "biography_author": "Wikidata", "date_of_biography": "2022-05-19T11:47:43.712700+10:00", "external_links": [{"id": 2260, "uri": "https://en.wikipedia.org/wiki/Ingmar_Bergman"}], "uuid": "4261ee1e-812c-4e6b-a75e-63375e23ae88", "source": {"name": "Vernon", "slug": "vernon"}, "source_identifier": "255", "external_references": [{"id": 9706, "source": {"name": "Wikidata", "slug": "wikidata"}, "source_identifier": "Q7546"}, {"id": 9707, "source": {"name": "VIAF", "slug": "viaf"}, "source_identifier": "110097018"}, {"id": 9708, "source": {"name": "LOC Auth", "slug": "loc-auth"}, "source_identifier": "n79054388"}, {"id": 9709, "source": {"name": "WorldCat", "slug": "worldcat"}, "source_identifier": "lccn-n79054388"}], "date_modified": "2025-03-05T14:20:53.936950+11:00"}, {"id": 10134, "name": "Neil Jordan", "roles_in_work": [{"id": 904745, "title": "Interview with a vampire: the vampire chronicles (S)", "work_id": 85582, "role": "director", "role_id": 938, "is_primary": true}], "also_known_as": "Neil Patrick Jordan", "date_of_birth": "1950-02-25", "date_of_death": null, "genders": [{"id": 9, "name": "Male", "slug": "male"}], "languages": [{"id": 1, "name": "English", "slug": "english"}], "places_of_operation": [{"id": 294, "name": "Republic of Ireland", "slug": "republic-of-ireland"}], "biography": "Neil Patrick Jordan (born 25 February 1950) is an Irish film director, screenwriter, novelist and short-story writer. His first book, Night in Tunisia, won a Somerset Maugham Award and the Guardian Fiction Prize in 1979. He won an Academy Award (Best Original Screenplay) for The Crying Game (1992). He has also won three Irish Film and Television Awards, as well as the Golden Lion at the Venice International Film Festival for Michael Collins (1996) and the Silver Bear for Best Director at the Berlin International Film Festival for The Butcher Boy (1997).\nJordan also created The Borgias (2011 TV series) for Showtime.", "biography_author": "Wikidata", "date_of_biography": "2022-05-19T12:34:29.562088+10:00", "external_links": [{"id": 2772, "uri": "https://en.wikipedia.org/wiki/Neil_Jordan"}], "uuid": "27c0be07-0f74-4b34-b024-b39a8c3218ba", "source": {"name": "Vernon", "slug": "vernon"}, "source_identifier": "120", "external_references": [{"id": 11810, "source": {"name": "Wikidata", "slug": "wikidata"}, "source_identifier": "Q55428"}, {"id": 11811, "source": {"name": "VIAF", "slug": "viaf"}, "source_identifier": "85368254"}, {"id": 11812, "source": {"name": "LOC Auth", "slug": "loc-auth"}, "source_identifier": "n79138918"}, {"id": 11813, "source": {"name": "WorldCat", "slug": "worldcat"}, "source_identifier": "lccn-n79138918"}], "date_modified": "2023-09-13T12:31:35.458346+10:00"}, {"id": 10132, "name": "Ian Irvine", "roles_in_work": [{"id": 2639921, "title": "Splintered", "work_id": 110558, "role": "writer", "role_id": 939, "is_primary": true}], "also_known_as": "", "date_of_birth": null, "date_of_death": null, "genders": [], "languages": [], "places_of_operation": [], "biography": "", "biography_author": null, "date_of_biography": null, "external_links": [], "uuid": "49faf0f9-7bc5-43a6-9adc-1e79ab73e026", "source": {"name": "Vernon", "slug": "vernon"}, "source_identifier": "449", "external_references": [], "date_modified": "2025-03-05T11:24:52.269720+11:00"}, {"id": 10107, "name": "Shane Meadows", "roles_in_work": [{"id": 2073184, "title": "A room for Romeo Brass", "work_id": 95063, "role": "director", "role_id": 938, "is_primary": true}, {"id": 2283231, "title": "TwentyFourSeven = 24 7", "work_id": 95061, "role": "director", "role_id": 938, "is_primary": true}], "also_known_as": "", "date_of_birth": "1972-12-26", "date_of_death": "", "genders": [{"id": 9, "name": "Male", "slug": "male"}], "languages": [{"id": 1, "name": "English", "slug": "english"}], "places_of_operation": [{"id": 10, "name": "United Kingdom", "slug": "united-kingdom"}], "biography": "Shane Meadows (born 26 December 1972) is an English director, screenwriter and actor, known for his work in independent film, most notably the cult film This Is England  (2006) and its three sequels (2010–2015).\nMeadows' other films include Small Time (1996), Twenty Four Seven (1997), A Room for Romeo Brass (1999), Once Upon a Time in the Midlands (2002), Dead Man's Shoes (2004), Somers Town (2006), Le Donk & Scor-zay-zee (2009), and The Stone Roses: Made of Stone (2013).", "biography_author": "Wikidata", "date_of_biography": "2023-08-01T17:03:26.038735+10:00", "external_links": [{"id": 5149, "uri": "https://en.wikipedia.org/wiki/Shane_Meadows"}], "uuid": "8d6f7e51-13b4-4ddd-82aa-e05a94a38f6f", "source": {"name": "Vernon", "slug": "vernon"}, "source_identifier": "4", "external_references": [{"id": 26747, "source": {"name": "Wikidata", "slug": "wikidata"}, "source_identifier": "Q1372134"}, {"id": 31486, "source": {"name": "VIAF", "slug": "viaf"}, "source_identifier": "89928276"}, {"id": 31487, "source": {"name": "LOC Auth", "slug": "loc-auth"}, "source_identifier": "no2009180626"}, {"id": 31488, "source": {"name": "WorldCat", "slug": "worldcat"}, "source_identifier": "lccn-no2009180626"}], "date_modified": "2023-09-06T01:12:57.767239+10:00"}, {"id": 10105, "name": "Allison Anders", "roles_in_work": [{"id": 2157461, "title": "My crazy life = Mi vida loca", "work_id": 91859, "role": "director", "role_id": 938, "is_primary": true}, {"id": 1996222, "title": "Grace of my heart", "work_id": 92537, "role": "director", "role_id": 938, "is_primary": true}, {"id": 1995685, "title": "Gas, food lodging", "work_id": 92144, "role": "director", "role_id": 938, "is_primary": true}, {"id": 2316493, "title": "Sugar Town", "work_id": 92394, "role": "co-director", "role_id": 959, "is_primary": true}], "also_known_as": "", "date_of_birth": "1954-11-16", "date_of_death": "", "genders": [{"id": 5, "name": "Female", "slug": "female"}], "languages": [{"id": 1, "name": "English", "slug": "english"}], "places_of_operation": [{"id": 1, "name": "United States of America", "slug": "united-states-of-america"}], "biography": "Allison Anders (born November 16, 1954) is an American independent film director whose films include Gas Food Lodging, Mi Vida Loca and Grace of My Heart. Anders has collaborated with fellow UCLA School of Theater, Film and Television graduate Kurt Voss and has also worked as a television director. Anders' films have been shown at the Cannes International Film Festival and at the Sundance Film Festival. She has been awarded a MacArthur Genius Grant as well as a Peabody Award.", "biography_author": "Wikidata", "date_of_biography": "2023-08-01T14:00:18.958811+10:00", "external_links": [{"id": 1613, "uri": "https://en.wikipedia.org/wiki/Allison_Anders"}], "uuid": "5b413b39-8e16-489b-aa84-0a99ee561d84", "source": {"name": "Vernon", "slug": "vernon"}, "source_identifier": "22", "external_references": [{"id": 7084, "source": {"name": "Wikidata", "slug": "wikidata"}, "source_identifier": "Q2838329"}, {"id": 7085, "source": {"name": "VIAF", "slug": "viaf"}, "source_identifier": "79423134"}, {"id": 7086, "source": {"name": "LOC Auth", "slug": "loc-auth"}, "source_identifier": "n95058837"}, {"id": 7087, "source": {"name": "WorldCat", "slug": "worldcat"}, "source_identifier": "lccn-n95058837"}], "date_modified": "2023-09-05T17:30:22.354180+10:00"}]}