{"count": 28681, "next": "https://api.acmi.net.au/creators/?page=1076", "previous": "https://api.acmi.net.au/creators/?page=1074", "results": [{"id": 74828, "name": "Eric Bierre", "roles_in_work": [{"id": 2715982, "title": "I know what I'm doing", "work_id": 68719, "role": "cinematographer", "role_id": 32, "is_primary": false}], "also_known_as": "", "date_of_birth": null, "date_of_death": null, "genders": [{"id": 9, "name": "Male", "slug": "male"}], "languages": [], "places_of_operation": [], "biography": "", "biography_author": null, "date_of_biography": null, "external_links": [], "uuid": "341daef0-045f-44ed-b4ff-aa8ab4b7ddb9", "source": {"name": "Vernon", "slug": "vernon"}, "source_identifier": "37524", "external_references": [{"id": 41686, "source": {"name": "Wikidata", "slug": "wikidata"}, "source_identifier": "Q121315024"}], "date_modified": "2025-03-12T01:46:42.171624+11:00"}, {"id": 74827, "name": "Neil Munro", "roles_in_work": [{"id": 2132937, "title": "Casey", "work_id": 96317, "role": "co-producers/directors", "role_id": 628, "is_primary": true}, {"id": 2715971, "title": "I have Turkish blood in my body, how can I put it off? (TEFC)", "work_id": 68715, "role": "producer/director", "role_id": 31, "is_primary": true}], "also_known_as": "", "date_of_birth": "", "date_of_death": "", "genders": [], "languages": [], "places_of_operation": [], "biography": "", "biography_author": null, "date_of_biography": "2023-05-09T13:23:20.815349+10:00", "external_links": [], "uuid": "1a1ddf75-72ef-444b-8a7f-30974422caed", "source": {"name": "Vernon", "slug": "vernon"}, "source_identifier": "25680", "external_references": [{"id": 51887, "source": {"name": "Wikidata", "slug": "wikidata"}, "source_identifier": "Q121360676"}], "date_modified": "2025-03-12T01:46:33.664786+11:00"}, {"id": 74826, "name": "Michael McKennirey", "roles_in_work": [{"id": 2757329, "title": "I don't have to work that big", "work_id": 68712, "role": "director", "role_id": 938, "is_primary": true}, {"id": 746998, "title": "The Long view", "work_id": 69884, "role": "director", "role_id": 938, "is_primary": true}, {"id": 2068497, "title": "A Great white bird", "work_id": 76086, "role": "director", "role_id": 938, "is_primary": true}, {"id": 745878, "title": "Keepers of wildlife", "work_id": 69363, "role": "director", "role_id": 938, "is_primary": true}, {"id": 2103624, "title": "Atonement", "work_id": 77859, "role": "director", "role_id": 938, "is_primary": true}, {"id": 2752048, "title": "From the ashes of war", "work_id": 98112, "role": "director", "role_id": 938, "is_primary": true}, {"id": 765881, "title": "Little big top", "work_id": 77979, "role": "director", "role_id": 938, "is_primary": true}, {"id": 897473, "title": "For the love of dance", "work_id": 77549, "role": "co-director", "role_id": 959, "is_primary": true}, {"id": 2716074, "title": "I'll go again", "work_id": 68760, "role": "co-producer", "role_id": 915, "is_primary": true}, {"id": 897468, "title": "For the love of dance", "work_id": 77549, "role": "co-producer", "role_id": 915, "is_primary": true}, {"id": 2114293, "title": "Beyond kicks", "work_id": 77862, "role": "co-producer", "role_id": 915, "is_primary": true}, {"id": 2244529, "title": "Flora: scenes from a leadership convention", "work_id": 88889, "role": "co-producer", "role_id": 915, "is_primary": true}, {"id": 908435, "title": "Healing", "work_id": 88888, "role": "co-producer", "role_id": 915, "is_primary": true}, {"id": 2340417, "title": "The Conquered dream", "work_id": 75773, "role": "co-producer", "role_id": 915, "is_primary": true}, {"id": 2220801, "title": "Eskimo winter", "work_id": 71459, "role": "co-producer", "role_id": 915, "is_primary": true}, {"id": 2243585, "title": "Flash William", "work_id": 78059, "role": "co-producer", "role_id": 915, "is_primary": true}, {"id": 904750, "title": "Has anybody here seen Canada?", "work_id": 85587, "role": "co-producer", "role_id": 915, "is_primary": true}, {"id": 2220837, "title": "Eskimo summer", "work_id": 71458, "role": "co-producer", "role_id": 915, "is_primary": true}, {"id": 905061, "title": "Gala", "work_id": 85826, "role": "co-producers/directors", "role_id": 628, "is_primary": true}], "also_known_as": "", "date_of_birth": "", "date_of_death": "", "genders": [], "languages": [], "places_of_operation": [], "biography": "", "biography_author": null, "date_of_biography": "2023-05-09T19:38:44.020035+10:00", "external_links": [], "uuid": "b857809b-3905-4f80-8ef7-0fe14ee48f00", "source": {"name": "Vernon", "slug": "vernon"}, "source_identifier": "25377", "external_references": [], "date_modified": "2025-03-13T14:45:04.019803+11:00"}, {"id": 74825, "name": "Nils Rasmussen", "roles_in_work": [{"id": 2715910, "title": "Hunters of the North Pole", "work_id": 68682, "role": "director", "role_id": 938, "is_primary": true}], "also_known_as": "", "date_of_birth": null, "date_of_death": null, "genders": [], "languages": [], "places_of_operation": [], "biography": "", "biography_author": null, "date_of_biography": null, "external_links": [], "uuid": "4e56c408-08be-406d-babe-942d90a58d7b", "source": {"name": "Vernon", "slug": "vernon"}, "source_identifier": "25831", "external_references": [{"id": 32689, "source": {"name": "Wikidata", "slug": "wikidata"}, "source_identifier": "Q121270910"}], "date_modified": "2025-03-12T01:45:50.593605+11:00"}, {"id": 74824, "name": "Robert McIntosh", "roles_in_work": [{"id": 2756679, "title": "The Human factor", "work_id": 68667, "role": "director", "role_id": 938, "is_primary": true}], "also_known_as": "", "date_of_birth": "", "date_of_death": "", "genders": [], "languages": [], "places_of_operation": [], "biography": "", "biography_author": null, "date_of_biography": "2023-05-09T20:02:52.078964+10:00", "external_links": [], "uuid": "2c215a18-0dcf-4407-9901-1b09ed88ea83", "source": {"name": "Vernon", "slug": "vernon"}, "source_identifier": "27831", "external_references": [{"id": 43464, "source": {"name": "Wikidata", "slug": "wikidata"}, "source_identifier": "Q121270701"}], "date_modified": "2025-03-13T14:41:14.547299+11:00"}, {"id": 74823, "name": "Helen Gaynor", "roles_in_work": [{"id": 2144709, "title": "Coping with death", "work_id": 91614, "role": "co-producer", "role_id": 915, "is_primary": true}, {"id": 2144770, "title": "Nursing is tough", "work_id": 91612, "role": "co-producer", "role_id": 915, "is_primary": true}, {"id": 2144791, "title": "Work around the clock", "work_id": 91613, "role": "co-producer", "role_id": 915, "is_primary": true}, {"id": 2144730, "title": "Is there life after death?", "work_id": 91615, "role": "co-producer", "role_id": 915, "is_primary": true}, {"id": 2144751, "title": "Nurses", "work_id": 115555, "role": "co-producer", "role_id": 915, "is_primary": true}, {"id": 879832, "title": "Impunidad", "work_id": 92090, "role": "producer/director", "role_id": 31, "is_primary": true}, {"id": 2292956, "title": "The Trombonist", "work_id": 78031, "role": "producer/director", "role_id": 31, "is_primary": true}, {"id": 2715869, "title": "Howling at the moon", "work_id": 68661, "role": "producer/director", "role_id": 31, "is_primary": true}], "also_known_as": "", "date_of_birth": "", "date_of_death": "", "genders": [], "languages": [], "places_of_operation": [], "biography": "", "biography_author": null, "date_of_biography": "2023-05-09T18:22:46.443357+10:00", "external_links": [], "uuid": "6d28acfb-8a79-4781-bf64-1b467e357f67", "source": {"name": "Vernon", "slug": "vernon"}, "source_identifier": "20426", "external_references": [{"id": 33400, "source": {"name": "Wikidata", "slug": "wikidata"}, "source_identifier": "Q121036801"}], "date_modified": "2025-03-12T01:45:13.038635+11:00"}, {"id": 74822, "name": "Lawrence Ravitz", "roles_in_work": [{"id": 2715867, "title": "How will we know it's us?", "work_id": 68659, "role": "producer/director", "role_id": 31, "is_primary": true}], "also_known_as": "", "date_of_birth": null, "date_of_death": null, "genders": [], "languages": [], "places_of_operation": [], "biography": "", "biography_author": null, "date_of_biography": null, "external_links": [], "uuid": "93cb9022-c1e6-49c2-9945-e9c7351bed3d", "source": {"name": "Vernon", "slug": "vernon"}, "source_identifier": "23595", "external_references": [{"id": 50918, "source": {"name": "Wikidata", "slug": "wikidata"}, "source_identifier": "Q121360589"}], "date_modified": "2025-03-12T01:45:11.615956+11:00"}, {"id": 74821, "name": "Mimi Warshaw", "roles_in_work": [{"id": 2303617, "title": "Smoke screen", "work_id": 72915, "role": "co-director", "role_id": 959, "is_primary": true}, {"id": 2715831, "title": "How to make a movie without a camera", "work_id": 68643, "role": "co-producer", "role_id": 915, "is_primary": true}], "also_known_as": "", "date_of_birth": "", "date_of_death": "", "genders": [], "languages": [], "places_of_operation": [], "biography": "", "biography_author": null, "date_of_biography": "2023-05-09T18:41:24.370756+10:00", "external_links": [], "uuid": "31b2c98f-8b7a-4651-a7c2-9cb3048567b7", "source": {"name": "Vernon", "slug": "vernon"}, "source_identifier": "4270", "external_references": [{"id": 35522, "source": {"name": "Wikidata", "slug": "wikidata"}, "source_identifier": "Q121036908"}], "date_modified": "2025-03-12T01:42:18.449302+11:00"}, {"id": 74820, "name": "Mick Csaky", "roles_in_work": [{"id": 2208637, "title": "Playing the environment game", "work_id": 76866, "role": "producer/director", "role_id": 31, "is_primary": true}, {"id": 2645113, "title": "How does it feel?", "work_id": 68601, "role": "producer/director", "role_id": 31, "is_primary": true}], "also_known_as": "", "date_of_birth": "", "date_of_death": "", "genders": [], "languages": [], "places_of_operation": [], "biography": "", "biography_author": null, "date_of_biography": "2023-05-09T15:40:30.573522+10:00", "external_links": [], "uuid": "9f89643c-232c-4fd2-bce6-2a8e38f3685f", "source": {"name": "Vernon", "slug": "vernon"}, "source_identifier": "25320", "external_references": [{"id": 51937, "source": {"name": "Wikidata", "slug": "wikidata"}, "source_identifier": "Q121360934"}], "date_modified": "2025-03-05T12:32:22.254217+11:00"}, {"id": 74819, "name": "Donald Wise", "roles_in_work": [{"id": 2715758, "title": "How does a rainbow feel?", "work_id": 68600, "role": "co-producer", "role_id": 915, "is_primary": true}], "also_known_as": "", "date_of_birth": null, "date_of_death": null, "genders": [], "languages": [], "places_of_operation": [], "biography": "", "biography_author": null, "date_of_biography": null, "external_links": [], "uuid": "fa10f6b8-0e8f-4ae0-8424-15d96d12fe32", "source": {"name": "Vernon", "slug": "vernon"}, "source_identifier": "18322", "external_references": [{"id": 34515, "source": {"name": "Wikidata", "slug": "wikidata"}, "source_identifier": "Q121298744"}], "date_modified": "2025-03-12T01:41:23.258144+11:00"}]}