{"count": 28687, "next": "https://api.acmi.net.au/creators/?page=2419", "previous": "https://api.acmi.net.au/creators/?page=2417", "results": [{"id": 14932, "name": "Jeni Thornley", "roles_in_work": [{"id": 2713599, "title": "A Film for Discussion", "work_id": 67488, "role": "creator", "role_id": 968, "is_primary": true}, {"id": 2713600, "title": "A Film for Discussion", "work_id": 67488, "role": "cast", "role_id": 33, "is_primary": false}, {"id": 2648165, "title": "For love or money: a history of women and work in Australia", "work_id": 78420, "role": "co-director", "role_id": 959, "is_primary": true}, {"id": 2648163, "title": "For love or money: a history of women and work in Australia", "work_id": 78420, "role": "co-producer", "role_id": 915, "is_primary": true}, {"id": 781733, "title": "Maidens", "work_id": 83242, "role": "producer/director", "role_id": 31, "is_primary": true}], "also_known_as": "", "date_of_birth": null, "date_of_death": null, "genders": [{"id": 5, "name": "Female", "slug": "female"}], "languages": [], "places_of_operation": [{"id": 3, "name": "Australia", "slug": "australia"}], "biography": "Jeni Thornley (born 1948) is an Australian feminist documentary filmmaker, writer, film valuer and research associate at University of Technology, Sydney. Since leaving her job as Manager of the Women's Film Fund at the Australian Film Commission in 1986, Thornley has worked as an independent writer, director and producer at Anandi Films. She has fulfilled teaching roles at UTS and the Australian School for Film and Television. Thornley is currently an Honorary Research Associate in the Faculty of Arts and Social Sciences at UTS. She is also a consultant film valuer for the Cultural Gifts Program, Dept of Communications and the Arts.", "biography_author": "Wikidata", "date_of_biography": "2023-08-01T15:29:29.919455+10:00", "external_links": [{"id": 4314, "uri": "https://en.wikipedia.org/wiki/Jeni_Thornley"}], "uuid": "ae26ffd4-60fc-46b5-bfd5-be4f25fad98e", "source": {"name": "Vernon", "slug": "vernon"}, "source_identifier": "21692", "external_references": [{"id": 26578, "source": {"name": "Wikidata", "slug": "wikidata"}, "source_identifier": "Q43387642"}, {"id": 29335, "source": {"name": "VIAF", "slug": "viaf"}, "source_identifier": "75463557"}, {"id": 29336, "source": {"name": "LOC Auth", "slug": "loc-auth"}, "source_identifier": "n89658649"}, {"id": 29337, "source": {"name": "WorldCat", "slug": "worldcat"}, "source_identifier": "lccn-n89658649"}], "date_modified": "2025-03-12T00:47:26.106175+11:00"}, {"id": 14931, "name": "Martha Ansara", "roles_in_work": [{"id": 2135031, "title": "Changing the needle", "work_id": 77473, "role": "director", "role_id": 938, "is_primary": true}, {"id": 3110523, "title": "Tit for tat [Censored version]", "work_id": 82928, "role": "director", "role_id": 938, "is_primary": true}, {"id": 2495519, "title": "The Ballad of Betty and Joe", "work_id": 122456, "role": "director", "role_id": 938, "is_primary": true}, {"id": 2495667, "title": "Always Was Always Will Be", "work_id": 122457, "role": "creator", "role_id": 968, "is_primary": true}, {"id": 2713598, "title": "A Film for Discussion", "work_id": 67488, "role": "creator", "role_id": 968, "is_primary": true}, {"id": 2243707, "title": "Flamingo Park", "work_id": 75324, "role": "cinematographer", "role_id": 32, "is_primary": false}, {"id": 3108237, "title": "Roslyn and Blagica: everybody needs a friend", "work_id": 72350, "role": "cinematographer", "role_id": 32, "is_primary": false}, {"id": 2392602, "title": "Mum's the word", "work_id": 78994, "role": "cinematographer", "role_id": 32, "is_primary": false}, {"id": 2135026, "title": "Changing the needle", "work_id": 77473, "role": "co-producer", "role_id": 915, "is_primary": true}, {"id": 1931675, "title": "Robin Campbell: old feller now: memories of a Muruawarri", "work_id": 82140, "role": "co-producer", "role_id": 915, "is_primary": true}, {"id": 1921641, "title": "My life as I live it", "work_id": 121869, "role": "co-producers/directors", "role_id": 628, "is_primary": true}, {"id": 2686417, "title": "Production shot from Essie Coffey’s My Survival as an Aboriginal", "work_id": 107541, "role": "creator", "role_id": 968, "is_primary": true}, {"id": 2495507, "title": "I Remember 1948", "work_id": 122455, "role": "producer", "role_id": 1089, "is_primary": true}, {"id": 2648393, "title": "My survival as an Aboriginal", "work_id": 79053, "role": "producer", "role_id": 1089, "is_primary": true}, {"id": 2495513, "title": "The Ballad of Betty and Joe", "work_id": 122456, "role": "producer", "role_id": 1089, "is_primary": true}, {"id": 769282, "title": "The Pursuit of happiness", "work_id": 79286, "role": "producer/director", "role_id": 31, "is_primary": true}, {"id": 2495517, "title": "The Ballad of Betty and Joe", "work_id": 122456, "role": "writer", "role_id": 939, "is_primary": true}], "also_known_as": "", "date_of_birth": "1942-09-09", "date_of_death": null, "genders": [{"id": 5, "name": "Female", "slug": "female"}], "languages": [{"id": 1, "name": "English", "slug": "english"}], "places_of_operation": [{"id": 3, "name": "Australia", "slug": "australia"}], "biography": "Martha Ansara (born 9 September 1942) is a documentary filmmaker whose films on social issues have won international prizes and been screened in Australia, the UK, Europe and North America. Ansara was one of the first women in Australia to work as a cinematographer, is a full member of the Australian Cinematographers Society (ACS) and was inducted into the ACS Hall of Fame in 2015. Martha is a Life Member of the Australian Directors Guild and a founding member of Ozdox, the Australian Documentary Forum. She has also worked as a film lecturer and film writer and has been active in the trade union, women's and peace movements.", "biography_author": "Wikidata", "date_of_biography": "2023-09-05T22:48:30+10:00", "external_links": [{"id": 6009, "uri": "https://en.wikipedia.org/wiki/Martha_Ansara"}], "uuid": "68e2607d-7351-4fc1-bfe5-258f236e4612", "source": {"name": "Vernon", "slug": "vernon"}, "source_identifier": "24601", "external_references": [{"id": 34743, "source": {"name": "Wikidata", "slug": "wikidata"}, "source_identifier": "Q6774325"}, {"id": 55191, "source": {"name": "VIAF", "slug": "viaf"}, "source_identifier": "294968186"}, {"id": 55192, "source": {"name": "LOC Auth", "slug": "loc-auth"}, "source_identifier": "no2017023387"}, {"id": 55193, "source": {"name": "WorldCat", "slug": "worldcat"}, "source_identifier": "viaf-294968186"}], "date_modified": "2026-03-30T10:09:46.255202+11:00"}, {"id": 14930, "name": "Sydney Women's Film Group", "roles_in_work": [{"id": 2713597, "title": "A Film for Discussion", "work_id": 67488, "role": "production company", "role_id": 941, "is_primary": true}], "also_known_as": "", "date_of_birth": null, "date_of_death": null, "genders": [], "languages": [], "places_of_operation": [], "biography": "", "biography_author": null, "date_of_biography": null, "external_links": [], "uuid": "36ea5149-142d-4094-907c-db8f8c676bdd", "source": {"name": "Vernon", "slug": "vernon"}, "source_identifier": "13110", "external_references": [], "date_modified": "2025-03-12T00:47:24.245025+11:00"}, {"id": 14929, "name": "Gregstan Enterprises", "roles_in_work": [{"id": 2749179, "title": "The Black pirate. - [Edited version]", "work_id": 96678, "role": "production company", "role_id": 941, "is_primary": true}, {"id": 2750278, "title": "The Son of the Sheik. - [Edited version]", "work_id": 97232, "role": "production company", "role_id": 941, "is_primary": true}, {"id": 2713594, "title": "Film firsts. Pt. 2", "work_id": 67487, "role": "production company", "role_id": 941, "is_primary": true}, {"id": 2713591, "title": "Film firsts. Pt. 1", "work_id": 67486, "role": "production company", "role_id": 941, "is_primary": true}, {"id": 1543662, "title": "The Thief of Baghdad. - [Edited version]", "work_id": 95524, "role": "production company", "role_id": 941, "is_primary": true}], "also_known_as": "", "date_of_birth": null, "date_of_death": null, "genders": [], "languages": [], "places_of_operation": [], "biography": "", "biography_author": null, "date_of_biography": null, "external_links": [], "uuid": "3b68d4c4-8af6-4c39-b8a6-3d5986c21740", "source": {"name": "Vernon", "slug": "vernon"}, "source_identifier": "8903", "external_references": [], "date_modified": "2025-03-13T00:17:34.269590+11:00"}, {"id": 14928, "name": "Newton Creative Arts Center", "roles_in_work": [{"id": 2713590, "title": "The Film farm", "work_id": 67485, "role": "production company", "role_id": 941, "is_primary": true}, {"id": 2748719, "title": "[Plum pudding: a collection of 8 short animated films]", "work_id": 96422, "role": "production company", "role_id": 941, "is_primary": true}, {"id": 863447, "title": "Rainbow reel", "work_id": 77204, "role": "production company", "role_id": 941, "is_primary": true}, {"id": 863449, "title": "The Newton mini-films", "work_id": 77205, "role": "production company", "role_id": 941, "is_primary": true}], "also_known_as": "", "date_of_birth": "", "date_of_death": "", "genders": [], "languages": [], "places_of_operation": [], "biography": "", "biography_author": null, "date_of_biography": "2023-08-11T12:39:04.669213+10:00", "external_links": [], "uuid": "60a5aa46-4a13-44c8-8b99-28f1b3d2c757", "source": {"name": "Vernon", "slug": "vernon"}, "source_identifier": "10947", "external_references": [], "date_modified": "2025-03-12T23:40:06.384568+11:00"}, {"id": 14927, "name": "Rodney Charters", "roles_in_work": [{"id": 817932, "title": "24 = Twenty-four Season one [DVD]", "work_id": 93990, "role": "director", "role_id": 938, "is_primary": true}, {"id": 2713589, "title": "Film exercise", "work_id": 67484, "role": "producer/director", "role_id": 31, "is_primary": true}], "also_known_as": "", "date_of_birth": "", "date_of_death": "", "genders": [], "languages": [], "places_of_operation": [], "biography": "", "biography_author": null, "date_of_biography": "2023-08-11T16:37:33.973047+10:00", "external_links": [], "uuid": "9c101b92-65a4-484e-8f5c-adf572b4b440", "source": {"name": "Vernon", "slug": "vernon"}, "source_identifier": "28010", "external_references": [], "date_modified": "2025-03-12T00:47:16.820720+11:00"}, {"id": 14926, "name": "University of Auckland. School of Fine Arts", "roles_in_work": [{"id": 2713588, "title": "Film exercise", "work_id": 67484, "role": "production company", "role_id": 941, "is_primary": true}], "also_known_as": "", "date_of_birth": "", "date_of_death": "", "genders": [], "languages": [], "places_of_operation": [], "biography": "", "biography_author": null, "date_of_biography": "2023-08-11T16:37:33.304005+10:00", "external_links": [], "uuid": "736cd51d-ed6d-430b-befc-977713ae85dc", "source": {"name": "Vernon", "slug": "vernon"}, "source_identifier": "13909", "external_references": [], "date_modified": "2025-03-12T00:47:16.226876+11:00"}, {"id": 14925, "name": "American Cinema Guild", "roles_in_work": [{"id": 2713587, "title": "Film editing: interpretation and evaluation", "work_id": 67483, "role": "production company", "role_id": 941, "is_primary": true}], "also_known_as": "", "date_of_birth": "", "date_of_death": "", "genders": [], "languages": [], "places_of_operation": [], "biography": "", "biography_author": null, "date_of_biography": "2023-08-11T16:37:28.235573+10:00", "external_links": [], "uuid": "87d55b41-4f2a-4811-a927-65572db0da47", "source": {"name": "Vernon", "slug": "vernon"}, "source_identifier": "5191", "external_references": [], "date_modified": "2025-03-12T00:47:15.288528+11:00"}, {"id": 14921, "name": "Henry Cheharbakshi", "roles_in_work": [{"id": 2644787, "title": "A Film about film making", "work_id": 67480, "role": "director", "role_id": 938, "is_primary": true}], "also_known_as": "", "date_of_birth": "", "date_of_death": "", "genders": [], "languages": [], "places_of_operation": [], "biography": "", "biography_author": null, "date_of_biography": "2023-08-11T13:01:27.794154+10:00", "external_links": [], "uuid": "57a27de8-dda8-4ed4-92fd-65b1038a8a0c", "source": {"name": "Vernon", "slug": "vernon"}, "source_identifier": "20479", "external_references": [], "date_modified": "2025-03-05T12:26:15.305290+11:00"}, {"id": 14920, "name": "International Film Bureau Inc", "roles_in_work": [{"id": 862226, "title": "Rubens", "work_id": 76120, "role": "production company", "role_id": 941, "is_primary": true}, {"id": 826448, "title": "Matisse & the Fauves", "work_id": 96349, "role": "production company", "role_id": 941, "is_primary": true}, {"id": 2644786, "title": "A Film about film making", "work_id": 67480, "role": "production company", "role_id": 941, "is_primary": true}, {"id": 2751861, "title": "Birds & their young", "work_id": 98021, "role": "production company", "role_id": 941, "is_primary": true}], "also_known_as": "", "date_of_birth": "", "date_of_death": "", "genders": [], "languages": [], "places_of_operation": [], "biography": "", "biography_author": null, "date_of_biography": "2023-08-11T13:01:27.031322+10:00", "external_links": [], "uuid": "ff6cc676-ecbc-4b6a-a4b7-5ff97dd5e6bc", "source": {"name": "Vernon", "slug": "vernon"}, "source_identifier": "9381", "external_references": [], "date_modified": "2025-03-13T00:52:08.675683+11:00"}]}