{"count": 28687, "next": "https://api.acmi.net.au/creators/?page=1490", "previous": "https://api.acmi.net.au/creators/?page=1488", "results": [{"id": 34371, "name": "David G Productions", "roles_in_work": [{"id": 2135660, "title": "Chess moves", "work_id": 92705, "role": "production company", "role_id": 941, "is_primary": true}], "also_known_as": "", "date_of_birth": "", "date_of_death": "", "genders": [], "languages": [], "places_of_operation": [], "biography": "", "biography_author": null, "date_of_biography": "2023-05-09T13:29:04.386993+10:00", "external_links": [], "uuid": "35083f45-2aea-44f7-a327-11828dc62723", "source": {"name": "Vernon", "slug": "vernon"}, "source_identifier": "7338", "external_references": [{"id": 39977, "source": {"name": "Wikidata", "slug": "wikidata"}, "source_identifier": "Q121271247"}], "date_modified": "2023-09-05T18:57:09.982084+10:00"}, {"id": 34366, "name": "Square Co", "roles_in_work": [{"id": 2240684, "title": "Final fantasy: the spirits within", "work_id": 92701, "role": "production company", "role_id": 941, "is_primary": true}], "also_known_as": "", "date_of_birth": "", "date_of_death": "", "genders": [], "languages": [], "places_of_operation": [], "biography": "", "biography_author": null, "date_of_biography": "2023-05-09T16:53:06.728712+10:00", "external_links": [], "uuid": "3687e502-370d-457c-b738-0984072fbde3", "source": {"name": "Vernon", "slug": "vernon"}, "source_identifier": "12884", "external_references": [], "date_modified": "2023-06-14T16:33:30.576250+10:00"}, {"id": 34365, "name": "Chris Lee", "roles_in_work": [{"id": 2240693, "title": "Final fantasy: the spirits within", "work_id": 92701, "role": "co-producer", "role_id": 915, "is_primary": true}, {"id": 2240680, "title": "Final fantasy: the spirits within", "work_id": 92701, "role": "production company", "role_id": 941, "is_primary": true}], "also_known_as": "", "date_of_birth": "", "date_of_death": "", "genders": [], "languages": [], "places_of_operation": [], "biography": "", "biography_author": null, "date_of_biography": "2023-05-09T16:53:07.329292+10:00", "external_links": [], "uuid": "4fe933f7-2b75-4f81-a8d5-62e8d575ab43", "source": {"name": "Vernon", "slug": "vernon"}, "source_identifier": "16843", "external_references": [{"id": 38140, "source": {"name": "Wikidata", "slug": "wikidata"}, "source_identifier": "Q121078754"}], "date_modified": "2023-09-05T18:32:30.808362+10:00"}, {"id": 34355, "name": "Amvest Video", "roles_in_work": [{"id": 881216, "title": "Grampa's sci-fi hits", "work_id": 92749, "role": "production company", "role_id": 941, "is_primary": true}, {"id": 885396, "title": "Lucy, queen of comedy", "work_id": 95351, "role": "production company", "role_id": 941, "is_primary": true}, {"id": 2106891, "title": "Bad boys of Hollywood", "work_id": 93216, "role": "production company", "role_id": 941, "is_primary": true}, {"id": 882496, "title": "Hollywood remembers [sex goddesses]", "work_id": 93224, "role": "production company", "role_id": 941, "is_primary": true}, {"id": 1848520, "title": "Nat \"King\" Cole plus the Mills Brothers and Delta Rhythm Boys, 1943-1951", "work_id": 94687, "role": "production company", "role_id": 941, "is_primary": true}, {"id": 1848517, "title": "Count Basie and friends 1943-1951", "work_id": 94686, "role": "production company", "role_id": 941, "is_primary": true}, {"id": 881053, "title": "Grampa's monster movies", "work_id": 92687, "role": "production company", "role_id": 941, "is_primary": true}], "also_known_as": "", "date_of_birth": "", "date_of_death": "", "genders": [], "languages": [], "places_of_operation": [], "biography": "", "biography_author": null, "date_of_biography": "2023-05-09T12:40:07.448107+10:00", "external_links": [], "uuid": "58166bef-3d9d-4b83-be9e-ec652c550628", "source": {"name": "Vernon", "slug": "vernon"}, "source_identifier": "5236", "external_references": [{"id": 33656, "source": {"name": "Wikidata", "slug": "wikidata"}, "source_identifier": "Q121126309"}], "date_modified": "2023-09-05T17:32:04.340222+10:00"}, {"id": 34351, "name": "Barney A Sarecky", "roles_in_work": [{"id": 2151898, "title": "Mars attacks the world", "work_id": 92682, "role": "producer", "role_id": 1089, "is_primary": true}], "also_known_as": "", "date_of_birth": "07 MAY 1895", "date_of_death": "10 AUG 1968", "genders": [{"id": 9, "name": "Male", "slug": "male"}], "languages": [], "places_of_operation": [], "biography": "", "biography_author": null, "date_of_biography": "2023-05-09T13:54:00.698513+10:00", "external_links": [], "uuid": "b7559088-2c9b-48cf-bf56-1aaa94b9f240", "source": {"name": "Vernon", "slug": "vernon"}, "source_identifier": "15685", "external_references": [], "date_modified": "2023-06-14T16:33:30.576250+10:00"}, {"id": 34350, "name": "Filmcraft Production", "roles_in_work": [{"id": 2151896, "title": "Mars attacks the world", "work_id": 92682, "role": "production company", "role_id": 941, "is_primary": true}], "also_known_as": "", "date_of_birth": "", "date_of_death": "", "genders": [], "languages": [], "places_of_operation": [], "biography": "", "biography_author": null, "date_of_biography": "2023-05-09T13:53:59.453088+10:00", "external_links": [], "uuid": "6ea1f96f-2d8a-4c1f-9b88-8ca4be7dbb03", "source": {"name": "Vernon", "slug": "vernon"}, "source_identifier": "8272", "external_references": [{"id": 35804, "source": {"name": "Wikidata", "slug": "wikidata"}, "source_identifier": "Q121126336"}], "date_modified": "2023-09-05T19:43:16.049754+10:00"}, {"id": 34349, "name": "Gary Rhodes", "roles_in_work": [{"id": 2165398, "title": "Jack the Ripper: the final solution", "work_id": 92681, "role": "director", "role_id": 938, "is_primary": true}], "also_known_as": "", "date_of_birth": "", "date_of_death": "", "genders": [], "languages": [], "places_of_operation": [], "biography": "", "biography_author": null, "date_of_biography": "2023-05-09T14:24:24.900368+10:00", "external_links": [], "uuid": "f37cae2f-f5a1-4ebb-8770-e5a3a0f670cb", "source": {"name": "Vernon", "slug": "vernon"}, "source_identifier": "19433", "external_references": [{"id": 34913, "source": {"name": "Wikidata", "slug": "wikidata"}, "source_identifier": "Q121271277"}], "date_modified": "2023-09-05T19:58:20.324439+10:00"}, {"id": 34348, "name": "Jeremiah Downing", "roles_in_work": [{"id": 2165394, "title": "Jack the Ripper: the final solution", "work_id": 92681, "role": "producer", "role_id": 1089, "is_primary": true}], "also_known_as": "", "date_of_birth": "", "date_of_death": "", "genders": [], "languages": [], "places_of_operation": [], "biography": "", "biography_author": null, "date_of_biography": "2023-05-09T14:24:24.516615+10:00", "external_links": [], "uuid": "edd25bf3-5899-425e-b623-ba17aace30db", "source": {"name": "Vernon", "slug": "vernon"}, "source_identifier": "21734", "external_references": [{"id": 38072, "source": {"name": "Wikidata", "slug": "wikidata"}, "source_identifier": "Q121035453"}], "date_modified": "2023-09-05T21:21:11.349016+10:00"}, {"id": 34347, "name": "R W B Productions", "roles_in_work": [{"id": 2165388, "title": "Jack the Ripper: the final solution", "work_id": 92681, "role": "production company", "role_id": 941, "is_primary": true}], "also_known_as": "", "date_of_birth": "", "date_of_death": "", "genders": [], "languages": [], "places_of_operation": [], "biography": "", "biography_author": null, "date_of_biography": "2023-05-09T14:24:24.227201+10:00", "external_links": [], "uuid": "292c37cd-8675-4b76-836a-8d61a6b09ce2", "source": {"name": "Vernon", "slug": "vernon"}, "source_identifier": "11805", "external_references": [{"id": 50789, "source": {"name": "Wikidata", "slug": "wikidata"}, "source_identifier": "Q121357643"}], "date_modified": "2023-09-06T00:16:35.701877+10:00"}, {"id": 34346, "name": "Rhino Entertainment", "roles_in_work": [{"id": 2271038, "title": "The World's best known dicks", "work_id": 93214, "role": "production company", "role_id": 941, "is_primary": true}, {"id": 2168918, "title": "Mondo Lugosi: a vampire's scrapbook", "work_id": 92680, "role": "production company", "role_id": 941, "is_primary": true}], "also_known_as": "", "date_of_birth": "", "date_of_death": "", "genders": [], "languages": [], "places_of_operation": [], "biography": "", "biography_author": null, "date_of_biography": "2023-05-09T17:45:18.910620+10:00", "external_links": [], "uuid": "f5e874c5-7677-446c-a28d-954aed96d777", "source": {"name": "Vernon", "slug": "vernon"}, "source_identifier": "12003", "external_references": [{"id": 38286, "source": {"name": "Wikidata", "slug": "wikidata"}, "source_identifier": "Q121270839"}], "date_modified": "2023-09-06T00:26:50.992051+10:00"}]}