{"count": 28687, "next": "https://api.acmi.net.au/creators/?page=1967", "previous": "https://api.acmi.net.au/creators/?page=1965", "results": [{"id": 23229, "name": "Barry Peak", "roles_in_work": [{"id": 2400880, "title": "As time goes by", "work_id": 80998, "role": "director", "role_id": 938, "is_primary": true}], "also_known_as": "", "date_of_birth": "", "date_of_death": "", "genders": [], "languages": [], "places_of_operation": [], "biography": "", "biography_author": null, "date_of_biography": "2023-08-11T14:14:43.656175+10:00", "external_links": [], "uuid": "4e299f25-72fe-4f50-86e7-4930fd9277c1", "source": {"name": "Vernon", "slug": "vernon"}, "source_identifier": "15732", "external_references": [{"id": 34124, "source": {"name": "Wikidata", "slug": "wikidata"}, "source_identifier": "Q117844887"}], "date_modified": "2023-09-05T17:55:18.299887+10:00"}, {"id": 23228, "name": "Chris Kiely", "roles_in_work": [{"id": 2400879, "title": "As time goes by", "work_id": 80998, "role": "producer", "role_id": 1089, "is_primary": true}], "also_known_as": "", "date_of_birth": "", "date_of_death": "", "genders": [], "languages": [], "places_of_operation": [], "biography": "", "biography_author": null, "date_of_biography": "2023-08-11T14:14:43.026008+10:00", "external_links": [], "uuid": "c761c31e-a473-4408-ab1d-4167d5b82918", "source": {"name": "Vernon", "slug": "vernon"}, "source_identifier": "16841", "external_references": [], "date_modified": "2023-08-11T14:14:43.026250+10:00"}, {"id": 23227, "name": "Valhalla", "roles_in_work": [{"id": 2400878, "title": "As time goes by", "work_id": 80998, "role": "production company", "role_id": 941, "is_primary": true}], "also_known_as": "", "date_of_birth": "", "date_of_death": "", "genders": [], "languages": [], "places_of_operation": [], "biography": "", "biography_author": null, "date_of_biography": "2023-08-11T14:14:42.406743+10:00", "external_links": [], "uuid": "627e96f9-c9da-45ba-bf84-db1252eefc81", "source": {"name": "Vernon", "slug": "vernon"}, "source_identifier": "13984", "external_references": [], "date_modified": "2023-08-11T14:14:42.406979+10:00"}, {"id": 23226, "name": "Maya Iceton", "roles_in_work": [{"id": 2649166, "title": "Archer", "work_id": 80997, "role": "producer", "role_id": 1089, "is_primary": true}], "also_known_as": "", "date_of_birth": null, "date_of_death": null, "genders": [], "languages": [], "places_of_operation": [], "biography": "", "biography_author": null, "date_of_biography": null, "external_links": [], "uuid": "bec7f98a-9e6c-4a95-86e5-55051e008ec0", "source": {"name": "Vernon", "slug": "vernon"}, "source_identifier": "24894", "external_references": [], "date_modified": "2025-03-05T13:56:58.237965+11:00"}, {"id": 23225, "name": "Denny Lawrence", "roles_in_work": [{"id": 1985083, "title": "Emoh ruo", "work_id": 80996, "role": "director", "role_id": 938, "is_primary": true}, {"id": 2649167, "title": "Archer", "work_id": 80997, "role": "director", "role_id": 938, "is_primary": true}, {"id": 2614629, "title": "Blood sweat and tears. Vol. 4", "work_id": 84061, "role": "director", "role_id": 938, "is_primary": true}], "also_known_as": "", "date_of_birth": "1951-01-01", "date_of_death": null, "genders": [{"id": 9, "name": "Male", "slug": "male"}], "languages": [], "places_of_operation": [{"id": 3, "name": "Australia", "slug": "australia"}], "biography": "Denny Lawrence (born 1951 in Sydney) is an Australian actor, writer, producer and director of television, theatre and film.\nHe studied at NIDA and the Australian Film, Television and Radio School. Among his most notable credits are the feature film Goodbye Paradise (1983) and the mini-series Bodyline (1984). He has also worked extensively as a teacher.", "biography_author": "Wikidata", "date_of_biography": "2022-05-19T11:17:09.478015+10:00", "external_links": [{"id": 1928, "uri": "https://en.wikipedia.org/wiki/Denny_Lawrence"}], "uuid": "2c884e33-6cd2-4e72-b537-0744bf48dae7", "source": {"name": "Vernon", "slug": "vernon"}, "source_identifier": "18017", "external_references": [{"id": 8359, "source": {"name": "Wikidata", "slug": "wikidata"}, "source_identifier": "Q5259200"}, {"id": 8360, "source": {"name": "VIAF", "slug": "viaf"}, "source_identifier": "120166062"}, {"id": 8361, "source": {"name": "WorldCat", "slug": "worldcat"}, "source_identifier": "viaf-120166062"}], "date_modified": "2025-03-05T13:56:58.833282+11:00"}, {"id": 23220, "name": "Richard Franklin", "roles_in_work": [{"id": 2293049, "title": "The True story of Eskimo Nell", "work_id": 95102, "role": "director", "role_id": 938, "is_primary": true}, {"id": 2190370, "title": "Patrick", "work_id": 84011, "role": "director", "role_id": 938, "is_primary": true}, {"id": 2189778, "title": "Patrick [DVD]", "work_id": 93963, "role": "director", "role_id": 938, "is_primary": true}, {"id": 2293042, "title": "The True story of Eskimo Nell", "work_id": 95102, "role": "co-producer", "role_id": 915, "is_primary": true}, {"id": 2190369, "title": "Patrick", "work_id": 84011, "role": "co-producer", "role_id": 915, "is_primary": true}, {"id": 2189777, "title": "Patrick [DVD]", "work_id": 93963, "role": "co-producer", "role_id": 915, "is_primary": true}, {"id": 1989542, "title": "Hotel Sorrento", "work_id": 85235, "role": "producer/director", "role_id": 31, "is_primary": true}, {"id": 1978947, "title": "Roadgames = Road games [DVD] (D)", "work_id": 95624, "role": "producer/director", "role_id": 31, "is_primary": true}, {"id": 2125313, "title": "Brilliant lies", "work_id": 85931, "role": "producer/director", "role_id": 31, "is_primary": true}, {"id": 1985070, "title": "Roadgames = Road games (D)", "work_id": 80991, "role": "producer/director", "role_id": 31, "is_primary": true}], "also_known_as": "", "date_of_birth": "1948-07-15", "date_of_death": "2007-07-11", "genders": [{"id": 9, "name": "Male", "slug": "male"}], "languages": [{"id": 1, "name": "English", "slug": "english"}], "places_of_operation": [{"id": 3, "name": "Australia", "slug": "australia"}], "biography": "Richard Franklin (15 July 1948 – 11 July 2007) was an Australian  film director.", "biography_author": "Wikidata", "date_of_biography": "2022-05-19T12:49:37.977114+10:00", "external_links": [{"id": 2934, "uri": "https://en.wikipedia.org/wiki/Richard_Franklin_(director)"}], "uuid": "f600c427-5ca2-4ff9-8b6a-4dce0c237ba5", "source": {"name": "Vernon", "slug": "vernon"}, "source_identifier": "27384", "external_references": [{"id": 12475, "source": {"name": "Wikidata", "slug": "wikidata"}, "source_identifier": "Q726445"}, {"id": 12476, "source": {"name": "VIAF", "slug": "viaf"}, "source_identifier": "59290781"}, {"id": 12477, "source": {"name": "LOC Auth", "slug": "loc-auth"}, "source_identifier": "no2009046344"}, {"id": 12478, "source": {"name": "WorldCat", "slug": "worldcat"}, "source_identifier": "lccn-no2009046344"}], "date_modified": "2023-09-13T12:32:12.380168+10:00"}, {"id": 23214, "name": "Pisces Productions", "roles_in_work": [{"id": 1985061, "title": "Tim", "work_id": 80987, "role": "production company", "role_id": 941, "is_primary": true}, {"id": 2475984, "title": "The Mango tree", "work_id": 81042, "role": "production company", "role_id": 941, "is_primary": true}], "also_known_as": "", "date_of_birth": "", "date_of_death": "", "genders": [], "languages": [], "places_of_operation": [], "biography": "", "biography_author": null, "date_of_biography": "2023-08-17T15:30:43.755421+10:00", "external_links": [], "uuid": "c85e6e82-fd72-46ee-a085-5d9e7c500a11", "source": {"name": "Vernon", "slug": "vernon"}, "source_identifier": "11505", "external_references": [], "date_modified": "2023-08-17T15:30:43.755808+10:00"}, {"id": 23211, "name": "James Gilbert", "roles_in_work": [{"id": 2649163, "title": "Sunstruck", "work_id": 80986, "role": "director", "role_id": 938, "is_primary": true}, {"id": 2330993, "title": "The Best of...What's Left of...Not Only but Also...The Video", "work_id": 81359, "role": "co-producers/directors", "role_id": 628, "is_primary": true}], "also_known_as": "", "date_of_birth": "1923-05-05", "date_of_death": "2016-07-07", "genders": [{"id": 9, "name": "Male", "slug": "male"}], "languages": [{"id": 1, "name": "English", "slug": "english"}], "places_of_operation": [{"id": 10, "name": "United Kingdom", "slug": "united-kingdom"}], "biography": "Cecil James \"Jimmy\" Gilbert (15 May 1923 – 7 July 2016) was a Scottish television producer, director and executive for the BBC.\n\n", "biography_author": "Wikidata", "date_of_biography": "2022-05-19T11:52:14.797796+10:00", "external_links": [{"id": 2313, "uri": "https://en.wikipedia.org/wiki/James_Gilbert_(producer)"}], "uuid": "b7c6197e-aff9-4a0b-92de-a47a9b7837fd", "source": {"name": "Vernon", "slug": "vernon"}, "source_identifier": "21242", "external_references": [{"id": 9926, "source": {"name": "Wikidata", "slug": "wikidata"}, "source_identifier": "Q6134610"}, {"id": 9927, "source": {"name": "VIAF", "slug": "viaf"}, "source_identifier": "316879417"}, {"id": 9928, "source": {"name": "LOC Auth", "slug": "loc-auth"}, "source_identifier": "no2015094816"}, {"id": 9929, "source": {"name": "WorldCat", "slug": "worldcat"}, "source_identifier": "lccn-no2015094816"}], "date_modified": "2025-03-05T13:56:56.238089+11:00"}, {"id": 23208, "name": "Immigrant (AU)", "roles_in_work": [{"id": 2649160, "title": "Sunstruck", "work_id": 80986, "role": "production company", "role_id": 941, "is_primary": true}], "also_known_as": "", "date_of_birth": "", "date_of_death": "", "genders": [], "languages": [], "places_of_operation": [], "biography": "", "biography_author": null, "date_of_biography": "2023-05-09T19:07:54.159170+10:00", "external_links": [], "uuid": "a708fb22-196c-4267-a224-0c091e506a80", "source": {"name": "Vernon", "slug": "vernon"}, "source_identifier": "4523", "external_references": [{"id": 42211, "source": {"name": "Wikidata", "slug": "wikidata"}, "source_identifier": "Q121315165"}], "date_modified": "2025-03-05T13:56:54.473126+11:00"}, {"id": 23206, "name": "Peter Collinson", "roles_in_work": [{"id": 2345495, "title": "The Earthling", "work_id": 80985, "role": "director", "role_id": 938, "is_primary": true}, {"id": 1991716, "title": "The Italian job", "work_id": 87410, "role": "director", "role_id": 938, "is_primary": true}], "also_known_as": "", "date_of_birth": "1936-04-01", "date_of_death": "1980-12-16", "genders": [{"id": 9, "name": "Male", "slug": "male"}], "languages": [{"id": 1, "name": "English", "slug": "english"}], "places_of_operation": [{"id": 10, "name": "United Kingdom", "slug": "united-kingdom"}], "biography": "Peter Collinson (1 April 1936 – 16 December 1980) was a British film director probably best remembered for directing The Italian Job (1969).", "biography_author": "Wikidata", "date_of_biography": "2022-05-19T12:41:25.595505+10:00", "external_links": [{"id": 2849, "uri": "https://en.wikipedia.org/wiki/Peter_Collinson_(film_director)"}], "uuid": "0253e0c3-8e94-4e34-a680-c89483ad54df", "source": {"name": "Vernon", "slug": "vernon"}, "source_identifier": "26500", "external_references": [{"id": 12120, "source": {"name": "Wikidata", "slug": "wikidata"}, "source_identifier": "Q976248"}, {"id": 12121, "source": {"name": "VIAF", "slug": "viaf"}, "source_identifier": "100238742"}, {"id": 12122, "source": {"name": "LOC Auth", "slug": "loc-auth"}, "source_identifier": "nr2002037160"}, {"id": 12123, "source": {"name": "WorldCat", "slug": "worldcat"}, "source_identifier": "lccn-nr2002037160"}], "date_modified": "2023-09-13T12:31:52.634808+10:00"}]}