{"count": 28687, "next": "https://api.acmi.net.au/creators/?page=2108", "previous": "https://api.acmi.net.au/creators/?page=2106", "results": [{"id": 20414, "name": "Education Dept, S A", "roles_in_work": [{"id": 2109576, "title": "Because They're Black", "work_id": 77434, "role": "production company", "role_id": 941, "is_primary": true}], "also_known_as": "", "date_of_birth": "", "date_of_death": "", "genders": [], "languages": [], "places_of_operation": [], "biography": "", "biography_author": null, "date_of_biography": "2023-05-09T12:44:05.352547+10:00", "external_links": [], "uuid": "60cea24c-7e3c-4da7-9a98-fead122f5ead", "source": {"name": "Vernon", "slug": "vernon"}, "source_identifier": "7757", "external_references": [{"id": 39617, "source": {"name": "Wikidata", "slug": "wikidata"}, "source_identifier": "Q121079042"}], "date_modified": "2023-09-05T19:25:01.364376+10:00"}, {"id": 20409, "name": "Visual and Media Production Co", "roles_in_work": [{"id": 2467541, "title": "The Market economy: A matter of choice", "work_id": 77426, "role": "production company", "role_id": 941, "is_primary": true}], "also_known_as": "", "date_of_birth": "", "date_of_death": "", "genders": [], "languages": [], "places_of_operation": [], "biography": "", "biography_author": null, "date_of_biography": "2023-08-14T11:22:18.430849+10:00", "external_links": [], "uuid": "c9c23d5a-445e-44d9-8ac8-8a27bd634b38", "source": {"name": "Vernon", "slug": "vernon"}, "source_identifier": "14178", "external_references": [], "date_modified": "2023-08-14T11:22:18.431067+10:00"}, {"id": 20405, "name": "BC Film Unit", "roles_in_work": [{"id": 2472042, "title": "World Bank", "work_id": 77416, "role": "production company", "role_id": 941, "is_primary": true}], "also_known_as": "", "date_of_birth": "", "date_of_death": "", "genders": [], "languages": [], "places_of_operation": [], "biography": "", "biography_author": null, "date_of_biography": "2023-08-14T12:52:14.658474+10:00", "external_links": [], "uuid": "bfbc884f-a2bb-4656-a092-50c95631e7cd", "source": {"name": "Vernon", "slug": "vernon"}, "source_identifier": "5765", "external_references": [], "date_modified": "2023-08-14T12:52:14.658806+10:00"}, {"id": 20404, "name": "Peter Rawson", "roles_in_work": [{"id": 769152, "title": "I can't hear", "work_id": 79235, "role": "director", "role_id": 938, "is_primary": true}, {"id": 2648106, "title": "The Noise was deafening", "work_id": 78320, "role": "director", "role_id": 938, "is_primary": true}, {"id": 863697, "title": "Managing change", "work_id": 77404, "role": "director", "role_id": 938, "is_primary": true}], "also_known_as": "", "date_of_birth": null, "date_of_death": null, "genders": [], "languages": [], "places_of_operation": [], "biography": "", "biography_author": null, "date_of_biography": null, "external_links": [], "uuid": "1d6a3e13-cff1-410f-8cf5-65ebbc0fceb8", "source": {"name": "Vernon", "slug": "vernon"}, "source_identifier": "26679", "external_references": [], "date_modified": "2025-03-05T13:37:58.356094+11:00"}, {"id": 20402, "name": "Joan Harvey", "roles_in_work": [{"id": 2087607, "title": "America: from Hitler to M-X", "work_id": 77401, "role": "director", "role_id": 938, "is_primary": true}], "also_known_as": "", "date_of_birth": "", "date_of_death": "", "genders": [], "languages": [], "places_of_operation": [], "biography": "", "biography_author": null, "date_of_biography": "2023-05-09T11:59:15.219405+10:00", "external_links": [], "uuid": "f83a69d4-2a8a-4433-b5ea-27e99504648e", "source": {"name": "Vernon", "slug": "vernon"}, "source_identifier": "21974", "external_references": [{"id": 42768, "source": {"name": "Wikidata", "slug": "wikidata"}, "source_identifier": "Q121315274"}], "date_modified": "2023-09-05T21:27:44.071096+10:00"}, {"id": 20398, "name": "Fourth Wall Repertory", "roles_in_work": [{"id": 2087595, "title": "America: from Hitler to M-X", "work_id": 77401, "role": "production company", "role_id": 941, "is_primary": true}], "also_known_as": "", "date_of_birth": "", "date_of_death": "", "genders": [], "languages": [], "places_of_operation": [], "biography": "", "biography_author": null, "date_of_biography": "2023-05-09T11:59:14.104098+10:00", "external_links": [], "uuid": "5fd27f14-e5e6-4e9f-af2c-c1d0a318c409", "source": {"name": "Vernon", "slug": "vernon"}, "source_identifier": "8467", "external_references": [{"id": 35592, "source": {"name": "Wikidata", "slug": "wikidata"}, "source_identifier": "Q121337412"}], "date_modified": "2023-09-05T19:45:23.284461+10:00"}, {"id": 20397, "name": "Parallel Films", "roles_in_work": [{"id": 2087594, "title": "America: from Hitler to M-X", "work_id": 77401, "role": "production company", "role_id": 941, "is_primary": true}], "also_known_as": "", "date_of_birth": "", "date_of_death": "", "genders": [], "languages": [], "places_of_operation": [], "biography": "", "biography_author": null, "date_of_biography": "2023-05-09T11:59:13.838503+10:00", "external_links": [], "uuid": "3aa9bcf7-d1a8-4b1e-988b-f7efa1e00d85", "source": {"name": "Vernon", "slug": "vernon"}, "source_identifier": "11286", "external_references": [{"id": 37794, "source": {"name": "Wikidata", "slug": "wikidata"}, "source_identifier": "Q121034467"}], "date_modified": "2023-09-05T23:40:25.371191+10:00"}, {"id": 20390, "name": "Michael Patterson", "roles_in_work": [{"id": 2404729, "title": "Commuter", "work_id": 77385, "role": "producer", "role_id": 1089, "is_primary": true}], "also_known_as": "", "date_of_birth": "", "date_of_death": "", "genders": [], "languages": [], "places_of_operation": [], "biography": "", "biography_author": null, "date_of_biography": "2023-08-11T15:38:46.993438+10:00", "external_links": [], "uuid": "ed26aa2e-3617-442f-9705-b06cb40baf38", "source": {"name": "Vernon", "slug": "vernon"}, "source_identifier": "25185", "external_references": [], "date_modified": "2023-08-11T15:38:46.993792+10:00"}, {"id": 20386, "name": "Les McLaren", "roles_in_work": [{"id": 1427515, "title": "Five bloody weeks : the Syrian Campaign June-July 1941", "work_id": 86836, "role": "director", "role_id": 938, "is_primary": true}, {"id": 863671, "title": "Kama wosi: music in the Trobriand Islands", "work_id": 77379, "role": "director", "role_id": 938, "is_primary": true}, {"id": 863673, "title": "Namekas: music in Lake Chambri", "work_id": 77380, "role": "director", "role_id": 938, "is_primary": true}, {"id": 2147660, "title": "Cowboy and Maria in town", "work_id": 87467, "role": "co-director", "role_id": 959, "is_primary": true}, {"id": 2147655, "title": "Cowboy and Maria in town", "work_id": 87467, "role": "producer", "role_id": 1089, "is_primary": true}, {"id": 2758862, "title": "The Widening net 1945-", "work_id": 78184, "role": "producer/director", "role_id": 31, "is_primary": true}], "also_known_as": "", "date_of_birth": "", "date_of_death": "", "genders": [], "languages": [], "places_of_operation": [], "biography": "", "biography_author": null, "date_of_biography": "2023-05-09T13:48:06.888632+10:00", "external_links": [], "uuid": "335487bd-d55c-4f99-acc4-b666892c0c0a", "source": {"name": "Vernon", "slug": "vernon"}, "source_identifier": "23749", "external_references": [{"id": 39383, "source": {"name": "Wikidata", "slug": "wikidata"}, "source_identifier": "Q121126499"}], "date_modified": "2023-09-05T22:21:41.508101+10:00"}, {"id": 20385, "name": "Shanghai Animation Studios", "roles_in_work": [{"id": 2468264, "title": "The Three monks", "work_id": 77377, "role": "production company", "role_id": 941, "is_primary": true}], "also_known_as": "", "date_of_birth": "", "date_of_death": "", "genders": [], "languages": [], "places_of_operation": [], "biography": "", "biography_author": null, "date_of_biography": "2023-08-14T11:37:42.820010+10:00", "external_links": [], "uuid": "5d56415e-f53e-46ed-935b-5b26b7904115", "source": {"name": "Vernon", "slug": "vernon"}, "source_identifier": "12500", "external_references": [], "date_modified": "2023-08-14T11:37:42.820244+10:00"}]}