{"count": 28687, "next": "https://api.acmi.net.au/creators/?page=2120", "previous": "https://api.acmi.net.au/creators/?page=2118", "results": [{"id": 20178, "name": "Barnes and Barnes Film", "roles_in_work": [{"id": 2242734, "title": "Fish heads", "work_id": 77121, "role": "production company", "role_id": 941, "is_primary": true}], "also_known_as": "", "date_of_birth": "", "date_of_death": "", "genders": [], "languages": [], "places_of_operation": [], "biography": "", "biography_author": null, "date_of_biography": "2023-05-09T16:56:40.635243+10:00", "external_links": [], "uuid": "5b2c5fd4-10eb-4f5a-ab8c-bf61e5ad8df8", "source": {"name": "Vernon", "slug": "vernon"}, "source_identifier": "5723", "external_references": [{"id": 41261, "source": {"name": "Wikidata", "slug": "wikidata"}, "source_identifier": "Q121159784"}], "date_modified": "2023-09-05T17:53:42.481101+10:00"}, {"id": 20174, "name": "Caterpillar Tractors", "roles_in_work": [{"id": 876383, "title": "The Gamblers", "work_id": 90060, "role": "production company", "role_id": 941, "is_primary": true}, {"id": 2397043, "title": "800 miles of winter (TEFC)", "work_id": 77116, "role": "production company", "role_id": 941, "is_primary": true}], "also_known_as": "", "date_of_birth": "", "date_of_death": "", "genders": [], "languages": [], "places_of_operation": [], "biography": "", "biography_author": null, "date_of_biography": "2023-08-11T12:48:54.878139+10:00", "external_links": [], "uuid": "8de78ef0-2360-446e-a87c-8e6285ab86f0", "source": {"name": "Vernon", "slug": "vernon"}, "source_identifier": "6353", "external_references": [], "date_modified": "2023-08-11T12:48:54.878486+10:00"}, {"id": 20173, "name": "Lady Gowrie Child Centre", "roles_in_work": [{"id": 2647708, "title": "Exploring, investigating, learning (TEFC)", "work_id": 77115, "role": "production company", "role_id": 941, "is_primary": true}], "also_known_as": "", "date_of_birth": "", "date_of_death": "", "genders": [], "languages": [], "places_of_operation": [], "biography": "", "biography_author": null, "date_of_biography": "2023-08-11T16:34:21.615407+10:00", "external_links": [], "uuid": "4213cb2f-7487-4d8a-b222-6ce632c75c0c", "source": {"name": "Vernon", "slug": "vernon"}, "source_identifier": "9885", "external_references": [], "date_modified": "2025-03-05T13:31:16.469810+11:00"}, {"id": 20172, "name": "Barra Grant", "roles_in_work": [{"id": 2793359, "title": "Someone's in the kitchen with Jamie", "work_id": 89358, "role": "director", "role_id": 938, "is_primary": true}, {"id": 2750540, "title": "The Tap dance kid. - Edited version", "work_id": 97382, "role": "director", "role_id": 938, "is_primary": true}, {"id": 2647705, "title": "The Tap dance kid", "work_id": 77113, "role": "director", "role_id": 938, "is_primary": true}], "also_known_as": "Barbara Carol Wayne", "date_of_birth": "1948-12-24", "date_of_death": null, "genders": [{"id": 5, "name": "Female", "slug": "female"}], "languages": [{"id": 1, "name": "English", "slug": "english"}], "places_of_operation": [{"id": 1, "name": "United States of America", "slug": "united-states-of-america"}], "biography": "Barra Grant (born Barbara Carol Wayne) is an American actress, screenwriter, film director and playwright.", "biography_author": "Wikidata", "date_of_biography": "2023-08-01T14:08:40.881096+10:00", "external_links": [{"id": 3609, "uri": "https://en.wikipedia.org/wiki/Barra_Grant"}], "uuid": "acb7c245-4f12-4f37-a038-149c1b9f0309", "source": {"name": "Vernon", "slug": "vernon"}, "source_identifier": "15688", "external_references": [{"id": 26520, "source": {"name": "Wikidata", "slug": "wikidata"}, "source_identifier": "Q4863130"}, {"id": 27411, "source": {"name": "VIAF", "slug": "viaf"}, "source_identifier": "225384701"}, {"id": 27412, "source": {"name": "LOC Auth", "slug": "loc-auth"}, "source_identifier": "nr2006021861"}, {"id": 27413, "source": {"name": "WorldCat", "slug": "worldcat"}, "source_identifier": "lccn-nr2006021861"}], "date_modified": "2025-03-13T00:25:29.295715+11:00"}, {"id": 20167, "name": "Alan J Shalleck", "roles_in_work": [{"id": 2355575, "title": "The House that Jack built and other fabulous fables", "work_id": 77102, "role": "director", "role_id": 938, "is_primary": true}], "also_known_as": "", "date_of_birth": "", "date_of_death": "", "genders": [], "languages": [], "places_of_operation": [], "biography": "", "biography_author": null, "date_of_biography": "2023-05-09T20:03:25.459392+10:00", "external_links": [], "uuid": "f8944422-0a28-4095-be16-d55a5af1f2d7", "source": {"name": "Vernon", "slug": "vernon"}, "source_identifier": "15008", "external_references": [], "date_modified": "2023-06-14T16:33:30.576250+10:00"}, {"id": 20166, "name": "A J Shalleck Productions", "roles_in_work": [{"id": 2355569, "title": "The House that Jack built and other fabulous fables", "work_id": 77102, "role": "production company", "role_id": 941, "is_primary": true}], "also_known_as": "", "date_of_birth": "", "date_of_death": "", "genders": [], "languages": [], "places_of_operation": [], "biography": "", "biography_author": null, "date_of_biography": "2023-05-09T20:03:25.134776+10:00", "external_links": [], "uuid": "98f635ec-f265-435f-bc39-9ba4f079553f", "source": {"name": "Vernon", "slug": "vernon"}, "source_identifier": "4941", "external_references": [], "date_modified": "2023-06-14T16:33:30.576250+10:00"}, {"id": 20164, "name": "Graham Clutterbuck", "roles_in_work": [{"id": 2616063, "title": "Paddington goes to the movies", "work_id": 86755, "role": "producer", "role_id": 1089, "is_primary": true}, {"id": 2765296, "title": "Paddington in the hot seat. Paddington's puzzle. Paddington takes a cut.", "work_id": 78244, "role": "producer", "role_id": 1089, "is_primary": true}, {"id": 2765355, "title": "Paddington Bear Video Show 4", "work_id": 98496, "role": "producer", "role_id": 1089, "is_primary": true}, {"id": 2765360, "title": "Paddington Bear Video Show 5", "work_id": 98497, "role": "producer", "role_id": 1089, "is_primary": true}, {"id": 1813114, "title": "A Shopping expedition", "work_id": 77097, "role": "producer", "role_id": 1089, "is_primary": true}, {"id": 1806145, "title": "Paddington goes to the movies (K)", "work_id": 79801, "role": "producer", "role_id": 1089, "is_primary": true}, {"id": 1807036, "title": "A Shopping expedition (K)", "work_id": 80741, "role": "producer", "role_id": 1089, "is_primary": true}], "also_known_as": "", "date_of_birth": "", "date_of_death": "", "genders": [], "languages": [], "places_of_operation": [], "biography": "", "biography_author": null, "date_of_biography": "2023-05-09T17:42:05.704345+10:00", "external_links": [], "uuid": "4a190b83-6fac-4aa4-a051-d25b9b8615d2", "source": {"name": "Vernon", "slug": "vernon"}, "source_identifier": "19990", "external_references": [{"id": 37242, "source": {"name": "Wikidata", "slug": "wikidata"}, "source_identifier": "Q121143854"}], "date_modified": "2025-03-14T17:52:21.830848+11:00"}, {"id": 20160, "name": "Spectrum Films", "roles_in_work": [{"id": 3081584, "title": "Buying for long-term use", "work_id": 96981, "role": "production company", "role_id": 941, "is_primary": true}, {"id": 2471461, "title": "Weighing the choices: positive approaches to nutrition (TEFC", "work_id": 77087, "role": "production company", "role_id": 941, "is_primary": true}, {"id": 2471459, "title": "Weighing the choices: positive approaches to nutrition", "work_id": 90374, "role": "production company", "role_id": 941, "is_primary": true}, {"id": 3081578, "title": "Buying for immediate use", "work_id": 96980, "role": "production company", "role_id": 941, "is_primary": true}, {"id": 2750489, "title": "To shoot a Mad Dog", "work_id": 97357, "role": "production company", "role_id": 941, "is_primary": true}], "also_known_as": "", "date_of_birth": "", "date_of_death": "", "genders": [], "languages": [], "places_of_operation": [], "biography": "", "biography_author": null, "date_of_biography": "2023-08-14T12:40:28.364767+10:00", "external_links": [], "uuid": "2d6bdb4b-2a63-4bae-8094-445956b0c342", "source": {"name": "Vernon", "slug": "vernon"}, "source_identifier": "12848", "external_references": [], "date_modified": "2025-03-17T10:24:54.236250+11:00"}, {"id": 20159, "name": "Spectrum", "roles_in_work": [{"id": 2409162, "title": "Health and lifestyle: positive approaches to well-being", "work_id": 77084, "role": "production company", "role_id": 941, "is_primary": true}, {"id": 767841, "title": "Taking it in stride: positive approaches to stress management", "work_id": 78699, "role": "production company", "role_id": 941, "is_primary": true}], "also_known_as": "", "date_of_birth": "", "date_of_death": "", "genders": [], "languages": [], "places_of_operation": [], "biography": "", "biography_author": null, "date_of_biography": "2023-08-11T17:16:46.695843+10:00", "external_links": [], "uuid": "066db514-6fd5-4e77-82ac-44c446813674", "source": {"name": "Vernon", "slug": "vernon"}, "source_identifier": "12846", "external_references": [], "date_modified": "2023-08-11T17:16:46.696084+10:00"}, {"id": 20158, "name": "Master and Masterworks Prods.", "roles_in_work": [{"id": 2401934, "title": "Baroque dance 1675-1725 (TEFC)", "work_id": 77079, "role": "production company", "role_id": 941, "is_primary": true}], "also_known_as": "", "date_of_birth": "", "date_of_death": "", "genders": [], "languages": [], "places_of_operation": [], "biography": "", "biography_author": null, "date_of_biography": "2023-08-11T14:35:05.959225+10:00", "external_links": [], "uuid": "3064d0ba-116f-404d-a97b-c91ab6745ee0", "source": {"name": "Vernon", "slug": "vernon"}, "source_identifier": "10342", "external_references": [], "date_modified": "2023-08-11T14:35:05.959471+10:00"}]}