{"count": 28687, "next": "https://api.acmi.net.au/creators/?page=2695", "previous": "https://api.acmi.net.au/creators/?page=2693", "results": [{"id": 11510, "name": "Andi Mastrosavas", "roles_in_work": [{"id": 2641604, "title": "Awaiting re-construction", "work_id": 110769, "role": "creator", "role_id": 968, "is_primary": true}], "also_known_as": "", "date_of_birth": "", "date_of_death": "", "genders": [], "languages": [], "places_of_operation": [], "biography": "", "biography_author": null, "date_of_biography": "2023-05-09T20:01:40.248573+10:00", "external_links": [], "uuid": "c47b45b9-912f-4973-914d-e41cac755d09", "source": {"name": "Vernon", "slug": "vernon"}, "source_identifier": "3250", "external_references": [], "date_modified": "2025-03-05T11:37:16.514750+11:00"}, {"id": 11509, "name": "Eunice Xa", "roles_in_work": [{"id": 2641600, "title": "The Bittersweet tale of Doffy Notts", "work_id": 110767, "role": "creator", "role_id": 968, "is_primary": true}], "also_known_as": "", "date_of_birth": "", "date_of_death": "", "genders": [], "languages": [], "places_of_operation": [], "biography": "", "biography_author": null, "date_of_biography": "2023-05-09T20:01:21.721642+10:00", "external_links": [], "uuid": "1924c4ed-6fb6-444f-af71-61816656db5d", "source": {"name": "Vernon", "slug": "vernon"}, "source_identifier": "3249", "external_references": [], "date_modified": "2025-03-05T11:37:13.681309+11:00"}, {"id": 11508, "name": "Azrul Goo", "roles_in_work": [{"id": 2641598, "title": "\"Pooch\" - Disagree. At the end of the day", "work_id": 110766, "role": "creator", "role_id": 968, "is_primary": true}], "also_known_as": "", "date_of_birth": "", "date_of_death": "", "genders": [], "languages": [], "places_of_operation": [], "biography": "", "biography_author": null, "date_of_biography": "2023-05-09T20:01:19.466210+10:00", "external_links": [], "uuid": "ec8e8da2-0b99-46d2-af9c-d9492036f39d", "source": {"name": "Vernon", "slug": "vernon"}, "source_identifier": "3248", "external_references": [], "date_modified": "2025-03-05T11:37:12.285646+11:00"}, {"id": 11506, "name": "Nicholas Verso", "roles_in_work": [{"id": 2641556, "title": "Half life", "work_id": 110765, "role": "director", "role_id": 938, "is_primary": true}], "also_known_as": "", "date_of_birth": "", "date_of_death": "", "genders": [], "languages": [], "places_of_operation": [], "biography": "", "biography_author": null, "date_of_biography": "2023-08-11T17:11:41.797244+10:00", "external_links": [], "uuid": "7111ebb4-6fd7-4bc9-865d-202d8321b916", "source": {"name": "Vernon", "slug": "vernon"}, "source_identifier": "3244", "external_references": [], "date_modified": "2025-03-05T11:36:42.882137+11:00"}, {"id": 11505, "name": "Amber Hardman", "roles_in_work": [{"id": 2638892, "title": "Spots", "work_id": 110764, "role": "creator", "role_id": 968, "is_primary": true}], "also_known_as": "", "date_of_birth": null, "date_of_death": null, "genders": [], "languages": [], "places_of_operation": [], "biography": "", "biography_author": null, "date_of_biography": null, "external_links": [], "uuid": "d933d53b-5be8-41c5-91e5-2b2a9890c8cf", "source": {"name": "Vernon", "slug": "vernon"}, "source_identifier": "3243", "external_references": [], "date_modified": "2025-03-05T11:11:36.042701+11:00"}, {"id": 11504, "name": "Lorraine Heller-Nicholas", "roles_in_work": [{"id": 2638868, "title": "No boys girls", "work_id": 110762, "role": "creator", "role_id": 968, "is_primary": true}], "also_known_as": "", "date_of_birth": null, "date_of_death": null, "genders": [], "languages": [], "places_of_operation": [], "biography": "", "biography_author": null, "date_of_biography": null, "external_links": [], "uuid": "92d86a09-0626-4714-b540-f80b82ae151e", "source": {"name": "Vernon", "slug": "vernon"}, "source_identifier": "3236", "external_references": [], "date_modified": "2025-03-05T11:11:27.090804+11:00"}, {"id": 11503, "name": "Asmund Heimark", "roles_in_work": [{"id": 2638876, "title": "Pot planet", "work_id": 110763, "role": "creator", "role_id": 968, "is_primary": true}, {"id": 2638856, "title": "Mosquito", "work_id": 110760, "role": "creator", "role_id": 968, "is_primary": true}], "also_known_as": "", "date_of_birth": null, "date_of_death": null, "genders": [], "languages": [], "places_of_operation": [], "biography": "", "biography_author": null, "date_of_biography": null, "external_links": [], "uuid": "7c08cedc-64ed-4a25-a816-4239decf9a67", "source": {"name": "Vernon", "slug": "vernon"}, "source_identifier": "3238", "external_references": [], "date_modified": "2025-03-05T11:11:29.839098+11:00"}, {"id": 11502, "name": "Maggie Topliss", "roles_in_work": [{"id": 2638817, "title": "20 minutes in the future", "work_id": 110758, "role": "creator", "role_id": 968, "is_primary": true}], "also_known_as": "", "date_of_birth": null, "date_of_death": null, "genders": [], "languages": [], "places_of_operation": [], "biography": "", "biography_author": null, "date_of_biography": null, "external_links": [], "uuid": "929d2aab-05dc-4f74-9ee0-1920d3c76fac", "source": {"name": "Vernon", "slug": "vernon"}, "source_identifier": "3241", "external_references": [], "date_modified": "2025-03-05T11:11:09.059294+11:00"}, {"id": 11501, "name": "Eugenia Lim", "roles_in_work": [{"id": 2638896, "title": "Young American", "work_id": 110755, "role": "creator", "role_id": 968, "is_primary": true}], "also_known_as": "", "date_of_birth": null, "date_of_death": null, "genders": [], "languages": [], "places_of_operation": [], "biography": "", "biography_author": null, "date_of_biography": null, "external_links": [], "uuid": "0fc850a6-9009-4a24-9c2f-aa3e43902ed6", "source": {"name": "Vernon", "slug": "vernon"}, "source_identifier": "3240", "external_references": [], "date_modified": "2025-03-05T11:11:37.432597+11:00"}, {"id": 11500, "name": "Joanne Lisinska", "roles_in_work": [{"id": 2638860, "title": "My lego", "work_id": 110761, "role": "creator", "role_id": 968, "is_primary": true}, {"id": 2638829, "title": "Changing days", "work_id": 110754, "role": "creator", "role_id": 968, "is_primary": true}], "also_known_as": "", "date_of_birth": null, "date_of_death": null, "genders": [], "languages": [], "places_of_operation": [], "biography": "", "biography_author": null, "date_of_biography": null, "external_links": [], "uuid": "323f3902-2824-4335-b46b-b52d3b90d481", "source": {"name": "Vernon", "slug": "vernon"}, "source_identifier": "3239", "external_references": [], "date_modified": "2025-03-05T11:11:24.330138+11:00"}]}