{"count": 28687, "next": "https://api.acmi.net.au/creators/?page=1043", "previous": "https://api.acmi.net.au/creators/?page=1041", "results": [{"id": 75162, "name": "J. Biss", "roles_in_work": [{"id": 2180181, "title": "Our friends, why?", "work_id": 71245, "role": "co-director", "role_id": 959, "is_primary": true}], "also_known_as": "", "date_of_birth": "", "date_of_death": "", "genders": [], "languages": [], "places_of_operation": [], "biography": "", "biography_author": null, "date_of_biography": "2023-05-09T14:51:27.773055+10:00", "external_links": [], "uuid": "88483808-cb69-4bc4-af0e-e34e153a4752", "source": {"name": "Vernon", "slug": "vernon"}, "source_identifier": "20954", "external_references": [{"id": 38010, "source": {"name": "Wikidata", "slug": "wikidata"}, "source_identifier": "Q121159947"}], "date_modified": "2023-09-05T20:53:50.219785+10:00"}, {"id": 75161, "name": "Joan Hanson", "roles_in_work": [{"id": 2178731, "title": "Origami", "work_id": 71219, "role": "director", "role_id": 938, "is_primary": true}], "also_known_as": "", "date_of_birth": "", "date_of_death": "", "genders": [], "languages": [], "places_of_operation": [], "biography": "", "biography_author": null, "date_of_biography": "2023-05-09T14:49:19.321615+10:00", "external_links": [], "uuid": "2be53777-e9d6-4037-8810-9553baaed68b", "source": {"name": "Vernon", "slug": "vernon"}, "source_identifier": "21973", "external_references": [{"id": 39610, "source": {"name": "Wikidata", "slug": "wikidata"}, "source_identifier": "Q121035368"}], "date_modified": "2023-09-05T21:27:43.385149+10:00"}, {"id": 75160, "name": "Howard Sturges", "roles_in_work": [{"id": 2177500, "title": "Options", "work_id": 71196, "role": "co-producer", "role_id": 915, "is_primary": true}], "also_known_as": "", "date_of_birth": "", "date_of_death": "", "genders": [], "languages": [], "places_of_operation": [], "biography": "", "biography_author": null, "date_of_biography": "2023-05-09T14:47:34.420637+10:00", "external_links": [], "uuid": "36feeb13-e54a-42d8-9eca-16a07d881054", "source": {"name": "Vernon", "slug": "vernon"}, "source_identifier": "20634", "external_references": [], "date_modified": "2023-06-14T16:33:30.576250+10:00"}, {"id": 75159, "name": "Jerry Aronson", "roles_in_work": [{"id": 2177496, "title": "Options", "work_id": 71196, "role": "co-producer", "role_id": 915, "is_primary": true}, {"id": 2195655, "title": "Divided trail: a Native American odyssey", "work_id": 97538, "role": "producer/director", "role_id": 31, "is_primary": true}, {"id": 868000, "title": "The life and times of Allen Ginsberg", "work_id": 84171, "role": "producer/director", "role_id": 31, "is_primary": true}], "also_known_as": "", "date_of_birth": "", "date_of_death": "", "genders": [], "languages": [], "places_of_operation": [], "biography": "", "biography_author": null, "date_of_biography": "2023-05-09T15:16:26.193531+10:00", "external_links": [], "uuid": "d26929a8-1897-456b-98c0-a585b1cf14fd", "source": {"name": "Vernon", "slug": "vernon"}, "source_identifier": "21782", "external_references": [], "date_modified": "2023-06-14T16:33:30.576250+10:00"}, {"id": 75158, "name": "Richard Jones", "roles_in_work": [{"id": 856423, "title": "The Opportunity class", "work_id": 71195, "role": "director", "role_id": 938, "is_primary": true}, {"id": 2305427, "title": "Somazone (MAC & PC)", "work_id": 85837, "role": "director", "role_id": 938, "is_primary": true}, {"id": 1813340, "title": "The Letter: a film about legal rights. - [Greek version].", "work_id": 84936, "role": "producer", "role_id": 1089, "is_primary": true}, {"id": 1813342, "title": "The Letter: a film about legal rights. - [Serbian version].", "work_id": 84950, "role": "producer", "role_id": 1089, "is_primary": true}, {"id": 1813341, "title": "The Letter: a film about legal rights. - [Polish version].", "work_id": 84949, "role": "producer", "role_id": 1089, "is_primary": true}, {"id": 1845907, "title": "More dinosaurs", "work_id": 80314, "role": "producer", "role_id": 1089, "is_primary": true}, {"id": 1810956, "title": "The Letter: a film about legal rights", "work_id": 83767, "role": "producer", "role_id": 1089, "is_primary": true}], "also_known_as": "", "date_of_birth": "", "date_of_death": "", "genders": [], "languages": [], "places_of_operation": [], "biography": "", "biography_author": null, "date_of_biography": "2023-05-09T18:44:10.346640+10:00", "external_links": [], "uuid": "a299b2dd-da20-43e9-b976-7f70620f402b", "source": {"name": "Vernon", "slug": "vernon"}, "source_identifier": "110005", "external_references": [{"id": 51736, "source": {"name": "Wikidata", "slug": "wikidata"}, "source_identifier": "Q121357731"}], "date_modified": "2023-09-06T00:30:07.077049+10:00"}, {"id": 75157, "name": "Australia. Royal Australian Air Force. Director of Air Force Recruiting", "roles_in_work": [{"id": 2177278, "title": "Operation earthquake", "work_id": 71185, "role": "production company", "role_id": 941, "is_primary": true}], "also_known_as": "", "date_of_birth": "", "date_of_death": "", "genders": [], "languages": [], "places_of_operation": [], "biography": "", "biography_author": null, "date_of_biography": "2023-05-09T14:47:15.475418+10:00", "external_links": [], "uuid": "706bff29-1d31-4efa-a472-854cd1e5702a", "source": {"name": "Vernon", "slug": "vernon"}, "source_identifier": "7580", "external_references": [{"id": 32930, "source": {"name": "Wikidata", "slug": "wikidata"}, "source_identifier": "Q121143911"}], "date_modified": "2023-09-05T17:50:16.114298+10:00"}, {"id": 75156, "name": "Richard Patterson", "roles_in_work": [{"id": 2177282, "title": "Open window", "work_id": 71172, "role": "director", "role_id": 938, "is_primary": true}], "also_known_as": "", "date_of_birth": "", "date_of_death": "", "genders": [], "languages": [], "places_of_operation": [], "biography": "", "biography_author": null, "date_of_biography": "2023-05-09T14:47:15.669221+10:00", "external_links": [], "uuid": "013d2b05-b2c8-49d3-b1f8-1958f84628ba", "source": {"name": "Vernon", "slug": "vernon"}, "source_identifier": "27477", "external_references": [{"id": 36413, "source": {"name": "Wikidata", "slug": "wikidata"}, "source_identifier": "Q106374607"}], "date_modified": "2023-09-06T00:31:43.468420+10:00"}, {"id": 75155, "name": "Gyorgy Varnai", "roles_in_work": [{"id": 2176534, "title": "One, two, three", "work_id": 71154, "role": "co-director", "role_id": 959, "is_primary": true}], "also_known_as": "", "date_of_birth": "", "date_of_death": "", "genders": [], "languages": [], "places_of_operation": [], "biography": "", "biography_author": null, "date_of_biography": "2023-05-09T14:46:14.287527+10:00", "external_links": [], "uuid": "e98ef94f-8f65-41c0-8b87-3d1519c07ff4", "source": {"name": "Vernon", "slug": "vernon"}, "source_identifier": "20160", "external_references": [{"id": 39038, "source": {"name": "Wikidata", "slug": "wikidata"}, "source_identifier": "Q121271295"}], "date_modified": "2023-09-05T20:26:19.329635+10:00"}, {"id": 75154, "name": "Paul Tait", "roles_in_work": [{"id": 2140125, "title": "The One that got away", "work_id": 71150, "role": "cinematographer", "role_id": 32, "is_primary": false}, {"id": 905285, "title": "Nearly normal Nimbin", "work_id": 85989, "role": "co-director", "role_id": 959, "is_primary": true}, {"id": 2121124, "title": "Blowpipes and Bulldozers", "work_id": 80455, "role": "co-director", "role_id": 959, "is_primary": true}, {"id": 2615658, "title": "Didjeridu: with Charlie McMahon", "work_id": 85875, "role": "co-producers/directors", "role_id": 628, "is_primary": true}], "also_known_as": "", "date_of_birth": "", "date_of_death": "", "genders": [], "languages": [], "places_of_operation": [], "biography": "", "biography_author": null, "date_of_biography": "2023-05-09T15:07:37.559133+10:00", "external_links": [], "uuid": "ce4c2955-ee04-4d3b-bfa1-be17c1d4b928", "source": {"name": "Vernon", "slug": "vernon"}, "source_identifier": "26341", "external_references": [{"id": 35386, "source": {"name": "Wikidata", "slug": "wikidata"}, "source_identifier": "Q121143845"}], "date_modified": "2025-02-26T20:26:34.051906+11:00"}, {"id": 75153, "name": "Thomas Farley", "roles_in_work": [{"id": 2174557, "title": "One summer's day", "work_id": 71149, "role": "director", "role_id": 938, "is_primary": true}], "also_known_as": "", "date_of_birth": "", "date_of_death": "", "genders": [], "languages": [], "places_of_operation": [], "biography": "", "biography_author": null, "date_of_biography": "2023-05-09T14:43:29.778304+10:00", "external_links": [], "uuid": "e2e049ed-5de5-4e41-ae97-238207d8b604", "source": {"name": "Vernon", "slug": "vernon"}, "source_identifier": "29679", "external_references": [{"id": 32874, "source": {"name": "Wikidata", "slug": "wikidata"}, "source_identifier": "Q121315485"}], "date_modified": "2023-09-06T01:48:45.023386+10:00"}]}