{"count": 28687, "next": "https://api.acmi.net.au/creators/?page=1988", "previous": "https://api.acmi.net.au/creators/?page=1986", "results": [{"id": 22826, "name": "Gavin Taylor", "roles_in_work": [{"id": 781847, "title": "Lennon: a tribute", "work_id": 83279, "role": "director", "role_id": 938, "is_primary": true}, {"id": 2130219, "title": "Carmen", "work_id": 80775, "role": "director", "role_id": 938, "is_primary": true}], "also_known_as": "", "date_of_birth": null, "date_of_death": "2013-06-12", "genders": [{"id": 9, "name": "Male", "slug": "male"}], "languages": [], "places_of_operation": [{"id": 294, "name": "Republic of Ireland", "slug": "republic-of-ireland"}], "biography": "Gavin Taylor (c. 1942 – 12 June 2013) was a British film and television director. He was known for directing the broadcasts of major concerts and other televised events. Taylor's credits included The Tube television series, U2 Live at Red Rocks: Under a Blood Red Sky in 1983, and Queen at Wembley in 1986.Taylor lived at Darras Hall in Northumberland. He had two children and three grandchildren.Taylor worked for Tyne Tees Television (now called ITV Tyne Tees) from 1960 until 1996. He left Tyne Tees in 1996 in order to film The Royal Concert, a performance by Michael Jackson for the Royal Family of Brunei held in July 1996 in Bandar Seri Begawan. He had been offered the Jackson concert job by contacts he had made while directing The Tube during the 1980s.Taylor died from a short illness at St Oswald's Hospice in Gosforth, Newcastle, on 12 June 2013, at the age of 71.", "biography_author": "Wikidata", "date_of_biography": "2023-08-01T14:55:29.676852+10:00", "external_links": [{"id": 4024, "uri": "https://en.wikipedia.org/wiki/Gavin_Taylor"}], "uuid": "fb3a620c-43c5-4db3-b656-0be73b01d24b", "source": {"name": "Vernon", "slug": "vernon"}, "source_identifier": "19455", "external_references": [{"id": 26263, "source": {"name": "Wikidata", "slug": "wikidata"}, "source_identifier": "Q15993558"}, {"id": 28544, "source": {"name": "VIAF", "slug": "viaf"}, "source_identifier": "4102149296156680670005"}, {"id": 28545, "source": {"name": "LOC Auth", "slug": "loc-auth"}, "source_identifier": "nr2001003838"}, {"id": 28546, "source": {"name": "WorldCat", "slug": "worldcat"}, "source_identifier": "lccn-nr2001003838"}], "date_modified": "2023-09-05T19:59:35.470640+10:00"}, {"id": 22825, "name": "Ken Scorfield", "roles_in_work": [{"id": 2130216, "title": "Carmen", "work_id": 80775, "role": "producer", "role_id": 1089, "is_primary": true}], "also_known_as": "", "date_of_birth": "", "date_of_death": "", "genders": [], "languages": [], "places_of_operation": [], "biography": "", "biography_author": null, "date_of_biography": "2023-05-09T13:18:39.603603+10:00", "external_links": [], "uuid": "8e0bd49d-fda4-4ccf-9e26-b3e43ee21ec7", "source": {"name": "Vernon", "slug": "vernon"}, "source_identifier": "23219", "external_references": [], "date_modified": "2023-06-14T16:33:30.576250+10:00"}, {"id": 22824, "name": "Classical Productions", "roles_in_work": [{"id": 2130211, "title": "Carmen", "work_id": 80775, "role": "production company", "role_id": 941, "is_primary": true}], "also_known_as": "", "date_of_birth": "", "date_of_death": "", "genders": [], "languages": [], "places_of_operation": [], "biography": "", "biography_author": null, "date_of_biography": "2023-05-09T13:18:39.262079+10:00", "external_links": [], "uuid": "91b25f83-c195-48d1-b289-e4b30a99808e", "source": {"name": "Vernon", "slug": "vernon"}, "source_identifier": "6808", "external_references": [{"id": 43416, "source": {"name": "Wikidata", "slug": "wikidata"}, "source_identifier": "Q121337738"}], "date_modified": "2023-09-05T18:39:41.134270+10:00"}, {"id": 22823, "name": "Allied Vision", "roles_in_work": [{"id": 2130209, "title": "Carmen", "work_id": 80775, "role": "production company", "role_id": 941, "is_primary": true}, {"id": 115051, "title": "The Lawnmower Man", "work_id": 37620, "role": "production company", "role_id": 941, "is_primary": false}, {"id": 1999845, "title": "The Lawnmower man", "work_id": 94821, "role": "production company", "role_id": 941, "is_primary": true}], "also_known_as": "", "date_of_birth": "", "date_of_death": "", "genders": [], "languages": [], "places_of_operation": [], "biography": "", "biography_author": null, "date_of_biography": "2023-05-09T13:18:39.016441+10:00", "external_links": [], "uuid": "ed73bfed-a43c-4fad-b13e-abe4a1940c6b", "source": {"name": "Vernon", "slug": "vernon"}, "source_identifier": "3739", "external_references": [{"id": 36500, "source": {"name": "Wikidata", "slug": "wikidata"}, "source_identifier": "Q121079244"}], "date_modified": "2023-09-05T17:30:04.180370+10:00"}, {"id": 22821, "name": "Bustle Productions", "roles_in_work": [{"id": 2093132, "title": "An Interview with May Gibbs", "work_id": 80774, "role": "production company", "role_id": 941, "is_primary": true}], "also_known_as": "", "date_of_birth": "", "date_of_death": "", "genders": [], "languages": [], "places_of_operation": [], "biography": "", "biography_author": null, "date_of_biography": "2023-05-09T12:15:21.277866+10:00", "external_links": [], "uuid": "a221ebf0-0e1d-47dd-a939-81f7022bf316", "source": {"name": "Vernon", "slug": "vernon"}, "source_identifier": "6150", "external_references": [{"id": 37412, "source": {"name": "Wikidata", "slug": "wikidata"}, "source_identifier": "Q121091221"}], "date_modified": "2023-09-05T18:16:36.012063+10:00"}, {"id": 22820, "name": "Michael Nolin", "roles_in_work": [{"id": 905183, "title": "Mr Holland's opus (Captioned)", "work_id": 85928, "role": "co-producer", "role_id": 915, "is_primary": true}, {"id": 1989864, "title": "Mr. Holland's opus", "work_id": 85469, "role": "co-producer", "role_id": 915, "is_primary": true}, {"id": 1984746, "title": "The Umbrella Woman", "work_id": 80769, "role": "production company", "role_id": 941, "is_primary": true}], "also_known_as": "", "date_of_birth": "1950-12-07", "date_of_death": null, "genders": [{"id": 9, "name": "Male", "slug": "male"}], "languages": [], "places_of_operation": [{"id": 1, "name": "United States of America", "slug": "united-states-of-america"}], "biography": "Michael Nolin is an American former motion picture producer, former studio executive, former writer/director and current educator. Since 2003 he has been Professor of Film & Television and Dramatic Writing at SCAD in Savannah, Georgia.", "biography_author": "Wikidata", "date_of_biography": "2023-08-01T16:14:55.435208+10:00", "external_links": [{"id": 4699, "uri": "https://en.wikipedia.org/wiki/Michael_Nolin"}], "uuid": "7523cea4-921d-4bb0-9ec7-15d7568845dd", "source": {"name": "Vernon", "slug": "vernon"}, "source_identifier": "25172", "external_references": [{"id": 25929, "source": {"name": "Wikidata", "slug": "wikidata"}, "source_identifier": "Q6833086"}, {"id": 30330, "source": {"name": "VIAF", "slug": "viaf"}, "source_identifier": "29158174"}, {"id": 30331, "source": {"name": "LOC Auth", "slug": "loc-auth"}, "source_identifier": "no98128007"}, {"id": 30332, "source": {"name": "WorldCat", "slug": "worldcat"}, "source_identifier": "lccn-no98128007"}], "date_modified": "2023-09-13T12:31:27.154516+10:00"}, {"id": 22819, "name": "Laughing Kookaburra Productions", "roles_in_work": [{"id": 2751798, "title": "Saturday night again", "work_id": 97989, "role": "production company", "role_id": 941, "is_primary": true}, {"id": 2751801, "title": "Thirsty season", "work_id": 97990, "role": "production company", "role_id": 941, "is_primary": true}, {"id": 2296782, "title": "Shadows of the peacock = Echoes of paradise", "work_id": 95115, "role": "production company", "role_id": 941, "is_primary": true}, {"id": 1984745, "title": "The Umbrella Woman", "work_id": 80769, "role": "production company", "role_id": 941, "is_primary": true}], "also_known_as": "", "date_of_birth": "", "date_of_death": "", "genders": [], "languages": [], "places_of_operation": [], "biography": "", "biography_author": null, "date_of_biography": "2023-05-09T18:28:58.114640+10:00", "external_links": [], "uuid": "779133f5-d997-44fe-a888-0796f7dca215", "source": {"name": "Vernon", "slug": "vernon"}, "source_identifier": "9919", "external_references": [{"id": 33075, "source": {"name": "Wikidata", "slug": "wikidata"}, "source_identifier": "Q121126655"}], "date_modified": "2025-03-13T00:51:20.305298+11:00"}, {"id": 22816, "name": "Mediacast", "roles_in_work": [{"id": 2789196, "title": "The Heart", "work_id": 83371, "role": "production company", "role_id": 941, "is_primary": true}, {"id": 903146, "title": "Made in Australia", "work_id": 84087, "role": "production company", "role_id": 941, "is_primary": true}, {"id": 773069, "title": "The Sacred cow of India", "work_id": 80767, "role": "production company", "role_id": 941, "is_primary": true}, {"id": 2789208, "title": "Help yourself to health", "work_id": 115387, "role": "production company", "role_id": 941, "is_primary": true}, {"id": 2789202, "title": "Risk factors", "work_id": 83372, "role": "production company", "role_id": 941, "is_primary": true}], "also_known_as": "", "date_of_birth": "", "date_of_death": "", "genders": [], "languages": [], "places_of_operation": [], "biography": "", "biography_author": null, "date_of_biography": "2023-05-09T20:01:31.148440+10:00", "external_links": [], "uuid": "7708f32b-07be-4e91-bfc0-41a83ed55e67", "source": {"name": "Vernon", "slug": "vernon"}, "source_identifier": "10434", "external_references": [{"id": 36049, "source": {"name": "Wikidata", "slug": "wikidata"}, "source_identifier": "Q121144141"}], "date_modified": "2025-03-14T19:49:54.539260+11:00"}, {"id": 22815, "name": "John Weiley", "roles_in_work": [{"id": 1985118, "title": "Dead easy", "work_id": 81015, "role": "producer", "role_id": 1089, "is_primary": true}, {"id": 1978943, "title": "Dimboola [DVD]", "work_id": 95623, "role": "producer", "role_id": 1089, "is_primary": true}, {"id": 2473906, "title": "The Coolangatta Gold", "work_id": 80766, "role": "producer", "role_id": 1089, "is_primary": true}], "also_known_as": "", "date_of_birth": "", "date_of_death": "", "genders": [], "languages": [], "places_of_operation": [], "biography": "", "biography_author": null, "date_of_biography": "2023-08-16T03:40:11.512657+10:00", "external_links": [], "uuid": "6f5ce614-7cf7-4efa-9794-0ab2b2c914f1", "source": {"name": "Vernon", "slug": "vernon"}, "source_identifier": "22578", "external_references": [], "date_modified": "2023-08-16T03:40:11.512912+10:00"}, {"id": 22814, "name": "Hoyts", "roles_in_work": [{"id": 1991874, "title": "Crocodile Dundee: Crocodile Dundee II", "work_id": 87589, "role": "production company", "role_id": 941, "is_primary": true}, {"id": 2147845, "title": "Crocodile Dundee", "work_id": 81016, "role": "production company", "role_id": 941, "is_primary": true}, {"id": 2147893, "title": "Crocodile Dundee (Captioned)", "work_id": 81369, "role": "production company", "role_id": 941, "is_primary": true}, {"id": 2473905, "title": "The Coolangatta Gold", "work_id": 80766, "role": "production company", "role_id": 941, "is_primary": true}], "also_known_as": "", "date_of_birth": "", "date_of_death": "", "genders": [], "languages": [], "places_of_operation": [], "biography": "", "biography_author": null, "date_of_biography": "2023-08-16T03:40:10.899459+10:00", "external_links": [], "uuid": "9ebb463d-2692-4e6a-b03a-c82a6f09fce0", "source": {"name": "Vernon", "slug": "vernon"}, "source_identifier": "9161", "external_references": [], "date_modified": "2023-08-16T03:40:10.899723+10:00"}]}