{"count": 28683, "next": "https://api.acmi.net.au/creators/?page=891", "previous": "https://api.acmi.net.au/creators/?page=889", "results": [{"id": 76678, "name": "Claudia Karvan", "roles_in_work": [{"id": 2654750, "title": "Love My Way: What's In a Name", "work_id": 116929, "role": "cast", "role_id": 33, "is_primary": false}, {"id": 2649732, "title": "The Big steal", "work_id": 82090, "role": "cast", "role_id": 33, "is_primary": false}, {"id": 2654673, "title": "Love My Way: A Different Planet", "work_id": 116935, "role": "cast", "role_id": 33, "is_primary": false}, {"id": 2654726, "title": "Love My Way: Don't Tell Me Your Dreams", "work_id": 116928, "role": "cast", "role_id": 33, "is_primary": false}, {"id": 2511213, "title": "Two Girls and a Baby", "work_id": 87048, "role": "cast", "role_id": 33, "is_primary": false}, {"id": 2654775, "title": "Love My Way: Crazy Love", "work_id": 116930, "role": "cast", "role_id": 33, "is_primary": false}, {"id": 2654799, "title": "Love My Way: Spin Cycle", "work_id": 116931, "role": "cast", "role_id": 33, "is_primary": false}, {"id": 2654822, "title": "Love My Way: Stick Sisters", "work_id": 116932, "role": "cast", "role_id": 33, "is_primary": false}, {"id": 2654845, "title": "Love My Way: To Dance With Death", "work_id": 116933, "role": "cast", "role_id": 33, "is_primary": false}, {"id": 2654866, "title": "Love My Way: My Family Up a Tree", "work_id": 116934, "role": "cast", "role_id": 33, "is_primary": false}, {"id": 2654886, "title": "Love My Way: Only Mortal", "work_id": 116936, "role": "cast", "role_id": 33, "is_primary": false}, {"id": 2654906, "title": "Love My Way: Garden of Love", "work_id": 116937, "role": "cast", "role_id": 33, "is_primary": false}, {"id": 2315157, "title": "Strange planet", "work_id": 95153, "role": "cast", "role_id": 33, "is_primary": false}, {"id": 1984651, "title": "High tide", "work_id": 80658, "role": "cast", "role_id": 33, "is_primary": false}, {"id": 2178686, "title": "Dating the enemy", "work_id": 85615, "role": "cast", "role_id": 33, "is_primary": false}, {"id": 2296797, "title": "Shadows of the peacock = Echoes of paradise", "work_id": 95115, "role": "cast", "role_id": 33, "is_primary": false}, {"id": 912286, "title": "The Secret life of us. Eps. 01-03", "work_id": 92698, "role": "cast", "role_id": 33, "is_primary": false}, {"id": 906553, "title": "Never tell me never", "work_id": 87260, "role": "cast", "role_id": 33, "is_primary": false}, {"id": 2354242, "title": "The Heartbreak kid", "work_id": 85064, "role": "cast", "role_id": 33, "is_primary": false}, {"id": 2146876, "title": "Country comfort", "work_id": 92042, "role": "cast", "role_id": 33, "is_primary": false}, {"id": 2654901, "title": "Love My Way: Garden of Love", "work_id": 116937, "role": "producer", "role_id": 1089, "is_primary": true}, {"id": 2654705, "title": "Love my way", "work_id": 116927, "role": "producer", "role_id": 1089, "is_primary": true}, {"id": 2654717, "title": "Love My Way: Don't Tell Me Your Dreams", "work_id": 116928, "role": "producer", "role_id": 1089, "is_primary": true}, {"id": 2654668, "title": "Love My Way: A Different Planet", "work_id": 116935, "role": "producer", "role_id": 1089, "is_primary": true}, {"id": 2654741, "title": "Love My Way: What's In a Name", "work_id": 116929, "role": "producer", "role_id": 1089, "is_primary": true}, {"id": 2654764, "title": "Love My Way: Crazy Love", "work_id": 116930, "role": "producer", "role_id": 1089, "is_primary": true}, {"id": 2654789, "title": "Love My Way: Spin Cycle", "work_id": 116931, "role": "producer", "role_id": 1089, "is_primary": true}, {"id": 2654815, "title": "Love My Way: Stick Sisters", "work_id": 116932, "role": "producer", "role_id": 1089, "is_primary": true}, {"id": 2654839, "title": "Love My Way: To Dance With Death", "work_id": 116933, "role": "producer", "role_id": 1089, "is_primary": true}, {"id": 2654862, "title": "Love My Way: My Family Up a Tree", "work_id": 116934, "role": "producer", "role_id": 1089, "is_primary": true}, {"id": 2654881, "title": "Love My Way: Only Mortal", "work_id": 116936, "role": "producer", "role_id": 1089, "is_primary": true}], "also_known_as": "", "date_of_birth": "19 MAY 1972", "date_of_death": "", "genders": [{"id": 5, "name": "Female", "slug": "female"}], "languages": [{"id": 1, "name": "English", "slug": "english"}], "places_of_operation": [{"id": 3, "name": "Australia", "slug": "australia"}], "biography": "Claudia Karvan  (born 19 May 1972) is an Australian actress. As a child actor, she first appeared in the film Molly (1983) and followed with an adolescent role in High Tide (1987). She portrayed a teacher in The Heartbreak Kid (1993) – the film was spun off into a TV series, Heartbreak High (1994–1999), with her character taken over by Sarah Lambert. Karvan's roles in television series include The Secret Life of Us (2001–2005), Love My Way (2004–2007), Newton's Law (2017) and Halifax: Retribution (2020). She won Best Actress in a Leading Role in a Television Drama at the AFI Awards (later rebranded as the AACTA Awards) for her appearance in G.P. (1996). She won two similar AFI Awards for her role in Love My Way (2005 and 2007) and in 2014 for her work in The Time of Our Lives (2013–2014). As a co-producer and co-writer on Love My Way, she won three further AFI Awards for Best Drama Series in 2005, 2006 and 2007. Karvan was inducted into the Australian Film Walk of Fame in 2007 in acknowledgment of her contributions to the Australian film and television industry. From 2010 to 2011, she starred in the drama series Spirited, which she co-created and was executive producer. She appeared as Judy Vickers in Puberty Blues (2012, 2014). Karvan has co-produced House of Hancock (February 2015) and Doctor Doctor (2016–2021). In 2021 she co-created, co-produced and starred in the TV drama series, Bump. Source: Wikidata; 01/08/2023", "biography_author": null, "date_of_biography": "2025-03-05T15:35:37.783758+11:00", "external_links": [{"id": 3787, "uri": "https://en.wikipedia.org/wiki/Claudia_Karvan"}], "uuid": "0020f531-465b-4a7d-971f-a9b7f91a4aac", "source": {"name": "Vernon", "slug": "vernon"}, "source_identifier": "35098", "external_references": [{"id": 26955, "source": {"name": "Wikidata", "slug": "wikidata"}, "source_identifier": "Q271926"}, {"id": 27896, "source": {"name": "VIAF", "slug": "viaf"}, "source_identifier": "142655859"}, {"id": 27897, "source": {"name": "LOC Auth", "slug": "loc-auth"}, "source_identifier": "no2010186565"}, {"id": 27898, "source": {"name": "WorldCat", "slug": "worldcat"}, "source_identifier": "lccn-no2010186565"}], "date_modified": "2025-03-05T15:35:37.783987+11:00"}, {"id": 76677, "name": "Frankie J. Holden", "roles_in_work": [{"id": 1984650, "title": "High tide", "work_id": 80658, "role": "cast", "role_id": 33, "is_primary": false}], "also_known_as": "Peter Brian", "date_of_birth": "1952-12-18", "date_of_death": null, "genders": [{"id": 9, "name": "Male", "slug": "male"}], "languages": [{"id": 1, "name": "English", "slug": "english"}], "places_of_operation": [{"id": 3, "name": "Australia", "slug": "australia"}], "biography": "Frankie J. Holden  (born Peter Brian; 18 December 1952) , also known as Frank Holden, is an Australian singer, actor and TV presenter. In the 1970s, he fronted Ol' 55, which had a hit with \"On the Prowl\" from their debut album, Take It Greasy which peaked at number three on the Australian Kent Music Report Albums Chart in 1976. For Return Home Holden was nominated for Best Actor in a Lead Role at the 1990 AFI Awards.", "biography_author": "Wikidata", "date_of_biography": "2023-09-05T19:51:35.244432+10:00", "external_links": [{"id": 5820, "uri": "https://en.wikipedia.org/wiki/Frankie_J._Holden"}], "uuid": "96415bf0-5378-4f6b-8937-ee18db821966", "source": {"name": "Vernon", "slug": "vernon"}, "source_identifier": null, "external_references": [{"id": 51088, "source": {"name": "Wikidata", "slug": "wikidata"}, "source_identifier": "Q15497455"}, {"id": 54461, "source": {"name": "VIAF", "slug": "viaf"}, "source_identifier": "94198263"}, {"id": 54462, "source": {"name": "LOC Auth", "slug": "loc-auth"}, "source_identifier": "no2018062907"}, {"id": 54463, "source": {"name": "WorldCat", "slug": "worldcat"}, "source_identifier": "lccn-no2018062907"}], "date_modified": "2023-09-05T19:51:35.264996+10:00"}, {"id": 76676, "name": "Peter MacDonald", "roles_in_work": [{"id": 2235935, "title": "Rambo III", "work_id": 84816, "role": "director", "role_id": 938, "is_primary": true}, {"id": 2235453, "title": "Rambo III (Captioned)", "work_id": 80636, "role": "director", "role_id": 938, "is_primary": true}, {"id": 1992380, "title": "Legionnaire", "work_id": 87981, "role": "director", "role_id": 938, "is_primary": true}, {"id": 1992379, "title": "Legionnaire", "work_id": 87981, "role": "co-producer", "role_id": 915, "is_primary": true}], "also_known_as": "", "date_of_birth": "1939-06-20", "date_of_death": "", "genders": [{"id": 9, "name": "Male", "slug": "male"}], "languages": [{"id": 1, "name": "English", "slug": "english"}], "places_of_operation": [{"id": 10, "name": "United Kingdom", "slug": "united-kingdom"}], "biography": "Peter MacDonald (born 20 June 1939) is an English film director, cinematographer, and producer from London, England. A prolific second unit director, MacDonald has worked on various Hollywood blockbusters including Guardians of the Galaxy, The Bourne Ultimatum, Harry Potter and the Prisoner of Azkaban, and The Empire Strikes Back.", "biography_author": "Wikidata", "date_of_biography": "2023-08-01T16:34:37.082612+10:00", "external_links": [{"id": 2861, "uri": "https://en.wikipedia.org/wiki/Peter_MacDonald_(director)"}], "uuid": "9867228b-80a1-4b8a-853e-eaaf71a78abb", "source": {"name": "Vernon", "slug": "vernon"}, "source_identifier": "26625", "external_references": [{"id": 12166, "source": {"name": "Wikidata", "slug": "wikidata"}, "source_identifier": "Q933856"}, {"id": 12167, "source": {"name": "VIAF", "slug": "viaf"}, "source_identifier": "61746791"}, {"id": 12168, "source": {"name": "LOC Auth", "slug": "loc-auth"}, "source_identifier": "nr94026850"}, {"id": 12169, "source": {"name": "WorldCat", "slug": "worldcat"}, "source_identifier": "lccn-nr94026850"}], "date_modified": "2023-09-05T23:58:53.375714+10:00"}, {"id": 76675, "name": "Ted Childs", "roles_in_work": [{"id": 2790548, "title": "The World at war. Part 2 [DVD]", "work_id": 94951, "role": "co-producer", "role_id": 915, "is_primary": true}, {"id": 2790569, "title": "The World at war. - Volume 6.", "work_id": 80629, "role": "co-producer", "role_id": 915, "is_primary": true}], "also_known_as": "", "date_of_birth": "", "date_of_death": "", "genders": [], "languages": [], "places_of_operation": [], "biography": "", "biography_author": null, "date_of_biography": "2023-05-09T17:56:45.850145+10:00", "external_links": [], "uuid": "d014a18f-8bc9-4278-a52d-ea30bea3aa3b", "source": {"name": "Vernon", "slug": "vernon"}, "source_identifier": "29514", "external_references": [{"id": 34087, "source": {"name": "Wikidata", "slug": "wikidata"}, "source_identifier": "Q121337570"}], "date_modified": "2025-03-14T19:57:28.347852+11:00"}, {"id": 76674, "name": "Simon Bosanquet", "roles_in_work": [{"id": 2176567, "title": "Onegin [Widescreen]", "work_id": 89135, "role": "co-producer", "role_id": 915, "is_primary": true}, {"id": 2170372, "title": "Noddy goes to the fair", "work_id": 80602, "role": "co-producers/directors", "role_id": 628, "is_primary": true}], "also_known_as": "", "date_of_birth": "", "date_of_death": "", "genders": [], "languages": [], "places_of_operation": [], "biography": "", "biography_author": null, "date_of_biography": "2023-05-09T14:46:17.117565+10:00", "external_links": [], "uuid": "d717fc52-9caf-488c-88be-0cc1b576bf33", "source": {"name": "Vernon", "slug": "vernon"}, "source_identifier": "28837", "external_references": [{"id": 33368, "source": {"name": "Wikidata", "slug": "wikidata"}, "source_identifier": "Q121036922"}], "date_modified": "2023-09-06T01:19:49.268578+10:00"}, {"id": 76673, "name": "Ken Smeaton", "roles_in_work": [{"id": 899783, "title": "The Radical Poets", "work_id": 80604, "role": "co-producer", "role_id": 915, "is_primary": true}, {"id": 1904432, "title": "The Poetry Cup", "work_id": 80599, "role": "co-producer", "role_id": 915, "is_primary": true}], "also_known_as": "", "date_of_birth": null, "date_of_death": null, "genders": [], "languages": [], "places_of_operation": [], "biography": "", "biography_author": null, "date_of_biography": null, "external_links": [], "uuid": "690d5673-ff4c-4942-b3ba-d943c606ff06", "source": {"name": "Vernon", "slug": "vernon"}, "source_identifier": null, "external_references": [{"id": 33657, "source": {"name": "Wikidata", "slug": "wikidata"}, "source_identifier": "Q121159997"}], "date_modified": "2023-09-05T22:05:09.611958+10:00"}, {"id": 76672, "name": "Bob Huber", "roles_in_work": [{"id": 772507, "title": "Let's talk about sex (Captioned)", "work_id": 80587, "role": "producer/director", "role_id": 31, "is_primary": true}], "also_known_as": "", "date_of_birth": null, "date_of_death": null, "genders": [], "languages": [], "places_of_operation": [], "biography": "", "biography_author": null, "date_of_biography": null, "external_links": [], "uuid": "c4463d00-aecb-4111-9c33-daf348876001", "source": {"name": "Vernon", "slug": "vernon"}, "source_identifier": null, "external_references": [{"id": 51368, "source": {"name": "Wikidata", "slug": "wikidata"}, "source_identifier": "Q121361368"}], "date_modified": "2023-09-05T18:07:30.967423+10:00"}, {"id": 76671, "name": "John Hosier", "roles_in_work": [{"id": 2649000, "title": "Musical Tales", "work_id": 80540, "role": "co-producer", "role_id": 915, "is_primary": true}], "also_known_as": "", "date_of_birth": null, "date_of_death": null, "genders": [], "languages": [], "places_of_operation": [], "biography": "", "biography_author": null, "date_of_biography": null, "external_links": [], "uuid": "b22c818d-78fc-4d37-a945-ce1848a99e5f", "source": {"name": "Vernon", "slug": "vernon"}, "source_identifier": "22320", "external_references": [{"id": 39715, "source": {"name": "Wikidata", "slug": "wikidata"}, "source_identifier": "Q121036301"}], "date_modified": "2025-03-05T13:55:12.144460+11:00"}, {"id": 76670, "name": "Elizabeth Bennett", "roles_in_work": [{"id": 2648999, "title": "Musical Tales", "work_id": 80540, "role": "co-producer", "role_id": 915, "is_primary": true}], "also_known_as": "", "date_of_birth": null, "date_of_death": null, "genders": [], "languages": [], "places_of_operation": [], "biography": "", "biography_author": null, "date_of_biography": null, "external_links": [], "uuid": "e6a60007-6eeb-4e4b-98a6-082c413a6fdd", "source": {"name": "Vernon", "slug": "vernon"}, "source_identifier": "18699", "external_references": [{"id": 43232, "source": {"name": "Wikidata", "slug": "wikidata"}, "source_identifier": "Q121036231"}], "date_modified": "2025-03-05T13:55:11.553423+11:00"}, {"id": 76669, "name": "Margaret McDonald", "roles_in_work": [{"id": 2771348, "title": "More Winners : His Master's Ghost", "work_id": 80536, "role": "co-producer", "role_id": 915, "is_primary": true}], "also_known_as": "", "date_of_birth": "", "date_of_death": "", "genders": [], "languages": [], "places_of_operation": [], "biography": "", "biography_author": null, "date_of_biography": "2023-08-17T15:05:05.028945+10:00", "external_links": [], "uuid": "3e8bf324-3bca-4a25-913b-9739330d9422", "source": {"name": "Vernon", "slug": "vernon"}, "source_identifier": "24351", "external_references": [{"id": 41242, "source": {"name": "Wikidata", "slug": "wikidata"}, "source_identifier": "Q121091338"}], "date_modified": "2025-03-14T18:22:42.109534+11:00"}]}