{"count": 28687, "next": "https://api.acmi.net.au/creators/?page=180", "previous": "https://api.acmi.net.au/creators/?page=178", "results": [{"id": 83817, "name": "Don Ashby", "roles_in_work": [{"id": 2657995, "title": "Head colors", "work_id": 117111, "role": "creator", "role_id": 968, "is_primary": true}], "also_known_as": "", "date_of_birth": "", "date_of_death": "", "genders": [{"id": 9, "name": "Male", "slug": "male"}], "languages": [], "places_of_operation": [], "biography": "", "biography_author": null, "date_of_biography": "2023-05-09T19:07:03.990045+10:00", "external_links": [], "uuid": "080ebbd1-2592-452a-9f98-277d11b2ea58", "source": {"name": "Vernon", "slug": "vernon"}, "source_identifier": "35510", "external_references": [], "date_modified": "2025-03-05T17:33:19.088624+11:00"}, {"id": 83816, "name": "Geraldine Burke", "roles_in_work": [{"id": 2658008, "title": "Exploring...immersive art pedagogy", "work_id": 117110, "role": "creator", "role_id": 968, "is_primary": true}], "also_known_as": "", "date_of_birth": "", "date_of_death": "", "genders": [{"id": 5, "name": "Female", "slug": "female"}], "languages": [], "places_of_operation": [], "biography": "", "biography_author": null, "date_of_biography": "2023-05-09T19:06:53.839980+10:00", "external_links": [], "uuid": "cc4371be-cb41-4875-9fd1-66de3291965a", "source": {"name": "Vernon", "slug": "vernon"}, "source_identifier": "35513", "external_references": [], "date_modified": "2025-03-05T17:33:28.365125+11:00"}, {"id": 83815, "name": "Glenn Filbin", "roles_in_work": [{"id": 2657967, "title": "An Unguarded moment", "work_id": 117108, "role": "creator", "role_id": 968, "is_primary": true}], "also_known_as": "", "date_of_birth": "", "date_of_death": "", "genders": [{"id": 9, "name": "Male", "slug": "male"}], "languages": [], "places_of_operation": [], "biography": "", "biography_author": null, "date_of_biography": "2023-05-09T20:06:34.131649+10:00", "external_links": [], "uuid": "b79fcd7f-10a4-4f8a-9b5a-d8b5d3c7e0b2", "source": {"name": "Vernon", "slug": "vernon"}, "source_identifier": "35502", "external_references": [], "date_modified": "2025-03-05T17:33:00.613230+11:00"}, {"id": 83814, "name": "Stefanie Christian", "roles_in_work": [{"id": 2657987, "title": "This is my offering", "work_id": 117107, "role": "creator", "role_id": 968, "is_primary": true}], "also_known_as": "", "date_of_birth": "", "date_of_death": "", "genders": [{"id": 5, "name": "Female", "slug": "female"}], "languages": [], "places_of_operation": [], "biography": "", "biography_author": null, "date_of_biography": "2023-05-09T20:06:32.440491+10:00", "external_links": [], "uuid": "f69467c4-f05b-4ce6-97e5-523be65ff656", "source": {"name": "Vernon", "slug": "vernon"}, "source_identifier": "35507", "external_references": [], "date_modified": "2025-03-05T17:33:13.525701+11:00"}, {"id": 83813, "name": "Darren Kane", "roles_in_work": [{"id": 2657962, "title": "The Journey's rewards", "work_id": 117106, "role": "creator", "role_id": 968, "is_primary": true}], "also_known_as": "", "date_of_birth": "", "date_of_death": "", "genders": [{"id": 9, "name": "Male", "slug": "male"}], "languages": [], "places_of_operation": [], "biography": "", "biography_author": null, "date_of_biography": "2023-05-09T20:06:30.862848+10:00", "external_links": [], "uuid": "5db6add6-e898-45bc-a2ef-d6ae4effbee3", "source": {"name": "Vernon", "slug": "vernon"}, "source_identifier": "35501", "external_references": [], "date_modified": "2025-03-05T17:32:57.275368+11:00"}, {"id": 83812, "name": "Wayne Hornsby", "roles_in_work": [{"id": 2657992, "title": "Here, there & back again", "work_id": 117105, "role": "creator", "role_id": 968, "is_primary": true}], "also_known_as": "", "date_of_birth": "", "date_of_death": "", "genders": [{"id": 9, "name": "Male", "slug": "male"}], "languages": [], "places_of_operation": [], "biography": "", "biography_author": null, "date_of_biography": "2023-05-09T20:06:29.272239+10:00", "external_links": [], "uuid": "b8456e39-1815-4fa3-a72b-70d394fb0860", "source": {"name": "Vernon", "slug": "vernon"}, "source_identifier": "35508", "external_references": [], "date_modified": "2025-03-05T17:33:16.846747+11:00"}, {"id": 83811, "name": "Kim Davis", "roles_in_work": [{"id": 2657977, "title": "Here's to extremes and my journey beyond", "work_id": 117104, "role": "creator", "role_id": 968, "is_primary": true}], "also_known_as": "", "date_of_birth": "", "date_of_death": "", "genders": [{"id": 5, "name": "Female", "slug": "female"}], "languages": [], "places_of_operation": [], "biography": "", "biography_author": null, "date_of_biography": "2023-05-09T20:06:27.686298+10:00", "external_links": [], "uuid": "e3e451a3-77a1-4ec3-8d1b-7eb1327048fa", "source": {"name": "Vernon", "slug": "vernon"}, "source_identifier": "35504", "external_references": [], "date_modified": "2025-03-05T17:33:07.318546+11:00"}, {"id": 83810, "name": "Russell Varney", "roles_in_work": [{"id": 2657928, "title": "For my true love", "work_id": 117103, "role": "creator", "role_id": 968, "is_primary": true}], "also_known_as": "", "date_of_birth": "", "date_of_death": "", "genders": [{"id": 9, "name": "Male", "slug": "male"}], "languages": [], "places_of_operation": [], "biography": "", "biography_author": null, "date_of_biography": "2023-05-09T20:06:26.129467+10:00", "external_links": [], "uuid": "6d38eb05-a6e1-4131-a479-d1bfc29eb67f", "source": {"name": "Vernon", "slug": "vernon"}, "source_identifier": "35506", "external_references": [], "date_modified": "2025-03-05T17:32:34.577098+11:00"}, {"id": 83809, "name": "Jeffrey Robertson", "roles_in_work": [{"id": 2657972, "title": "Boy from the block", "work_id": 117102, "role": "creator", "role_id": 968, "is_primary": true}], "also_known_as": "", "date_of_birth": "", "date_of_death": "", "genders": [{"id": 9, "name": "Male", "slug": "male"}], "languages": [], "places_of_operation": [], "biography": "", "biography_author": null, "date_of_biography": "2023-05-09T20:06:45.398918+10:00", "external_links": [], "uuid": "7e0846ae-e734-4fb6-85a5-e3aee32bf1e3", "source": {"name": "Vernon", "slug": "vernon"}, "source_identifier": "35503", "external_references": [], "date_modified": "2025-03-05T17:33:03.968690+11:00"}, {"id": 83808, "name": "Straight Arrows", "roles_in_work": [{"id": 2657975, "title": "Here's to extremes and my journey beyond", "work_id": 117104, "role": "partner", "role_id": 575, "is_primary": false}, {"id": 2657956, "title": "Journeys into the unknown : Digital Storytelling project", "work_id": 117100, "role": "partner", "role_id": 575, "is_primary": false}, {"id": 2657960, "title": "The Journey's rewards", "work_id": 117106, "role": "partner", "role_id": 575, "is_primary": false}, {"id": 2657965, "title": "An Unguarded moment", "work_id": 117108, "role": "partner", "role_id": 575, "is_primary": false}, {"id": 2657970, "title": "Boy from the block", "work_id": 117102, "role": "partner", "role_id": 575, "is_primary": false}, {"id": 2657926, "title": "For my true love", "work_id": 117103, "role": "partner", "role_id": 575, "is_primary": false}, {"id": 2657980, "title": "The Bird catcher", "work_id": 117101, "role": "partner", "role_id": 575, "is_primary": false}, {"id": 2657985, "title": "This is my offering", "work_id": 117107, "role": "partner", "role_id": 575, "is_primary": false}, {"id": 2657990, "title": "Here, there & back again", "work_id": 117105, "role": "partner", "role_id": 575, "is_primary": false}], "also_known_as": "", "date_of_birth": "1995", "date_of_death": "", "genders": [], "languages": [], "places_of_operation": [], "biography": "", "biography_author": null, "date_of_biography": "2023-05-09T20:06:46.673481+10:00", "external_links": [], "uuid": "b89dedb3-f2d7-43eb-96df-d18ba04b977e", "source": {"name": "Vernon", "slug": "vernon"}, "source_identifier": "35500", "external_references": [], "date_modified": "2025-03-05T17:33:15.690731+11:00"}]}