{"count": 28681, "next": "https://api.acmi.net.au/creators/?page=56", "previous": "https://api.acmi.net.au/creators/?page=54", "results": [{"id": 86716, "name": "Geoffrey Posner", "roles_in_work": [{"id": 1847287, "title": "The Very best of the Young Ones", "work_id": 85325, "role": "co-director", "role_id": 959, "is_primary": true}], "also_known_as": "", "date_of_birth": null, "date_of_death": null, "genders": [], "languages": [], "places_of_operation": [], "biography": "", "biography_author": null, "date_of_biography": null, "external_links": [], "uuid": "9e1c2d06-81f8-46e9-bf24-2c3810865fef", "source": {"name": "Vernon", "slug": "vernon"}, "source_identifier": null, "external_references": [], "date_modified": "2023-06-14T16:33:30.576250+10:00"}, {"id": 86715, "name": "Kevin Bishop", "roles_in_work": [{"id": 1847282, "title": "French & Saunders: the video", "work_id": 85322, "role": "director", "role_id": 938, "is_primary": true}], "also_known_as": "", "date_of_birth": null, "date_of_death": null, "genders": [], "languages": [], "places_of_operation": [], "biography": "", "biography_author": null, "date_of_biography": null, "external_links": [], "uuid": "dabfbe6f-a06e-4f60-b8df-51f329ef651b", "source": {"name": "Vernon", "slug": "vernon"}, "source_identifier": null, "external_references": [], "date_modified": "2023-06-14T16:33:30.576250+10:00"}, {"id": 86714, "name": "Sean Hardie", "roles_in_work": [{"id": 1847268, "title": "Not the 9 O'clock News: Gorilla kinda lingers", "work_id": 85241, "role": "co-producer", "role_id": 915, "is_primary": true}], "also_known_as": "", "date_of_birth": null, "date_of_death": null, "genders": [], "languages": [], "places_of_operation": [], "biography": "", "biography_author": null, "date_of_biography": null, "external_links": [], "uuid": "1b5c9fd3-a0f7-4e85-b550-e7fbf0ef28a5", "source": {"name": "Vernon", "slug": "vernon"}, "source_identifier": null, "external_references": [], "date_modified": "2023-06-14T16:33:30.576250+10:00"}, {"id": 86713, "name": "Marty Krofft", "roles_in_work": [{"id": 1847263, "title": "H.R. Pufnstuf: the magic path", "work_id": 85240, "role": "co-producer", "role_id": 915, "is_primary": true}, {"id": 2615343, "title": "H.R. Pufnstuf: The wheely bird", "work_id": 85257, "role": "co-producer", "role_id": 915, "is_primary": true}], "also_known_as": "", "date_of_birth": null, "date_of_death": null, "genders": [], "languages": [], "places_of_operation": [], "biography": "", "biography_author": null, "date_of_biography": null, "external_links": [], "uuid": "313a44b7-3c0c-47b9-aa5a-cddb2df4f48b", "source": {"name": "Vernon", "slug": "vernon"}, "source_identifier": "4106", "external_references": [], "date_modified": "2025-02-26T20:22:30.278173+11:00"}, {"id": 86712, "name": "Sid Krofft", "roles_in_work": [{"id": 1847262, "title": "H.R. Pufnstuf: the magic path", "work_id": 85240, "role": "co-producer", "role_id": 915, "is_primary": true}, {"id": 2615342, "title": "H.R. Pufnstuf: The wheely bird", "work_id": 85257, "role": "co-producer", "role_id": 915, "is_primary": true}], "also_known_as": "", "date_of_birth": null, "date_of_death": null, "genders": [], "languages": [], "places_of_operation": [], "biography": "", "biography_author": null, "date_of_biography": null, "external_links": [], "uuid": "29fa2c0a-0ea7-408e-a30d-9c5f9b1af749", "source": {"name": "Vernon", "slug": "vernon"}, "source_identifier": "4104", "external_references": [], "date_modified": "2025-02-26T20:22:29.681938+11:00"}, {"id": 86711, "name": "David Wallace", "roles_in_work": [{"id": 2148943, "title": "Crusades. Pt. 2", "work_id": 84899, "role": "co-producers/directors", "role_id": 628, "is_primary": true}, {"id": 2148938, "title": "Crusades. Pt. 1", "work_id": 84898, "role": "co-producers/directors", "role_id": 628, "is_primary": true}, {"id": 1847799, "title": "In the footsteps of Alexander the Great", "work_id": 88505, "role": "director", "role_id": 938, "is_primary": true}], "also_known_as": "", "date_of_birth": "", "date_of_death": "", "genders": [], "languages": [], "places_of_operation": [], "biography": "", "biography_author": null, "date_of_biography": "2023-05-09T13:49:37.794162+10:00", "external_links": [], "uuid": "ac596527-d1f1-4b6f-b49f-c65907632ef9", "source": {"name": "Vernon", "slug": "vernon"}, "source_identifier": "17840", "external_references": [], "date_modified": "2023-06-14T16:33:30.576250+10:00"}, {"id": 86710, "name": "Alan Ereira", "roles_in_work": [{"id": 2148941, "title": "Crusades. Pt. 2", "work_id": 84899, "role": "co-producers/directors", "role_id": 628, "is_primary": true}, {"id": 2148932, "title": "Crusades. Pt. 1", "work_id": 84898, "role": "co-producers/directors", "role_id": 628, "is_primary": true}], "also_known_as": "", "date_of_birth": "", "date_of_death": "", "genders": [], "languages": [], "places_of_operation": [], "biography": "", "biography_author": null, "date_of_biography": "2023-05-09T13:49:37.453081+10:00", "external_links": [], "uuid": "f1fe9b72-d001-4f5b-b7e7-97e1b1af050a", "source": {"name": "Vernon", "slug": "vernon"}, "source_identifier": "14751", "external_references": [], "date_modified": "2023-06-14T16:33:30.576250+10:00"}, {"id": 86709, "name": "Neil Lucas", "roles_in_work": [{"id": 2615149, "title": "The Private life of plants. Part 2", "work_id": 84895, "role": "director", "role_id": 938, "is_primary": true}], "also_known_as": "", "date_of_birth": null, "date_of_death": null, "genders": [], "languages": [], "places_of_operation": [], "biography": "", "biography_author": null, "date_of_biography": null, "external_links": [], "uuid": "c1467b3d-0ee0-4be7-8b57-0af05b780d28", "source": {"name": "Vernon", "slug": "vernon"}, "source_identifier": "25676", "external_references": [], "date_modified": "2025-02-26T20:19:53.203058+11:00"}, {"id": 86708, "name": "Ken Scholey", "roles_in_work": [{"id": 2615148, "title": "The Private life of plants. Part 2", "work_id": 84895, "role": "co-producer", "role_id": 915, "is_primary": true}], "also_known_as": "", "date_of_birth": null, "date_of_death": null, "genders": [], "languages": [], "places_of_operation": [], "biography": "", "biography_author": null, "date_of_biography": null, "external_links": [], "uuid": "f93baaef-cd59-4253-aa90-2d12bdabacaf", "source": {"name": "Vernon", "slug": "vernon"}, "source_identifier": "23218", "external_references": [], "date_modified": "2025-02-26T20:19:52.600381+11:00"}, {"id": 86707, "name": "TBS Production", "roles_in_work": [{"id": 1847191, "title": "The Private life of plants. Part 1", "work_id": 84894, "role": "production company", "role_id": 941, "is_primary": true}], "also_known_as": "", "date_of_birth": null, "date_of_death": null, "genders": [], "languages": [], "places_of_operation": [], "biography": "", "biography_author": null, "date_of_biography": null, "external_links": [], "uuid": "308cf894-6a5a-4302-a3af-027169aede7f", "source": {"name": "Vernon", "slug": "vernon"}, "source_identifier": null, "external_references": [], "date_modified": "2023-06-14T16:33:30.576250+10:00"}]}