{"count": 28687, "next": "https://api.acmi.net.au/creators/?page=1759", "previous": "https://api.acmi.net.au/creators/?page=1757", "results": [{"id": 27335, "name": "Gustav Machaty", "roles_in_work": [{"id": 2214344, "title": "Ecstasy = Ekstase", "work_id": 85372, "role": "director", "role_id": 938, "is_primary": true}], "also_known_as": "", "date_of_birth": "1901-05-09", "date_of_death": "1963-12-14", "genders": [{"id": 9, "name": "Male", "slug": "male"}], "languages": [{"id": 20, "name": "Czech", "slug": "czech"}, {"id": 5, "name": "German", "slug": "german"}], "places_of_operation": [{"id": 55, "name": "Czechoslovakia", "slug": "czechoslovakia"}], "biography": "Gustav Machatý (9 May 1901 – 13 December 1963) was a Czech film director, screenwriter and actor. He directed films in Czechoslovakia, USA and Germany including Erotikon and Ecstasy.", "biography_author": "Wikidata", "date_of_biography": "2022-05-19T11:40:12.416627+10:00", "external_links": [{"id": 2173, "uri": "https://en.wikipedia.org/wiki/Gustav_Machat%C3%BD"}], "uuid": "00b4ddef-c2de-403b-87ad-ca4e4ed701d6", "source": {"name": "Vernon", "slug": "vernon"}, "source_identifier": "20126", "external_references": [{"id": 9350, "source": {"name": "Wikidata", "slug": "wikidata"}, "source_identifier": "Q1388800"}, {"id": 9351, "source": {"name": "VIAF", "slug": "viaf"}, "source_identifier": "7650320"}, {"id": 9352, "source": {"name": "LOC Auth", "slug": "loc-auth"}, "source_identifier": "n85201416"}, {"id": 9353, "source": {"name": "WorldCat", "slug": "worldcat"}, "source_identifier": "lccn-n85201416"}], "date_modified": "2023-09-13T12:29:45.087915+10:00"}, {"id": 27334, "name": "Regina Film", "roles_in_work": [{"id": 1994736, "title": "The End of the day = La Fin du jour", "work_id": 90518, "role": "production company", "role_id": 941, "is_primary": true}, {"id": 2214342, "title": "Ecstasy = Ekstase", "work_id": 85372, "role": "production company", "role_id": 941, "is_primary": true}, {"id": 3104618, "title": "fin du jour", "work_id": 116001, "role": "production company", "role_id": 941, "is_primary": true}], "also_known_as": "", "date_of_birth": "", "date_of_death": "", "genders": [], "languages": [], "places_of_operation": [], "biography": "", "biography_author": null, "date_of_biography": "2023-05-09T15:52:01.746999+10:00", "external_links": [], "uuid": "b799ee56-2d3f-4c43-862b-68032c986228", "source": {"name": "Vernon", "slug": "vernon"}, "source_identifier": "11938", "external_references": [{"id": 43145, "source": {"name": "Wikidata", "slug": "wikidata"}, "source_identifier": "Q121058084"}], "date_modified": "2025-05-22T22:45:29.446044+10:00"}, {"id": 27330, "name": "Mace Neufeld", "roles_in_work": [{"id": 2615378, "title": "Clear and present danger", "work_id": 85368, "role": "co-producer", "role_id": 915, "is_primary": true}, {"id": 2355304, "title": "The Hunt for Red October", "work_id": 87350, "role": "producer", "role_id": 1089, "is_primary": true}, {"id": 1999866, "title": "The Sum of all fears", "work_id": 94826, "role": "producer", "role_id": 1089, "is_primary": true}], "also_known_as": "", "date_of_birth": "1928-07-13", "date_of_death": "2022-01-21", "genders": [{"id": 9, "name": "Male", "slug": "male"}], "languages": [{"id": 1, "name": "English", "slug": "english"}], "places_of_operation": [{"id": 1, "name": "United States of America", "slug": "united-states-of-america"}], "biography": "Mace Alvin Neufeld (July 13, 1928 – January 21, 2022) was an American film and television producer.", "biography_author": "Wikidata", "date_of_biography": "2022-05-19T12:19:49.857831+10:00", "external_links": [{"id": 2611, "uri": "https://en.wikipedia.org/wiki/Mace_Neufeld"}], "uuid": "694d7c97-c86d-4eb4-b12d-898a9318fe00", "source": {"name": "Vernon", "slug": "vernon"}, "source_identifier": "24176", "external_references": [{"id": 11161, "source": {"name": "Wikidata", "slug": "wikidata"}, "source_identifier": "Q345683"}, {"id": 11162, "source": {"name": "VIAF", "slug": "viaf"}, "source_identifier": "75869168"}, {"id": 11163, "source": {"name": "LOC Auth", "slug": "loc-auth"}, "source_identifier": "no00099033"}, {"id": 11164, "source": {"name": "WorldCat", "slug": "worldcat"}, "source_identifier": "lccn-no00099033"}], "date_modified": "2025-02-26T20:22:55.942894+11:00"}, {"id": 27323, "name": "R B Films", "roles_in_work": [{"id": 905319, "title": "Hatred", "work_id": 86024, "role": "production company", "role_id": 941, "is_primary": true}, {"id": 2159569, "title": "Mary", "work_id": 85361, "role": "production company", "role_id": 941, "is_primary": true}, {"id": 1992008, "title": "In the winter dark", "work_id": 87761, "role": "production company", "role_id": 941, "is_primary": true}], "also_known_as": "", "date_of_birth": "", "date_of_death": "", "genders": [], "languages": [], "places_of_operation": [], "biography": "", "biography_author": null, "date_of_biography": "2023-05-09T14:13:32.518913+10:00", "external_links": [], "uuid": "2dd84e06-dadd-45fd-9121-135414f741a4", "source": {"name": "Vernon", "slug": "vernon"}, "source_identifier": "11794", "external_references": [], "date_modified": "2023-06-14T16:33:30.576250+10:00"}, {"id": 27316, "name": "Learning Channel", "roles_in_work": [{"id": 1427956, "title": "The Secret life of twins. Part two", "work_id": 88157, "role": "production company", "role_id": 941, "is_primary": true}, {"id": 2355650, "title": "The Human body: the making of the TV series [DVD]", "work_id": 93625, "role": "production company", "role_id": 941, "is_primary": true}, {"id": 2069306, "title": "A Horse's world", "work_id": 91842, "role": "production company", "role_id": 941, "is_primary": true}, {"id": 816317, "title": "The Human body [the complete series] [DVD]", "work_id": 93626, "role": "production company", "role_id": 941, "is_primary": true}, {"id": 2120544, "title": "Blood and flowers: in search of the Aztecs", "work_id": 93912, "role": "production company", "role_id": 941, "is_primary": true}, {"id": 1847813, "title": "Wonders of weather. - Volume 3", "work_id": 88725, "role": "production company", "role_id": 941, "is_primary": true}, {"id": 876389, "title": "The Secret life of twins. Part one", "work_id": 90063, "role": "production company", "role_id": 941, "is_primary": true}, {"id": 874948, "title": "The Secret life of twins. Part three", "work_id": 89205, "role": "production company", "role_id": 941, "is_primary": true}, {"id": 2792962, "title": "The Mediterranean", "work_id": 85360, "role": "production company", "role_id": 941, "is_primary": true}, {"id": 2792981, "title": "Archaeology", "work_id": 115449, "role": "production company", "role_id": 941, "is_primary": true}], "also_known_as": "", "date_of_birth": "", "date_of_death": "", "genders": [], "languages": [], "places_of_operation": [], "biography": "", "biography_author": null, "date_of_biography": "2023-05-09T20:03:32.241091+10:00", "external_links": [], "uuid": "cb1e6527-970f-45dd-aaca-0cb8ada3af14", "source": {"name": "Vernon", "slug": "vernon"}, "source_identifier": "9952", "external_references": [{"id": 43516, "source": {"name": "Wikidata", "slug": "wikidata"}, "source_identifier": "Q121223322"}], "date_modified": "2025-03-14T20:14:34.856303+11:00"}, {"id": 27315, "name": "Quai 32", "roles_in_work": [{"id": 2792961, "title": "The Mediterranean", "work_id": 85360, "role": "production company", "role_id": 941, "is_primary": true}, {"id": 2792980, "title": "Archaeology", "work_id": 115449, "role": "production company", "role_id": 941, "is_primary": true}], "also_known_as": "", "date_of_birth": "", "date_of_death": "", "genders": [], "languages": [], "places_of_operation": [], "biography": "", "biography_author": null, "date_of_biography": "2023-05-09T20:01:55.357526+10:00", "external_links": [], "uuid": "781cf6b3-2062-4f37-b36d-d020ee7afed6", "source": {"name": "Vernon", "slug": "vernon"}, "source_identifier": "11756", "external_references": [{"id": 51090, "source": {"name": "Wikidata", "slug": "wikidata"}, "source_identifier": "Q121357808"}], "date_modified": "2025-03-14T20:14:34.273506+11:00"}, {"id": 27314, "name": "New Dominion Pictures", "roles_in_work": [{"id": 2792959, "title": "Archaeology", "work_id": 115449, "role": "production company", "role_id": 941, "is_primary": true}, {"id": 2792960, "title": "The Mediterranean", "work_id": 85360, "role": "production company", "role_id": 941, "is_primary": true}, {"id": 2792971, "title": "The Holy land", "work_id": 85576, "role": "production company", "role_id": 941, "is_primary": true}], "also_known_as": "", "date_of_birth": "", "date_of_death": "", "genders": [], "languages": [], "places_of_operation": [], "biography": "", "biography_author": null, "date_of_biography": "2023-05-09T20:01:55.087203+10:00", "external_links": [], "uuid": "fc787e38-a8e0-449b-8183-59d5d40b48b0", "source": {"name": "Vernon", "slug": "vernon"}, "source_identifier": "10895", "external_references": [{"id": 33492, "source": {"name": "Wikidata", "slug": "wikidata"}, "source_identifier": "Q121222676"}], "date_modified": "2025-03-14T20:14:33.684152+11:00"}, {"id": 27313, "name": "Anthony Harvey", "roles_in_work": [{"id": 1989709, "title": "The Lion in winter", "work_id": 85358, "role": "director", "role_id": 938, "is_primary": true}], "also_known_as": "", "date_of_birth": "1931-06-03", "date_of_death": "2017-11-23", "genders": [{"id": 9, "name": "Male", "slug": "male"}], "languages": [{"id": 1, "name": "English", "slug": "english"}], "places_of_operation": [{"id": 10, "name": "United Kingdom", "slug": "united-kingdom"}], "biography": "Anthony Harvey (3 June 1930 – 23 November 2017) was an English filmmaker who began his career as a teenage actor, was a film editor in the 1950s and moved into directing in the mid-1960s. Harvey had fifteen film credits as an editor, and he directed thirteen films. The second film that Harvey directed, The Lion in Winter (1968), earned him a nomination for the Academy Award for Best Director. Harvey's career is also notable for his recurring work with a number of leading actors and directors including Terry-Thomas, Peter Sellers, Katharine Hepburn, Peter O'Toole, Richard Attenborough, Liv Ullman, Sam Waterston, Nick Nolte, the Boulting Brothers, Anthony Asquith, Bryan Forbes and Stanley Kubrick. He died in November 2017 at the age of 87.", "biography_author": "Wikidata", "date_of_biography": "2022-05-19T10:50:53+10:00", "external_links": [{"id": 1664, "uri": "https://en.wikipedia.org/wiki/Anthony_Harvey"}], "uuid": "e2faeddb-3c02-48fe-a8d6-11f57e0d84dd", "source": {"name": "Vernon", "slug": "vernon"}, "source_identifier": "15392", "external_references": [{"id": 7258, "source": {"name": "Wikidata", "slug": "wikidata"}, "source_identifier": "Q543124"}, {"id": 7259, "source": {"name": "VIAF", "slug": "viaf"}, "source_identifier": "81651458"}, {"id": 7260, "source": {"name": "LOC Auth", "slug": "loc-auth"}, "source_identifier": "no92023010"}, {"id": 7261, "source": {"name": "WorldCat", "slug": "worldcat"}, "source_identifier": "lccn-no92023010"}], "date_modified": "2023-09-13T12:45:56.258108+10:00"}, {"id": 27305, "name": "Cine-Source", "roles_in_work": [{"id": 2324567, "title": "Texasville", "work_id": 85353, "role": "production company", "role_id": 941, "is_primary": true}], "also_known_as": "", "date_of_birth": "", "date_of_death": "", "genders": [], "languages": [], "places_of_operation": [], "biography": "", "biography_author": null, "date_of_biography": "2023-05-09T19:17:10.473233+10:00", "external_links": [], "uuid": "c3310e71-e0a6-45cf-b689-2aaf998dfa82", "source": {"name": "Vernon", "slug": "vernon"}, "source_identifier": "6764", "external_references": [{"id": 38469, "source": {"name": "Wikidata", "slug": "wikidata"}, "source_identifier": "Q121057957"}], "date_modified": "2023-09-05T18:37:33.506348+10:00"}, {"id": 27303, "name": "Flying Films", "roles_in_work": [{"id": 2615359, "title": "Say a little prayer", "work_id": 85348, "role": "production company", "role_id": 941, "is_primary": true}], "also_known_as": "", "date_of_birth": "", "date_of_death": "", "genders": [], "languages": [], "places_of_operation": [], "biography": "", "biography_author": null, "date_of_biography": "2023-05-09T17:32:10.806521+10:00", "external_links": [], "uuid": "8f9f473a-7d54-4f8f-80c5-8c42726bcf00", "source": {"name": "Vernon", "slug": "vernon"}, "source_identifier": "8408", "external_references": [{"id": 34744, "source": {"name": "Wikidata", "slug": "wikidata"}, "source_identifier": "Q121223342"}], "date_modified": "2025-02-26T20:22:42.752529+11:00"}]}