{"count": 28681, "next": "https://api.acmi.net.au/creators/?page=516", "previous": "https://api.acmi.net.au/creators/?page=514", "results": [{"id": 80429, "name": "Burtt Harris", "roles_in_work": [{"id": 2232013, "title": "Prince of the city [NTSC]", "work_id": 93697, "role": "producer", "role_id": 1089, "is_primary": true}, {"id": 2754589, "title": "Glass menagerie", "work_id": 99271, "role": "producer", "role_id": 1089, "is_primary": true}], "also_known_as": "", "date_of_birth": "", "date_of_death": "", "genders": [], "languages": [], "places_of_operation": [], "biography": "", "biography_author": null, "date_of_biography": "2023-05-09T16:38:51.929074+10:00", "external_links": [], "uuid": "73ae4fa6-cedf-4dd9-92f8-f98d318f782f", "source": {"name": "Vernon", "slug": "vernon"}, "source_identifier": "16388", "external_references": [], "date_modified": "2025-03-13T01:47:14.662622+11:00"}, {"id": 80428, "name": "Alain Berliner", "roles_in_work": [{"id": 2166524, "title": "My life in pink = Ma vie en rose [Widescreen]", "work_id": 93693, "role": "director", "role_id": 938, "is_primary": true}], "also_known_as": "", "date_of_birth": "1963-02-21", "date_of_death": "", "genders": [{"id": 9, "name": "Male", "slug": "male"}], "languages": [{"id": 4, "name": "French", "slug": "french"}], "places_of_operation": [{"id": 37, "name": "Belgium", "slug": "belgium"}], "biography": "Alain Berliner (born 21 February 1963) is a Belgian film director best known for the 1997 film Ma vie en rose, which won the Golden Globe Award for Best Foreign Language Film at the 55th Golden Globe Awards in 1998.\nBorn in Brussels, he also directed Le Mur, Passion of Mind, La Maison du canal, and J'aurais voulu être un danseur.", "biography_author": "Wikidata", "date_of_biography": "2023-08-01T13:54:50.990027+10:00", "external_links": [{"id": 3492, "uri": "https://en.wikipedia.org/wiki/Alain_Berliner"}], "uuid": "27d30883-dba7-4328-9437-4649b18a8c08", "source": {"name": "Vernon", "slug": "vernon"}, "source_identifier": "14714", "external_references": [{"id": 25125, "source": {"name": "Wikidata", "slug": "wikidata"}, "source_identifier": "Q628951"}, {"id": 27107, "source": {"name": "VIAF", "slug": "viaf"}, "source_identifier": "29154027"}, {"id": 27108, "source": {"name": "LOC Auth", "slug": "loc-auth"}, "source_identifier": "no98104988"}, {"id": 27109, "source": {"name": "WorldCat", "slug": "worldcat"}, "source_identifier": "lccn-no98104988"}], "date_modified": "2023-09-05T17:18:14.669507+10:00"}, {"id": 80427, "name": "Imre Gyongyossy", "roles_in_work": [{"id": 2249638, "title": "Revolt of Job = Job lazadasa [NTSC]", "work_id": 93692, "role": "co-director", "role_id": 959, "is_primary": true}], "also_known_as": "", "date_of_birth": "1930-02-25", "date_of_death": "1994-05-01", "genders": [{"id": 9, "name": "Male", "slug": "male"}], "languages": [{"id": 8, "name": "Hungarian", "slug": "hungarian"}], "places_of_operation": [{"id": 25, "name": "Hungary", "slug": "hungary"}], "biography": "Imre Gyöngyössy (25 February 1930 – 1 May 1994) was a Hungarian film director and screenwriter. His film The Revolt of Job (1983), which he co-directed with Barna Kabay, was nominated for the Academy Award for Best Foreign Language Film.  Gyöngyössy said that he intended the film \"as a message not only between generations but between nations\".", "biography_author": "Wikidata", "date_of_biography": "2023-09-05T20:48:11.234727+10:00", "external_links": [{"id": 5878, "uri": "https://en.wikipedia.org/wiki/Imre_Gy%C3%B6ngy%C3%B6ssy"}], "uuid": "5e407726-186f-46a5-b5bf-8bf50742da25", "source": {"name": "Vernon", "slug": "vernon"}, "source_identifier": "20829", "external_references": [{"id": 34038, "source": {"name": "Wikidata", "slug": "wikidata"}, "source_identifier": "Q773550"}, {"id": 54705, "source": {"name": "VIAF", "slug": "viaf"}, "source_identifier": "121451279"}, {"id": 54706, "source": {"name": "WorldCat", "slug": "worldcat"}, "source_identifier": "viaf-121451279"}], "date_modified": "2023-09-05T20:48:11.253107+10:00"}, {"id": 80426, "name": "Barna Kabay", "roles_in_work": [{"id": 2249634, "title": "Revolt of Job = Job lazadasa [NTSC]", "work_id": 93692, "role": "co-director", "role_id": 959, "is_primary": true}], "also_known_as": "", "date_of_birth": "1948-08-15", "date_of_death": "", "genders": [{"id": 9, "name": "Male", "slug": "male"}], "languages": [{"id": 8, "name": "Hungarian", "slug": "hungarian"}], "places_of_operation": [{"id": 25, "name": "Hungary", "slug": "hungary"}], "biography": "Barna Kabay (born 15 August 1948, Budapest) is a Hungarian film director, screenwriter and film producer. His film The Revolt of Job (1983), which he co-directed with Imre Gyöngyössy, was nominated for the Academy Award for Best Foreign Language Film.", "biography_author": "Wikidata", "date_of_biography": "2023-09-06T10:18:48.624721+10:00", "external_links": [{"id": 6264, "uri": "https://en.wikipedia.org/wiki/Barna_Kabay"}], "uuid": "c9bc66d6-0342-4de2-bcf2-da2af26837c8", "source": {"name": "Vernon", "slug": "vernon"}, "source_identifier": "15680", "external_references": [{"id": 51240, "source": {"name": "Wikidata", "slug": "wikidata"}, "source_identifier": "Q676904"}, {"id": 56116, "source": {"name": "VIAF", "slug": "viaf"}, "source_identifier": "66728593"}, {"id": 56117, "source": {"name": "WorldCat", "slug": "worldcat"}, "source_identifier": "viaf-66728593"}], "date_modified": "2023-09-06T10:18:48.646018+10:00"}, {"id": 80425, "name": "Ani DiFranco", "roles_in_work": [{"id": 2248423, "title": "Render: spanning time with Ani DiFranco", "work_id": 93691, "role": "co-director", "role_id": 959, "is_primary": true}], "also_known_as": "", "date_of_birth": "", "date_of_death": "", "genders": [], "languages": [], "places_of_operation": [], "biography": "", "biography_author": null, "date_of_biography": "2023-05-09T17:07:00.126522+10:00", "external_links": [], "uuid": "8f8af043-3ec0-4637-af27-9e6e9c915fcc", "source": {"name": "Vernon", "slug": "vernon"}, "source_identifier": "15276", "external_references": [{"id": 38756, "source": {"name": "Wikidata", "slug": "wikidata"}, "source_identifier": "Q121036761"}], "date_modified": "2023-09-05T17:38:36.676333+10:00"}, {"id": 80424, "name": "Hilary Goldberg", "roles_in_work": [{"id": 2248421, "title": "Render: spanning time with Ani DiFranco", "work_id": 93691, "role": "co-director", "role_id": 959, "is_primary": true}], "also_known_as": "", "date_of_birth": "", "date_of_death": "", "genders": [], "languages": [], "places_of_operation": [], "biography": "", "biography_author": null, "date_of_biography": "2023-05-09T17:06:59.773183+10:00", "external_links": [], "uuid": "44aa54ab-dc58-4737-968f-5d48804aec99", "source": {"name": "Vernon", "slug": "vernon"}, "source_identifier": "20554", "external_references": [{"id": 34509, "source": {"name": "Wikidata", "slug": "wikidata"}, "source_identifier": "Q121126670"}], "date_modified": "2023-09-05T20:39:15.703890+10:00"}, {"id": 80423, "name": "Brian Dennis", "roles_in_work": [{"id": 1998220, "title": "Hard core logo = Hardcore logo", "work_id": 93685, "role": "co-producer", "role_id": 915, "is_primary": true}], "also_known_as": "", "date_of_birth": null, "date_of_death": null, "genders": [], "languages": [], "places_of_operation": [], "biography": "", "biography_author": null, "date_of_biography": null, "external_links": [], "uuid": "ff56f082-e3f0-4a8e-b6f4-8f1c4ce96dd8", "source": {"name": "Vernon", "slug": "vernon"}, "source_identifier": null, "external_references": [{"id": 42702, "source": {"name": "Wikidata", "slug": "wikidata"}, "source_identifier": "Q121271321"}], "date_modified": "2023-09-05T18:09:58.928479+10:00"}, {"id": 80422, "name": "Christine Heabler", "roles_in_work": [{"id": 1998219, "title": "Hard core logo = Hardcore logo", "work_id": 93685, "role": "co-producer", "role_id": 915, "is_primary": true}], "also_known_as": "", "date_of_birth": null, "date_of_death": null, "genders": [], "languages": [], "places_of_operation": [], "biography": "", "biography_author": null, "date_of_biography": null, "external_links": [], "uuid": "eab87287-4329-4fcc-9730-dce48138f845", "source": {"name": "Vernon", "slug": "vernon"}, "source_identifier": null, "external_references": [{"id": 35092, "source": {"name": "Wikidata", "slug": "wikidata"}, "source_identifier": "Q121057868"}], "date_modified": "2023-09-05T18:34:43.408516+10:00"}, {"id": 80421, "name": "Sheree Rose", "roles_in_work": [{"id": 2299002, "title": "Sick: the life and death of Bob Flanagan, supermasochist (D)", "work_id": 93684, "role": "co-producer", "role_id": 915, "is_primary": true}], "also_known_as": "", "date_of_birth": null, "date_of_death": "", "genders": [{"id": 5, "name": "Female", "slug": "female"}], "languages": [{"id": 1, "name": "English", "slug": "english"}], "places_of_operation": [{"id": 1, "name": "United States of America", "slug": "united-states-of-america"}], "biography": "Sheree Rose (born 1941) is an American photographer and performance artist. She is best known for her collaborative work with performance artist Bob Flanagan, and her photography documenting a wide range of Los Angeles subcultures, especially in relation to BDSM and body modification.", "biography_author": "Wikidata", "date_of_biography": "2023-08-01T17:03:59.793935+10:00", "external_links": [{"id": 5154, "uri": "https://en.wikipedia.org/wiki/Sheree_Rose"}], "uuid": "56c83022-bc1b-42e0-8584-e89098b6cbf7", "source": {"name": "Vernon", "slug": "vernon"}, "source_identifier": "28746", "external_references": [{"id": 25055, "source": {"name": "Wikidata", "slug": "wikidata"}, "source_identifier": "Q23020151"}, {"id": 31501, "source": {"name": "VIAF", "slug": "viaf"}, "source_identifier": "13159154295611992488"}, {"id": 31502, "source": {"name": "LOC Auth", "slug": "loc-auth"}, "source_identifier": "no2020067657"}], "date_modified": "2023-09-06T01:15:24.444980+10:00"}, {"id": 80420, "name": "Michael Fukushima", "roles_in_work": [{"id": 816591, "title": "Minoru: memory of exile", "work_id": 93683, "role": "director", "role_id": 938, "is_primary": true}], "also_known_as": "", "date_of_birth": null, "date_of_death": null, "genders": [], "languages": [], "places_of_operation": [], "biography": "", "biography_author": null, "date_of_biography": null, "external_links": [], "uuid": "fba95679-6836-4b6d-b8b8-3418e621604f", "source": {"name": "Vernon", "slug": "vernon"}, "source_identifier": null, "external_references": [{"id": 35081, "source": {"name": "Wikidata", "slug": "wikidata"}, "source_identifier": "Q121034382"}], "date_modified": "2023-09-05T23:04:47.609565+10:00"}]}