{"count": 28687, "next": "https://api.acmi.net.au/creators/?page=1520", "previous": "https://api.acmi.net.au/creators/?page=1518", "results": [{"id": 33142, "name": "Daniel Hassid", "roles_in_work": [{"id": 1996220, "title": "Grace of my heart", "work_id": 92537, "role": "co-producer", "role_id": 915, "is_primary": true}, {"id": 1995684, "title": "Gas, food lodging", "work_id": 92144, "role": "co-producer", "role_id": 915, "is_primary": true}, {"id": 2157456, "title": "My crazy life = Mi vida loca", "work_id": 91859, "role": "co-producer", "role_id": 915, "is_primary": true}, {"id": 2316488, "title": "Sugar Town", "work_id": 92394, "role": "producer", "role_id": 1089, "is_primary": true}], "also_known_as": "", "date_of_birth": "", "date_of_death": "", "genders": [], "languages": [], "places_of_operation": [], "biography": "", "biography_author": null, "date_of_biography": "2023-05-09T19:05:12.240547+10:00", "external_links": [], "uuid": "e4904daf-7c88-4fc3-b418-64307b48fbbf", "source": {"name": "Vernon", "slug": "vernon"}, "source_identifier": "17394", "external_references": [{"id": 40634, "source": {"name": "Wikidata", "slug": "wikidata"}, "source_identifier": "Q121035860"}], "date_modified": "2023-09-05T18:51:15.278762+10:00"}, {"id": 33141, "name": "Cineville", "roles_in_work": [{"id": 2157452, "title": "My crazy life = Mi vida loca", "work_id": 91859, "role": "production company", "role_id": 941, "is_primary": true}, {"id": 1995681, "title": "Gas, food lodging", "work_id": 92144, "role": "production company", "role_id": 941, "is_primary": true}], "also_known_as": "", "date_of_birth": "", "date_of_death": "", "genders": [], "languages": [], "places_of_operation": [], "biography": "", "biography_author": null, "date_of_biography": "2023-05-09T14:08:33.629855+10:00", "external_links": [], "uuid": "bc6fea0a-c4ec-4307-a5f3-4e8b8a657815", "source": {"name": "Vernon", "slug": "vernon"}, "source_identifier": "6777", "external_references": [{"id": 38929, "source": {"name": "Wikidata", "slug": "wikidata"}, "source_identifier": "Q121035267"}], "date_modified": "2023-09-05T18:38:19.992645+10:00"}, {"id": 33139, "name": "Video Visits", "roles_in_work": [{"id": 2319786, "title": "Sweden: Nordic treasure", "work_id": 91855, "role": "production company", "role_id": 941, "is_primary": true}], "also_known_as": "", "date_of_birth": "", "date_of_death": "", "genders": [], "languages": [], "places_of_operation": [], "biography": "", "biography_author": null, "date_of_biography": "2023-05-09T19:10:16.938938+10:00", "external_links": [], "uuid": "b2d358dd-97ab-4f79-abfb-15638e36ae08", "source": {"name": "Vernon", "slug": "vernon"}, "source_identifier": "14119", "external_references": [], "date_modified": "2023-06-14T16:33:30.576250+10:00"}, {"id": 33138, "name": "Duncan-May Productions", "roles_in_work": [{"id": 2319781, "title": "Sweden: Nordic treasure", "work_id": 91855, "role": "production company", "role_id": 941, "is_primary": true}], "also_known_as": "", "date_of_birth": "", "date_of_death": "", "genders": [], "languages": [], "places_of_operation": [], "biography": "", "biography_author": null, "date_of_biography": "2023-05-09T19:10:16.689553+10:00", "external_links": [], "uuid": "85d083a7-a57f-4908-83da-ebb3dab92082", "source": {"name": "Vernon", "slug": "vernon"}, "source_identifier": "7684", "external_references": [], "date_modified": "2023-06-14T16:33:30.576250+10:00"}, {"id": 33136, "name": "Spellcaster Productions", "roles_in_work": [{"id": 2308335, "title": "Stagestruck 3", "work_id": 91854, "role": "production company", "role_id": 941, "is_primary": true}, {"id": 2308319, "title": "Stagestruck 1", "work_id": 91852, "role": "production company", "role_id": 941, "is_primary": true}, {"id": 2308332, "title": "Stagestruck 2", "work_id": 91853, "role": "production company", "role_id": 941, "is_primary": true}], "also_known_as": "", "date_of_birth": "", "date_of_death": "", "genders": [], "languages": [], "places_of_operation": [], "biography": "", "biography_author": null, "date_of_biography": "2023-05-09T18:48:29.270777+10:00", "external_links": [], "uuid": "a7687792-d5b6-4575-98a6-0f6332d08be2", "source": {"name": "Vernon", "slug": "vernon"}, "source_identifier": "12851", "external_references": [{"id": 39557, "source": {"name": "Wikidata", "slug": "wikidata"}, "source_identifier": "Q121035103"}], "date_modified": "2023-09-06T01:24:57.817505+10:00"}, {"id": 33134, "name": "Greystone Communications", "roles_in_work": [{"id": 811873, "title": "Mummies: King Tutankhamun", "work_id": 92558, "role": "production company", "role_id": 941, "is_primary": true}, {"id": 809511, "title": "More great escapes of World War 2", "work_id": 91850, "role": "production company", "role_id": 941, "is_primary": true}, {"id": 811869, "title": "Mummies: the sphinx", "work_id": 92557, "role": "production company", "role_id": 941, "is_primary": true}, {"id": 2352083, "title": "The Great escapes of World War 2", "work_id": 91851, "role": "production company", "role_id": 941, "is_primary": true}], "also_known_as": "", "date_of_birth": "", "date_of_death": "", "genders": [], "languages": [], "places_of_operation": [], "biography": "", "biography_author": null, "date_of_biography": "2023-05-09T19:57:55.382639+10:00", "external_links": [], "uuid": "1d6b2e01-ef9c-4ff2-a41f-d7e958af10ca", "source": {"name": "Vernon", "slug": "vernon"}, "source_identifier": "8909", "external_references": [{"id": 34427, "source": {"name": "Wikidata", "slug": "wikidata"}, "source_identifier": "Q121298844"}], "date_modified": "2023-09-05T20:23:33.472178+10:00"}, {"id": 33127, "name": "Robert Khodadad", "roles_in_work": [{"id": 2065703, "title": "A Cat's world", "work_id": 91843, "role": "director", "role_id": 938, "is_primary": true}], "also_known_as": "", "date_of_birth": "", "date_of_death": "", "genders": [], "languages": [], "places_of_operation": [], "biography": "", "biography_author": null, "date_of_biography": "2023-05-09T11:22:51.408674+10:00", "external_links": [], "uuid": "5d211218-6ea3-4339-8607-8570e4dd35f3", "source": {"name": "Vernon", "slug": "vernon"}, "source_identifier": "27783", "external_references": [{"id": 41766, "source": {"name": "Wikidata", "slug": "wikidata"}, "source_identifier": "Q121159874"}], "date_modified": "2023-09-06T00:43:01.267304+10:00"}, {"id": 33126, "name": "Louise Jones", "roles_in_work": [{"id": 2067723, "title": "A Dog's world", "work_id": 91844, "role": "producer", "role_id": 1089, "is_primary": true}, {"id": 2069311, "title": "A Horse's world", "work_id": 91842, "role": "producer", "role_id": 1089, "is_primary": true}], "also_known_as": "", "date_of_birth": "", "date_of_death": "", "genders": [], "languages": [], "places_of_operation": [], "biography": "", "biography_author": null, "date_of_biography": "2023-05-09T11:29:35.013488+10:00", "external_links": [], "uuid": "d1ef64a2-a3bb-43d3-b732-707edad5ba30", "source": {"name": "Vernon", "slug": "vernon"}, "source_identifier": "24047", "external_references": [{"id": 51158, "source": {"name": "Wikidata", "slug": "wikidata"}, "source_identifier": "Q121357811"}], "date_modified": "2023-09-05T22:32:22.714235+10:00"}, {"id": 33125, "name": "Wall to Wall Television", "roles_in_work": [{"id": 2069303, "title": "A Horse's world", "work_id": 91842, "role": "production company", "role_id": 941, "is_primary": true}, {"id": 2067710, "title": "A Dog's world", "work_id": 91844, "role": "production company", "role_id": 941, "is_primary": true}, {"id": 2065702, "title": "A Cat's world", "work_id": 91843, "role": "production company", "role_id": 941, "is_primary": true}], "also_known_as": "", "date_of_birth": "", "date_of_death": "", "genders": [], "languages": [], "places_of_operation": [], "biography": "", "biography_author": null, "date_of_biography": "2023-05-09T11:29:34.149265+10:00", "external_links": [], "uuid": "eb05e112-76a7-4c06-b0ef-6d5f2a2b92f3", "source": {"name": "Vernon", "slug": "vernon"}, "source_identifier": "3975", "external_references": [{"id": 42957, "source": {"name": "Wikidata", "slug": "wikidata"}, "source_identifier": "Q121315529"}], "date_modified": "2023-09-06T02:10:02.009313+10:00"}, {"id": 33122, "name": "Byambasuren Davaa", "roles_in_work": [{"id": 930051, "title": "The Story of the weeping camel = Die Geschichte vom weinenden kamel", "work_id": 95062, "role": "co-director", "role_id": 959, "is_primary": true}, {"id": 2128338, "title": "Bygone Britain: the nation on film", "work_id": 91841, "role": "production company", "role_id": 941, "is_primary": true}], "also_known_as": "", "date_of_birth": "1971-01-01", "date_of_death": "", "genders": [{"id": 5, "name": "Female", "slug": "female"}], "languages": [{"id": 61, "name": "Mongolian", "slug": "mongolian"}], "places_of_operation": [{"id": 321, "name": "Mongolia", "slug": "mongolia"}], "biography": "Byambasuren Davaa, also known as Davaagiin Byambasüren (Mongolian: Даваагийн Бямбасүрэн; born 1971 in Ulaanbaatar), is a Mongolian filmmaker currently residing in Germany.\nBetween 1995 and 1998, she studied at the Movie Academy in Ulaanbaatar. In 1998, she began to work as a moderator and director's assistant with Mongolian National Television. In 2000, she moved to Munich, Germany, to study documentary film and communication sciences at the University of Television and Film Munich.In 2003, Davaa wrote and directed The Story of the Weeping Camel (2003), which gained several awards and nominations, including Best Documentary Film at the Bavarian Film Awards, Best Documentary at the 57th Directors Guild of America Awards, and a nomination for Best Documentary at the 77th Academy Awards. Her other films include The Cave of the Yellow Dog (2006), for which she won the 2006 German Film Award for Best Children's Film, and Veins of the World (2020).\nHer films through 2006 tell stories embedded in the traditional life of the nomads in Mongolia. The subjects of her movies also serve as amateur actors, playing mostly themselves, which positions her work somewhere between documentary and fiction.", "biography_author": "Wikidata", "date_of_biography": "2023-08-01T14:18:46.597963+10:00", "external_links": [{"id": 3701, "uri": "https://en.wikipedia.org/wiki/Byambasuren_Davaa"}], "uuid": "3e447bd3-29ce-46ea-9457-9adcd736c2f9", "source": {"name": "Vernon", "slug": "vernon"}, "source_identifier": "6156", "external_references": [{"id": 25849, "source": {"name": "Wikidata", "slug": "wikidata"}, "source_identifier": "Q467764"}, {"id": 27656, "source": {"name": "VIAF", "slug": "viaf"}, "source_identifier": "74128228"}, {"id": 27657, "source": {"name": "LOC Auth", "slug": "loc-auth"}, "source_identifier": "no2005039609"}, {"id": 27658, "source": {"name": "WorldCat", "slug": "worldcat"}, "source_identifier": "lccn-no2005039609"}], "date_modified": "2023-09-06T10:31:17.323461+10:00"}]}