{"count": 28684, "next": "https://api.acmi.net.au/creators/?page=918", "previous": "https://api.acmi.net.au/creators/?page=916", "results": [{"id": 76409, "name": "Stephen Levitt", "roles_in_work": [{"id": 2148974, "title": "Cry Havoc Mozambique", "work_id": 79268, "role": "co-producers/directors", "role_id": 628, "is_primary": true}], "also_known_as": "", "date_of_birth": "", "date_of_death": "", "genders": [], "languages": [], "places_of_operation": [], "biography": "", "biography_author": null, "date_of_biography": "2023-05-09T13:49:40.624189+10:00", "external_links": [], "uuid": "18ef41b0-eb21-40f5-87a9-9f2d8827ad8c", "source": {"name": "Vernon", "slug": "vernon"}, "source_identifier": "29056", "external_references": [], "date_modified": "2023-06-14T16:33:30.576250+10:00"}, {"id": 76408, "name": "Fiona Douglas", "roles_in_work": [{"id": 2148970, "title": "Cry Havoc Mozambique", "work_id": 79268, "role": "co-producers/directors", "role_id": 628, "is_primary": true}], "also_known_as": "", "date_of_birth": "", "date_of_death": "", "genders": [], "languages": [], "places_of_operation": [], "biography": "", "biography_author": null, "date_of_biography": "2023-05-09T13:49:40.395812+10:00", "external_links": [], "uuid": "d9fa7674-7d44-4151-b46a-f5e4512d9178", "source": {"name": "Vernon", "slug": "vernon"}, "source_identifier": "19008", "external_references": [], "date_modified": "2023-06-14T16:33:30.576250+10:00"}, {"id": 76407, "name": "Katherine Everett", "roles_in_work": [{"id": 2281470, "title": "Your biological guide to AIDS", "work_id": 79261, "role": "producer", "role_id": 1089, "is_primary": true}], "also_known_as": "", "date_of_birth": "", "date_of_death": "", "genders": [], "languages": [], "places_of_operation": [], "biography": "", "biography_author": null, "date_of_biography": "2023-05-09T18:01:13.018707+10:00", "external_links": [], "uuid": "861ded70-40a1-4a93-bbc7-33aded8afdf0", "source": {"name": "Vernon", "slug": "vernon"}, "source_identifier": "23070", "external_references": [{"id": 32957, "source": {"name": "Wikidata", "slug": "wikidata"}, "source_identifier": "Q121223598"}], "date_modified": "2023-09-05T22:01:57.172025+10:00"}, {"id": 76406, "name": "Claire Henderson", "roles_in_work": [{"id": 865398, "title": "How a Child Grows (Captioned)", "work_id": 79236, "role": "producer/director", "role_id": 31, "is_primary": true}, {"id": 769594, "title": "How a Child Grows", "work_id": 79380, "role": "producer/director", "role_id": 31, "is_primary": true}], "also_known_as": "", "date_of_birth": null, "date_of_death": null, "genders": [], "languages": [], "places_of_operation": [], "biography": "", "biography_author": null, "date_of_biography": null, "external_links": [], "uuid": "339a1556-0d13-4df1-a459-6ca6e403942c", "source": {"name": "Vernon", "slug": "vernon"}, "source_identifier": null, "external_references": [{"id": 51997, "source": {"name": "Wikidata", "slug": "wikidata"}, "source_identifier": "Q121360628"}], "date_modified": "2023-09-05T18:38:42.613021+10:00"}, {"id": 76405, "name": "G Conway", "roles_in_work": [{"id": 2348704, "title": "The Fire in the Stone", "work_id": 79213, "role": "director", "role_id": 938, "is_primary": true}], "also_known_as": "", "date_of_birth": "1936-02-04", "date_of_death": "", "genders": [{"id": 9, "name": "Male", "slug": "male"}], "languages": [{"id": 1, "name": "English", "slug": "english"}], "places_of_operation": [{"id": 1, "name": "United States of America", "slug": "united-states-of-america"}], "biography": "Gary Conway (born February 4, 1936) is an American actor and screenwriter. His notable credits include a co-starring role with Gene Barry in the detective series Burke's Law from 1963 to 1965.  In addition, he starred in the Irwin Allen sci-fi series Land of the Giants from 1968 to 1970.", "biography_author": "Wikidata", "date_of_biography": "2023-08-01T14:53:20.880674+10:00", "external_links": [{"id": 2084, "uri": "https://en.wikipedia.org/wiki/Gary_Conway"}], "uuid": "e55fe6d6-79f5-4b09-a3aa-3e79dc747815", "source": {"name": "Vernon", "slug": "vernon"}, "source_identifier": "19311", "external_references": [{"id": 8994, "source": {"name": "Wikidata", "slug": "wikidata"}, "source_identifier": "Q665744"}, {"id": 8995, "source": {"name": "VIAF", "slug": "viaf"}, "source_identifier": "48934589"}, {"id": 8996, "source": {"name": "LOC Auth", "slug": "loc-auth"}, "source_identifier": "no2004025018"}, {"id": 8997, "source": {"name": "WorldCat", "slug": "worldcat"}, "source_identifier": "lccn-no2004025018"}, {"id": 48975, "source": {"name": "VIAF", "slug": "viaf"}, "source_identifier": "9750149068474265730002"}], "date_modified": "2023-09-05T19:55:00.023138+10:00"}, {"id": 76404, "name": "Chris Schouten", "roles_in_work": [{"id": 2283642, "title": "The Tin soldier. The Nightingale", "work_id": 79205, "role": "co-director", "role_id": 959, "is_primary": true}], "also_known_as": "", "date_of_birth": "", "date_of_death": "", "genders": [], "languages": [], "places_of_operation": [], "biography": "", "biography_author": null, "date_of_biography": "2023-05-09T18:05:54.596437+10:00", "external_links": [], "uuid": "67ccbd51-c5a7-4d30-980a-7a51aff15767", "source": {"name": "Vernon", "slug": "vernon"}, "source_identifier": "16869", "external_references": [{"id": 33458, "source": {"name": "Wikidata", "slug": "wikidata"}, "source_identifier": "Q121078904"}], "date_modified": "2023-09-05T18:33:06.029620+10:00"}, {"id": 76403, "name": "Richard Morrison", "roles_in_work": [{"id": 2283640, "title": "The Tin soldier. The Nightingale", "work_id": 79205, "role": "co-director", "role_id": 959, "is_primary": true}], "also_known_as": "", "date_of_birth": "", "date_of_death": "", "genders": [], "languages": [], "places_of_operation": [], "biography": "", "biography_author": null, "date_of_biography": "2023-05-09T18:05:54.355638+10:00", "external_links": [], "uuid": "e7c33833-96a8-4490-a3a6-eab65368f195", "source": {"name": "Vernon", "slug": "vernon"}, "source_identifier": "27520", "external_references": [{"id": 33963, "source": {"name": "Wikidata", "slug": "wikidata"}, "source_identifier": "Q121036588"}], "date_modified": "2023-09-06T00:31:39.066116+10:00"}, {"id": 76402, "name": "Wang Bairong", "roles_in_work": [{"id": 2283638, "title": "The Tin soldier. The Nightingale", "work_id": 79205, "role": "co-producer", "role_id": 915, "is_primary": true}], "also_known_as": "", "date_of_birth": "", "date_of_death": "", "genders": [], "languages": [], "places_of_operation": [], "biography": "", "biography_author": null, "date_of_biography": "2023-05-09T18:05:54.089031+10:00", "external_links": [], "uuid": "f72c782b-6bdb-4488-a7a2-389cf45eccfd", "source": {"name": "Vernon", "slug": "vernon"}, "source_identifier": "30272", "external_references": [{"id": 42861, "source": {"name": "Wikidata", "slug": "wikidata"}, "source_identifier": "Q121036726"}], "date_modified": "2023-09-06T02:10:52.140303+10:00"}, {"id": 76401, "name": "W. H. Stevens", "roles_in_work": [{"id": 2283635, "title": "The Tin soldier. The Nightingale", "work_id": 79205, "role": "co-producer", "role_id": 915, "is_primary": true}], "also_known_as": "", "date_of_birth": "", "date_of_death": "", "genders": [], "languages": [], "places_of_operation": [], "biography": "", "biography_author": null, "date_of_biography": "2023-05-09T18:05:53.819591+10:00", "external_links": [], "uuid": "c0582c11-bf4b-4e91-a821-d6b42ba165cc", "source": {"name": "Vernon", "slug": "vernon"}, "source_identifier": "30198", "external_references": [{"id": 43064, "source": {"name": "Wikidata", "slug": "wikidata"}, "source_identifier": "Q121086013"}], "date_modified": "2023-09-06T02:09:34.064152+10:00"}, {"id": 76400, "name": "Perce Pearce", "roles_in_work": [{"id": 2305556, "title": "Song of the south", "work_id": 89350, "role": "co-producer", "role_id": 915, "is_primary": true}, {"id": 1983965, "title": "Treasure Island", "work_id": 79201, "role": "producer", "role_id": 1089, "is_primary": true}], "also_known_as": "", "date_of_birth": "", "date_of_death": "", "genders": [], "languages": [], "places_of_operation": [], "biography": "", "biography_author": null, "date_of_biography": "2023-05-09T18:44:20.642489+10:00", "external_links": [], "uuid": "8d142d71-1e61-4033-b4eb-d62f0d048fa9", "source": {"name": "Vernon", "slug": "vernon"}, "source_identifier": "26434", "external_references": [], "date_modified": "2023-06-14T16:33:30.576250+10:00"}]}