{"count": 28684, "next": "https://api.acmi.net.au/creators/?page=1889", "previous": "https://api.acmi.net.au/creators/?page=1887", "results": [{"id": 24695, "name": "PRC Pictures", "roles_in_work": [{"id": 2188271, "title": "Detour", "work_id": 82460, "role": "production company", "role_id": 941, "is_primary": true}], "also_known_as": "", "date_of_birth": "", "date_of_death": "", "genders": [], "languages": [], "places_of_operation": [], "biography": "", "biography_author": null, "date_of_biography": "2023-05-09T15:04:42.245832+10:00", "external_links": [], "uuid": "65e59607-f09d-49a5-9835-19a5f23d9ddb", "source": {"name": "Vernon", "slug": "vernon"}, "source_identifier": "11619", "external_references": [{"id": 40842, "source": {"name": "Wikidata", "slug": "wikidata"}, "source_identifier": "Q121035913"}], "date_modified": "2023-09-06T00:13:56.189161+10:00"}, {"id": 24694, "name": "A.V. Forstner", "roles_in_work": [{"id": 2224060, "title": "Extreme art 2", "work_id": 82459, "role": "producer", "role_id": 1089, "is_primary": true}, {"id": 2224045, "title": "Extreme art", "work_id": 82462, "role": "producer", "role_id": 1089, "is_primary": true}], "also_known_as": "", "date_of_birth": "", "date_of_death": "", "genders": [], "languages": [], "places_of_operation": [], "biography": "", "biography_author": null, "date_of_biography": "2023-05-09T16:23:53.881670+10:00", "external_links": [], "uuid": "36b5cc98-c253-4184-91b3-aa41412c771c", "source": {"name": "Vernon", "slug": "vernon"}, "source_identifier": "14616", "external_references": [{"id": 35971, "source": {"name": "Wikidata", "slug": "wikidata"}, "source_identifier": "Q121299092"}], "date_modified": "2023-09-05T17:14:01.062619+10:00"}, {"id": 24693, "name": "Bizarr Verlag", "roles_in_work": [{"id": 2224057, "title": "Extreme art 2", "work_id": 82459, "role": "production company", "role_id": 941, "is_primary": true}, {"id": 2224040, "title": "Extreme art", "work_id": 82462, "role": "production company", "role_id": 941, "is_primary": true}], "also_known_as": "", "date_of_birth": "", "date_of_death": "", "genders": [], "languages": [], "places_of_operation": [], "biography": "", "biography_author": null, "date_of_biography": "2023-05-09T16:23:53.652569+10:00", "external_links": [], "uuid": "cd7b99d6-2eee-43c4-b2eb-c27bb58398ff", "source": {"name": "Vernon", "slug": "vernon"}, "source_identifier": "16032", "external_references": [{"id": 34053, "source": {"name": "Wikidata", "slug": "wikidata"}, "source_identifier": "Q121086199"}], "date_modified": "2023-09-05T18:06:16.000367+10:00"}, {"id": 24692, "name": "Nikita Mikhalkov", "roles_in_work": [{"id": 889508, "title": "Several days in the life of I.I. Oblomov", "work_id": 115708, "role": "director", "role_id": 938, "is_primary": true}, {"id": 2649958, "title": "Dark eyes", "work_id": 82493, "role": "director", "role_id": 938, "is_primary": true}, {"id": 2094889, "title": "An Unfinished piece for mechanical piano", "work_id": 82458, "role": "director", "role_id": 938, "is_primary": true}, {"id": 916111, "title": "Anna: from 6 to 18 [Widescreen] [NTSC]", "work_id": 94567, "role": "director", "role_id": 938, "is_primary": true}, {"id": 916109, "title": "Anna: from 6 to 18 [Widescreen] [NTSC]", "work_id": 94567, "role": "co-producer", "role_id": 915, "is_primary": true}, {"id": 1993308, "title": "Burnt by the sun = Utomlynonnye solntsem", "work_id": 88955, "role": "producer/director", "role_id": 31, "is_primary": true}], "also_known_as": "Никита Сергеевич Михалков", "date_of_birth": "1945-10-21", "date_of_death": null, "genders": [{"id": 9, "name": "Male", "slug": "male"}], "languages": [{"id": 3, "name": "Russian", "slug": "russian"}], "places_of_operation": [{"id": 180, "name": "Soviet Union", "slug": "soviet-union"}], "biography": "Nikita Sergeyevich Mikhalkov (Russian: Никита Сергеевич Михалков; born 21 October 1945) is a Soviet and Russian filmmaker, actor, and head of the Russian Cinematographers' Union. Mikhalkov is a three-time laureate of the State Prize of the Russian Federation (1993, 1995, 1999) and is a Full Cavalier of the Order \"For Merit to the Fatherland\".\nNikita Mikhalkov won the Golden Lion of the Venice Film Festival (1991) and was nominated for the Academy Award (1993) in the category Best International Feature Film for the film Close to Eden. He won an Academy Award (1995) for Best Foreign Language Film and the Grand Prix of the Cannes Film Festival (1994) for the film Burnt by the Sun. Mikhalkov received the \"Special Lion\" of the Venice Film Festival (2007) for his contribution to the cinematography and nominated for an Academy Award for the film 12 (2007).", "biography_author": "Wikidata", "date_of_biography": "2022-05-19T12:35:47.724973+10:00", "external_links": [{"id": 2786, "uri": "https://en.wikipedia.org/wiki/Nikita_Mikhalkov"}], "uuid": "792ea158-6ac2-4096-b900-5ca48356c007", "source": {"name": "Vernon", "slug": "vernon"}, "source_identifier": "25825", "external_references": [{"id": 11869, "source": {"name": "Wikidata", "slug": "wikidata"}, "source_identifier": "Q55207"}, {"id": 11870, "source": {"name": "VIAF", "slug": "viaf"}, "source_identifier": "24796240"}, {"id": 11871, "source": {"name": "LOC Auth", "slug": "loc-auth"}, "source_identifier": "n82090246"}, {"id": 11872, "source": {"name": "WorldCat", "slug": "worldcat"}, "source_identifier": "lccn-n82090246"}], "date_modified": "2025-03-05T14:07:55.048852+11:00"}, {"id": 24691, "name": "B H E Productions", "roles_in_work": [{"id": 2649940, "title": "King and country", "work_id": 82457, "role": "production company", "role_id": 941, "is_primary": true}], "also_known_as": "", "date_of_birth": null, "date_of_death": null, "genders": [], "languages": [], "places_of_operation": [], "biography": "", "biography_author": null, "date_of_biography": null, "external_links": [], "uuid": "4f5318ef-b1de-47db-8ca5-d6cb4cfc95b6", "source": {"name": "Vernon", "slug": "vernon"}, "source_identifier": "5661", "external_references": [], "date_modified": "2025-03-05T14:07:43.142398+11:00"}, {"id": 24688, "name": "Bill Douglas", "roles_in_work": [{"id": 1986316, "title": "My way home", "work_id": 82456, "role": "director", "role_id": 938, "is_primary": true}, {"id": 2156995, "title": "My childhood. My ain folk", "work_id": 82819, "role": "director", "role_id": 938, "is_primary": true}, {"id": 867944, "title": "Comrades: a Lanternist's account of the Tolpuddle Martyrs and what became of them", "work_id": 84077, "role": "director", "role_id": 938, "is_primary": true}], "also_known_as": "", "date_of_birth": "1934-04-17", "date_of_death": "1991-06-18", "genders": [{"id": 9, "name": "Male", "slug": "male"}], "languages": [{"id": 1, "name": "English", "slug": "english"}], "places_of_operation": [{"id": 10, "name": "United Kingdom", "slug": "united-kingdom"}], "biography": "William Gerald Douglas (17 April 1934 – 18 June 1991) was a Scottish film director best known for the trilogy of films about his early life.", "biography_author": "Wikidata", "date_of_biography": "2023-08-01T14:12:57.428308+10:00", "external_links": [{"id": 3649, "uri": "https://en.wikipedia.org/wiki/Bill_Douglas"}], "uuid": "d10cfb63-9f92-4dfc-923f-1cf0612877bd", "source": {"name": "Vernon", "slug": "vernon"}, "source_identifier": "15954", "external_references": [{"id": 26869, "source": {"name": "Wikidata", "slug": "wikidata"}, "source_identifier": "Q4908809"}, {"id": 27516, "source": {"name": "VIAF", "slug": "viaf"}, "source_identifier": "39660048"}, {"id": 27517, "source": {"name": "LOC Auth", "slug": "loc-auth"}, "source_identifier": "n94121854"}, {"id": 27518, "source": {"name": "WorldCat", "slug": "worldcat"}, "source_identifier": "lccn-n94121854"}], "date_modified": "2023-09-05T18:02:37.137282+10:00"}, {"id": 24687, "name": "Lesley Keen", "roles_in_work": [{"id": 2234455, "title": "Ra: the path of the sun god: a vision of ancient Egypt", "work_id": 82455, "role": "director", "role_id": 938, "is_primary": true}], "also_known_as": "", "date_of_birth": "", "date_of_death": "", "genders": [], "languages": [], "places_of_operation": [], "biography": "", "biography_author": null, "date_of_biography": "2023-05-09T16:43:34.977204+10:00", "external_links": [], "uuid": "31edbdcf-a127-4d85-8876-63be4221b33f", "source": {"name": "Vernon", "slug": "vernon"}, "source_identifier": "23757", "external_references": [{"id": 52110, "source": {"name": "Wikidata", "slug": "wikidata"}, "source_identifier": "Q121358013"}], "date_modified": "2023-09-05T22:21:56.363381+10:00"}, {"id": 24686, "name": "Jan Culik", "roles_in_work": [{"id": 2234451, "title": "Ra: the path of the sun god: a vision of ancient Egypt", "work_id": 82455, "role": "producer", "role_id": 1089, "is_primary": true}], "also_known_as": "", "date_of_birth": "", "date_of_death": "", "genders": [], "languages": [], "places_of_operation": [], "biography": "", "biography_author": null, "date_of_biography": "2023-05-09T16:43:34.721217+10:00", "external_links": [], "uuid": "c37fcf95-d568-4595-b26f-724e23e1adc3", "source": {"name": "Vernon", "slug": "vernon"}, "source_identifier": "21366", "external_references": [{"id": 35420, "source": {"name": "Wikidata", "slug": "wikidata"}, "source_identifier": "Q121091454"}], "date_modified": "2023-09-05T21:06:16.978595+10:00"}, {"id": 24685, "name": "Scottish Film Production Board", "roles_in_work": [{"id": 2234446, "title": "Ra: the path of the sun god: a vision of ancient Egypt", "work_id": 82455, "role": "production company", "role_id": 941, "is_primary": true}], "also_known_as": "", "date_of_birth": "", "date_of_death": "", "genders": [], "languages": [], "places_of_operation": [], "biography": "", "biography_author": null, "date_of_biography": "2023-05-09T16:43:34.473227+10:00", "external_links": [], "uuid": "d61e4a6d-68f0-4095-8205-0f401904af4d", "source": {"name": "Vernon", "slug": "vernon"}, "source_identifier": "12365", "external_references": [{"id": 39857, "source": {"name": "Wikidata", "slug": "wikidata"}, "source_identifier": "Q121034431"}], "date_modified": "2023-09-06T01:09:00.429693+10:00"}, {"id": 24684, "name": "Persistent Vision", "roles_in_work": [{"id": 2234436, "title": "Ra: the path of the sun god: a vision of ancient Egypt", "work_id": 82455, "role": "production company", "role_id": 941, "is_primary": true}], "also_known_as": "", "date_of_birth": "", "date_of_death": "", "genders": [], "languages": [], "places_of_operation": [], "biography": "", "biography_author": null, "date_of_biography": "2023-05-09T16:43:33.995970+10:00", "external_links": [], "uuid": "7e8fd14b-b552-4b4f-82cf-aeb738148601", "source": {"name": "Vernon", "slug": "vernon"}, "source_identifier": "11416", "external_references": [{"id": 35961, "source": {"name": "Wikidata", "slug": "wikidata"}, "source_identifier": "Q121034541"}], "date_modified": "2023-09-05T23:53:29.021356+10:00"}]}