{"count": 28683, "next": "https://api.acmi.net.au/creators/?page=1998", "previous": "https://api.acmi.net.au/creators/?page=1996", "results": [{"id": 22624, "name": "Edward S. Feldman", "roles_in_work": [{"id": 2293078, "title": "The Truman show", "work_id": 88321, "role": "co-producer", "role_id": 915, "is_primary": true}, {"id": 918238, "title": "The Jungle book", "work_id": 95637, "role": "co-producer", "role_id": 915, "is_primary": true}, {"id": 1978740, "title": "102 dalmatians", "work_id": 95467, "role": "producer", "role_id": 1089, "is_primary": true}, {"id": 2293700, "title": "Witness [DVD]", "work_id": 92460, "role": "producer", "role_id": 1089, "is_primary": true}], "also_known_as": "", "date_of_birth": "1929-09-05", "date_of_death": "2020-10-02", "genders": [{"id": 9, "name": "Male", "slug": "male"}], "languages": [{"id": 1, "name": "English", "slug": "english"}], "places_of_operation": [{"id": 1, "name": "United States of America", "slug": "united-states-of-america"}], "biography": "Edward S. Feldman (September 5, 1929 – October 2, 2020) was an American film and television producer.", "biography_author": "Wikidata", "date_of_biography": "2023-08-01T14:45:05.300549+10:00", "external_links": [{"id": 3932, "uri": "https://en.wikipedia.org/wiki/Edward_S._Feldman"}], "uuid": "c2f10430-6150-44d4-8aa7-ee53ae85d7d0", "source": {"name": "Vernon", "slug": "vernon"}, "source_identifier": "18624", "external_references": [{"id": 26813, "source": {"name": "Wikidata", "slug": "wikidata"}, "source_identifier": "Q5345162"}, {"id": 28302, "source": {"name": "VIAF", "slug": "viaf"}, "source_identifier": "85794339"}, {"id": 28303, "source": {"name": "LOC Auth", "slug": "loc-auth"}, "source_identifier": "n85138224"}, {"id": 28304, "source": {"name": "WorldCat", "slug": "worldcat"}, "source_identifier": "lccn-n85138224"}], "date_modified": "2023-09-05T19:26:32.363980+10:00"}, {"id": 22623, "name": "Beyond International", "roles_in_work": [{"id": 1803683, "title": "Medical Breakthroughs and Prevention", "work_id": 80493, "role": "producer", "role_id": 1089, "is_primary": true}, {"id": 2220947, "title": "Super Flight", "work_id": 81512, "role": "production company", "role_id": 941, "is_primary": true}, {"id": 773446, "title": "The Riddle of the Dead Sea Scrolls", "work_id": 80865, "role": "production company", "role_id": 941, "is_primary": true}, {"id": 2207459, "title": "Plasmo", "work_id": 86719, "role": "production company", "role_id": 941, "is_primary": true}, {"id": 2317984, "title": "Super Boats", "work_id": 80492, "role": "production company", "role_id": 941, "is_primary": true}, {"id": 2220945, "title": "Eternal Youth", "work_id": 81150, "role": "production company", "role_id": 941, "is_primary": true}], "also_known_as": "", "date_of_birth": "", "date_of_death": "", "genders": [], "languages": [], "places_of_operation": [], "biography": "", "biography_author": null, "date_of_biography": "2023-05-09T19:07:56.646906+10:00", "external_links": [], "uuid": "c2726b97-ed02-4750-96d6-d3e0b5954a36", "source": {"name": "Vernon", "slug": "vernon"}, "source_identifier": "5832", "external_references": [{"id": 33788, "source": {"name": "Wikidata", "slug": "wikidata"}, "source_identifier": "Q121222515"}], "date_modified": "2023-09-05T18:01:36.244439+10:00"}, {"id": 22621, "name": "Hartley Film Foundation", "roles_in_work": [{"id": 2648950, "title": "Life after death", "work_id": 80489, "role": "production company", "role_id": 941, "is_primary": true}], "also_known_as": "", "date_of_birth": null, "date_of_death": null, "genders": [], "languages": [], "places_of_operation": [], "biography": "", "biography_author": null, "date_of_biography": null, "external_links": [], "uuid": "b6ce951b-79ac-4028-8f4d-2baf3a9702e1", "source": {"name": "Vernon", "slug": "vernon"}, "source_identifier": "9008", "external_references": [], "date_modified": "2025-03-05T13:52:44.909647+11:00"}, {"id": 22620, "name": "Don Taylor", "roles_in_work": [{"id": 1985948, "title": "Mark Twain's Tom Sawyer : A Musical Adaptation", "work_id": 81652, "role": "director", "role_id": 938, "is_primary": true}, {"id": 2294755, "title": "The Two Gentlemen of Verona", "work_id": 80486, "role": "director", "role_id": 938, "is_primary": true}, {"id": 2208855, "title": "Planet of the apes [Box set special edition]", "work_id": 92620, "role": "co-director", "role_id": 959, "is_primary": true}, {"id": 1810370, "title": "Our country", "work_id": 88823, "role": "producer", "role_id": 1089, "is_primary": true}], "also_known_as": "Donald Richie Taylor", "date_of_birth": "1920-12-13", "date_of_death": "1998-12-29", "genders": [{"id": 9, "name": "Male", "slug": "male"}], "languages": [{"id": 1, "name": "English", "slug": "english"}], "places_of_operation": [{"id": 1, "name": "United States of America", "slug": "united-states-of-america"}], "biography": "Donald Richie Taylor (December 13, 1920 – December 29, 1998) was an American actor and film director. He co-starred in 1940s and 1950s classics, including the 1948 film noir The Naked City, Battleground, Father of the Bride, Father's Little Dividend and Stalag 17. He later turned to directing films such as Escape from the Planet of the Apes (1971), Tom Sawyer (1973), Echoes of a Summer (1976), and Damien: Omen II (1978).", "biography_author": "Wikidata", "date_of_biography": "2023-08-01T14:41:19.282878+10:00", "external_links": [{"id": 3901, "uri": "https://en.wikipedia.org/wiki/Don_Taylor_(American_filmmaker)"}], "uuid": "94e76073-1e87-4b46-86f7-eb74ea5237a8", "source": {"name": "Vernon", "slug": "vernon"}, "source_identifier": "18264", "external_references": [{"id": 25559, "source": {"name": "Wikidata", "slug": "wikidata"}, "source_identifier": "Q558149"}, {"id": 28219, "source": {"name": "VIAF", "slug": "viaf"}, "source_identifier": "45847329"}, {"id": 28220, "source": {"name": "LOC Auth", "slug": "loc-auth"}, "source_identifier": "n88068087"}, {"id": 28221, "source": {"name": "WorldCat", "slug": "worldcat"}, "source_identifier": "lccn-n88068087"}], "date_modified": "2023-09-05T19:17:01.444547+10:00"}, {"id": 22615, "name": "Niv Fichman", "roles_in_work": [{"id": 2236358, "title": "Ravel", "work_id": 80482, "role": "co-producer", "role_id": 915, "is_primary": true}, {"id": 899629, "title": "Guitar", "work_id": 80481, "role": "co-producer", "role_id": 915, "is_primary": true}, {"id": 1995579, "title": "The Red violin = Le Violon rouge = Violino rosso, Il", "work_id": 91809, "role": "producer", "role_id": 1089, "is_primary": true}, {"id": 1995020, "title": "Thirty two short films about Glenn Gould", "work_id": 90992, "role": "producer", "role_id": 1089, "is_primary": true}, {"id": 1803680, "title": "All that Bach", "work_id": 80483, "role": "producer", "role_id": 1089, "is_primary": true}, {"id": 772217, "title": "Masterclass with Menuhin", "work_id": 80477, "role": "producer/director", "role_id": 31, "is_primary": true}], "also_known_as": "", "date_of_birth": null, "date_of_death": "", "genders": [{"id": 9, "name": "Male", "slug": "male"}], "languages": [], "places_of_operation": [{"id": 33, "name": "Israel", "slug": "israel"}], "biography": "Niv Fichman (Hebrew: ניב פיכמן; born 1958) is an Israeli-Canadian film producer, actor and director.Some of the films he has produced include Passchendaele, Blindness, Silk, Long Day's Journey into Night, The Red Violin, Thirty Two Short Films About Glenn Gould and Hobo With a Shotgun.", "biography_author": "Wikidata", "date_of_biography": "2023-08-01T16:24:35.903067+10:00", "external_links": [{"id": 4786, "uri": "https://en.wikipedia.org/wiki/Niv_Fichman"}], "uuid": "605d8f72-694a-41ab-b4a6-1b450150ce9d", "source": {"name": "Vernon", "slug": "vernon"}, "source_identifier": "25842", "external_references": [{"id": 25646, "source": {"name": "Wikidata", "slug": "wikidata"}, "source_identifier": "Q3342247"}, {"id": 30542, "source": {"name": "VIAF", "slug": "viaf"}, "source_identifier": "217414"}, {"id": 30543, "source": {"name": "LOC Auth", "slug": "loc-auth"}, "source_identifier": "no96048044"}, {"id": 30544, "source": {"name": "WorldCat", "slug": "worldcat"}, "source_identifier": "lccn-no96048044"}], "date_modified": "2023-09-05T23:32:37.709058+10:00"}, {"id": 22614, "name": "Susan Hapworth", "roles_in_work": [{"id": 2398092, "title": "A Question of Balance", "work_id": 80476, "role": "producer", "role_id": 1089, "is_primary": true}], "also_known_as": "", "date_of_birth": "", "date_of_death": "", "genders": [], "languages": [], "places_of_operation": [], "biography": "", "biography_author": null, "date_of_biography": "2023-08-11T13:12:17.417450+10:00", "external_links": [], "uuid": "a3570832-c0a0-41fc-b6f5-959d419fe2cf", "source": {"name": "Vernon", "slug": "vernon"}, "source_identifier": "29340", "external_references": [], "date_modified": "2023-08-11T13:12:17.417816+10:00"}, {"id": 22608, "name": "Sorena P", "roles_in_work": [{"id": 2771621, "title": "Central Australia: The Eighth Wonder", "work_id": 80464, "role": "production company", "role_id": 941, "is_primary": true}], "also_known_as": "", "date_of_birth": "", "date_of_death": "", "genders": [], "languages": [], "places_of_operation": [], "biography": "", "biography_author": null, "date_of_biography": "2023-05-09T20:05:40.538974+10:00", "external_links": [], "uuid": "80e65acd-58e4-432e-bdb9-aea26a3db102", "source": {"name": "Vernon", "slug": "vernon"}, "source_identifier": "12759", "external_references": [{"id": 35013, "source": {"name": "Wikidata", "slug": "wikidata"}, "source_identifier": "Q121035705"}], "date_modified": "2025-03-14T18:23:55.094733+11:00"}, {"id": 22607, "name": "Education Film Centre", "roles_in_work": [{"id": 2648947, "title": "Masters of Animation 2", "work_id": 80465, "role": "producer", "role_id": 1089, "is_primary": true}, {"id": 2165070, "title": "Masters of Animation 3", "work_id": 80466, "role": "producer", "role_id": 1089, "is_primary": true}, {"id": 2162334, "title": "Masters of Animation 1", "work_id": 80463, "role": "production company", "role_id": 941, "is_primary": true}], "also_known_as": "", "date_of_birth": "", "date_of_death": "", "genders": [], "languages": [], "places_of_operation": [], "biography": "", "biography_author": null, "date_of_biography": "2023-05-09T14:23:45.178827+10:00", "external_links": [], "uuid": "feca6ef0-23ff-49c7-a7c8-a9e1c4beed93", "source": {"name": "Vernon", "slug": "vernon"}, "source_identifier": "7771", "external_references": [{"id": 41848, "source": {"name": "Wikidata", "slug": "wikidata"}, "source_identifier": "Q121036066"}], "date_modified": "2025-03-05T13:52:42.797320+11:00"}, {"id": 22603, "name": "Charles Rudnik", "roles_in_work": [{"id": 2306835, "title": "Special Effects", "work_id": 80459, "role": "director", "role_id": 938, "is_primary": true}], "also_known_as": "", "date_of_birth": "", "date_of_death": "", "genders": [], "languages": [], "places_of_operation": [], "biography": "", "biography_author": null, "date_of_biography": "2023-05-09T18:46:26.881273+10:00", "external_links": [], "uuid": "d60b9a54-df6a-4585-9920-4cfecada546d", "source": {"name": "Vernon", "slug": "vernon"}, "source_identifier": "16723", "external_references": [{"id": 37146, "source": {"name": "Wikidata", "slug": "wikidata"}, "source_identifier": "Q121078861"}], "date_modified": "2023-09-05T18:28:16.431436+10:00"}, {"id": 22602, "name": "Gerald Rogers", "roles_in_work": [{"id": 2397691, "title": "A Letter to Dad: a Story of Co-Dependency", "work_id": 80457, "role": "director", "role_id": 938, "is_primary": true}], "also_known_as": "", "date_of_birth": "", "date_of_death": "", "genders": [], "languages": [], "places_of_operation": [], "biography": "", "biography_author": null, "date_of_biography": "2023-08-11T13:03:25.031649+10:00", "external_links": [], "uuid": "1b7d7902-8ea7-4dbe-9932-0adf1c46bf56", "source": {"name": "Vernon", "slug": "vernon"}, "source_identifier": "19742", "external_references": [], "date_modified": "2023-08-11T13:03:25.031930+10:00"}]}